%!PS-Adobe-3.0 EPSF-3.0
%%Creator: (MATLAB, The Mathworks, Inc. Version 9.4.0.813654 \(R2018a\). Operating System: Windows 10)
%%Title: C:/Users/robbe/OneDrive/VUB/Thesis/OscMeasurements/DOUBLE_BAL/ALL0001/doubleCellBalancing.eps
%%CreationDate: 2019-05-14T19:27:17
%%Pages: (atend)
%%BoundingBox: 0 0 420 315
%%LanguageLevel: 3
%%EndComments
%%BeginProlog
%%BeginResource: procset (Apache XML Graphics Std ProcSet) 1.2 0
%%Version: 1.2 0
%%Copyright: (Copyright 2001-2003,2010 The Apache Software Foundation. License terms: http://www.apache.org/licenses/LICENSE-2.0)
/bd{bind def}bind def
/ld{load def}bd
/GR/grestore ld
/GS/gsave ld
/RM/rmoveto ld
/C/curveto ld
/t/show ld
/L/lineto ld
/ML/setmiterlimit ld
/CT/concat ld
/f/fill ld
/N/newpath ld
/S/stroke ld
/CC/setcmykcolor ld
/A/ashow ld
/cp/closepath ld
/RC/setrgbcolor ld
/LJ/setlinejoin ld
/GC/setgray ld
/LW/setlinewidth ld
/M/moveto ld
/re {4 2 roll M
1 index 0 rlineto
0 exch rlineto
neg 0 rlineto
cp } bd
/_ctm matrix def
/_tm matrix def
/BT { _ctm currentmatrix pop matrix _tm copy pop 0 0 moveto } bd
/ET { _ctm setmatrix } bd
/iTm { _ctm setmatrix _tm concat } bd
/Tm { _tm astore pop iTm 0 0 moveto } bd
/ux 0.0 def
/uy 0.0 def
/F {
  /Tp exch def
  /Tf exch def
  Tf findfont Tp scalefont setfont
  /cf Tf def  /cs Tp def
} bd
/ULS {currentpoint /uy exch def /ux exch def} bd
/ULE {
  /Tcx currentpoint pop def
  gsave
  newpath
  cf findfont cs scalefont dup
  /FontMatrix get 0 get /Ts exch def /FontInfo get dup
  /UnderlinePosition get Ts mul /To exch def
  /UnderlineThickness get Ts mul /Tt exch def
  ux uy To add moveto  Tcx uy To add lineto
  Tt setlinewidth stroke
  grestore
} bd
/OLE {
  /Tcx currentpoint pop def
  gsave
  newpath
  cf findfont cs scalefont dup
  /FontMatrix get 0 get /Ts exch def /FontInfo get dup
  /UnderlinePosition get Ts mul /To exch def
  /UnderlineThickness get Ts mul /Tt exch def
  ux uy To add cs add moveto Tcx uy To add cs add lineto
  Tt setlinewidth stroke
  grestore
} bd
/SOE {
  /Tcx currentpoint pop def
  gsave
  newpath
  cf findfont cs scalefont dup
  /FontMatrix get 0 get /Ts exch def /FontInfo get dup
  /UnderlinePosition get Ts mul /To exch def
  /UnderlineThickness get Ts mul /Tt exch def
  ux uy To add cs 10 mul 26 idiv add moveto Tcx uy To add cs 10 mul 26 idiv add lineto
  Tt setlinewidth stroke
  grestore
} bd
/QT {
/Y22 exch store
/X22 exch store
/Y21 exch store
/X21 exch store
currentpoint
/Y21 load 2 mul add 3 div exch
/X21 load 2 mul add 3 div exch
/X21 load 2 mul /X22 load add 3 div
/Y21 load 2 mul /Y22 load add 3 div
/X22 load /Y22 load curveto
} bd
/SSPD {
dup length /d exch dict def
{
/v exch def
/k exch def
currentpagedevice k known {
/cpdv currentpagedevice k get def
v cpdv ne {
/upd false def
/nullv v type /nulltype eq def
/nullcpdv cpdv type /nulltype eq def
nullv nullcpdv or
{
/upd true def
} {
/sametype v type cpdv type eq def
sametype {
v type /arraytype eq {
/vlen v length def
/cpdvlen cpdv length def
vlen cpdvlen eq {
0 1 vlen 1 sub {
/i exch def
/obj v i get def
/cpdobj cpdv i get def
obj cpdobj ne {
/upd true def
exit
} if
} for
} {
/upd true def
} ifelse
} {
v type /dicttype eq {
v {
/dv exch def
/dk exch def
/cpddv cpdv dk get def
dv cpddv ne {
/upd true def
exit
} if
} forall
} {
/upd true def
} ifelse
} ifelse
} if
} ifelse
upd true eq {
d k v put
} if
} if
} if
} forall
d length 0 gt {
d setpagedevice
} if
} bd
/RE { % /NewFontName [NewEncodingArray] /FontName RE -
  findfont dup length dict begin
  {
    1 index /FID ne
    {def} {pop pop} ifelse
  } forall
  /Encoding exch def
  /FontName 1 index def
  currentdict definefont pop
  end
} bind def
%%EndResource
%%BeginResource: procset (Apache XML Graphics EPS ProcSet) 1.0 0
%%Version: 1.0 0
%%Copyright: (Copyright 2002-2003 The Apache Software Foundation. License terms: http://www.apache.org/licenses/LICENSE-2.0)
/BeginEPSF { %def
/b4_Inc_state save def         % Save state for cleanup
/dict_count countdictstack def % Count objects on dict stack
/op_count count 1 sub def      % Count objects on operand stack
userdict begin                 % Push userdict on dict stack
/showpage { } def              % Redefine showpage, { } = null proc
0 setgray 0 setlinecap         % Prepare graphics state
1 setlinewidth 0 setlinejoin
10 setmiterlimit [ ] 0 setdash newpath
/languagelevel where           % If level not equal to 1 then
{pop languagelevel             % set strokeadjust and
1 ne                           % overprint to their defaults.
{false setstrokeadjust false setoverprint
} if
} if
} bd
/EndEPSF { %def
count op_count sub {pop} repeat            % Clean up stacks
countdictstack dict_count sub {end} repeat
b4_Inc_state restore
} bd
%%EndResource
%FOPBeginFontDict
%%IncludeResource: font Courier-Oblique
%%IncludeResource: font Courier-BoldOblique
%%IncludeResource: font Courier-Bold
%%IncludeResource: font ZapfDingbats
%%IncludeResource: font Symbol
%%IncludeResource: font Helvetica
%%IncludeResource: font Helvetica-Oblique
%%IncludeResource: font Helvetica-Bold
%%IncludeResource: font Helvetica-BoldOblique
%%IncludeResource: font Times-Roman
%%IncludeResource: font Times-Italic
%%IncludeResource: font Times-Bold
%%IncludeResource: font Times-BoldItalic
%%IncludeResource: font Courier
%FOPEndFontDict
%%BeginResource: encoding WinAnsiEncoding
/WinAnsiEncoding [
/.notdef /.notdef /.notdef /.notdef /.notdef
/.notdef /.notdef /.notdef /.notdef /.notdef
/.notdef /.notdef /.notdef /.notdef /.notdef
/.notdef /.notdef /.notdef /.notdef /.notdef
/.notdef /.notdef /.notdef /.notdef /.notdef
/.notdef /.notdef /.notdef /.notdef /.notdef
/.notdef /.notdef /space /exclam /quotedbl
/numbersign /dollar /percent /ampersand /quotesingle
/parenleft /parenright /asterisk /plus /comma
/hyphen /period /slash /zero /one
/two /three /four /five /six
/seven /eight /nine /colon /semicolon
/less /equal /greater /question /at
/A /B /C /D /E
/F /G /H /I /J
/K /L /M /N /O
/P /Q /R /S /T
/U /V /W /X /Y
/Z /bracketleft /backslash /bracketright /asciicircum
/underscore /quoteleft /a /b /c
/d /e /f /g /h
/i /j /k /l /m
/n /o /p /q /r
/s /t /u /v /w
/x /y /z /braceleft /bar
/braceright /asciitilde /bullet /Euro /bullet
/quotesinglbase /florin /quotedblbase /ellipsis /dagger
/daggerdbl /circumflex /perthousand /Scaron /guilsinglleft
/OE /bullet /Zcaron /bullet /bullet
/quoteleft /quoteright /quotedblleft /quotedblright /bullet
/endash /emdash /asciitilde /trademark /scaron
/guilsinglright /oe /bullet /zcaron /Ydieresis
/space /exclamdown /cent /sterling /currency
/yen /brokenbar /section /dieresis /copyright
/ordfeminine /guillemotleft /logicalnot /sfthyphen /registered
/macron /degree /plusminus /twosuperior /threesuperior
/acute /mu /paragraph /middot /cedilla
/onesuperior /ordmasculine /guillemotright /onequarter /onehalf
/threequarters /questiondown /Agrave /Aacute /Acircumflex
/Atilde /Adieresis /Aring /AE /Ccedilla
/Egrave /Eacute /Ecircumflex /Edieresis /Igrave
/Iacute /Icircumflex /Idieresis /Eth /Ntilde
/Ograve /Oacute /Ocircumflex /Otilde /Odieresis
/multiply /Oslash /Ugrave /Uacute /Ucircumflex
/Udieresis /Yacute /Thorn /germandbls /agrave
/aacute /acircumflex /atilde /adieresis /aring
/ae /ccedilla /egrave /eacute /ecircumflex
/edieresis /igrave /iacute /icircumflex /idieresis
/eth /ntilde /ograve /oacute /ocircumflex
/otilde /odieresis /divide /oslash /ugrave
/uacute /ucircumflex /udieresis /yacute /thorn
/ydieresis
] def
%%EndResource
%FOPBeginFontReencode
/Courier-Oblique findfont
dup length dict begin
  {1 index /FID ne {def} {pop pop} ifelse} forall
  /Encoding WinAnsiEncoding def
  currentdict
end
/Courier-Oblique exch definefont pop
/Courier-BoldOblique findfont
dup length dict begin
  {1 index /FID ne {def} {pop pop} ifelse} forall
  /Encoding WinAnsiEncoding def
  currentdict
end
/Courier-BoldOblique exch definefont pop
/Courier-Bold findfont
dup length dict begin
  {1 index /FID ne {def} {pop pop} ifelse} forall
  /Encoding WinAnsiEncoding def
  currentdict
end
/Courier-Bold exch definefont pop
/Helvetica findfont
dup length dict begin
  {1 index /FID ne {def} {pop pop} ifelse} forall
  /Encoding WinAnsiEncoding def
  currentdict
end
/Helvetica exch definefont pop
/Helvetica-Oblique findfont
dup length dict begin
  {1 index /FID ne {def} {pop pop} ifelse} forall
  /Encoding WinAnsiEncoding def
  currentdict
end
/Helvetica-Oblique exch definefont pop
/Helvetica-Bold findfont
dup length dict begin
  {1 index /FID ne {def} {pop pop} ifelse} forall
  /Encoding WinAnsiEncoding def
  currentdict
end
/Helvetica-Bold exch definefont pop
/Helvetica-BoldOblique findfont
dup length dict begin
  {1 index /FID ne {def} {pop pop} ifelse} forall
  /Encoding WinAnsiEncoding def
  currentdict
end
/Helvetica-BoldOblique exch definefont pop
/Times-Roman findfont
dup length dict begin
  {1 index /FID ne {def} {pop pop} ifelse} forall
  /Encoding WinAnsiEncoding def
  currentdict
end
/Times-Roman exch definefont pop
/Times-Italic findfont
dup length dict begin
  {1 index /FID ne {def} {pop pop} ifelse} forall
  /Encoding WinAnsiEncoding def
  currentdict
end
/Times-Italic exch definefont pop
/Times-Bold findfont
dup length dict begin
  {1 index /FID ne {def} {pop pop} ifelse} forall
  /Encoding WinAnsiEncoding def
  currentdict
end
/Times-Bold exch definefont pop
/Times-BoldItalic findfont
dup length dict begin
  {1 index /FID ne {def} {pop pop} ifelse} forall
  /Encoding WinAnsiEncoding def
  currentdict
end
/Times-BoldItalic exch definefont pop
/Courier findfont
dup length dict begin
  {1 index /FID ne {def} {pop pop} ifelse} forall
  /Encoding WinAnsiEncoding def
  currentdict
end
/Courier exch definefont pop
%FOPEndFontReencode
%%EndProlog
%%Page: 1 1
%%PageBoundingBox: 0 0 420 315
%%BeginPageSetup
[1 0 0 -1 0 315] CT
%%EndPageSetup
GS
[0.5 0 0 0.5 0 0] CT
1 GC
N
0 0 840 630 re
f
GR
GS
[0.5 0 0 0.5 0 0] CT
1 GC
N
0 0 840 630 re
f
GR
GS
[0.5 0 0 0.5 0 0] CT
1 GC
N
109 561 M
760 561 L
760 47 L
109 47 L
cp
f
GR
GS
[0.5 0 0 0.5 0 0] CT
0.149 GC
2 setlinecap
1 LJ
N
109 561 M
760 561 L
S
GR
GS
[0.5 0 0 0.5 0 0] CT
0.149 GC
2 setlinecap
1 LJ
N
109 47 M
760 47 L
S
GR
GS
[0.5 0 0 0.5 0 0] CT
0.149 GC
2 setlinecap
1 LJ
N
196.081 561 M
196.081 554.49 L
S
GR
GS
[0.5 0 0 0.5 0 0] CT
0.149 GC
2 setlinecap
1 LJ
N
307.364 561 M
307.364 554.49 L
S
GR
GS
[0.5 0 0 0.5 0 0] CT
0.149 GC
2 setlinecap
1 LJ
N
418.648 561 M
418.648 554.49 L
S
GR
GS
[0.5 0 0 0.5 0 0] CT
0.149 GC
2 setlinecap
1 LJ
N
529.931 561 M
529.931 554.49 L
S
GR
GS
[0.5 0 0 0.5 0 0] CT
0.149 GC
2 setlinecap
1 LJ
N
641.214 561 M
641.214 554.49 L
S
GR
GS
[0.5 0 0 0.5 0 0] CT
0.149 GC
2 setlinecap
1 LJ
N
752.498 561 M
752.498 554.49 L
S
GR
GS
[0.5 0 0 0.5 0 0] CT
0.149 GC
2 setlinecap
1 LJ
N
196.081 47 M
196.081 53.51 L
S
GR
GS
[0.5 0 0 0.5 0 0] CT
0.149 GC
2 setlinecap
1 LJ
N
307.364 47 M
307.364 53.51 L
S
GR
GS
[0.5 0 0 0.5 0 0] CT
0.149 GC
2 setlinecap
1 LJ
N
418.648 47 M
418.648 53.51 L
S
GR
GS
[0.5 0 0 0.5 0 0] CT
0.149 GC
2 setlinecap
1 LJ
N
529.931 47 M
529.931 53.51 L
S
GR
GS
[0.5 0 0 0.5 0 0] CT
0.149 GC
2 setlinecap
1 LJ
N
641.214 47 M
641.214 53.51 L
S
GR
GS
[0.5 0 0 0.5 0 0] CT
0.149 GC
2 setlinecap
1 LJ
N
752.498 47 M
752.498 53.51 L
S
GR
GS
[0.5 0 0 0.5 98.04057 284.5] CT
0.149 GC
/Helvetica 20 F
GS
[1 0 0 1 0 0] CT
-9 21 moveto 
1 -1 scale
(-6) t 
GR
GR
GS
[0.5 0 0 0.5 153.68222 284.5] CT
0.149 GC
/Helvetica 20 F
GS
[1 0 0 1 0 0] CT
-9 21 moveto 
1 -1 scale
(-4) t 
GR
GR
GS
[0.5 0 0 0.5 209.32388 284.5] CT
0.149 GC
/Helvetica 20 F
GS
[1 0 0 1 0 0] CT
-9 21 moveto 
1 -1 scale
(-2) t 
GR
GR
GS
[0.5 0 0 0.5 264.96555 284.5] CT
0.149 GC
/Helvetica 20 F
GS
[1 0 0 1 0 0] CT
-6 21 moveto 
1 -1 scale
(0) t 
GR
GR
GS
[0.5 0 0 0.5 320.60721 284.5] CT
0.149 GC
/Helvetica 20 F
GS
[1 0 0 1 0 0] CT
-6 21 moveto 
1 -1 scale
(2) t 
GR
GR
GS
[0.5 0 0 0.5 376.24887 284.5] CT
0.149 GC
/Helvetica 20 F
GS
[1 0 0 1 0 0] CT
-6 21 moveto 
1 -1 scale
(4) t 
GR
GR
GS
[0.5 0 0 0.5 217.25015 298.5] CT
0.149 GC
/Helvetica 22 F
GS
[1 0 0 1 0 0] CT
-49.5 23 moveto 
1 -1 scale
(Time \(ms\)) t 
GR
GR
GS
[0.5 0 0 0.5 0 0] CT
0.149 GC
2 setlinecap
1 LJ
N
109 561 M
109 47 L
S
GR
GS
[0.5 0 0 0.5 0 0] CT
0.149 GC
2 setlinecap
1 LJ
N
760 561 M
760 47 L
S
GR
GS
[0.5 0 0 0.5 0 0] CT
0.149 GC
2 setlinecap
1 LJ
N
109 522.75 M
115.51 522.75 L
S
GR
GS
[0.5 0 0 0.5 0 0] CT
0.149 GC
2 setlinecap
1 LJ
N
109 458.5 M
115.51 458.5 L
S
GR
GS
[0.5 0 0 0.5 0 0] CT
0.149 GC
2 setlinecap
1 LJ
N
109 394.25 M
115.51 394.25 L
S
GR
GS
[0.5 0 0 0.5 0 0] CT
0.149 GC
2 setlinecap
1 LJ
N
109 330 M
115.51 330 L
S
GR
GS
[0.5 0 0 0.5 0 0] CT
0.149 GC
2 setlinecap
1 LJ
N
109 265.75 M
115.51 265.75 L
S
GR
GS
[0.5 0 0 0.5 0 0] CT
0.149 GC
2 setlinecap
1 LJ
N
109 201.5 M
115.51 201.5 L
S
GR
GS
[0.5 0 0 0.5 0 0] CT
0.149 GC
2 setlinecap
1 LJ
N
109 137.25 M
115.51 137.25 L
S
GR
GS
[0.5 0 0 0.5 0 0] CT
0.149 GC
2 setlinecap
1 LJ
N
109 73 M
115.51 73 L
S
GR
GS
[0.5 0 0 0.5 0 0] CT
0.149 GC
2 setlinecap
1 LJ
N
760 522.75 M
753.49 522.75 L
S
GR
GS
[0.5 0 0 0.5 0 0] CT
0.149 GC
2 setlinecap
1 LJ
N
760 458.5 M
753.49 458.5 L
S
GR
GS
[0.5 0 0 0.5 0 0] CT
0.149 GC
2 setlinecap
1 LJ
N
760 394.25 M
753.49 394.25 L
S
GR
GS
[0.5 0 0 0.5 0 0] CT
0.149 GC
2 setlinecap
1 LJ
N
760 330 M
753.49 330 L
S
GR
GS
[0.5 0 0 0.5 0 0] CT
0.149 GC
2 setlinecap
1 LJ
N
760 265.75 M
753.49 265.75 L
S
GR
GS
[0.5 0 0 0.5 0 0] CT
0.149 GC
2 setlinecap
1 LJ
N
760 201.5 M
753.49 201.5 L
S
GR
GS
[0.5 0 0 0.5 0 0] CT
0.149 GC
2 setlinecap
1 LJ
N
760 137.25 M
753.49 137.25 L
S
GR
GS
[0.5 0 0 0.5 0 0] CT
0.149 GC
2 setlinecap
1 LJ
N
760 73 M
753.49 73 L
S
GR
GS
[0.5 0 0 0.5 50.49999 261.375] CT
0.149 GC
/Helvetica 20 F
GS
[1 0 0 1 0 0] CT
-12 8 moveto 
1 -1 scale
(3) t 
GR
GR
GS
[0.5 0 0 0.5 50.49999 229.25] CT
0.149 GC
/Helvetica 20 F
GS
[1 0 0 1 0 0] CT
-12 8 moveto 
1 -1 scale
(4) t 
GR
GR
GS
[0.5 0 0 0.5 50.49999 197.125] CT
0.149 GC
/Helvetica 20 F
GS
[1 0 0 1 0 0] CT
-12 8 moveto 
1 -1 scale
(5) t 
GR
GR
GS
[0.5 0 0 0.5 50.49999 165] CT
0.149 GC
/Helvetica 20 F
GS
[1 0 0 1 0 0] CT
-12 8 moveto 
1 -1 scale
(6) t 
GR
GR
GS
[0.5 0 0 0.5 50.49999 132.875] CT
0.149 GC
/Helvetica 20 F
GS
[1 0 0 1 0 0] CT
-12 8 moveto 
1 -1 scale
(7) t 
GR
GR
GS
[0.5 0 0 0.5 50.49999 100.75] CT
0.149 GC
/Helvetica 20 F
GS
[1 0 0 1 0 0] CT
-12 8 moveto 
1 -1 scale
(8) t 
GR
GR
GS
[0.5 0 0 0.5 50.49999 68.625] CT
0.149 GC
/Helvetica 20 F
GS
[1 0 0 1 0 0] CT
-12 8 moveto 
1 -1 scale
(9) t 
GR
GR
GS
[0.5 0 0 0.5 50.49999 36.5] CT
0.149 GC
/Helvetica 20 F
GS
[1 0 0 1 0 0] CT
-23 8 moveto 
1 -1 scale
(10) t 
GR
GR
GS
[0 -0.5 0.5 0 35.99999 151.99989] CT
0.149 GC
/Helvetica 22 F
GS
[1 0 0 1 0 0] CT
-55.5 -5 moveto 
1 -1 scale
(Voltage \(V\)) t 
GR
GR
GS
[0.5 0 0 0.5 217.2502 22.12501] CT
/Helvetica-Bold 22 F
GS
[1 0 0 1 0 0] CT
-155 -5 moveto 
1 -1 scale
(Shuttling from two to one cell) t 
GR
GR
GS
[0.5 0 0 0.5 0 0] CT
0 0.447 0.741 RC
1 LJ
3 LW
N
108.922 191.22 M
109.28 191.22 L
109.837 191.22 L
110.393 191.22 L
110.949 191.22 L
111.506 191.22 L
112.062 191.22 L
112.619 196.36 L
113.175 191.22 L
113.731 191.22 L
114.288 191.22 L
114.844 196.36 L
115.401 191.22 L
115.957 191.22 L
116.514 191.22 L
117.07 191.22 L
117.626 191.22 L
118.183 191.22 L
118.739 191.22 L
119.296 191.22 L
119.852 191.22 L
120.408 191.22 L
120.965 191.22 L
121.521 191.22 L
122.078 191.22 L
122.634 196.36 L
123.191 191.22 L
123.747 191.22 L
124.303 196.36 L
124.86 191.22 L
125.416 196.36 L
125.973 191.22 L
126.529 196.36 L
127.085 191.22 L
127.642 191.22 L
128.198 191.22 L
128.755 196.36 L
129.311 196.36 L
129.868 191.22 L
130.424 191.22 L
130.98 191.22 L
131.537 191.22 L
132.093 191.22 L
132.65 191.22 L
133.206 191.22 L
133.762 191.22 L
134.319 191.22 L
134.875 191.22 L
135.432 191.22 L
135.988 196.36 L
136.545 191.22 L
137.101 191.22 L
137.657 196.36 L
138.214 191.22 L
138.77 191.22 L
139.327 191.22 L
139.883 191.22 L
140.439 191.22 L
140.996 191.22 L
141.552 191.22 L
142.109 191.22 L
142.665 191.22 L
143.222 196.36 L
143.778 191.22 L
144.334 191.22 L
144.891 196.36 L
145.447 196.36 L
146.004 191.22 L
146.56 191.22 L
147.116 191.22 L
147.673 191.22 L
148.229 191.22 L
148.786 191.22 L
149.342 191.22 L
149.899 191.22 L
150.455 191.22 L
151.011 191.22 L
151.568 196.36 L
152.124 191.22 L
152.681 196.36 L
153.237 191.22 L
153.793 191.22 L
154.35 191.22 L
154.906 191.22 L
155.463 191.22 L
156.019 247.76 L
156.576 278.6 L
157.132 309.44 L
157.688 324.86 L
158.245 340.28 L
158.801 355.7 L
159.358 365.98 L
159.914 371.12 L
160.47 381.4 L
161.027 386.54 L
161.583 396.82 L
162.14 401.96 L
162.696 407.1 L
163.253 412.24 L
163.809 417.38 L
164.365 417.38 L
164.922 422.52 L
165.478 422.52 L
166.035 427.66 L
166.591 427.66 L
167.147 432.8 L
167.704 432.8 L
168.26 437.94 L
168.817 437.94 L
169.373 443.08 L
169.93 443.08 L
170.486 448.22 L
171.042 448.22 L
171.599 448.22 L
172.155 448.22 L
172.712 448.22 L
173.268 448.22 L
173.824 448.22 L
174.381 448.22 L
174.937 448.22 L
175.494 453.36 L
176.05 453.36 L
176.607 453.36 L
177.163 453.36 L
177.719 453.36 L
178.276 453.36 L
178.832 453.36 L
179.389 453.36 L
179.945 453.36 L
180.501 458.5 L
181.058 453.36 L
181.614 453.36 L
182.171 458.5 L
182.727 453.36 L
183.284 453.36 L
183.84 458.5 L
184.396 458.5 L
184.953 458.5 L
185.509 453.36 L
186.066 458.5 L
186.622 458.5 L
187.178 458.5 L
187.735 458.5 L
188.291 458.5 L
188.848 453.36 L
189.404 458.5 L
189.961 458.5 L
190.517 458.5 L
191.073 458.5 L
191.63 458.5 L
192.186 458.5 L
192.743 453.36 L
193.299 458.5 L
193.855 458.5 L
194.412 458.5 L
194.968 458.5 L
195.525 458.5 L
196.081 453.36 L
196.638 458.5 L
197.194 458.5 L
197.75 453.36 L
198.307 458.5 L
198.863 458.5 L
199.42 453.36 L
199.976 458.5 L
200.532 458.5 L
201.089 458.5 L
201.645 458.5 L
202.202 453.36 L
202.758 458.5 L
203.315 458.5 L
203.871 458.5 L
204.427 453.36 L
204.984 458.5 L
205.54 458.5 L
206.097 458.5 L
206.653 453.36 L
207.209 458.5 L
207.766 453.36 L
208.322 458.5 L
208.879 458.5 L
209.435 453.36 L
209.992 453.36 L
210.548 453.36 L
211.104 458.5 L
211.661 453.36 L
212.217 453.36 L
212.774 458.5 L
213.33 453.36 L
213.886 458.5 L
214.443 458.5 L
214.999 453.36 L
215.556 458.5 L
216.112 458.5 L
216.669 458.5 L
217.225 458.5 L
217.781 458.5 L
218.338 458.5 L
218.894 453.36 L
219.451 458.5 L
220.007 453.36 L
220.563 453.36 L
221.12 458.5 L
221.676 458.5 L
222.233 458.5 L
222.789 458.5 L
223.346 453.36 L
223.902 458.5 L
224.458 453.36 L
225.015 453.36 L
225.571 453.36 L
226.128 458.5 L
226.684 458.5 L
227.24 453.36 L
227.797 458.5 L
228.353 453.36 L
228.91 453.36 L
229.466 458.5 L
230.023 453.36 L
230.579 453.36 L
231.135 453.36 L
231.692 458.5 L
232.248 458.5 L
232.805 458.5 L
233.361 458.5 L
233.917 453.36 L
234.474 453.36 L
235.03 458.5 L
235.587 458.5 L
236.143 458.5 L
236.7 458.5 L
237.256 458.5 L
237.812 453.36 L
238.369 453.36 L
238.925 453.36 L
239.482 458.5 L
240.038 453.36 L
240.594 458.5 L
241.151 453.36 L
241.707 458.5 L
242.264 458.5 L
242.82 453.36 L
243.377 453.36 L
243.933 458.5 L
244.489 458.5 L
245.046 453.36 L
245.602 453.36 L
246.159 453.36 L
246.715 453.36 L
247.271 453.36 L
247.828 458.5 L
248.384 453.36 L
248.941 458.5 L
249.497 453.36 L
250.054 458.5 L
250.61 453.36 L
251.166 453.36 L
251.723 453.36 L
252.279 453.36 L
252.836 458.5 L
253.392 453.36 L
253.948 453.36 L
254.505 458.5 L
255.061 453.36 L
255.618 453.36 L
256.174 458.5 L
256.731 458.5 L
257.287 453.36 L
257.843 458.5 L
258.4 458.5 L
258.956 453.36 L
259.513 453.36 L
260.069 458.5 L
260.625 453.36 L
261.182 458.5 L
261.738 458.5 L
262.295 458.5 L
262.851 453.36 L
263.408 453.36 L
263.964 473.92 L
264.52 422.52 L
265.077 391.68 L
265.633 371.12 L
266.19 350.56 L
266.746 330 L
267.302 314.58 L
267.859 299.16 L
268.415 283.74 L
268.972 273.46 L
269.528 268.32 L
270.085 258.04 L
270.641 252.9 L
271.197 247.76 L
271.754 237.48 L
272.31 237.48 L
272.867 232.34 L
273.423 227.2 L
273.979 227.2 L
274.536 222.06 L
275.092 216.92 L
275.649 216.92 L
276.205 211.78 L
276.762 211.78 L
277.318 206.64 L
277.874 206.64 L
278.431 206.64 L
278.987 206.64 L
279.544 206.64 L
280.1 206.64 L
280.656 201.5 L
281.213 201.5 L
281.769 201.5 L
282.326 201.5 L
282.882 201.5 L
283.439 201.5 L
283.995 196.36 L
284.551 196.36 L
285.108 196.36 L
285.664 196.36 L
286.221 196.36 L
286.777 201.5 L
287.333 196.36 L
287.89 196.36 L
288.446 196.36 L
289.003 196.36 L
289.559 196.36 L
290.116 191.22 L
290.672 196.36 L
291.228 196.36 L
291.785 196.36 L
292.341 191.22 L
292.898 196.36 L
293.454 191.22 L
294.01 191.22 L
294.567 196.36 L
295.123 191.22 L
295.68 191.22 L
296.236 191.22 L
296.793 191.22 L
297.349 191.22 L
297.905 191.22 L
298.462 196.36 L
299.018 191.22 L
299.575 196.36 L
300.131 191.22 L
300.687 191.22 L
301.244 191.22 L
301.8 191.22 L
302.357 191.22 L
302.913 191.22 L
303.47 191.22 L
304.026 191.22 L
304.582 191.22 L
305.139 196.36 L
305.695 191.22 L
306.252 191.22 L
306.808 191.22 L
307.364 191.22 L
307.921 191.22 L
308.477 191.22 L
309.034 191.22 L
309.59 191.22 L
310.147 191.22 L
310.703 191.22 L
311.259 191.22 L
311.816 191.22 L
312.372 191.22 L
312.929 191.22 L
313.485 191.22 L
314.041 191.22 L
314.598 191.22 L
315.154 191.22 L
315.711 191.22 L
316.267 191.22 L
316.824 196.36 L
317.38 196.36 L
317.936 191.22 L
318.493 191.22 L
319.049 191.22 L
319.606 191.22 L
320.162 196.36 L
320.718 191.22 L
321.275 191.22 L
321.831 196.36 L
322.388 191.22 L
322.944 191.22 L
323.501 191.22 L
324.057 191.22 L
324.613 191.22 L
325.17 191.22 L
325.726 191.22 L
326.283 191.22 L
326.839 191.22 L
327.395 191.22 L
327.952 196.36 L
328.508 191.22 L
329.065 191.22 L
329.621 196.36 L
330.178 191.22 L
330.734 191.22 L
331.29 191.22 L
331.847 191.22 L
332.403 196.36 L
332.96 191.22 L
333.516 191.22 L
334.072 196.36 L
334.629 191.22 L
335.185 191.22 L
335.742 191.22 L
336.298 191.22 L
336.855 191.22 L
337.411 191.22 L
337.967 191.22 L
338.524 191.22 L
339.08 191.22 L
339.637 196.36 L
340.193 191.22 L
340.749 196.36 L
341.306 191.22 L
341.862 191.22 L
342.419 191.22 L
342.975 191.22 L
343.532 191.22 L
344.088 191.22 L
344.644 191.22 L
345.201 191.22 L
345.757 191.22 L
346.314 191.22 L
346.87 191.22 L
347.426 191.22 L
347.983 191.22 L
348.539 191.22 L
349.096 191.22 L
349.652 191.22 L
350.209 191.22 L
350.765 191.22 L
351.321 191.22 L
351.878 191.22 L
352.434 191.22 L
352.991 196.36 L
353.547 191.22 L
354.103 191.22 L
354.66 191.22 L
355.216 191.22 L
355.773 191.22 L
356.329 191.22 L
356.886 191.22 L
357.442 191.22 L
357.998 191.22 L
358.555 191.22 L
359.111 191.22 L
359.668 191.22 L
360.224 191.22 L
360.78 191.22 L
361.337 191.22 L
361.893 191.22 L
362.45 191.22 L
363.006 196.36 L
363.563 191.22 L
364.119 191.22 L
364.675 191.22 L
365.232 191.22 L
365.788 191.22 L
366.345 191.22 L
366.901 191.22 L
367.457 191.22 L
368.014 186.08 L
368.57 191.22 L
369.127 191.22 L
369.683 196.36 L
370.24 139.82 L
370.796 191.22 L
371.352 247.76 L
371.909 283.74 L
372.465 304.3 L
373.022 324.86 L
373.578 345.42 L
374.134 355.7 L
374.691 365.98 L
375.247 376.26 L
375.804 381.4 L
376.36 391.68 L
376.917 396.82 L
377.473 401.96 L
378.029 407.1 L
378.586 412.24 L
379.142 417.38 L
379.699 417.38 L
380.255 422.52 L
380.811 427.66 L
381.368 427.66 L
381.924 427.66 L
382.481 432.8 L
383.037 437.94 L
383.594 437.94 L
384.15 437.94 L
384.706 443.08 L
385.263 443.08 L
385.819 443.08 L
386.376 443.08 L
386.932 443.08 L
387.488 448.22 L
388.045 448.22 L
388.601 448.22 L
389.158 448.22 L
389.714 448.22 L
390.271 453.36 L
390.827 448.22 L
391.383 453.36 L
391.94 453.36 L
392.496 453.36 L
393.053 453.36 L
393.609 453.36 L
394.165 453.36 L
394.722 453.36 L
395.278 453.36 L
395.835 458.5 L
396.391 458.5 L
396.948 453.36 L
397.504 453.36 L
398.06 453.36 L
398.617 458.5 L
399.173 453.36 L
399.73 453.36 L
400.286 458.5 L
400.842 458.5 L
401.399 453.36 L
401.955 453.36 L
402.512 453.36 L
403.068 453.36 L
403.625 458.5 L
404.181 453.36 L
404.737 453.36 L
405.294 458.5 L
405.85 453.36 L
406.407 458.5 L
406.963 458.5 L
407.519 453.36 L
408.076 458.5 L
408.632 458.5 L
409.189 453.36 L
409.745 458.5 L
410.302 453.36 L
410.858 458.5 L
411.414 458.5 L
411.971 453.36 L
412.527 458.5 L
413.084 458.5 L
413.64 453.36 L
414.196 458.5 L
414.753 458.5 L
415.309 458.5 L
415.866 458.5 L
416.422 453.36 L
416.979 458.5 L
417.535 458.5 L
418.091 453.36 L
418.648 458.5 L
419.204 458.5 L
419.761 458.5 L
420.317 458.5 L
420.873 458.5 L
421.43 453.36 L
421.986 453.36 L
422.543 458.5 L
423.099 453.36 L
423.656 458.5 L
424.212 458.5 L
424.768 458.5 L
425.325 458.5 L
425.881 453.36 L
426.438 458.5 L
426.994 453.36 L
427.55 453.36 L
428.107 453.36 L
428.663 453.36 L
429.22 458.5 L
429.776 458.5 L
430.333 458.5 L
430.889 458.5 L
431.445 453.36 L
432.002 458.5 L
432.558 458.5 L
433.115 458.5 L
433.671 458.5 L
434.227 453.36 L
434.784 458.5 L
435.34 458.5 L
435.897 458.5 L
436.453 458.5 L
437.01 453.36 L
437.566 458.5 L
438.122 453.36 L
438.679 458.5 L
439.235 458.5 L
439.792 458.5 L
440.348 453.36 L
440.904 458.5 L
441.461 453.36 L
442.017 458.5 L
442.574 453.36 L
443.13 453.36 L
443.687 458.5 L
444.243 458.5 L
444.799 453.36 L
445.356 453.36 L
445.912 453.36 L
446.469 453.36 L
447.025 453.36 L
447.581 453.36 L
448.138 458.5 L
448.694 453.36 L
449.251 453.36 L
449.807 458.5 L
450.364 453.36 L
450.92 453.36 L
451.476 453.36 L
452.033 453.36 L
452.589 453.36 L
453.146 458.5 L
453.702 458.5 L
454.258 453.36 L
454.815 458.5 L
455.371 458.5 L
455.928 458.5 L
456.484 453.36 L
457.041 458.5 L
457.597 458.5 L
458.153 458.5 L
458.71 458.5 L
459.266 453.36 L
459.823 458.5 L
460.379 458.5 L
460.935 453.36 L
461.492 458.5 L
462.048 458.5 L
462.605 453.36 L
463.161 458.5 L
463.718 453.36 L
464.274 453.36 L
464.83 453.36 L
465.387 453.36 L
465.943 453.36 L
466.5 453.36 L
467.056 458.5 L
467.612 453.36 L
468.169 458.5 L
468.725 458.5 L
469.282 458.5 L
469.838 458.5 L
470.395 453.36 L
470.951 453.36 L
471.507 453.36 L
472.064 453.36 L
472.62 453.36 L
473.177 453.36 L
473.733 453.36 L
474.289 453.36 L
474.846 453.36 L
475.402 453.36 L
475.959 458.5 L
476.515 453.36 L
477.072 453.36 L
477.628 458.5 L
478.184 453.36 L
478.741 453.36 L
479.297 499.62 L
479.854 432.8 L
480.41 401.96 L
480.966 376.26 L
481.523 355.7 L
482.079 335.14 L
482.636 314.58 L
483.192 299.16 L
483.749 288.88 L
484.305 278.6 L
484.861 268.32 L
485.418 263.18 L
485.974 252.9 L
486.531 247.76 L
487.087 242.62 L
487.643 237.48 L
488.2 232.34 L
488.756 227.2 L
489.313 222.06 L
489.869 222.06 L
490.426 216.92 L
490.982 216.92 L
491.538 211.78 L
492.095 211.78 L
492.651 211.78 L
493.208 206.64 L
493.764 206.64 L
494.32 206.64 L
494.877 206.64 L
495.433 206.64 L
495.99 201.5 L
496.546 201.5 L
497.103 206.64 L
497.659 201.5 L
498.215 201.5 L
498.772 201.5 L
499.328 201.5 L
499.885 201.5 L
500.441 201.5 L
500.997 196.36 L
501.554 196.36 L
502.11 196.36 L
502.667 196.36 L
503.223 196.36 L
503.78 196.36 L
504.336 191.22 L
504.892 196.36 L
505.449 196.36 L
506.005 196.36 L
506.562 191.22 L
507.118 191.22 L
507.674 191.22 L
508.231 191.22 L
508.787 191.22 L
509.344 191.22 L
509.9 191.22 L
510.457 191.22 L
511.013 191.22 L
511.569 191.22 L
512.126 191.22 L
512.682 191.22 L
513.239 191.22 L
513.795 191.22 L
514.351 191.22 L
514.908 191.22 L
515.464 191.22 L
516.021 196.36 L
516.577 191.22 L
517.134 191.22 L
517.69 196.36 L
518.246 191.22 L
518.803 191.22 L
519.359 191.22 L
519.916 196.36 L
520.472 191.22 L
521.028 191.22 L
521.585 196.36 L
522.141 191.22 L
522.698 191.22 L
523.254 191.22 L
523.811 191.22 L
524.367 191.22 L
524.923 191.22 L
525.48 191.22 L
526.036 191.22 L
526.593 191.22 L
527.149 196.36 L
527.705 191.22 L
528.262 191.22 L
528.818 191.22 L
529.375 191.22 L
529.931 191.22 L
530.488 191.22 L
531.044 196.36 L
531.6 196.36 L
532.157 191.22 L
532.713 191.22 L
533.27 191.22 L
533.826 191.22 L
534.382 191.22 L
534.939 191.22 L
535.495 191.22 L
536.052 191.22 L
536.608 191.22 L
537.164 191.22 L
537.721 191.22 L
538.277 191.22 L
538.834 191.22 L
539.39 191.22 L
539.947 191.22 L
540.503 191.22 L
541.059 191.22 L
541.616 191.22 L
542.172 191.22 L
542.729 191.22 L
543.285 196.36 L
543.841 191.22 L
544.398 191.22 L
544.954 191.22 L
545.511 191.22 L
546.067 191.22 L
546.624 191.22 L
547.18 191.22 L
547.736 196.36 L
548.293 191.22 L
548.849 191.22 L
549.406 191.22 L
549.962 191.22 L
550.518 191.22 L
551.075 196.36 L
551.631 196.36 L
552.188 191.22 L
552.744 191.22 L
553.301 191.22 L
553.857 191.22 L
554.413 191.22 L
554.97 196.36 L
555.526 191.22 L
556.083 196.36 L
556.639 191.22 L
557.195 191.22 L
557.752 191.22 L
558.308 191.22 L
558.865 191.22 L
559.421 191.22 L
559.978 191.22 L
560.534 191.22 L
561.09 191.22 L
561.647 191.22 L
562.203 191.22 L
562.76 191.22 L
563.316 191.22 L
563.872 191.22 L
564.429 191.22 L
564.985 191.22 L
565.542 191.22 L
566.098 191.22 L
566.655 191.22 L
567.211 191.22 L
567.767 191.22 L
568.324 191.22 L
568.88 196.36 L
569.437 191.22 L
569.993 191.22 L
570.549 191.22 L
571.106 191.22 L
571.662 191.22 L
572.219 191.22 L
572.775 191.22 L
573.332 191.22 L
573.888 191.22 L
574.444 191.22 L
575.001 191.22 L
575.557 191.22 L
576.114 191.22 L
576.67 191.22 L
577.227 191.22 L
577.783 191.22 L
578.339 191.22 L
578.896 191.22 L
579.452 191.22 L
580.009 191.22 L
580.565 191.22 L
581.121 191.22 L
581.678 196.36 L
582.234 191.22 L
582.791 191.22 L
583.347 191.22 L
583.904 191.22 L
584.46 191.22 L
585.016 191.22 L
585.573 191.22 L
586.129 150.1 L
586.686 232.34 L
587.242 273.46 L
587.798 299.16 L
588.355 319.72 L
588.911 335.14 L
589.468 350.56 L
590.024 360.84 L
590.581 371.12 L
591.137 381.4 L
591.693 391.68 L
592.25 396.82 L
592.806 401.96 L
593.363 407.1 L
593.919 407.1 L
594.475 412.24 L
595.032 417.38 L
595.588 422.52 L
596.145 422.52 L
596.701 427.66 L
597.258 427.66 L
597.814 432.8 L
598.37 432.8 L
598.927 437.94 L
599.483 437.94 L
600.04 437.94 L
600.596 443.08 L
601.152 443.08 L
601.709 443.08 L
602.265 443.08 L
602.822 443.08 L
603.378 448.22 L
603.935 448.22 L
604.491 448.22 L
605.047 448.22 L
605.604 448.22 L
606.16 453.36 L
606.717 453.36 L
607.273 453.36 L
607.829 453.36 L
608.386 453.36 L
608.942 453.36 L
609.499 453.36 L
610.055 453.36 L
610.612 453.36 L
611.168 458.5 L
611.724 458.5 L
612.281 458.5 L
612.837 458.5 L
613.394 453.36 L
613.95 458.5 L
614.506 453.36 L
615.063 458.5 L
615.619 458.5 L
616.176 458.5 L
616.732 458.5 L
617.289 458.5 L
617.845 453.36 L
618.401 458.5 L
618.958 458.5 L
619.514 458.5 L
620.071 458.5 L
620.627 453.36 L
621.183 458.5 L
621.74 453.36 L
622.296 453.36 L
622.853 458.5 L
623.409 458.5 L
623.966 458.5 L
624.522 453.36 L
625.078 453.36 L
625.635 453.36 L
626.191 453.36 L
626.748 458.5 L
627.304 458.5 L
627.86 453.36 L
628.417 458.5 L
628.973 458.5 L
629.53 458.5 L
630.086 458.5 L
630.643 453.36 L
631.199 458.5 L
631.755 458.5 L
632.312 458.5 L
632.868 458.5 L
633.425 453.36 L
633.981 453.36 L
634.537 453.36 L
635.094 458.5 L
635.65 458.5 L
636.207 458.5 L
636.763 458.5 L
637.32 453.36 L
637.876 458.5 L
638.432 458.5 L
638.989 458.5 L
639.545 453.36 L
640.102 453.36 L
640.658 453.36 L
641.214 453.36 L
641.771 458.5 L
642.327 458.5 L
642.884 458.5 L
643.44 458.5 L
643.997 458.5 L
644.553 453.36 L
645.109 453.36 L
645.666 458.5 L
646.222 458.5 L
646.779 458.5 L
647.335 458.5 L
647.891 458.5 L
648.448 453.36 L
649.004 458.5 L
649.561 458.5 L
650.117 458.5 L
650.674 458.5 L
651.23 458.5 L
651.786 453.36 L
652.343 458.5 L
652.899 453.36 L
653.456 453.36 L
654.012 458.5 L
654.568 458.5 L
655.125 453.36 L
655.681 458.5 L
656.238 453.36 L
656.794 453.36 L
657.351 458.5 L
657.907 458.5 L
658.463 453.36 L
659.02 453.36 L
659.576 453.36 L
660.133 458.5 L
660.689 453.36 L
661.245 453.36 L
661.802 453.36 L
662.358 453.36 L
662.915 453.36 L
663.471 458.5 L
664.028 458.5 L
664.584 458.5 L
665.14 453.36 L
665.697 453.36 L
666.253 453.36 L
666.81 458.5 L
667.366 458.5 L
667.922 453.36 L
668.479 458.5 L
669.035 453.36 L
669.592 453.36 L
670.148 453.36 L
670.705 453.36 L
671.261 458.5 L
671.817 458.5 L
672.374 453.36 L
672.93 453.36 L
673.487 453.36 L
674.043 458.5 L
674.599 458.5 L
675.156 458.5 L
675.712 458.5 L
676.269 453.36 L
676.825 453.36 L
677.382 453.36 L
677.938 453.36 L
678.494 453.36 L
679.051 458.5 L
679.607 453.36 L
680.164 453.36 L
680.72 453.36 L
681.276 453.36 L
681.833 458.5 L
682.389 453.36 L
682.946 458.5 L
683.502 458.5 L
684.059 458.5 L
684.615 453.36 L
685.171 458.5 L
685.728 458.5 L
686.284 453.36 L
686.841 453.36 L
687.397 458.5 L
687.953 458.5 L
688.51 453.36 L
689.066 458.5 L
689.623 453.36 L
690.179 453.36 L
690.736 458.5 L
691.292 453.36 L
691.848 453.36 L
692.405 453.36 L
692.961 453.36 L
693.518 453.36 L
694.074 453.36 L
694.63 540.74 L
695.187 453.36 L
695.743 412.24 L
696.3 381.4 L
696.856 360.84 L
697.412 340.28 L
697.969 319.72 L
698.525 309.44 L
699.082 294.02 L
699.638 283.74 L
700.195 273.46 L
700.751 263.18 L
701.307 252.9 L
701.864 247.76 L
702.42 242.62 L
702.977 242.62 L
703.533 232.34 L
704.09 227.2 L
704.646 227.2 L
705.202 222.06 L
705.759 222.06 L
706.315 216.92 L
706.872 216.92 L
707.428 211.78 L
707.984 211.78 L
708.541 206.64 L
709.097 206.64 L
709.654 206.64 L
710.21 206.64 L
710.766 206.64 L
711.323 206.64 L
711.879 201.5 L
712.436 201.5 L
712.992 201.5 L
713.549 196.36 L
714.105 196.36 L
714.661 201.5 L
715.218 196.36 L
715.774 196.36 L
716.331 196.36 L
716.887 196.36 L
717.443 196.36 L
718 196.36 L
718.556 196.36 L
719.113 196.36 L
719.669 196.36 L
720.226 196.36 L
720.782 196.36 L
721.338 196.36 L
721.895 196.36 L
722.451 196.36 L
723.008 196.36 L
723.564 196.36 L
724.12 196.36 L
724.677 191.22 L
725.233 196.36 L
725.79 196.36 L
726.346 196.36 L
726.903 191.22 L
727.459 191.22 L
728.015 191.22 L
728.572 196.36 L
729.128 191.22 L
729.685 191.22 L
730.241 191.22 L
730.797 196.36 L
731.354 191.22 L
731.91 191.22 L
732.467 191.22 L
733.023 191.22 L
733.58 191.22 L
734.136 191.22 L
734.692 191.22 L
735.249 191.22 L
735.805 191.22 L
736.362 191.22 L
736.918 196.36 L
737.474 191.22 L
738.031 191.22 L
738.587 191.22 L
739.144 191.22 L
739.7 191.22 L
740.257 191.22 L
740.813 191.22 L
741.369 191.22 L
741.926 196.36 L
742.482 191.22 L
743.039 191.22 L
743.595 191.22 L
744.151 191.22 L
744.708 191.22 L
745.264 191.22 L
745.821 191.22 L
746.377 191.22 L
746.934 191.22 L
747.49 191.22 L
748.046 191.22 L
748.603 191.22 L
749.159 191.22 L
749.716 196.36 L
750.272 191.22 L
750.828 191.22 L
751.385 191.22 L
751.941 191.22 L
752.498 191.22 L
753.054 191.22 L
753.611 191.22 L
754.167 191.22 L
754.723 191.22 L
755.28 191.22 L
755.836 191.22 L
756.393 196.36 L
756.949 191.22 L
757.505 191.22 L
758.062 191.22 L
758.618 191.22 L
759.175 191.22 L
759.731 191.22 L
760.078 191.22 L
S
GR
GS
[0.5 0 0 0.5 0 0] CT
0.851 0.325 0.098 RC
1 LJ
3 LW
N
108.922 183.253 M
760.078 183.253 L
S
GR
GS
[0.5 0 0 0.5 0 0] CT
0.929 0.694 0.125 RC
1 LJ
3 LW
N
108.922 456.444 M
760.078 456.444 L
S
GR
GS
[0.5 0 0 0.5 0 0] CT
1 GC
N
744 140 M
744 63 L
518 63 L
518 140 L
cp
f
GR
GS
[0.5 0 0 0.5 294.32816 38.79739] CT
/Helvetica 18 F
GS
[1 0 0 1 0 0] CT
0 7.5 moveto 
1 -1 scale
(Shuttling capacitor) t 
GR
GR
GS
[0.5 0 0 0.5 0 0] CT
0 0.447 0.741 RC
1 LJ
3 LW
N
524.013 77.595 M
584.146 77.595 L
S
GR
GS
[0.5 0 0 0.5 294.32816 50.75] CT
/Helvetica 18 F
GS
[1 0 0 1 0 0] CT
0 7.5 moveto 
1 -1 scale
(Double cells) t 
GR
GR
GS
[0.5 0 0 0.5 0 0] CT
0.851 0.325 0.098 RC
1 LJ
3 LW
N
524.013 101.5 M
584.146 101.5 L
S
GR
GS
[0.5 0 0 0.5 294.32816 62.70261] CT
/Helvetica 18 F
GS
[1 0 0 1 0 0] CT
0 7.5 moveto 
1 -1 scale
(Single cell) t 
GR
GR
GS
[0.5 0 0 0.5 0 0] CT
0.929 0.694 0.125 RC
1 LJ
3 LW
N
524.013 125.405 M
584.146 125.405 L
S
GR
GS
[0.5 0 0 0.5 0 0] CT
0.149 GC
10.0 ML
N
518 140 M
518 63 L
744 63 L
744 140 L
cp
S
GR
%%Trailer
%%Pages: 1
%%EOF
