%!PS-Adobe-3.0 EPSF-3.0
%%Creator: (MATLAB, The Mathworks, Inc. Version 9.4.0.813654 \(R2018a\). Operating System: Windows 10)
%%Title: C:/Users/robbe/OneDrive/VUB/Thesis/Thesis/POI_Window_Loss.eps
%%CreationDate: 2019-05-23T02:18:44
%%Pages: (atend)
%%BoundingBox: 0 0 420 315
%%LanguageLevel: 3
%%EndComments
%%BeginProlog
%%BeginResource: procset (Apache XML Graphics Std ProcSet) 1.2 0
%%Version: 1.2 0
%%Copyright: (Copyright 2001-2003,2010 The Apache Software Foundation. License terms: http://www.apache.org/licenses/LICENSE-2.0)
/bd{bind def}bind def
/ld{load def}bd
/GR/grestore ld
/GS/gsave ld
/RM/rmoveto ld
/C/curveto ld
/t/show ld
/L/lineto ld
/ML/setmiterlimit ld
/CT/concat ld
/f/fill ld
/N/newpath ld
/S/stroke ld
/CC/setcmykcolor ld
/A/ashow ld
/cp/closepath ld
/RC/setrgbcolor ld
/LJ/setlinejoin ld
/GC/setgray ld
/LW/setlinewidth ld
/M/moveto ld
/re {4 2 roll M
1 index 0 rlineto
0 exch rlineto
neg 0 rlineto
cp } bd
/_ctm matrix def
/_tm matrix def
/BT { _ctm currentmatrix pop matrix _tm copy pop 0 0 moveto } bd
/ET { _ctm setmatrix } bd
/iTm { _ctm setmatrix _tm concat } bd
/Tm { _tm astore pop iTm 0 0 moveto } bd
/ux 0.0 def
/uy 0.0 def
/F {
  /Tp exch def
  /Tf exch def
  Tf findfont Tp scalefont setfont
  /cf Tf def  /cs Tp def
} bd
/ULS {currentpoint /uy exch def /ux exch def} bd
/ULE {
  /Tcx currentpoint pop def
  gsave
  newpath
  cf findfont cs scalefont dup
  /FontMatrix get 0 get /Ts exch def /FontInfo get dup
  /UnderlinePosition get Ts mul /To exch def
  /UnderlineThickness get Ts mul /Tt exch def
  ux uy To add moveto  Tcx uy To add lineto
  Tt setlinewidth stroke
  grestore
} bd
/OLE {
  /Tcx currentpoint pop def
  gsave
  newpath
  cf findfont cs scalefont dup
  /FontMatrix get 0 get /Ts exch def /FontInfo get dup
  /UnderlinePosition get Ts mul /To exch def
  /UnderlineThickness get Ts mul /Tt exch def
  ux uy To add cs add moveto Tcx uy To add cs add lineto
  Tt setlinewidth stroke
  grestore
} bd
/SOE {
  /Tcx currentpoint pop def
  gsave
  newpath
  cf findfont cs scalefont dup
  /FontMatrix get 0 get /Ts exch def /FontInfo get dup
  /UnderlinePosition get Ts mul /To exch def
  /UnderlineThickness get Ts mul /Tt exch def
  ux uy To add cs 10 mul 26 idiv add moveto Tcx uy To add cs 10 mul 26 idiv add lineto
  Tt setlinewidth stroke
  grestore
} bd
/QT {
/Y22 exch store
/X22 exch store
/Y21 exch store
/X21 exch store
currentpoint
/Y21 load 2 mul add 3 div exch
/X21 load 2 mul add 3 div exch
/X21 load 2 mul /X22 load add 3 div
/Y21 load 2 mul /Y22 load add 3 div
/X22 load /Y22 load curveto
} bd
/SSPD {
dup length /d exch dict def
{
/v exch def
/k exch def
currentpagedevice k known {
/cpdv currentpagedevice k get def
v cpdv ne {
/upd false def
/nullv v type /nulltype eq def
/nullcpdv cpdv type /nulltype eq def
nullv nullcpdv or
{
/upd true def
} {
/sametype v type cpdv type eq def
sametype {
v type /arraytype eq {
/vlen v length def
/cpdvlen cpdv length def
vlen cpdvlen eq {
0 1 vlen 1 sub {
/i exch def
/obj v i get def
/cpdobj cpdv i get def
obj cpdobj ne {
/upd true def
exit
} if
} for
} {
/upd true def
} ifelse
} {
v type /dicttype eq {
v {
/dv exch def
/dk exch def
/cpddv cpdv dk get def
dv cpddv ne {
/upd true def
exit
} if
} forall
} {
/upd true def
} ifelse
} ifelse
} if
} ifelse
upd true eq {
d k v put
} if
} if
} if
} forall
d length 0 gt {
d setpagedevice
} if
} bd
/RE { % /NewFontName [NewEncodingArray] /FontName RE -
  findfont dup length dict begin
  {
    1 index /FID ne
    {def} {pop pop} ifelse
  } forall
  /Encoding exch def
  /FontName 1 index def
  currentdict definefont pop
  end
} bind def
%%EndResource
%%BeginResource: procset (Apache XML Graphics EPS ProcSet) 1.0 0
%%Version: 1.0 0
%%Copyright: (Copyright 2002-2003 The Apache Software Foundation. License terms: http://www.apache.org/licenses/LICENSE-2.0)
/BeginEPSF { %def
/b4_Inc_state save def         % Save state for cleanup
/dict_count countdictstack def % Count objects on dict stack
/op_count count 1 sub def      % Count objects on operand stack
userdict begin                 % Push userdict on dict stack
/showpage { } def              % Redefine showpage, { } = null proc
0 setgray 0 setlinecap         % Prepare graphics state
1 setlinewidth 0 setlinejoin
10 setmiterlimit [ ] 0 setdash newpath
/languagelevel where           % If level not equal to 1 then
{pop languagelevel             % set strokeadjust and
1 ne                           % overprint to their defaults.
{false setstrokeadjust false setoverprint
} if
} if
} bd
/EndEPSF { %def
count op_count sub {pop} repeat            % Clean up stacks
countdictstack dict_count sub {end} repeat
b4_Inc_state restore
} bd
%%EndResource
%FOPBeginFontDict
%%IncludeResource: font Courier-Oblique
%%IncludeResource: font Courier-BoldOblique
%%IncludeResource: font Courier-Bold
%%IncludeResource: font ZapfDingbats
%%IncludeResource: font Symbol
%%IncludeResource: font Helvetica
%%IncludeResource: font Helvetica-Oblique
%%IncludeResource: font Helvetica-Bold
%%IncludeResource: font Helvetica-BoldOblique
%%IncludeResource: font Times-Roman
%%IncludeResource: font Times-Italic
%%IncludeResource: font Times-Bold
%%IncludeResource: font Times-BoldItalic
%%IncludeResource: font Courier
%FOPEndFontDict
%%BeginResource: encoding WinAnsiEncoding
/WinAnsiEncoding [
/.notdef /.notdef /.notdef /.notdef /.notdef
/.notdef /.notdef /.notdef /.notdef /.notdef
/.notdef /.notdef /.notdef /.notdef /.notdef
/.notdef /.notdef /.notdef /.notdef /.notdef
/.notdef /.notdef /.notdef /.notdef /.notdef
/.notdef /.notdef /.notdef /.notdef /.notdef
/.notdef /.notdef /space /exclam /quotedbl
/numbersign /dollar /percent /ampersand /quotesingle
/parenleft /parenright /asterisk /plus /comma
/hyphen /period /slash /zero /one
/two /three /four /five /six
/seven /eight /nine /colon /semicolon
/less /equal /greater /question /at
/A /B /C /D /E
/F /G /H /I /J
/K /L /M /N /O
/P /Q /R /S /T
/U /V /W /X /Y
/Z /bracketleft /backslash /bracketright /asciicircum
/underscore /quoteleft /a /b /c
/d /e /f /g /h
/i /j /k /l /m
/n /o /p /q /r
/s /t /u /v /w
/x /y /z /braceleft /bar
/braceright /asciitilde /bullet /Euro /bullet
/quotesinglbase /florin /quotedblbase /ellipsis /dagger
/daggerdbl /circumflex /perthousand /Scaron /guilsinglleft
/OE /bullet /Zcaron /bullet /bullet
/quoteleft /quoteright /quotedblleft /quotedblright /bullet
/endash /emdash /asciitilde /trademark /scaron
/guilsinglright /oe /bullet /zcaron /Ydieresis
/space /exclamdown /cent /sterling /currency
/yen /brokenbar /section /dieresis /copyright
/ordfeminine /guillemotleft /logicalnot /sfthyphen /registered
/macron /degree /plusminus /twosuperior /threesuperior
/acute /mu /paragraph /middot /cedilla
/onesuperior /ordmasculine /guillemotright /onequarter /onehalf
/threequarters /questiondown /Agrave /Aacute /Acircumflex
/Atilde /Adieresis /Aring /AE /Ccedilla
/Egrave /Eacute /Ecircumflex /Edieresis /Igrave
/Iacute /Icircumflex /Idieresis /Eth /Ntilde
/Ograve /Oacute /Ocircumflex /Otilde /Odieresis
/multiply /Oslash /Ugrave /Uacute /Ucircumflex
/Udieresis /Yacute /Thorn /germandbls /agrave
/aacute /acircumflex /atilde /adieresis /aring
/ae /ccedilla /egrave /eacute /ecircumflex
/edieresis /igrave /iacute /icircumflex /idieresis
/eth /ntilde /ograve /oacute /ocircumflex
/otilde /odieresis /divide /oslash /ugrave
/uacute /ucircumflex /udieresis /yacute /thorn
/ydieresis
] def
%%EndResource
%FOPBeginFontReencode
/Courier-Oblique findfont
dup length dict begin
  {1 index /FID ne {def} {pop pop} ifelse} forall
  /Encoding WinAnsiEncoding def
  currentdict
end
/Courier-Oblique exch definefont pop
/Courier-BoldOblique findfont
dup length dict begin
  {1 index /FID ne {def} {pop pop} ifelse} forall
  /Encoding WinAnsiEncoding def
  currentdict
end
/Courier-BoldOblique exch definefont pop
/Courier-Bold findfont
dup length dict begin
  {1 index /FID ne {def} {pop pop} ifelse} forall
  /Encoding WinAnsiEncoding def
  currentdict
end
/Courier-Bold exch definefont pop
/Helvetica findfont
dup length dict begin
  {1 index /FID ne {def} {pop pop} ifelse} forall
  /Encoding WinAnsiEncoding def
  currentdict
end
/Helvetica exch definefont pop
/Helvetica-Oblique findfont
dup length dict begin
  {1 index /FID ne {def} {pop pop} ifelse} forall
  /Encoding WinAnsiEncoding def
  currentdict
end
/Helvetica-Oblique exch definefont pop
/Helvetica-Bold findfont
dup length dict begin
  {1 index /FID ne {def} {pop pop} ifelse} forall
  /Encoding WinAnsiEncoding def
  currentdict
end
/Helvetica-Bold exch definefont pop
/Helvetica-BoldOblique findfont
dup length dict begin
  {1 index /FID ne {def} {pop pop} ifelse} forall
  /Encoding WinAnsiEncoding def
  currentdict
end
/Helvetica-BoldOblique exch definefont pop
/Times-Roman findfont
dup length dict begin
  {1 index /FID ne {def} {pop pop} ifelse} forall
  /Encoding WinAnsiEncoding def
  currentdict
end
/Times-Roman exch definefont pop
/Times-Italic findfont
dup length dict begin
  {1 index /FID ne {def} {pop pop} ifelse} forall
  /Encoding WinAnsiEncoding def
  currentdict
end
/Times-Italic exch definefont pop
/Times-Bold findfont
dup length dict begin
  {1 index /FID ne {def} {pop pop} ifelse} forall
  /Encoding WinAnsiEncoding def
  currentdict
end
/Times-Bold exch definefont pop
/Times-BoldItalic findfont
dup length dict begin
  {1 index /FID ne {def} {pop pop} ifelse} forall
  /Encoding WinAnsiEncoding def
  currentdict
end
/Times-BoldItalic exch definefont pop
/Courier findfont
dup length dict begin
  {1 index /FID ne {def} {pop pop} ifelse} forall
  /Encoding WinAnsiEncoding def
  currentdict
end
/Courier exch definefont pop
%FOPEndFontReencode
%%EndProlog
%%Page: 1 1
%%PageBoundingBox: 0 0 420 315
%%BeginPageSetup
[1 0 0 -1 0 315] CT
%%EndPageSetup
GS
[0.5 0 0 0.5 0 0] CT
1 GC
N
0 0 840 630 re
f
GR
GS
[0.5 0 0 0.5 0 0] CT
1 GC
N
0 0 840 630 re
f
GR
GS
[0.5 0 0 0.5 0 0] CT
1 GC
N
109 561 M
760 561 L
760 47 L
109 47 L
cp
f
GR
GS
[0.5 0 0 0.5 0 0] CT
0.149 GC
2 setlinecap
1 LJ
N
109 561 M
760 561 L
S
GR
GS
[0.5 0 0 0.5 0 0] CT
0.149 GC
2 setlinecap
1 LJ
N
109 47 M
760 47 L
S
GR
GS
[0.5 0 0 0.5 0 0] CT
0.149 GC
2 setlinecap
1 LJ
N
109 561 M
109 554.49 L
S
GR
GS
[0.5 0 0 0.5 0 0] CT
0.149 GC
2 setlinecap
1 LJ
N
190.375 561 M
190.375 554.49 L
S
GR
GS
[0.5 0 0 0.5 0 0] CT
0.149 GC
2 setlinecap
1 LJ
N
271.75 561 M
271.75 554.49 L
S
GR
GS
[0.5 0 0 0.5 0 0] CT
0.149 GC
2 setlinecap
1 LJ
N
353.125 561 M
353.125 554.49 L
S
GR
GS
[0.5 0 0 0.5 0 0] CT
0.149 GC
2 setlinecap
1 LJ
N
434.5 561 M
434.5 554.49 L
S
GR
GS
[0.5 0 0 0.5 0 0] CT
0.149 GC
2 setlinecap
1 LJ
N
515.875 561 M
515.875 554.49 L
S
GR
GS
[0.5 0 0 0.5 0 0] CT
0.149 GC
2 setlinecap
1 LJ
N
597.25 561 M
597.25 554.49 L
S
GR
GS
[0.5 0 0 0.5 0 0] CT
0.149 GC
2 setlinecap
1 LJ
N
678.625 561 M
678.625 554.49 L
S
GR
GS
[0.5 0 0 0.5 0 0] CT
0.149 GC
2 setlinecap
1 LJ
N
760 561 M
760 554.49 L
S
GR
GS
[0.5 0 0 0.5 0 0] CT
0.149 GC
2 setlinecap
1 LJ
N
109 47 M
109 53.51 L
S
GR
GS
[0.5 0 0 0.5 0 0] CT
0.149 GC
2 setlinecap
1 LJ
N
190.375 47 M
190.375 53.51 L
S
GR
GS
[0.5 0 0 0.5 0 0] CT
0.149 GC
2 setlinecap
1 LJ
N
271.75 47 M
271.75 53.51 L
S
GR
GS
[0.5 0 0 0.5 0 0] CT
0.149 GC
2 setlinecap
1 LJ
N
353.125 47 M
353.125 53.51 L
S
GR
GS
[0.5 0 0 0.5 0 0] CT
0.149 GC
2 setlinecap
1 LJ
N
434.5 47 M
434.5 53.51 L
S
GR
GS
[0.5 0 0 0.5 0 0] CT
0.149 GC
2 setlinecap
1 LJ
N
515.875 47 M
515.875 53.51 L
S
GR
GS
[0.5 0 0 0.5 0 0] CT
0.149 GC
2 setlinecap
1 LJ
N
597.25 47 M
597.25 53.51 L
S
GR
GS
[0.5 0 0 0.5 0 0] CT
0.149 GC
2 setlinecap
1 LJ
N
678.625 47 M
678.625 53.51 L
S
GR
GS
[0.5 0 0 0.5 0 0] CT
0.149 GC
2 setlinecap
1 LJ
N
760 47 M
760 53.51 L
S
GR
GS
[0.5 0 0 0.5 54.5 284.5] CT
0.149 GC
/Helvetica 20 F
GS
[1 0 0 1 0 0] CT
-6 21 moveto 
1 -1 scale
(0) t 
GR
GR
GS
[0.5 0 0 0.5 95.1875 284.5] CT
0.149 GC
/Helvetica 20 F
GS
[1 0 0 1 0 0] CT
-11.5 21 moveto 
1 -1 scale
(50) t 
GR
GR
GS
[0.5 0 0 0.5 135.875 284.5] CT
0.149 GC
/Helvetica 20 F
GS
[1 0 0 1 0 0] CT
-17 21 moveto 
1 -1 scale
(100) t 
GR
GR
GS
[0.5 0 0 0.5 176.5625 284.5] CT
0.149 GC
/Helvetica 20 F
GS
[1 0 0 1 0 0] CT
-17 21 moveto 
1 -1 scale
(150) t 
GR
GR
GS
[0.5 0 0 0.5 217.25 284.5] CT
0.149 GC
/Helvetica 20 F
GS
[1 0 0 1 0 0] CT
-17 21 moveto 
1 -1 scale
(200) t 
GR
GR
GS
[0.5 0 0 0.5 257.9375 284.5] CT
0.149 GC
/Helvetica 20 F
GS
[1 0 0 1 0 0] CT
-17 21 moveto 
1 -1 scale
(250) t 
GR
GR
GS
[0.5 0 0 0.5 298.625 284.5] CT
0.149 GC
/Helvetica 20 F
GS
[1 0 0 1 0 0] CT
-17 21 moveto 
1 -1 scale
(300) t 
GR
GR
GS
[0.5 0 0 0.5 339.3125 284.5] CT
0.149 GC
/Helvetica 20 F
GS
[1 0 0 1 0 0] CT
-17 21 moveto 
1 -1 scale
(350) t 
GR
GR
GS
[0.5 0 0 0.5 380 284.5] CT
0.149 GC
/Helvetica 20 F
GS
[1 0 0 1 0 0] CT
-17 21 moveto 
1 -1 scale
(400) t 
GR
GR
GS
[0.5 0 0 0.5 217.25015 298.5] CT
0.149 GC
/Helvetica 22 F
GS
[1 0 0 1 0 0] CT
-68.5 23 moveto 
1 -1 scale
(Window index) t 
GR
GR
GS
[0.5 0 0 0.5 0 0] CT
0.149 GC
2 setlinecap
1 LJ
N
109 561 M
109 47 L
S
GR
GS
[0.5 0 0 0.5 0 0] CT
0.149 GC
2 setlinecap
1 LJ
N
760 561 M
760 47 L
S
GR
GS
[0.5 0 0 0.5 0 0] CT
0.149 GC
2 setlinecap
1 LJ
N
109 561 M
115.51 561 L
S
GR
GS
[0.5 0 0 0.5 0 0] CT
0.149 GC
2 setlinecap
1 LJ
N
109 475.333 M
115.51 475.333 L
S
GR
GS
[0.5 0 0 0.5 0 0] CT
0.149 GC
2 setlinecap
1 LJ
N
109 389.667 M
115.51 389.667 L
S
GR
GS
[0.5 0 0 0.5 0 0] CT
0.149 GC
2 setlinecap
1 LJ
N
109 304 M
115.51 304 L
S
GR
GS
[0.5 0 0 0.5 0 0] CT
0.149 GC
2 setlinecap
1 LJ
N
109 218.333 M
115.51 218.333 L
S
GR
GS
[0.5 0 0 0.5 0 0] CT
0.149 GC
2 setlinecap
1 LJ
N
109 132.667 M
115.51 132.667 L
S
GR
GS
[0.5 0 0 0.5 0 0] CT
0.149 GC
2 setlinecap
1 LJ
N
109 47 M
115.51 47 L
S
GR
GS
[0.5 0 0 0.5 0 0] CT
0.149 GC
2 setlinecap
1 LJ
N
760 561 M
753.49 561 L
S
GR
GS
[0.5 0 0 0.5 0 0] CT
0.149 GC
2 setlinecap
1 LJ
N
760 475.333 M
753.49 475.333 L
S
GR
GS
[0.5 0 0 0.5 0 0] CT
0.149 GC
2 setlinecap
1 LJ
N
760 389.667 M
753.49 389.667 L
S
GR
GS
[0.5 0 0 0.5 0 0] CT
0.149 GC
2 setlinecap
1 LJ
N
760 304 M
753.49 304 L
S
GR
GS
[0.5 0 0 0.5 0 0] CT
0.149 GC
2 setlinecap
1 LJ
N
760 218.333 M
753.49 218.333 L
S
GR
GS
[0.5 0 0 0.5 0 0] CT
0.149 GC
2 setlinecap
1 LJ
N
760 132.667 M
753.49 132.667 L
S
GR
GS
[0.5 0 0 0.5 0 0] CT
0.149 GC
2 setlinecap
1 LJ
N
760 47 M
753.49 47 L
S
GR
GS
[0.5 0 0 0.5 50.5 280.5] CT
0.149 GC
/Helvetica 20 F
GS
[1 0 0 1 0 0] CT
-12 8 moveto 
1 -1 scale
(0) t 
GR
GR
GS
[0.5 0 0 0.5 50.5 237.66667] CT
0.149 GC
/Helvetica 20 F
GS
[1 0 0 1 0 0] CT
-12 8 moveto 
1 -1 scale
(1) t 
GR
GR
GS
[0.5 0 0 0.5 50.5 194.83333] CT
0.149 GC
/Helvetica 20 F
GS
[1 0 0 1 0 0] CT
-12 8 moveto 
1 -1 scale
(2) t 
GR
GR
GS
[0.5 0 0 0.5 50.5 152] CT
0.149 GC
/Helvetica 20 F
GS
[1 0 0 1 0 0] CT
-12 8 moveto 
1 -1 scale
(3) t 
GR
GR
GS
[0.5 0 0 0.5 50.5 109.16666] CT
0.149 GC
/Helvetica 20 F
GS
[1 0 0 1 0 0] CT
-12 8 moveto 
1 -1 scale
(4) t 
GR
GR
GS
[0.5 0 0 0.5 50.5 66.33334] CT
0.149 GC
/Helvetica 20 F
GS
[1 0 0 1 0 0] CT
-12 8 moveto 
1 -1 scale
(5) t 
GR
GR
GS
[0.5 0 0 0.5 50.5 23.5] CT
0.149 GC
/Helvetica 20 F
GS
[1 0 0 1 0 0] CT
-12 8 moveto 
1 -1 scale
(6) t 
GR
GR
GS
[0 -0.5 0.5 0 41.5 151.99988] CT
0.149 GC
/Helvetica 22 F
GS
[1 0 0 1 0 0] CT
-100 -5 moveto 
1 -1 scale
(Mean Squared Error) t 
GR
GR
GS
[0.5 0 0 0.5 217.25021 22.125] CT
/Helvetica-Bold 22 F
GS
[1 0 0 1 0 0] CT
-92 -5 moveto 
1 -1 scale
(Optimization loss) t 
GR
GR
GS
[0.5 0 0 0.5 0 0] CT
0 0.447 0.741 RC
1 LJ
3 LW
N
110.628 128.849 M
112.255 162.565 L
113.882 197.241 L
115.51 232.459 L
117.137 268.375 L
118.765 303.228 L
120.393 345.689 L
122.02 386.573 L
123.647 424.388 L
125.275 466.119 L
126.902 488.476 L
128.53 495.18 L
130.158 504.911 L
131.785 504.718 L
133.413 503.409 L
135.04 501.217 L
136.667 502.93 L
138.295 504.286 L
139.923 508.668 L
141.55 511.399 L
143.178 510.903 L
144.805 514.928 L
146.432 514.592 L
148.06 515.721 L
149.688 515.644 L
151.315 515.987 L
152.943 517.972 L
154.57 520.392 L
156.197 520.822 L
157.825 522.54 L
159.452 523.299 L
161.08 524.19 L
162.708 524.278 L
164.335 524.521 L
165.962 524.351 L
167.59 527.557 L
169.217 526.979 L
170.845 528.753 L
172.473 528.296 L
174.1 529.924 L
175.727 530.291 L
177.355 531.059 L
178.982 530.633 L
180.61 531.587 L
182.238 531.747 L
183.865 532.653 L
185.492 532.814 L
187.12 533.019 L
188.747 533.336 L
190.375 534.012 L
192.003 533.455 L
193.63 533.42 L
195.258 533.901 L
196.885 534.219 L
198.512 533.956 L
200.14 534.963 L
201.768 534.848 L
203.395 535.458 L
205.023 534.719 L
206.65 535.449 L
208.277 534.984 L
209.905 535.851 L
211.533 535.581 L
213.16 535.132 L
214.788 535.665 L
216.415 535.71 L
218.042 535.046 L
219.67 534.527 L
221.298 535.096 L
222.925 534.941 L
224.553 534.741 L
226.18 534.99 L
227.807 534.935 L
229.435 535.091 L
231.063 535.285 L
232.69 535.294 L
234.318 535.665 L
235.945 535.478 L
237.572 535.734 L
239.2 535.854 L
240.827 535.7 L
242.455 536.228 L
244.083 536.447 L
245.71 536.878 L
247.337 537.542 L
248.965 538.337 L
250.592 539.021 L
252.22 539.582 L
253.848 540.211 L
255.475 540.633 L
257.103 540.758 L
258.73 541.223 L
260.358 541.338 L
261.985 541.306 L
263.612 541.349 L
265.24 541.406 L
266.867 541.522 L
268.495 541.65 L
270.122 541.651 L
271.75 541.474 L
273.378 541.24 L
275.005 538.037 L
276.633 537.696 L
278.26 537.075 L
279.888 536.937 L
281.515 536.451 L
283.142 535.839 L
284.77 535.579 L
286.397 535.005 L
288.025 534.755 L
289.652 534.386 L
291.28 534.097 L
292.908 533.811 L
294.535 533.67 L
296.163 533.469 L
297.79 533.336 L
299.418 533.205 L
301.045 533.223 L
302.672 533.305 L
304.3 533.562 L
305.927 533.902 L
307.555 534.261 L
309.182 534.633 L
310.81 535.168 L
312.438 535.856 L
314.065 536.58 L
315.693 537.104 L
317.32 537.494 L
318.948 537.656 L
320.575 537.781 L
322.203 538.172 L
323.83 541.381 L
325.457 541.375 L
327.085 541.65 L
328.712 541.639 L
330.34 541.691 L
331.967 541.707 L
333.595 541.929 L
335.223 541.972 L
336.85 542.036 L
338.478 541.747 L
340.105 541.63 L
341.733 541.452 L
343.36 541.666 L
344.987 541.452 L
346.615 541.214 L
348.242 541.395 L
349.87 541.286 L
351.497 541.191 L
353.125 541.111 L
354.753 541.41 L
356.38 541.149 L
358.008 541.117 L
359.635 540.942 L
361.263 541.217 L
362.89 541.282 L
364.517 541.462 L
366.145 541.607 L
367.772 541.596 L
369.4 541.701 L
371.027 541.585 L
372.655 541.662 L
374.283 541.116 L
375.91 541.987 L
377.538 541.645 L
379.165 542.128 L
380.793 542.198 L
382.42 542.308 L
384.047 542.205 L
385.675 542.351 L
387.302 542.329 L
388.93 542.296 L
390.557 542.154 L
392.185 542.165 L
393.813 542.169 L
395.44 542.052 L
397.068 539.655 L
398.695 539.554 L
400.323 539.539 L
401.95 539.58 L
403.578 539.511 L
405.205 539.613 L
406.832 539.422 L
408.46 539.443 L
410.087 539.348 L
411.715 539.172 L
413.342 539.378 L
414.97 539.369 L
416.598 539.125 L
418.225 539.397 L
419.853 539.446 L
421.48 539.398 L
423.108 539.314 L
424.735 538.955 L
426.362 539.237 L
427.99 539.261 L
429.617 539.037 L
431.245 539.317 L
432.872 538.918 L
434.5 539.294 L
436.128 539.26 L
437.755 539.272 L
439.383 539.067 L
441.01 539.328 L
442.638 539.382 L
444.265 539.313 L
445.892 542.004 L
447.52 541.966 L
449.147 541.62 L
450.775 541.79 L
452.402 541.839 L
454.03 541.832 L
455.658 541.849 L
457.285 541.788 L
458.913 541.532 L
460.54 541.507 L
462.168 541.32 L
463.795 541.028 L
465.422 541.323 L
467.05 541.33 L
468.677 541.441 L
470.305 541.654 L
471.932 541.544 L
473.56 540.994 L
475.188 541.016 L
476.815 541.272 L
478.443 541.091 L
480.07 540.961 L
481.698 541.107 L
483.325 541.042 L
484.953 540.665 L
486.58 540.961 L
488.207 541.044 L
489.835 540.876 L
491.462 541.055 L
493.09 540.843 L
494.717 541.15 L
496.345 541.142 L
497.973 540.913 L
499.6 541.463 L
501.228 541.447 L
502.855 541.207 L
504.483 541.536 L
506.11 541.751 L
507.737 541.425 L
509.365 541.874 L
510.992 541.315 L
512.62 542.016 L
514.247 542.11 L
515.875 542.093 L
517.503 542.198 L
519.13 542.378 L
520.758 542.423 L
522.385 542.39 L
524.013 541.599 L
525.64 542.386 L
527.268 542.34 L
528.895 542.199 L
530.523 542.262 L
532.15 541.996 L
533.778 542.083 L
535.405 542.047 L
537.032 541.996 L
538.66 541.958 L
540.287 541.776 L
541.915 541.699 L
543.542 541.531 L
545.17 541.102 L
546.797 541.437 L
548.425 541.437 L
550.052 541.306 L
551.68 541.473 L
553.307 541.495 L
554.935 541.478 L
556.563 541.363 L
558.19 541.184 L
559.818 541.294 L
561.445 541.231 L
563.073 540.993 L
564.7 541.408 L
566.328 541.467 L
567.955 541.416 L
569.583 541.183 L
571.21 541.034 L
572.838 540.564 L
574.465 538.52 L
576.093 538.542 L
577.72 538.525 L
579.347 538.526 L
580.975 538.402 L
582.602 538.033 L
584.23 538.454 L
585.857 538.413 L
587.485 538.535 L
589.112 538.539 L
590.74 538.383 L
592.367 538.201 L
593.995 538.336 L
595.622 538.292 L
597.25 537.821 L
598.878 538.391 L
600.505 538.206 L
602.133 538.547 L
603.76 538.584 L
605.388 538.339 L
607.015 537.757 L
608.643 537.906 L
610.27 537.848 L
611.898 537.811 L
613.525 537.804 L
615.153 537.949 L
616.78 537.715 L
618.407 537.712 L
620.035 537.841 L
621.662 537.961 L
623.29 540.369 L
624.917 540.55 L
626.545 540.295 L
628.172 540.78 L
629.8 540.594 L
631.427 540.89 L
633.055 541.274 L
634.682 541.341 L
636.31 541.373 L
637.938 541.544 L
639.565 541.631 L
641.193 541.59 L
642.82 541.937 L
644.448 541.48 L
646.075 541.932 L
647.703 542.089 L
649.33 542.201 L
650.958 542.218 L
652.585 542.404 L
654.213 542.375 L
655.84 542.348 L
657.468 541.914 L
659.095 542.302 L
660.722 542.257 L
662.35 542.174 L
663.977 542.054 L
665.605 541.606 L
667.232 542.005 L
668.86 542.024 L
670.487 542.003 L
672.115 542.008 L
673.742 541.864 L
675.37 541.698 L
676.997 541.514 L
678.625 540.995 L
680.253 541.574 L
681.88 541.542 L
683.508 541.55 L
685.135 541.763 L
686.763 541.826 L
688.39 541.757 L
690.018 541.643 L
691.645 541.527 L
693.273 541.39 L
694.9 541.526 L
696.528 540.938 L
698.155 541.601 L
699.782 541.676 L
701.41 541.587 L
703.037 541.556 L
704.665 541.491 L
706.292 541.154 L
707.92 541.563 L
709.547 541.577 L
711.175 541.613 L
712.802 541.577 L
714.43 541.463 L
716.057 541.572 L
717.685 541.483 L
719.313 541.643 L
720.94 541.674 L
722.568 541.681 L
724.195 541.591 L
S
GR
%%Trailer
%%Pages: 1
%%EOF
