%!PS-Adobe-3.0 EPSF-3.0
%%Creator: (MATLAB, The Mathworks, Inc. Version 9.4.0.813654 \(R2018a\). Operating System: Windows 10)
%%Title: C:/Users/robbe/OneDrive/VUB/Thesis/Thesis/POI_PRBS_Beginning.eps
%%CreationDate: 2019-05-23T02:12:28
%%Pages: (atend)
%%BoundingBox: 0 0 420 315
%%LanguageLevel: 3
%%EndComments
%%BeginProlog
%%BeginResource: procset (Apache XML Graphics Std ProcSet) 1.2 0
%%Version: 1.2 0
%%Copyright: (Copyright 2001-2003,2010 The Apache Software Foundation. License terms: http://www.apache.org/licenses/LICENSE-2.0)
/bd{bind def}bind def
/ld{load def}bd
/GR/grestore ld
/GS/gsave ld
/RM/rmoveto ld
/C/curveto ld
/t/show ld
/L/lineto ld
/ML/setmiterlimit ld
/CT/concat ld
/f/fill ld
/N/newpath ld
/S/stroke ld
/CC/setcmykcolor ld
/A/ashow ld
/cp/closepath ld
/RC/setrgbcolor ld
/LJ/setlinejoin ld
/GC/setgray ld
/LW/setlinewidth ld
/M/moveto ld
/re {4 2 roll M
1 index 0 rlineto
0 exch rlineto
neg 0 rlineto
cp } bd
/_ctm matrix def
/_tm matrix def
/BT { _ctm currentmatrix pop matrix _tm copy pop 0 0 moveto } bd
/ET { _ctm setmatrix } bd
/iTm { _ctm setmatrix _tm concat } bd
/Tm { _tm astore pop iTm 0 0 moveto } bd
/ux 0.0 def
/uy 0.0 def
/F {
  /Tp exch def
  /Tf exch def
  Tf findfont Tp scalefont setfont
  /cf Tf def  /cs Tp def
} bd
/ULS {currentpoint /uy exch def /ux exch def} bd
/ULE {
  /Tcx currentpoint pop def
  gsave
  newpath
  cf findfont cs scalefont dup
  /FontMatrix get 0 get /Ts exch def /FontInfo get dup
  /UnderlinePosition get Ts mul /To exch def
  /UnderlineThickness get Ts mul /Tt exch def
  ux uy To add moveto  Tcx uy To add lineto
  Tt setlinewidth stroke
  grestore
} bd
/OLE {
  /Tcx currentpoint pop def
  gsave
  newpath
  cf findfont cs scalefont dup
  /FontMatrix get 0 get /Ts exch def /FontInfo get dup
  /UnderlinePosition get Ts mul /To exch def
  /UnderlineThickness get Ts mul /Tt exch def
  ux uy To add cs add moveto Tcx uy To add cs add lineto
  Tt setlinewidth stroke
  grestore
} bd
/SOE {
  /Tcx currentpoint pop def
  gsave
  newpath
  cf findfont cs scalefont dup
  /FontMatrix get 0 get /Ts exch def /FontInfo get dup
  /UnderlinePosition get Ts mul /To exch def
  /UnderlineThickness get Ts mul /Tt exch def
  ux uy To add cs 10 mul 26 idiv add moveto Tcx uy To add cs 10 mul 26 idiv add lineto
  Tt setlinewidth stroke
  grestore
} bd
/QT {
/Y22 exch store
/X22 exch store
/Y21 exch store
/X21 exch store
currentpoint
/Y21 load 2 mul add 3 div exch
/X21 load 2 mul add 3 div exch
/X21 load 2 mul /X22 load add 3 div
/Y21 load 2 mul /Y22 load add 3 div
/X22 load /Y22 load curveto
} bd
/SSPD {
dup length /d exch dict def
{
/v exch def
/k exch def
currentpagedevice k known {
/cpdv currentpagedevice k get def
v cpdv ne {
/upd false def
/nullv v type /nulltype eq def
/nullcpdv cpdv type /nulltype eq def
nullv nullcpdv or
{
/upd true def
} {
/sametype v type cpdv type eq def
sametype {
v type /arraytype eq {
/vlen v length def
/cpdvlen cpdv length def
vlen cpdvlen eq {
0 1 vlen 1 sub {
/i exch def
/obj v i get def
/cpdobj cpdv i get def
obj cpdobj ne {
/upd true def
exit
} if
} for
} {
/upd true def
} ifelse
} {
v type /dicttype eq {
v {
/dv exch def
/dk exch def
/cpddv cpdv dk get def
dv cpddv ne {
/upd true def
exit
} if
} forall
} {
/upd true def
} ifelse
} ifelse
} if
} ifelse
upd true eq {
d k v put
} if
} if
} if
} forall
d length 0 gt {
d setpagedevice
} if
} bd
/RE { % /NewFontName [NewEncodingArray] /FontName RE -
  findfont dup length dict begin
  {
    1 index /FID ne
    {def} {pop pop} ifelse
  } forall
  /Encoding exch def
  /FontName 1 index def
  currentdict definefont pop
  end
} bind def
%%EndResource
%%BeginResource: procset (Apache XML Graphics EPS ProcSet) 1.0 0
%%Version: 1.0 0
%%Copyright: (Copyright 2002-2003 The Apache Software Foundation. License terms: http://www.apache.org/licenses/LICENSE-2.0)
/BeginEPSF { %def
/b4_Inc_state save def         % Save state for cleanup
/dict_count countdictstack def % Count objects on dict stack
/op_count count 1 sub def      % Count objects on operand stack
userdict begin                 % Push userdict on dict stack
/showpage { } def              % Redefine showpage, { } = null proc
0 setgray 0 setlinecap         % Prepare graphics state
1 setlinewidth 0 setlinejoin
10 setmiterlimit [ ] 0 setdash newpath
/languagelevel where           % If level not equal to 1 then
{pop languagelevel             % set strokeadjust and
1 ne                           % overprint to their defaults.
{false setstrokeadjust false setoverprint
} if
} if
} bd
/EndEPSF { %def
count op_count sub {pop} repeat            % Clean up stacks
countdictstack dict_count sub {end} repeat
b4_Inc_state restore
} bd
%%EndResource
%FOPBeginFontDict
%%IncludeResource: font Courier-Oblique
%%IncludeResource: font Courier-BoldOblique
%%IncludeResource: font Courier-Bold
%%IncludeResource: font ZapfDingbats
%%IncludeResource: font Symbol
%%IncludeResource: font Helvetica
%%IncludeResource: font Helvetica-Oblique
%%IncludeResource: font Helvetica-Bold
%%IncludeResource: font Helvetica-BoldOblique
%%IncludeResource: font Times-Roman
%%IncludeResource: font Times-Italic
%%IncludeResource: font Times-Bold
%%IncludeResource: font Times-BoldItalic
%%IncludeResource: font Courier
%FOPEndFontDict
%%BeginResource: encoding WinAnsiEncoding
/WinAnsiEncoding [
/.notdef /.notdef /.notdef /.notdef /.notdef
/.notdef /.notdef /.notdef /.notdef /.notdef
/.notdef /.notdef /.notdef /.notdef /.notdef
/.notdef /.notdef /.notdef /.notdef /.notdef
/.notdef /.notdef /.notdef /.notdef /.notdef
/.notdef /.notdef /.notdef /.notdef /.notdef
/.notdef /.notdef /space /exclam /quotedbl
/numbersign /dollar /percent /ampersand /quotesingle
/parenleft /parenright /asterisk /plus /comma
/hyphen /period /slash /zero /one
/two /three /four /five /six
/seven /eight /nine /colon /semicolon
/less /equal /greater /question /at
/A /B /C /D /E
/F /G /H /I /J
/K /L /M /N /O
/P /Q /R /S /T
/U /V /W /X /Y
/Z /bracketleft /backslash /bracketright /asciicircum
/underscore /quoteleft /a /b /c
/d /e /f /g /h
/i /j /k /l /m
/n /o /p /q /r
/s /t /u /v /w
/x /y /z /braceleft /bar
/braceright /asciitilde /bullet /Euro /bullet
/quotesinglbase /florin /quotedblbase /ellipsis /dagger
/daggerdbl /circumflex /perthousand /Scaron /guilsinglleft
/OE /bullet /Zcaron /bullet /bullet
/quoteleft /quoteright /quotedblleft /quotedblright /bullet
/endash /emdash /asciitilde /trademark /scaron
/guilsinglright /oe /bullet /zcaron /Ydieresis
/space /exclamdown /cent /sterling /currency
/yen /brokenbar /section /dieresis /copyright
/ordfeminine /guillemotleft /logicalnot /sfthyphen /registered
/macron /degree /plusminus /twosuperior /threesuperior
/acute /mu /paragraph /middot /cedilla
/onesuperior /ordmasculine /guillemotright /onequarter /onehalf
/threequarters /questiondown /Agrave /Aacute /Acircumflex
/Atilde /Adieresis /Aring /AE /Ccedilla
/Egrave /Eacute /Ecircumflex /Edieresis /Igrave
/Iacute /Icircumflex /Idieresis /Eth /Ntilde
/Ograve /Oacute /Ocircumflex /Otilde /Odieresis
/multiply /Oslash /Ugrave /Uacute /Ucircumflex
/Udieresis /Yacute /Thorn /germandbls /agrave
/aacute /acircumflex /atilde /adieresis /aring
/ae /ccedilla /egrave /eacute /ecircumflex
/edieresis /igrave /iacute /icircumflex /idieresis
/eth /ntilde /ograve /oacute /ocircumflex
/otilde /odieresis /divide /oslash /ugrave
/uacute /ucircumflex /udieresis /yacute /thorn
/ydieresis
] def
%%EndResource
%FOPBeginFontReencode
/Courier-Oblique findfont
dup length dict begin
  {1 index /FID ne {def} {pop pop} ifelse} forall
  /Encoding WinAnsiEncoding def
  currentdict
end
/Courier-Oblique exch definefont pop
/Courier-BoldOblique findfont
dup length dict begin
  {1 index /FID ne {def} {pop pop} ifelse} forall
  /Encoding WinAnsiEncoding def
  currentdict
end
/Courier-BoldOblique exch definefont pop
/Courier-Bold findfont
dup length dict begin
  {1 index /FID ne {def} {pop pop} ifelse} forall
  /Encoding WinAnsiEncoding def
  currentdict
end
/Courier-Bold exch definefont pop
/Helvetica findfont
dup length dict begin
  {1 index /FID ne {def} {pop pop} ifelse} forall
  /Encoding WinAnsiEncoding def
  currentdict
end
/Helvetica exch definefont pop
/Helvetica-Oblique findfont
dup length dict begin
  {1 index /FID ne {def} {pop pop} ifelse} forall
  /Encoding WinAnsiEncoding def
  currentdict
end
/Helvetica-Oblique exch definefont pop
/Helvetica-Bold findfont
dup length dict begin
  {1 index /FID ne {def} {pop pop} ifelse} forall
  /Encoding WinAnsiEncoding def
  currentdict
end
/Helvetica-Bold exch definefont pop
/Helvetica-BoldOblique findfont
dup length dict begin
  {1 index /FID ne {def} {pop pop} ifelse} forall
  /Encoding WinAnsiEncoding def
  currentdict
end
/Helvetica-BoldOblique exch definefont pop
/Times-Roman findfont
dup length dict begin
  {1 index /FID ne {def} {pop pop} ifelse} forall
  /Encoding WinAnsiEncoding def
  currentdict
end
/Times-Roman exch definefont pop
/Times-Italic findfont
dup length dict begin
  {1 index /FID ne {def} {pop pop} ifelse} forall
  /Encoding WinAnsiEncoding def
  currentdict
end
/Times-Italic exch definefont pop
/Times-Bold findfont
dup length dict begin
  {1 index /FID ne {def} {pop pop} ifelse} forall
  /Encoding WinAnsiEncoding def
  currentdict
end
/Times-Bold exch definefont pop
/Times-BoldItalic findfont
dup length dict begin
  {1 index /FID ne {def} {pop pop} ifelse} forall
  /Encoding WinAnsiEncoding def
  currentdict
end
/Times-BoldItalic exch definefont pop
/Courier findfont
dup length dict begin
  {1 index /FID ne {def} {pop pop} ifelse} forall
  /Encoding WinAnsiEncoding def
  currentdict
end
/Courier exch definefont pop
%FOPEndFontReencode
%%EndProlog
%%Page: 1 1
%%PageBoundingBox: 0 0 420 315
%%BeginPageSetup
[1 0 0 -1 0 315] CT
%%EndPageSetup
GS
[0.5 0 0 0.5 0 0] CT
1 GC
N
0 0 840 630 re
f
GR
GS
[0.5 0 0 0.5 0 0] CT
1 GC
N
0 0 840 630 re
f
GR
GS
[0.5 0 0 0.5 0 0] CT
1 GC
N
109 261 M
760 261 L
760 47 L
109 47 L
cp
f
GR
GS
[0.5 0 0 0.5 0 0] CT
0.149 GC
2 setlinecap
1 LJ
N
109 261 M
760 261 L
S
GR
GS
[0.5 0 0 0.5 0 0] CT
0.149 GC
2 setlinecap
1 LJ
N
109 47 M
760 47 L
S
GR
GS
[0.5 0 0 0.5 0 0] CT
0.149 GC
2 setlinecap
1 LJ
N
109 261 M
109 254.49 L
S
GR
GS
[0.5 0 0 0.5 0 0] CT
0.149 GC
2 setlinecap
1 LJ
N
321.15 261 M
321.15 254.49 L
S
GR
GS
[0.5 0 0 0.5 0 0] CT
0.149 GC
2 setlinecap
1 LJ
N
533.3 261 M
533.3 254.49 L
S
GR
GS
[0.5 0 0 0.5 0 0] CT
0.149 GC
2 setlinecap
1 LJ
N
745.449 261 M
745.449 254.49 L
S
GR
GS
[0.5 0 0 0.5 0 0] CT
0.149 GC
2 setlinecap
1 LJ
N
109 47 M
109 53.51 L
S
GR
GS
[0.5 0 0 0.5 0 0] CT
0.149 GC
2 setlinecap
1 LJ
N
321.15 47 M
321.15 53.51 L
S
GR
GS
[0.5 0 0 0.5 0 0] CT
0.149 GC
2 setlinecap
1 LJ
N
533.3 47 M
533.3 53.51 L
S
GR
GS
[0.5 0 0 0.5 0 0] CT
0.149 GC
2 setlinecap
1 LJ
N
745.449 47 M
745.449 53.51 L
S
GR
GS
[0.5 0 0 0.5 54.5 133.30006] CT
0.149 GC
/Helvetica 18 F
GS
[1 0 0 1 0 0] CT
-5.5 19 moveto 
1 -1 scale
(0) t 
GR
GR
GS
[0.5 0 0 0.5 160.57491 133.30006] CT
0.149 GC
/Helvetica 18 F
GS
[1 0 0 1 0 0] CT
-10.5 19 moveto 
1 -1 scale
(50) t 
GR
GR
GS
[0.5 0 0 0.5 266.64981 133.30006] CT
0.149 GC
/Helvetica 18 F
GS
[1 0 0 1 0 0] CT
-15.5 19 moveto 
1 -1 scale
(100) t 
GR
GR
GS
[0.5 0 0 0.5 372.7247 133.30006] CT
0.149 GC
/Helvetica 18 F
GS
[1 0 0 1 0 0] CT
-15.5 19 moveto 
1 -1 scale
(150) t 
GR
GR
GS
[0.5 0 0 0.5 217.25017 145.30002] CT
0.149 GC
/Helvetica 19.8 F
GS
[1 0 0 1 0 0] CT
-36.5 20 moveto 
1 -1 scale
(Time \(s\)) t 
GR
GR
GS
[0.5 0 0 0.5 0 0] CT
0.149 GC
2 setlinecap
1 LJ
N
109 261 M
109 47 L
S
GR
GS
[0.5 0 0 0.5 0 0] CT
0.149 GC
2 setlinecap
1 LJ
N
760 261 M
760 47 L
S
GR
GS
[0.5 0 0 0.5 0 0] CT
0.149 GC
2 setlinecap
1 LJ
N
109 236.024 M
115.51 236.024 L
S
GR
GS
[0.5 0 0 0.5 0 0] CT
0.149 GC
2 setlinecap
1 LJ
N
109 173.016 M
115.51 173.016 L
S
GR
GS
[0.5 0 0 0.5 0 0] CT
0.149 GC
2 setlinecap
1 LJ
N
109 110.008 M
115.51 110.008 L
S
GR
GS
[0.5 0 0 0.5 0 0] CT
0.149 GC
2 setlinecap
1 LJ
N
109 47 M
115.51 47 L
S
GR
GS
[0.5 0 0 0.5 0 0] CT
0.149 GC
2 setlinecap
1 LJ
N
760 236.024 M
753.49 236.024 L
S
GR
GS
[0.5 0 0 0.5 0 0] CT
0.149 GC
2 setlinecap
1 LJ
N
760 173.016 M
753.49 173.016 L
S
GR
GS
[0.5 0 0 0.5 0 0] CT
0.149 GC
2 setlinecap
1 LJ
N
760 110.008 M
753.49 110.008 L
S
GR
GS
[0.5 0 0 0.5 0 0] CT
0.149 GC
2 setlinecap
1 LJ
N
760 47 M
753.49 47 L
S
GR
GS
[0.5 0 0 0.5 51.7 118.01216] CT
0.149 GC
/Helvetica 18 F
GS
[1 0 0 1 0 0] CT
-11 7.5 moveto 
1 -1 scale
(4) t 
GR
GR
GS
[0.5 0 0 0.5 51.7 86.50799] CT
0.149 GC
/Helvetica 18 F
GS
[1 0 0 1 0 0] CT
-36 7.5 moveto 
1 -1 scale
(4.05) t 
GR
GR
GS
[0.5 0 0 0.5 51.7 55.00411] CT
0.149 GC
/Helvetica 18 F
GS
[1 0 0 1 0 0] CT
-26 7.5 moveto 
1 -1 scale
(4.1) t 
GR
GR
GS
[0.5 0 0 0.5 51.7 23.49994] CT
0.149 GC
/Helvetica 18 F
GS
[1 0 0 1 0 0] CT
-36 7.5 moveto 
1 -1 scale
(4.15) t 
GR
GR
GS
[0 -0.5 0.5 0 31.7 77.00007] CT
0.149 GC
/Helvetica 19.8 F
GS
[1 0 0 1 0 0] CT
-49.5 -5 moveto 
1 -1 scale
(Voltage \(V\)) t 
GR
GR
GS
[0.5 0 0 0.5 217.25021 22.2624] CT
/Helvetica-Bold 19.8 F
GS
[1 0 0 1 0 0] CT
-56 -5 moveto 
1 -1 scale
(Cell voltage) t 
GR
GR
GS
[0.5 0 0 0.5 0 0] CT
0 0.447 0.741 RC
1 LJ
N
109 69.683 M
109.849 69.683 L
110.697 69.683 L
111.546 69.683 L
112.394 69.683 L
113.243 69.683 L
114.092 69.683 L
114.94 230.983 L
115.789 230.983 L
116.637 230.983 L
117.486 230.983 L
118.335 230.983 L
119.183 74.724 L
120.032 69.683 L
120.88 69.683 L
121.729 69.683 L
122.578 69.683 L
123.426 230.983 L
124.275 230.983 L
125.123 230.983 L
125.972 230.983 L
126.821 236.024 L
127.669 236.024 L
128.645 236.024 L
129.366 236.024 L
130.215 236.024 L
131.064 236.024 L
131.912 236.024 L
132.761 236.024 L
133.609 236.024 L
134.458 236.024 L
135.307 236.024 L
136.155 74.724 L
137.004 74.724 L
137.852 74.724 L
138.701 74.724 L
139.55 74.724 L
140.398 74.724 L
141.247 69.683 L
142.095 69.683 L
142.944 69.683 L
143.793 69.683 L
144.641 69.683 L
145.49 69.683 L
146.338 69.683 L
147.187 69.683 L
148.036 69.683 L
148.884 230.983 L
149.733 230.983 L
150.581 230.983 L
151.43 230.983 L
152.279 230.983 L
153.127 74.724 L
153.976 69.683 L
154.824 69.683 L
155.673 69.683 L
156.522 69.683 L
157.37 69.683 L
158.219 69.683 L
159.067 69.683 L
159.916 69.683 L
160.765 69.683 L
161.613 230.983 L
162.462 230.983 L
163.31 230.983 L
164.159 230.983 L
165.008 230.983 L
165.856 74.724 L
166.705 69.683 L
167.553 69.683 L
168.36 69.683 L
169.208 69.683 L
170.099 230.983 L
170.948 230.983 L
171.796 230.983 L
172.645 230.983 L
173.494 230.983 L
174.342 230.983 L
175.191 230.983 L
176.039 236.024 L
176.846 236.024 L
177.694 236.024 L
178.543 74.724 L
179.434 69.683 L
180.282 74.724 L
181.131 69.683 L
181.98 69.683 L
182.828 230.983 L
183.677 230.983 L
184.483 230.983 L
185.331 236.024 L
186.18 236.024 L
187.029 236.024 L
187.92 236.024 L
188.768 236.024 L
189.617 236.024 L
190.466 236.024 L
191.314 74.724 L
192.163 74.724 L
193.011 74.724 L
193.86 74.724 L
194.709 74.724 L
195.557 230.983 L
196.406 236.024 L
197.254 236.024 L
198.103 236.024 L
198.952 236.024 L
199.8 236.024 L
200.649 236.024 L
201.497 236.024 L
202.346 236.024 L
203.195 236.024 L
204.17 236.024 L
204.892 236.024 L
205.783 236.024 L
206.589 236.024 L
207.438 236.024 L
208.286 74.724 L
209.135 74.724 L
209.983 74.724 L
210.832 74.724 L
211.681 74.724 L
212.529 230.983 L
213.378 236.024 L
214.226 236.024 L
215.075 236.024 L
215.924 236.024 L
216.772 236.024 L
217.621 236.024 L
218.469 236.024 L
219.318 236.024 L
220.167 236.024 L
221.015 236.024 L
221.864 236.024 L
222.712 236.024 L
223.561 236.024 L
224.41 236.024 L
225.258 236.024 L
226.107 236.024 L
226.955 236.024 L
227.804 236.024 L
228.652 236.024 L
229.501 74.724 L
230.35 74.724 L
231.198 74.724 L
232.047 74.724 L
232.895 74.724 L
233.744 236.024 L
234.593 236.024 L
235.441 236.024 L
236.29 236.024 L
237.138 236.024 L
237.987 236.024 L
238.836 236.024 L
239.684 236.024 L
240.533 236.024 L
241.381 236.024 L
242.23 236.024 L
243.206 236.024 L
243.97 236.024 L
244.776 236.024 L
245.624 236.024 L
246.473 74.724 L
247.322 74.724 L
248.17 74.724 L
249.019 74.724 L
249.867 74.724 L
250.716 236.024 L
251.565 236.024 L
252.413 236.024 L
253.262 236.024 L
254.11 236.024 L
254.959 74.724 L
255.808 74.724 L
256.656 74.724 L
257.505 74.724 L
258.353 74.724 L
259.202 74.724 L
260.051 74.724 L
260.899 74.724 L
261.748 74.724 L
262.596 74.724 L
263.445 236.024 L
264.294 236.024 L
265.142 236.024 L
265.991 236.024 L
266.839 236.024 L
267.688 236.024 L
268.537 236.024 L
269.385 236.024 L
270.234 241.065 L
271.125 241.065 L
271.931 236.024 L
272.78 236.024 L
273.628 241.065 L
274.477 241.065 L
275.325 241.065 L
276.174 241.065 L
277.023 241.065 L
277.871 241.065 L
278.72 241.065 L
279.568 241.065 L
280.417 241.065 L
281.435 241.065 L
282.114 241.065 L
282.963 241.065 L
283.811 241.065 L
284.66 241.065 L
285.509 241.065 L
286.357 241.065 L
287.206 241.065 L
288.054 241.065 L
288.903 74.724 L
289.752 74.724 L
290.6 74.724 L
291.449 74.724 L
292.297 74.724 L
293.146 241.065 L
293.995 241.065 L
294.843 241.065 L
295.692 241.065 L
296.54 241.065 L
297.389 74.724 L
298.238 74.724 L
299.086 74.724 L
299.935 74.724 L
300.783 74.724 L
301.632 241.065 L
302.481 241.065 L
303.329 241.065 L
304.178 241.065 L
305.026 241.065 L
305.875 74.724 L
306.724 74.724 L
307.572 74.724 L
308.421 74.724 L
309.269 74.724 L
310.118 241.065 L
310.967 241.065 L
311.815 241.065 L
312.664 241.065 L
313.512 241.065 L
314.361 241.065 L
315.21 241.065 L
316.058 241.065 L
316.907 241.065 L
317.755 241.065 L
318.604 241.065 L
319.453 241.065 L
320.301 241.065 L
321.15 241.065 L
321.998 241.065 L
322.847 74.724 L
323.696 74.724 L
324.544 74.724 L
325.393 74.724 L
326.241 74.724 L
327.09 74.724 L
327.939 74.724 L
328.787 74.724 L
329.636 74.724 L
330.484 74.724 L
331.333 236.024 L
332.182 241.065 L
333.03 241.065 L
333.879 241.065 L
334.727 236.024 L
335.576 74.724 L
336.425 74.724 L
337.273 74.724 L
338.122 74.724 L
338.97 74.724 L
339.819 74.724 L
340.668 74.724 L
341.516 74.724 L
342.365 74.724 L
343.213 74.724 L
344.062 74.724 L
344.911 74.724 L
345.759 74.724 L
346.565 74.724 L
347.414 74.724 L
348.263 236.024 L
349.154 236.024 L
350.002 236.024 L
350.851 236.024 L
351.699 236.024 L
352.548 74.724 L
353.397 74.724 L
354.245 74.724 L
355.094 74.724 L
355.942 74.724 L
356.791 236.024 L
357.64 236.024 L
358.488 236.024 L
359.337 236.024 L
360.185 236.024 L
361.034 236.024 L
361.883 236.024 L
362.731 236.024 L
363.58 236.024 L
364.428 236.024 L
365.277 236.024 L
366.126 236.024 L
366.974 236.024 L
367.823 236.024 L
368.671 236.024 L
369.52 74.724 L
370.369 74.724 L
371.217 74.724 L
372.066 74.724 L
372.914 74.724 L
373.763 241.065 L
374.612 236.024 L
375.46 236.024 L
376.309 236.024 L
377.157 236.024 L
378.006 74.724 L
378.855 74.724 L
379.703 74.724 L
380.552 74.724 L
381.4 74.724 L
382.249 74.724 L
383.098 74.724 L
383.946 74.724 L
384.795 74.724 L
385.643 74.724 L
386.492 236.024 L
387.341 236.024 L
388.189 236.024 L
389.038 236.024 L
389.886 236.024 L
390.735 236.024 L
391.584 236.024 L
392.432 236.024 L
393.281 236.024 L
394.299 236.024 L
394.978 236.024 L
395.827 236.024 L
396.675 236.024 L
397.524 236.024 L
398.372 236.024 L
399.221 236.024 L
400.07 241.065 L
400.918 241.065 L
401.767 241.065 L
402.615 241.065 L
403.464 74.724 L
404.313 74.724 L
405.161 74.724 L
406.01 74.724 L
406.858 74.724 L
407.707 241.065 L
408.556 241.065 L
409.404 241.065 L
410.21 241.065 L
411.059 241.065 L
411.907 74.724 L
412.799 74.724 L
413.647 74.724 L
414.496 74.724 L
415.344 74.724 L
416.193 241.065 L
417.042 241.065 L
417.89 241.065 L
418.739 241.065 L
419.587 241.065 L
420.436 241.065 L
421.284 241.065 L
422.133 241.065 L
422.982 241.065 L
423.83 241.065 L
424.679 241.065 L
425.527 241.065 L
426.376 241.065 L
427.225 241.065 L
428.073 241.065 L
428.922 74.724 L
429.77 74.724 L
430.619 74.724 L
431.468 74.724 L
432.316 74.724 L
433.165 241.065 L
434.013 241.065 L
434.862 241.065 L
435.711 241.065 L
436.559 241.065 L
437.408 241.065 L
438.256 241.065 L
439.105 241.065 L
439.954 241.065 L
440.802 241.065 L
441.651 241.065 L
442.499 246.105 L
443.348 246.105 L
444.197 246.105 L
445.045 246.105 L
445.894 79.764 L
446.742 74.724 L
447.591 74.724 L
448.44 74.724 L
449.288 74.724 L
450.137 74.724 L
450.985 74.724 L
451.834 74.724 L
452.683 74.724 L
453.531 74.724 L
454.38 74.724 L
455.228 74.724 L
456.077 74.724 L
456.926 74.724 L
457.774 74.724 L
458.623 236.024 L
459.471 241.065 L
460.32 241.065 L
461.169 241.065 L
462.017 241.065 L
462.866 241.065 L
463.714 241.065 L
464.563 241.065 L
465.412 241.065 L
466.26 241.065 L
467.109 74.724 L
467.957 74.724 L
468.806 74.724 L
469.655 74.724 L
470.503 74.724 L
471.352 74.724 L
472.2 74.724 L
473.049 74.724 L
473.898 74.724 L
474.746 74.724 L
475.595 74.724 L
476.443 74.724 L
477.292 74.724 L
478.141 74.724 L
478.989 74.724 L
479.838 236.024 L
480.686 241.065 L
481.535 241.065 L
482.384 241.065 L
483.232 241.065 L
484.081 241.065 L
484.929 241.065 L
485.778 241.065 L
486.627 241.065 L
487.475 241.065 L
488.324 241.065 L
489.172 241.065 L
490.021 241.065 L
490.87 241.065 L
491.718 241.065 L
492.567 241.065 L
493.415 241.065 L
494.264 241.065 L
495.113 241.065 L
495.961 241.065 L
496.81 74.724 L
497.658 74.724 L
498.507 74.724 L
499.356 74.724 L
500.204 74.724 L
501.053 74.724 L
501.901 74.724 L
502.75 74.724 L
503.599 74.724 L
504.447 74.724 L
505.296 241.065 L
506.144 241.065 L
506.993 241.065 L
508.011 241.065 L
508.69 241.065 L
509.539 241.065 L
510.387 241.065 L
511.236 241.065 L
512.085 241.065 L
512.933 241.065 L
513.782 74.724 L
514.63 74.724 L
515.479 74.724 L
516.328 74.724 L
517.176 74.724 L
518.025 236.024 L
518.873 236.024 L
519.722 236.024 L
520.571 236.024 L
521.419 236.024 L
522.268 241.065 L
523.116 236.024 L
523.965 241.065 L
524.814 241.065 L
525.662 241.065 L
526.511 74.724 L
527.359 74.724 L
528.208 74.724 L
529.057 74.724 L
529.905 74.724 L
530.754 74.724 L
531.602 74.724 L
532.451 74.724 L
533.3 74.724 L
534.148 74.724 L
534.997 74.724 L
535.845 74.724 L
536.694 74.724 L
537.543 74.724 L
538.391 74.724 L
539.24 74.724 L
540.088 74.724 L
540.937 74.724 L
541.786 74.724 L
542.634 74.724 L
543.483 236.024 L
544.331 236.024 L
545.222 236.024 L
546.029 236.024 L
546.877 236.024 L
547.726 74.724 L
548.574 74.724 L
549.423 74.724 L
550.272 74.724 L
551.078 74.724 L
551.926 74.724 L
552.775 74.724 L
553.666 74.724 L
554.515 74.724 L
555.363 74.724 L
556.212 236.024 L
557.06 236.024 L
557.909 236.024 L
558.758 236.024 L
559.606 241.065 L
560.455 74.724 L
561.303 74.724 L
562.152 74.724 L
563.001 74.724 L
563.849 74.724 L
564.698 74.724 L
565.546 74.724 L
566.395 74.724 L
567.244 74.724 L
568.092 74.724 L
568.941 236.024 L
569.789 236.024 L
570.638 236.024 L
571.487 241.065 L
572.335 241.065 L
573.184 74.724 L
574.032 74.724 L
574.881 74.724 L
575.73 74.724 L
576.578 74.724 L
577.427 236.024 L
578.275 236.024 L
579.124 236.024 L
579.973 236.024 L
580.821 241.065 L
581.67 241.065 L
582.561 241.065 L
583.367 241.065 L
584.216 241.065 L
585.107 241.065 L
585.913 241.065 L
586.761 241.065 L
587.61 241.065 L
588.459 241.065 L
589.307 241.065 L
590.156 241.065 L
591.004 241.065 L
591.853 241.065 L
592.702 241.065 L
593.55 241.065 L
594.399 241.065 L
595.247 241.065 L
596.096 241.065 L
596.945 241.065 L
597.793 241.065 L
598.642 74.724 L
599.49 74.724 L
600.297 74.724 L
601.145 74.724 L
601.994 74.724 L
602.842 241.065 L
603.733 241.065 L
604.582 241.065 L
605.431 241.065 L
606.279 241.065 L
607.128 241.065 L
607.976 241.065 L
608.825 241.065 L
609.674 241.065 L
610.522 241.065 L
611.371 241.065 L
612.219 241.065 L
613.068 241.065 L
613.917 246.105 L
614.765 241.065 L
615.614 79.764 L
616.462 74.724 L
617.311 74.724 L
618.16 74.724 L
619.008 74.724 L
619.857 74.724 L
620.875 74.724 L
621.554 74.724 L
622.403 74.724 L
623.251 74.724 L
624.1 241.065 L
624.948 241.065 L
625.797 241.065 L
626.646 241.065 L
627.494 241.065 L
628.343 241.065 L
629.191 241.065 L
630.04 241.065 L
630.888 241.065 L
631.737 241.065 L
632.586 241.065 L
633.434 241.065 L
634.283 241.065 L
635.132 241.065 L
635.98 246.105 L
636.829 241.065 L
637.677 246.105 L
638.526 246.105 L
639.375 246.105 L
640.223 246.105 L
641.072 79.764 L
641.92 74.724 L
642.769 74.724 L
643.617 74.724 L
644.466 74.724 L
645.315 74.724 L
646.163 74.724 L
647.012 74.724 L
647.86 74.724 L
648.709 74.724 L
649.558 241.065 L
650.406 241.065 L
651.255 241.065 L
652.104 241.065 L
652.952 241.065 L
653.801 74.724 L
654.649 74.724 L
655.498 74.724 L
656.346 74.724 L
657.195 74.724 L
658.213 74.724 L
658.892 74.724 L
659.741 74.724 L
660.589 74.724 L
661.438 74.724 L
662.287 241.065 L
663.135 241.065 L
663.984 241.065 L
664.832 241.065 L
665.681 241.065 L
666.53 74.724 L
667.378 74.724 L
668.227 74.724 L
669.076 74.724 L
669.924 74.724 L
670.773 74.724 L
671.621 74.724 L
672.47 74.724 L
673.318 74.724 L
674.167 74.724 L
675.016 74.724 L
675.864 74.724 L
676.713 74.724 L
677.561 74.724 L
678.41 74.724 L
679.259 74.724 L
680.107 74.724 L
680.956 74.724 L
681.804 74.724 L
682.653 74.724 L
683.502 236.024 L
684.35 236.024 L
685.199 236.024 L
686.047 236.024 L
686.896 241.065 L
687.745 74.724 L
688.593 74.724 L
689.442 74.724 L
690.29 74.724 L
691.139 74.724 L
691.988 74.724 L
692.836 74.724 L
693.685 74.724 L
694.533 74.724 L
695.509 74.724 L
696.273 74.724 L
697.079 74.724 L
697.928 74.724 L
698.776 74.724 L
699.625 74.724 L
700.474 236.024 L
701.322 236.024 L
702.171 236.024 L
703.019 236.024 L
703.868 236.024 L
704.717 236.024 L
705.565 241.065 L
706.414 241.065 L
707.262 241.065 L
708.111 241.065 L
708.96 241.065 L
709.808 241.065 L
710.657 241.065 L
711.505 241.065 L
712.354 241.065 L
713.203 74.724 L
714.051 74.724 L
714.9 74.724 L
715.748 74.724 L
716.597 74.724 L
717.446 236.024 L
718.252 241.065 L
719.1 241.065 L
719.949 241.065 L
720.84 241.065 L
721.689 74.724 L
722.537 74.724 L
723.386 74.724 L
724.234 74.724 L
725.083 74.724 L
725.932 236.024 L
726.78 241.065 L
727.629 241.065 L
728.477 241.065 L
729.326 241.065 L
730.175 74.724 L
731.023 74.724 L
731.872 74.724 L
732.72 74.724 L
733.696 74.724 L
734.418 74.724 L
735.266 74.724 L
736.115 74.724 L
736.963 74.724 L
737.812 74.724 L
738.661 74.724 L
739.509 74.724 L
740.358 74.724 L
741.206 74.724 L
742.055 74.724 L
742.904 236.024 L
743.752 236.024 L
744.601 236.024 L
745.449 236.024 L
746.298 241.065 L
747.147 74.724 L
747.995 74.724 L
748.844 74.724 L
749.692 74.724 L
750.541 74.724 L
751.39 236.024 L
752.238 236.024 L
753.087 236.024 L
753.935 236.024 L
754.784 236.024 L
755.633 236.024 L
756.481 241.065 L
757.33 241.065 L
758.178 241.065 L
759.027 241.065 L
759.876 74.724 L
760.078 74.724 L
S
GR
GS
[0.5 0 0 0.5 0 0] CT
0.851 0.325 0.098 RC
1 LJ
N
109 57.451 M
109.849 57.457 L
110.697 57.48 L
111.546 57.486 L
112.394 57.492 L
113.243 57.481 L
114.092 57.487 L
114.94 152.155 L
115.789 152.237 L
116.637 152.3 L
117.486 152.381 L
118.335 152.461 L
119.183 57.105 L
120.032 57.42 L
120.88 57.529 L
121.729 57.552 L
122.578 57.576 L
123.426 152.45 L
124.275 152.48 L
125.123 152.544 L
125.972 152.59 L
126.821 152.67 L
127.669 152.734 L
128.645 152.797 L
129.366 152.878 L
130.215 152.941 L
131.064 153.022 L
131.912 153.086 L
132.761 153.183 L
133.609 153.247 L
134.458 153.31 L
135.307 153.373 L
136.155 57.57 L
137.004 57.866 L
137.852 57.991 L
138.701 58.083 L
139.55 58.105 L
140.398 58.145 L
141.247 58.151 L
142.095 58.19 L
142.944 58.213 L
143.793 58.202 L
144.641 58.225 L
145.49 58.248 L
146.338 58.237 L
147.187 58.243 L
148.036 58.249 L
148.884 153.038 L
149.733 153.05 L
150.581 153.114 L
151.43 153.212 L
152.279 153.293 L
153.127 57.885 L
153.976 58.166 L
154.824 58.24 L
155.673 58.28 L
156.522 58.321 L
157.37 58.292 L
158.219 58.333 L
159.067 58.322 L
159.916 58.345 L
160.765 58.335 L
161.613 152.882 L
162.462 152.912 L
163.31 152.958 L
164.159 153.022 L
165.008 153.102 L
165.856 57.952 L
166.705 58.302 L
167.553 58.377 L
168.36 58.435 L
169.208 58.423 L
170.099 152.937 L
170.948 152.983 L
171.796 153.03 L
172.645 153.076 L
173.494 153.156 L
174.342 153.202 L
175.191 153.283 L
176.039 153.328 L
176.846 153.391 L
177.694 153.437 L
178.543 58.219 L
179.434 58.533 L
180.282 58.59 L
181.131 58.664 L
181.98 58.705 L
182.828 153.682 L
183.677 153.712 L
184.483 153.775 L
185.331 153.839 L
186.18 153.902 L
187.029 153.965 L
187.92 154.011 L
188.768 154.091 L
189.617 154.138 L
190.466 154.218 L
191.314 58.431 L
192.163 58.849 L
193.011 58.923 L
193.86 58.997 L
194.709 59.036 L
195.557 154.1 L
196.406 154.129 L
197.254 154.192 L
198.103 154.255 L
198.952 154.318 L
199.8 154.364 L
200.649 154.444 L
201.497 154.507 L
202.346 154.587 L
203.195 154.65 L
204.17 154.73 L
204.892 154.793 L
205.783 154.856 L
206.589 154.953 L
207.438 155.016 L
208.286 59.074 L
209.135 59.405 L
209.983 59.547 L
210.832 59.603 L
211.681 59.642 L
212.529 154.911 L
213.378 154.905 L
214.226 154.951 L
215.075 155.014 L
215.924 155.059 L
216.772 155.139 L
217.621 155.201 L
218.469 155.264 L
219.318 155.344 L
220.167 155.406 L
221.015 155.486 L
221.864 155.531 L
222.712 155.611 L
223.561 155.656 L
224.41 155.718 L
225.258 155.798 L
226.107 155.843 L
226.955 155.922 L
227.804 155.967 L
228.652 156.029 L
229.501 60.052 L
230.35 60.4 L
231.198 60.507 L
232.047 60.579 L
232.895 60.635 L
233.744 156.299 L
234.593 156.345 L
235.441 156.39 L
236.29 156.453 L
237.138 156.532 L
237.987 156.612 L
238.836 156.675 L
239.684 156.72 L
240.533 156.8 L
241.381 156.88 L
242.23 156.959 L
243.206 157.039 L
243.97 157.084 L
244.776 157.163 L
245.624 157.243 L
246.473 60.922 L
247.322 61.218 L
248.17 61.324 L
249.019 61.413 L
249.867 61.469 L
250.716 157.15 L
251.565 157.195 L
252.413 157.24 L
253.262 157.303 L
254.11 157.365 L
254.959 61.199 L
255.808 61.511 L
256.656 61.635 L
257.505 61.674 L
258.353 61.712 L
259.202 61.75 L
260.051 61.771 L
260.899 61.793 L
261.748 61.796 L
262.596 61.818 L
263.445 157.758 L
264.294 157.89 L
265.142 157.937 L
265.991 158.017 L
266.839 158.098 L
267.688 158.144 L
268.537 158.19 L
269.385 158.27 L
270.234 158.316 L
271.125 158.379 L
271.931 158.477 L
272.78 158.54 L
273.628 158.586 L
274.477 158.666 L
275.325 158.729 L
276.174 158.827 L
277.023 158.89 L
277.871 158.97 L
278.72 159.033 L
279.568 159.113 L
280.417 159.176 L
281.435 159.239 L
282.114 159.284 L
282.963 159.364 L
283.811 159.427 L
284.66 159.49 L
285.509 159.57 L
286.357 159.615 L
287.206 159.695 L
288.054 159.775 L
288.903 62.542 L
289.752 62.974 L
290.6 63.063 L
291.449 63.134 L
292.297 63.189 L
293.146 161.141 L
293.995 161.257 L
294.843 161.356 L
295.692 161.455 L
296.54 161.537 L
297.389 62.964 L
298.238 63.259 L
299.086 63.365 L
299.935 63.437 L
300.783 63.474 L
301.632 161.34 L
302.481 161.388 L
303.329 161.47 L
304.178 161.552 L
305.026 161.633 L
305.875 63.232 L
306.724 63.578 L
307.572 63.685 L
308.421 63.722 L
309.269 63.777 L
310.118 161.471 L
310.967 161.519 L
311.815 161.566 L
312.664 161.648 L
313.512 161.712 L
314.361 161.811 L
315.21 161.91 L
316.058 161.975 L
316.907 162.056 L
317.755 162.137 L
318.604 162.202 L
319.453 162.283 L
320.301 162.365 L
321.15 162.429 L
321.998 162.477 L
322.847 63.886 L
323.696 64.197 L
324.544 64.303 L
325.393 64.409 L
326.241 64.463 L
327.09 64.483 L
327.939 64.538 L
328.787 64.557 L
329.636 64.578 L
330.484 64.581 L
331.333 162.017 L
332.182 161.754 L
333.03 161.457 L
333.879 161.244 L
334.727 161.29 L
335.576 64.23 L
336.425 64.645 L
337.273 64.717 L
338.122 64.754 L
338.97 64.792 L
339.819 64.847 L
340.668 64.851 L
341.516 64.871 L
342.365 64.857 L
343.213 64.861 L
344.062 64.865 L
344.911 64.869 L
345.759 64.873 L
346.565 64.894 L
347.414 64.881 L
348.263 160.648 L
349.154 160.642 L
350.002 160.705 L
350.851 160.768 L
351.699 160.796 L
352.548 64.424 L
353.397 64.771 L
354.245 64.843 L
355.094 64.882 L
355.942 64.92 L
356.791 160.739 L
357.64 160.751 L
358.488 160.796 L
359.337 160.824 L
360.185 160.973 L
361.034 160.898 L
361.883 160.96 L
362.731 161.022 L
363.58 161.085 L
364.428 161.164 L
365.277 161.209 L
366.126 161.289 L
366.974 161.385 L
367.823 161.448 L
368.671 161.509 L
369.52 64.845 L
370.369 65.174 L
371.217 65.28 L
372.066 65.351 L
372.914 65.372 L
373.763 164.459 L
374.612 163.476 L
375.46 161.717 L
376.309 161.762 L
377.157 161.808 L
378.006 65.108 L
378.855 65.506 L
379.703 65.578 L
380.552 65.632 L
381.4 65.687 L
382.249 65.707 L
383.098 65.728 L
383.946 65.749 L
384.795 65.77 L
385.643 65.774 L
386.492 161.541 L
387.341 161.483 L
388.189 161.511 L
389.038 161.573 L
389.886 161.601 L
390.735 161.681 L
391.584 161.76 L
392.432 161.805 L
393.281 161.867 L
394.299 161.946 L
394.978 161.991 L
395.827 162.018 L
396.675 162.08 L
397.524 162.125 L
398.372 162.187 L
399.221 162.266 L
400.07 162.345 L
400.918 164.024 L
401.767 164.226 L
402.615 164.341 L
403.464 65.751 L
404.313 66.165 L
405.161 66.27 L
406.01 66.359 L
406.858 66.395 L
407.707 164.227 L
408.556 164.308 L
409.404 164.407 L
410.21 164.506 L
411.059 164.604 L
411.907 66.203 L
412.799 66.497 L
413.647 66.585 L
414.496 66.639 L
415.344 66.677 L
416.193 164.336 L
417.042 164.435 L
417.89 164.55 L
418.739 164.632 L
419.587 164.713 L
420.436 164.794 L
421.284 164.876 L
422.133 164.957 L
422.982 165.038 L
423.83 165.119 L
424.679 165.218 L
425.527 165.299 L
426.376 165.38 L
427.225 165.444 L
428.073 165.525 L
428.922 66.883 L
429.77 67.159 L
430.619 67.282 L
431.468 67.318 L
432.316 67.406 L
433.165 165.478 L
434.013 165.542 L
434.862 165.624 L
435.711 165.722 L
436.559 165.82 L
437.408 165.885 L
438.256 165.983 L
439.105 166.064 L
439.954 166.129 L
440.802 166.227 L
441.651 166.291 L
442.499 166.373 L
443.348 166.454 L
444.197 166.535 L
445.045 166.616 L
445.894 67.543 L
446.742 67.906 L
447.591 68.01 L
448.44 68.115 L
449.288 68.151 L
450.137 68.187 L
450.985 68.223 L
451.834 68.243 L
452.683 68.262 L
453.531 68.282 L
454.38 68.302 L
455.228 68.286 L
456.077 68.306 L
456.926 68.292 L
457.774 68.312 L
458.623 165.954 L
459.471 166.035 L
460.32 166.117 L
461.169 166.198 L
462.017 166.261 L
462.866 166.343 L
463.714 166.424 L
464.563 166.505 L
465.412 166.586 L
466.26 166.668 L
467.109 67.956 L
467.957 68.302 L
468.806 68.407 L
469.655 68.478 L
470.503 68.531 L
471.352 68.55 L
472.2 68.588 L
473.049 68.59 L
473.898 68.61 L
474.746 68.595 L
475.595 68.632 L
476.443 68.618 L
477.292 68.603 L
478.141 68.606 L
478.989 68.627 L
479.838 166.011 L
480.686 165.989 L
481.535 166.156 L
482.384 166.065 L
483.232 166.318 L
484.081 166.416 L
484.929 166.446 L
485.778 166.544 L
486.627 166.643 L
487.475 166.741 L
488.324 166.805 L
489.172 166.835 L
490.021 166.95 L
490.87 167.048 L
491.718 167.112 L
492.567 167.176 L
493.415 167.119 L
494.264 167.131 L
495.113 167.264 L
495.961 167.327 L
496.81 68.719 L
497.658 69.012 L
498.507 69.116 L
499.356 69.187 L
500.204 69.24 L
501.053 69.277 L
501.901 69.279 L
502.75 69.315 L
503.599 69.352 L
504.447 69.337 L
505.296 167.047 L
506.144 167.163 L
506.993 167.244 L
508.011 167.307 L
508.69 167.354 L
509.539 167.401 L
510.387 167.464 L
511.236 167.476 L
512.085 167.471 L
512.933 167.621 L
513.782 69.098 L
514.63 69.494 L
515.479 69.565 L
516.328 69.653 L
517.176 69.689 L
518.025 166.745 L
518.873 166.171 L
519.722 165.906 L
520.571 165.864 L
521.419 165.873 L
522.268 165.934 L
523.116 165.633 L
523.965 167.587 L
524.814 167.701 L
525.662 167.936 L
526.511 69.551 L
527.359 69.861 L
528.208 70 L
529.057 70.036 L
529.905 70.072 L
530.754 70.108 L
531.602 70.145 L
532.451 70.164 L
533.3 70.184 L
534.148 70.185 L
534.997 70.205 L
535.845 70.224 L
536.694 70.21 L
537.543 70.195 L
538.391 70.232 L
539.24 70.218 L
540.088 70.203 L
540.937 70.206 L
541.786 70.209 L
542.634 70.177 L
543.483 166.666 L
544.331 166.557 L
545.222 166.723 L
546.029 166.803 L
546.877 167.089 L
547.726 69.805 L
548.574 70.065 L
549.423 70.153 L
550.272 70.208 L
551.078 70.211 L
551.926 70.23 L
552.775 70.233 L
553.666 70.236 L
554.515 70.239 L
555.363 70.225 L
556.212 167.18 L
557.06 167.071 L
557.909 167.186 L
558.758 167.214 L
559.606 167.312 L
560.455 69.839 L
561.303 70.117 L
562.152 70.188 L
563.001 70.226 L
563.849 70.245 L
564.698 70.266 L
565.546 70.251 L
566.395 70.254 L
567.244 70.275 L
568.092 70.244 L
568.941 167.216 L
569.789 167.331 L
570.638 167.411 L
571.487 167.596 L
572.335 167.643 L
573.184 69.86 L
574.032 70.19 L
574.881 70.278 L
575.73 70.333 L
576.578 70.336 L
577.427 167.325 L
578.275 167.423 L
579.124 167.521 L
579.973 167.602 L
580.821 167.7 L
581.67 167.764 L
582.561 167.862 L
583.367 167.925 L
584.216 168.075 L
585.107 168.121 L
585.913 168.151 L
586.761 168.248 L
587.61 168.364 L
588.459 168.444 L
589.307 168.491 L
590.156 168.589 L
591.004 168.687 L
591.853 168.75 L
592.702 168.831 L
593.55 168.911 L
594.399 168.992 L
595.247 169.055 L
596.096 169.119 L
596.945 169.217 L
597.793 169.28 L
598.642 70.551 L
599.49 70.896 L
600.297 71.034 L
601.145 71.088 L
601.994 71.158 L
602.842 169.074 L
603.733 169.189 L
604.582 169.287 L
605.431 169.333 L
606.279 169.397 L
607.128 169.477 L
607.976 169.558 L
608.825 169.604 L
609.674 169.667 L
610.522 169.713 L
611.371 169.759 L
612.219 169.822 L
613.068 169.885 L
613.917 169.948 L
614.765 169.89 L
615.614 71.298 L
616.462 71.608 L
617.311 71.729 L
618.16 71.799 L
619.008 71.835 L
619.857 71.87 L
620.875 71.889 L
621.554 71.924 L
622.403 71.943 L
623.251 71.962 L
624.1 169.362 L
624.948 169.39 L
625.797 169.436 L
626.646 169.464 L
627.494 169.475 L
628.343 169.417 L
629.191 169.358 L
630.04 169.627 L
630.888 169.603 L
631.737 169.665 L
632.586 170.381 L
633.434 170.409 L
634.283 170.248 L
635.132 170.586 L
635.98 170.787 L
636.829 170.918 L
637.677 171.05 L
638.526 171.13 L
639.375 171.193 L
640.223 171.239 L
641.072 72.218 L
641.92 72.527 L
642.769 72.63 L
643.617 72.751 L
644.466 72.787 L
645.315 72.787 L
646.163 72.823 L
647.012 72.875 L
647.86 72.894 L
648.709 72.912 L
649.558 170.071 L
650.406 170.924 L
651.255 171.073 L
652.104 171.205 L
652.952 171.338 L
653.801 72.574 L
654.649 72.85 L
655.498 72.937 L
656.346 72.989 L
657.195 73.025 L
658.213 73.026 L
658.892 73.045 L
659.741 73.064 L
660.589 73.082 L
661.438 73.101 L
662.287 170.949 L
663.135 170.737 L
663.984 170.852 L
664.832 170.949 L
665.681 171.098 L
666.53 72.644 L
667.378 72.972 L
668.227 73.076 L
669.076 73.112 L
669.924 73.13 L
670.773 73.166 L
671.621 73.168 L
672.47 73.204 L
673.318 73.172 L
674.167 73.157 L
675.016 73.193 L
675.864 73.16 L
676.713 73.18 L
677.561 73.165 L
678.41 73.15 L
679.259 73.153 L
680.107 73.155 L
680.956 73.123 L
681.804 73.108 L
682.653 73.111 L
683.502 170.03 L
684.35 170.283 L
685.199 170.415 L
686.047 170.512 L
686.896 170.61 L
687.745 72.69 L
688.593 73.018 L
689.442 73.089 L
690.29 73.126 L
691.139 73.145 L
691.988 73.131 L
692.836 73.168 L
693.685 73.136 L
694.533 73.139 L
695.509 73.142 L
696.273 73.127 L
697.079 73.13 L
697.928 73.081 L
698.776 73.101 L
699.625 73.07 L
700.474 169.663 L
701.322 169.812 L
702.171 169.944 L
703.019 170.127 L
703.868 170.26 L
704.717 170.34 L
705.565 170.438 L
706.414 170.467 L
707.262 170.582 L
708.111 170.662 L
708.96 170.725 L
709.808 170.823 L
710.657 170.921 L
711.505 170.967 L
712.354 171.064 L
713.203 72.68 L
714.051 73.076 L
714.9 73.163 L
715.748 73.234 L
716.597 73.253 L
717.446 170.688 L
718.252 170.802 L
719.1 170.9 L
719.949 171.014 L
720.84 171.061 L
721.689 73.002 L
722.537 73.296 L
723.386 73.366 L
724.234 73.437 L
725.083 73.456 L
725.932 170.839 L
726.78 170.919 L
727.629 170.965 L
728.477 171.062 L
729.326 171.125 L
730.175 73.118 L
731.023 73.446 L
731.872 73.551 L
732.72 73.604 L
733.696 73.624 L
734.418 73.643 L
735.266 73.679 L
736.115 73.699 L
736.963 73.701 L
737.812 73.704 L
738.661 73.689 L
739.509 73.691 L
740.358 73.676 L
741.206 73.662 L
742.055 73.664 L
742.904 170.412 L
743.752 170.509 L
744.601 170.572 L
745.449 170.704 L
746.298 170.784 L
747.147 73.225 L
747.995 73.484 L
748.844 73.59 L
749.692 73.609 L
750.541 73.629 L
751.39 170.514 L
752.238 170.542 L
753.087 170.691 L
753.935 170.754 L
754.784 170.575 L
755.633 170.879 L
756.481 171.13 L
757.33 171.314 L
758.178 171.36 L
759.027 171.457 L
759.876 73.381 L
760.078 73.451 L
S
GR
GS
[0.5 0 0 0.5 0 0] CT
1 GC
N
744 108 M
744 59 L
559 59 L
559 108 L
cp
f
GR
GS
[0.5 0 0 0.5 314.84552 36.28461] CT
/Helvetica 16.2 F
GS
[1 0 0 1 0 0] CT
0 6.5 moveto 
1 -1 scale
(Measurements) t 
GR
GR
GS
[0.5 0 0 0.5 0 0] CT
0 0.447 0.741 RC
1 LJ
N
565.016 72.569 M
625.179 72.569 L
S
GR
GS
[0.5 0 0 0.5 314.84552 47.21539] CT
/Helvetica 16.2 F
GS
[1 0 0 1 0 0] CT
0 6.5 moveto 
1 -1 scale
(Simulation) t 
GR
GR
GS
[0.5 0 0 0.5 0 0] CT
0.851 0.325 0.098 RC
1 LJ
N
565.016 94.431 M
625.179 94.431 L
S
GR
GS
[0.5 0 0 0.5 0 0] CT
0.149 GC
10.0 ML
N
559 108 M
559 59 L
744 59 L
744 108 L
cp
S
GR
GS
[0.5 0 0 0.5 0 0] CT
1 GC
N
109 560 M
760 560 L
760 346 L
109 346 L
cp
f
GR
GS
[0.5 0 0 0.5 0 0] CT
0.149 GC
2 setlinecap
1 LJ
N
109 560 M
760 560 L
S
GR
GS
[0.5 0 0 0.5 0 0] CT
0.149 GC
2 setlinecap
1 LJ
N
109 346 M
760 346 L
S
GR
GS
[0.5 0 0 0.5 0 0] CT
0.149 GC
2 setlinecap
1 LJ
N
109 560 M
109 553.49 L
S
GR
GS
[0.5 0 0 0.5 0 0] CT
0.149 GC
2 setlinecap
1 LJ
N
319.22 560 M
319.22 553.49 L
S
GR
GS
[0.5 0 0 0.5 0 0] CT
0.149 GC
2 setlinecap
1 LJ
N
529.439 560 M
529.439 553.49 L
S
GR
GS
[0.5 0 0 0.5 0 0] CT
0.149 GC
2 setlinecap
1 LJ
N
739.659 560 M
739.659 553.49 L
S
GR
GS
[0.5 0 0 0.5 0 0] CT
0.149 GC
2 setlinecap
1 LJ
N
109 346 M
109 352.51 L
S
GR
GS
[0.5 0 0 0.5 0 0] CT
0.149 GC
2 setlinecap
1 LJ
N
319.22 346 M
319.22 352.51 L
S
GR
GS
[0.5 0 0 0.5 0 0] CT
0.149 GC
2 setlinecap
1 LJ
N
529.439 346 M
529.439 352.51 L
S
GR
GS
[0.5 0 0 0.5 0 0] CT
0.149 GC
2 setlinecap
1 LJ
N
739.659 346 M
739.659 352.51 L
S
GR
GS
[0.5 0 0 0.5 54.5 282.79999] CT
0.149 GC
/Helvetica 18 F
GS
[1 0 0 1 0 0] CT
-5.5 19 moveto 
1 -1 scale
(0) t 
GR
GR
GS
[0.5 0 0 0.5 159.60985 282.79999] CT
0.149 GC
/Helvetica 18 F
GS
[1 0 0 1 0 0] CT
-10.5 19 moveto 
1 -1 scale
(50) t 
GR
GR
GS
[0.5 0 0 0.5 264.7197 282.79999] CT
0.149 GC
/Helvetica 18 F
GS
[1 0 0 1 0 0] CT
-15.5 19 moveto 
1 -1 scale
(100) t 
GR
GR
GS
[0.5 0 0 0.5 369.82956 282.79999] CT
0.149 GC
/Helvetica 18 F
GS
[1 0 0 1 0 0] CT
-15.5 19 moveto 
1 -1 scale
(150) t 
GR
GR
GS
[0.5 0 0 0.5 217.25015 294.79999] CT
0.149 GC
/Helvetica 19.8 F
GS
[1 0 0 1 0 0] CT
-36.5 20 moveto 
1 -1 scale
(Time \(s\)) t 
GR
GR
GS
[0.5 0 0 0.5 0 0] CT
0.149 GC
2 setlinecap
1 LJ
N
109 560 M
109 346 L
S
GR
GS
[0.5 0 0 0.5 0 0] CT
0.149 GC
2 setlinecap
1 LJ
N
760 560 M
760 346 L
S
GR
GS
[0.5 0 0 0.5 0 0] CT
0.149 GC
2 setlinecap
1 LJ
N
109 508.87 M
115.51 508.87 L
S
GR
GS
[0.5 0 0 0.5 0 0] CT
0.149 GC
2 setlinecap
1 LJ
N
109 427.906 M
115.51 427.906 L
S
GR
GS
[0.5 0 0 0.5 0 0] CT
0.149 GC
2 setlinecap
1 LJ
N
109 346.941 M
115.51 346.941 L
S
GR
GS
[0.5 0 0 0.5 0 0] CT
0.149 GC
2 setlinecap
1 LJ
N
760 508.87 M
753.49 508.87 L
S
GR
GS
[0.5 0 0 0.5 0 0] CT
0.149 GC
2 setlinecap
1 LJ
N
760 427.906 M
753.49 427.906 L
S
GR
GS
[0.5 0 0 0.5 0 0] CT
0.149 GC
2 setlinecap
1 LJ
N
760 346.941 M
753.49 346.941 L
S
GR
GS
[0.5 0 0 0.5 51.7 254.43523] CT
0.149 GC
/Helvetica 18 F
GS
[1 0 0 1 0 0] CT
-32 7.5 moveto 
1 -1 scale
(-0.5) t 
GR
GR
GS
[0.5 0 0 0.5 51.7 213.95288] CT
0.149 GC
/Helvetica 18 F
GS
[1 0 0 1 0 0] CT
-11 7.5 moveto 
1 -1 scale
(0) t 
GR
GR
GS
[0.5 0 0 0.5 51.7 173.47054] CT
0.149 GC
/Helvetica 18 F
GS
[1 0 0 1 0 0] CT
-26 7.5 moveto 
1 -1 scale
(0.5) t 
GR
GR
GS
[0 -0.5 0.5 0 33.7 226.49995] CT
0.149 GC
/Helvetica 19.8 F
GS
[1 0 0 1 0 0] CT
-49 -5 moveto 
1 -1 scale
(Current \(A\)) t 
GR
GR
GS
[0.5 0 0 0.5 217.2502 171.7625] CT
/Helvetica-Bold 19.8 F
GS
[1 0 0 1 0 0] CT
-71 -5 moveto 
1 -1 scale
(Battery current) t 
GR
GR
GS
[0.5 0 0 0.5 0 0] CT
0 0.447 0.741 RC
1 LJ
N
109 363.134 M
109.841 363.231 L
110.682 363.361 L
111.523 363.458 L
112.364 363.555 L
113.204 363.62 L
114.045 363.717 L
114.886 541.969 L
115.727 541.969 L
116.568 541.936 L
117.409 541.936 L
118.25 541.936 L
119.091 362.324 L
119.931 363.004 L
120.772 363.296 L
121.613 363.426 L
122.454 363.555 L
123.295 542.196 L
124.136 542.098 L
124.977 542.066 L
125.818 542.001 L
126.658 542.001 L
127.499 541.969 L
128.466 541.936 L
129.181 541.936 L
130.022 541.904 L
130.863 541.904 L
131.704 541.872 L
132.545 541.904 L
133.385 541.872 L
134.226 541.839 L
135.067 541.807 L
135.908 361.353 L
136.749 362.001 L
137.59 362.324 L
138.431 362.583 L
139.272 362.713 L
140.113 362.875 L
140.953 362.972 L
141.794 363.134 L
142.635 363.264 L
143.476 363.328 L
144.317 363.458 L
145.158 363.587 L
145.999 363.652 L
146.84 363.749 L
147.68 363.847 L
148.521 542.325 L
149.362 542.196 L
150.203 542.163 L
151.044 542.196 L
151.885 542.196 L
152.726 362.486 L
153.567 363.102 L
154.407 363.328 L
155.248 363.49 L
156.089 363.652 L
156.93 363.685 L
157.771 363.847 L
158.612 363.911 L
159.453 364.041 L
160.294 364.106 L
161.134 542.131 L
161.975 542.034 L
162.816 541.969 L
163.657 541.936 L
164.498 541.936 L
165.339 362.713 L
166.18 363.458 L
167.021 363.685 L
167.819 363.879 L
168.66 363.944 L
169.543 541.904 L
170.384 541.839 L
171.225 541.775 L
172.066 541.71 L
172.907 541.71 L
173.748 541.645 L
174.589 541.645 L
175.429 541.58 L
176.228 541.548 L
177.069 541.483 L
177.91 362.13 L
178.793 362.81 L
179.634 363.004 L
180.475 363.231 L
181.316 363.393 L
182.156 542.228 L
182.997 542.131 L
183.796 542.098 L
184.637 542.066 L
185.478 542.034 L
186.319 542.001 L
187.202 541.936 L
188.043 541.936 L
188.883 541.872 L
189.724 541.872 L
190.565 361.45 L
191.406 362.324 L
192.247 362.551 L
193.088 362.778 L
193.929 362.94 L
194.77 541.936 L
195.611 541.839 L
196.451 541.807 L
197.292 541.775 L
198.133 541.742 L
198.974 541.677 L
199.815 541.677 L
200.656 541.645 L
201.497 541.645 L
202.338 541.613 L
203.305 541.613 L
204.019 541.58 L
204.902 541.548 L
205.701 541.58 L
206.542 541.548 L
207.383 360.835 L
208.224 361.547 L
209.065 361.903 L
209.905 362.098 L
210.746 362.26 L
211.587 541.645 L
212.428 541.483 L
213.269 541.418 L
214.11 541.386 L
214.951 541.321 L
215.792 541.321 L
216.632 541.289 L
217.473 541.256 L
218.314 541.256 L
219.155 541.224 L
219.996 541.224 L
220.837 541.159 L
221.678 541.159 L
222.519 541.094 L
223.36 541.062 L
224.2 541.062 L
225.041 540.997 L
225.882 540.997 L
226.723 540.932 L
227.564 540.9 L
228.405 360.122 L
229.246 360.867 L
230.087 361.158 L
230.927 361.385 L
231.768 361.579 L
232.609 541.71 L
233.45 541.645 L
234.291 541.58 L
235.132 541.548 L
235.973 541.548 L
236.814 541.548 L
237.654 541.515 L
238.495 541.451 L
239.336 541.451 L
240.177 541.451 L
241.018 541.451 L
241.985 541.451 L
242.742 541.386 L
243.541 541.386 L
244.382 541.386 L
245.222 359.96 L
246.063 360.608 L
246.904 360.899 L
247.745 361.158 L
248.586 361.353 L
249.427 541.515 L
250.268 541.451 L
251.109 541.386 L
251.949 541.354 L
252.79 541.321 L
253.631 360.187 L
254.472 360.867 L
255.313 361.191 L
256.154 361.353 L
256.995 361.515 L
257.836 361.677 L
258.676 361.806 L
259.517 361.936 L
260.358 362.033 L
261.199 362.162 L
262.04 542.811 L
262.881 542.908 L
263.722 542.843 L
264.563 542.843 L
265.403 542.843 L
266.244 542.779 L
267.085 542.714 L
267.926 542.714 L
268.767 542.649 L
269.65 542.617 L
270.449 542.649 L
271.29 542.617 L
272.13 542.552 L
272.971 542.552 L
273.812 542.519 L
274.653 542.552 L
275.494 542.519 L
276.335 542.519 L
277.176 542.487 L
278.017 542.487 L
278.858 542.455 L
279.867 542.422 L
280.539 542.357 L
281.38 542.357 L
282.221 542.325 L
283.062 542.293 L
283.903 542.293 L
284.744 542.228 L
285.585 542.228 L
286.425 542.228 L
287.266 359.086 L
288.107 359.993 L
288.948 360.252 L
289.789 360.478 L
290.63 360.673 L
291.471 545.11 L
292.312 545.175 L
293.152 545.207 L
293.993 545.24 L
294.834 545.24 L
295.675 359.572 L
296.516 360.219 L
297.357 360.511 L
298.198 360.737 L
299.039 360.899 L
299.88 545.175 L
300.72 545.11 L
301.561 545.11 L
302.402 545.11 L
303.243 545.11 L
304.084 359.766 L
304.925 360.511 L
305.766 360.802 L
306.607 360.964 L
307.447 361.158 L
308.288 545.11 L
309.129 545.045 L
309.97 544.981 L
310.811 544.981 L
311.652 544.948 L
312.493 544.981 L
313.334 545.013 L
314.174 544.981 L
315.015 544.981 L
315.856 544.981 L
316.697 544.948 L
317.538 544.948 L
318.379 544.948 L
319.22 544.916 L
320.061 544.851 L
320.901 359.151 L
321.742 359.831 L
322.583 360.122 L
323.424 360.414 L
324.265 360.608 L
325.106 360.737 L
325.947 360.932 L
326.788 361.061 L
327.629 361.191 L
328.469 361.288 L
329.31 544.754 L
330.151 544.106 L
330.992 543.394 L
331.833 542.843 L
332.674 542.779 L
333.515 359.96 L
334.356 360.835 L
335.196 361.061 L
336.037 361.223 L
336.878 361.385 L
337.719 361.579 L
338.56 361.677 L
339.401 361.806 L
340.242 361.871 L
341.083 361.968 L
341.923 362.065 L
342.764 362.162 L
343.605 362.26 L
344.404 362.389 L
345.245 362.454 L
346.086 542.779 L
346.969 542.617 L
347.81 542.584 L
348.65 542.552 L
349.491 542.455 L
350.332 360.932 L
351.173 361.677 L
352.014 361.903 L
352.855 362.065 L
353.696 362.227 L
354.537 542.649 L
355.378 542.519 L
356.218 542.455 L
357.059 542.357 L
357.9 542.487 L
358.741 542.196 L
359.582 542.163 L
360.423 542.131 L
361.264 542.098 L
362.105 542.098 L
362.945 542.034 L
363.786 542.034 L
364.627 542.066 L
365.468 542.034 L
366.309 542.001 L
367.15 359.928 L
367.991 360.64 L
368.832 360.932 L
369.672 361.158 L
370.513 361.288 L
371.354 547.863 L
372.195 545.855 L
373.036 542.39 L
373.877 542.325 L
374.718 542.26 L
375.559 360.122 L
376.399 360.964 L
377.24 361.191 L
378.081 361.385 L
378.922 361.579 L
379.763 361.709 L
380.604 361.839 L
381.445 361.968 L
382.286 362.098 L
383.126 362.195 L
383.967 542.519 L
384.808 542.26 L
385.649 542.163 L
386.49 542.131 L
387.331 542.034 L
388.172 542.034 L
389.013 542.034 L
389.854 541.969 L
390.694 541.936 L
391.703 541.936 L
392.376 541.872 L
393.217 541.775 L
394.058 541.742 L
394.899 541.677 L
395.74 541.645 L
396.581 541.645 L
397.421 541.645 L
398.262 544.657 L
399.103 544.884 L
399.944 544.948 L
400.785 359.248 L
401.626 360.122 L
402.467 360.414 L
403.308 360.673 L
404.148 360.835 L
404.989 545.045 L
405.83 545.045 L
406.671 545.078 L
407.47 545.11 L
408.311 545.143 L
409.152 359.798 L
410.035 360.446 L
410.876 360.705 L
411.716 360.899 L
412.557 361.061 L
413.398 544.948 L
414.239 544.981 L
415.08 545.045 L
415.921 545.045 L
416.762 545.045 L
417.603 545.045 L
418.443 545.045 L
419.284 545.045 L
420.125 545.045 L
420.966 545.045 L
421.807 545.078 L
422.648 545.078 L
423.489 545.078 L
424.33 545.045 L
425.17 545.045 L
426.011 359.248 L
426.852 359.863 L
427.693 360.187 L
428.534 360.349 L
429.375 360.608 L
430.216 545.272 L
431.057 545.24 L
431.897 545.24 L
432.738 545.272 L
433.579 545.305 L
434.42 545.272 L
435.261 545.305 L
436.102 545.305 L
436.943 545.272 L
437.784 545.305 L
438.625 545.272 L
439.465 545.272 L
440.306 545.272 L
441.147 545.272 L
441.988 545.272 L
442.829 358.665 L
443.67 359.442 L
444.511 359.733 L
445.352 360.025 L
446.192 360.187 L
447.033 360.349 L
447.874 360.511 L
448.715 360.64 L
449.556 360.77 L
450.397 360.899 L
451.238 361.029 L
452.079 361.094 L
452.919 361.223 L
453.76 361.288 L
454.601 361.418 L
455.442 545.272 L
456.283 545.272 L
457.124 545.272 L
457.965 545.272 L
458.806 545.24 L
459.646 545.24 L
460.487 545.24 L
461.328 545.24 L
462.169 545.24 L
463.01 545.24 L
463.851 359.313 L
464.692 360.057 L
465.533 360.349 L
466.374 360.576 L
467.214 360.77 L
468.055 360.899 L
468.896 361.061 L
469.737 361.158 L
470.578 361.288 L
471.419 361.353 L
472.26 361.515 L
473.101 361.579 L
473.941 361.644 L
474.782 361.741 L
475.623 361.871 L
476.464 545.24 L
477.305 545.045 L
478.146 545.207 L
478.987 544.884 L
479.828 545.207 L
480.668 545.24 L
481.509 545.143 L
482.35 545.175 L
483.191 545.207 L
484.032 545.24 L
484.873 545.207 L
485.714 545.11 L
486.555 545.175 L
487.395 545.207 L
488.236 545.175 L
489.077 545.143 L
489.918 544.884 L
490.759 544.754 L
491.6 544.851 L
492.441 544.819 L
493.282 359.086 L
494.122 359.733 L
494.963 360.025 L
495.804 360.252 L
496.645 360.446 L
497.486 360.608 L
498.327 360.705 L
499.168 360.867 L
500.009 361.029 L
500.85 361.094 L
501.69 545.078 L
502.531 545.143 L
503.372 545.143 L
504.381 545.11 L
505.054 545.045 L
505.895 544.981 L
506.736 544.948 L
507.577 544.819 L
508.417 544.657 L
509.258 544.786 L
510.099 359.215 L
510.94 360.057 L
511.781 360.284 L
512.622 360.543 L
513.463 360.705 L
514.304 543.459 L
515.144 542.228 L
515.985 541.58 L
516.826 541.354 L
517.667 541.224 L
518.508 541.192 L
519.349 540.479 L
520.19 544.009 L
521.031 544.074 L
521.872 544.365 L
522.712 359.053 L
523.553 359.733 L
524.394 360.09 L
525.235 360.252 L
526.076 360.414 L
526.917 360.576 L
527.758 360.737 L
528.599 360.867 L
529.439 360.997 L
530.28 361.094 L
531.121 361.223 L
531.962 361.353 L
532.803 361.418 L
533.644 361.482 L
534.485 361.644 L
535.326 361.709 L
536.166 361.774 L
537.007 361.871 L
537.848 361.968 L
538.689 362.001 L
539.53 543.685 L
540.371 543.329 L
541.254 543.491 L
542.053 543.491 L
542.893 543.88 L
543.734 360.64 L
544.575 361.223 L
545.416 361.482 L
546.257 361.677 L
547.056 361.774 L
547.897 361.903 L
548.738 362.001 L
549.621 362.098 L
550.461 362.195 L
551.302 362.26 L
552.143 544.819 L
552.984 544.463 L
553.825 544.527 L
554.666 544.43 L
555.507 544.463 L
556.348 360.867 L
557.188 361.482 L
558.029 361.709 L
558.87 361.871 L
559.711 362.001 L
560.552 362.13 L
561.393 362.195 L
562.234 362.292 L
563.075 362.422 L
563.915 362.454 L
564.756 545.045 L
565.597 545.11 L
566.438 545.11 L
567.279 545.305 L
568.12 545.24 L
568.961 361.061 L
569.802 361.774 L
570.643 362.033 L
571.483 362.227 L
572.324 362.324 L
573.165 544.948 L
574.006 544.981 L
574.847 545.013 L
575.688 545.013 L
576.529 545.045 L
577.37 545.013 L
578.252 545.045 L
579.051 545.013 L
579.892 545.143 L
580.775 545.078 L
581.574 544.981 L
582.415 545.013 L
583.256 545.078 L
584.097 545.078 L
584.937 545.013 L
585.778 545.045 L
586.619 545.078 L
587.46 545.045 L
588.301 545.045 L
589.142 545.045 L
589.983 545.045 L
590.824 545.013 L
591.664 544.981 L
592.505 545.013 L
593.346 544.981 L
594.187 359.021 L
595.028 359.766 L
595.827 360.122 L
596.668 360.316 L
597.509 360.543 L
598.349 544.916 L
599.232 544.981 L
600.073 545.013 L
600.914 544.948 L
601.755 544.916 L
602.596 544.916 L
603.437 544.916 L
604.278 544.851 L
605.119 544.819 L
605.959 544.754 L
606.8 544.689 L
607.641 544.657 L
608.482 544.624 L
609.323 544.592 L
610.164 544.333 L
611.005 358.632 L
611.846 359.313 L
612.686 359.636 L
613.527 359.863 L
614.368 360.025 L
615.209 360.187 L
616.218 360.316 L
616.891 360.478 L
617.732 360.608 L
618.573 360.737 L
619.413 544.139 L
620.254 544.042 L
621.095 543.977 L
621.936 543.88 L
622.777 543.75 L
623.618 543.491 L
624.459 543.232 L
625.3 543.588 L
626.141 543.394 L
626.981 543.361 L
627.822 544.56 L
628.663 544.463 L
629.504 544.009 L
630.345 544.495 L
631.186 544.722 L
632.027 544.819 L
632.867 544.916 L
633.708 544.916 L
634.549 544.884 L
635.39 544.819 L
636.231 358.309 L
637.072 358.989 L
637.913 359.28 L
638.754 359.604 L
639.595 359.766 L
640.435 359.863 L
641.276 360.025 L
642.117 360.219 L
642.958 360.349 L
643.799 360.478 L
644.64 543.426 L
645.481 544.884 L
646.322 545.013 L
647.162 545.11 L
648.003 545.207 L
648.844 359.183 L
649.685 359.798 L
650.526 360.057 L
651.367 360.252 L
652.208 360.414 L
653.217 360.511 L
653.89 360.64 L
654.73 360.77 L
655.571 360.899 L
656.412 361.029 L
657.253 545.272 L
658.094 544.722 L
658.935 544.786 L
659.776 544.819 L
660.617 544.948 L
661.457 359.507 L
662.298 360.219 L
663.139 360.511 L
663.98 360.673 L
664.821 360.802 L
665.662 360.964 L
666.503 361.061 L
667.344 361.223 L
668.184 361.256 L
669.025 361.32 L
669.866 361.482 L
670.707 361.515 L
671.548 361.644 L
672.389 361.709 L
673.23 361.774 L
674.071 361.871 L
674.911 361.968 L
675.752 362.001 L
676.593 362.065 L
677.434 362.162 L
678.275 544.657 L
679.116 544.981 L
679.957 545.078 L
680.798 545.11 L
681.638 545.143 L
682.479 360.705 L
683.32 361.418 L
684.161 361.644 L
685.002 361.806 L
685.843 361.936 L
686.684 362.001 L
687.525 362.162 L
688.366 362.195 L
689.206 362.292 L
690.173 362.389 L
690.93 362.454 L
691.729 362.551 L
692.57 362.551 L
693.411 362.681 L
694.252 362.713 L
695.093 544.592 L
695.933 544.722 L
696.774 544.819 L
697.615 545.013 L
698.456 545.11 L
699.297 545.11 L
700.138 545.143 L
700.979 545.045 L
701.82 545.11 L
702.66 545.11 L
703.501 545.078 L
704.342 545.11 L
705.183 545.143 L
706.024 545.078 L
706.865 545.11 L
707.706 359.798 L
708.547 360.64 L
709.388 360.899 L
710.228 361.126 L
711.069 361.256 L
711.91 544.722 L
712.709 544.786 L
713.55 544.819 L
714.391 544.884 L
715.274 544.819 L
716.115 360.122 L
716.955 360.77 L
717.796 360.997 L
718.637 361.223 L
719.478 361.353 L
720.319 544.722 L
721.16 544.722 L
722.001 544.657 L
722.842 544.689 L
723.682 544.657 L
724.523 360.057 L
725.364 360.77 L
726.205 361.061 L
727.046 361.256 L
728.013 361.385 L
728.728 361.515 L
729.569 361.677 L
730.409 361.806 L
731.25 361.903 L
732.091 362.001 L
732.932 362.065 L
733.773 362.162 L
734.614 362.227 L
735.455 362.292 L
736.296 362.389 L
737.136 544.56 L
737.977 544.592 L
738.818 544.56 L
739.659 544.657 L
740.5 544.657 L
741.341 360.899 L
742.182 361.482 L
743.023 361.774 L
743.864 361.903 L
744.704 362.033 L
745.545 544.463 L
746.386 544.365 L
747.227 544.495 L
748.068 544.463 L
748.909 543.977 L
749.75 544.398 L
750.591 544.722 L
751.431 544.916 L
752.272 544.851 L
753.113 544.884 L
753.954 360.155 L
754.795 360.802 L
755.636 361.061 L
756.477 361.191 L
757.318 361.385 L
758.158 361.515 L
758.999 361.644 L
759.84 361.806 L
760.078 361.834 L
S
GR
%%Trailer
%%Pages: 1
%%EOF
