%!PS-Adobe-3.0 EPSF-3.0
%%Creator: (MATLAB, The Mathworks, Inc. Version 9.4.0.813654 \(R2018a\). Operating System: Windows 10)
%%Title: C:/Users/robbe/OneDrive/VUB/Thesis/Thesis/POI_PRBS_Parameters.eps
%%CreationDate: 2019-05-23T02:24:40
%%Pages: (atend)
%%BoundingBox: 0 0 420 315
%%LanguageLevel: 3
%%EndComments
%%BeginProlog
%%BeginResource: procset (Apache XML Graphics Std ProcSet) 1.2 0
%%Version: 1.2 0
%%Copyright: (Copyright 2001-2003,2010 The Apache Software Foundation. License terms: http://www.apache.org/licenses/LICENSE-2.0)
/bd{bind def}bind def
/ld{load def}bd
/GR/grestore ld
/GS/gsave ld
/RM/rmoveto ld
/C/curveto ld
/t/show ld
/L/lineto ld
/ML/setmiterlimit ld
/CT/concat ld
/f/fill ld
/N/newpath ld
/S/stroke ld
/CC/setcmykcolor ld
/A/ashow ld
/cp/closepath ld
/RC/setrgbcolor ld
/LJ/setlinejoin ld
/GC/setgray ld
/LW/setlinewidth ld
/M/moveto ld
/re {4 2 roll M
1 index 0 rlineto
0 exch rlineto
neg 0 rlineto
cp } bd
/_ctm matrix def
/_tm matrix def
/BT { _ctm currentmatrix pop matrix _tm copy pop 0 0 moveto } bd
/ET { _ctm setmatrix } bd
/iTm { _ctm setmatrix _tm concat } bd
/Tm { _tm astore pop iTm 0 0 moveto } bd
/ux 0.0 def
/uy 0.0 def
/F {
  /Tp exch def
  /Tf exch def
  Tf findfont Tp scalefont setfont
  /cf Tf def  /cs Tp def
} bd
/ULS {currentpoint /uy exch def /ux exch def} bd
/ULE {
  /Tcx currentpoint pop def
  gsave
  newpath
  cf findfont cs scalefont dup
  /FontMatrix get 0 get /Ts exch def /FontInfo get dup
  /UnderlinePosition get Ts mul /To exch def
  /UnderlineThickness get Ts mul /Tt exch def
  ux uy To add moveto  Tcx uy To add lineto
  Tt setlinewidth stroke
  grestore
} bd
/OLE {
  /Tcx currentpoint pop def
  gsave
  newpath
  cf findfont cs scalefont dup
  /FontMatrix get 0 get /Ts exch def /FontInfo get dup
  /UnderlinePosition get Ts mul /To exch def
  /UnderlineThickness get Ts mul /Tt exch def
  ux uy To add cs add moveto Tcx uy To add cs add lineto
  Tt setlinewidth stroke
  grestore
} bd
/SOE {
  /Tcx currentpoint pop def
  gsave
  newpath
  cf findfont cs scalefont dup
  /FontMatrix get 0 get /Ts exch def /FontInfo get dup
  /UnderlinePosition get Ts mul /To exch def
  /UnderlineThickness get Ts mul /Tt exch def
  ux uy To add cs 10 mul 26 idiv add moveto Tcx uy To add cs 10 mul 26 idiv add lineto
  Tt setlinewidth stroke
  grestore
} bd
/QT {
/Y22 exch store
/X22 exch store
/Y21 exch store
/X21 exch store
currentpoint
/Y21 load 2 mul add 3 div exch
/X21 load 2 mul add 3 div exch
/X21 load 2 mul /X22 load add 3 div
/Y21 load 2 mul /Y22 load add 3 div
/X22 load /Y22 load curveto
} bd
/SSPD {
dup length /d exch dict def
{
/v exch def
/k exch def
currentpagedevice k known {
/cpdv currentpagedevice k get def
v cpdv ne {
/upd false def
/nullv v type /nulltype eq def
/nullcpdv cpdv type /nulltype eq def
nullv nullcpdv or
{
/upd true def
} {
/sametype v type cpdv type eq def
sametype {
v type /arraytype eq {
/vlen v length def
/cpdvlen cpdv length def
vlen cpdvlen eq {
0 1 vlen 1 sub {
/i exch def
/obj v i get def
/cpdobj cpdv i get def
obj cpdobj ne {
/upd true def
exit
} if
} for
} {
/upd true def
} ifelse
} {
v type /dicttype eq {
v {
/dv exch def
/dk exch def
/cpddv cpdv dk get def
dv cpddv ne {
/upd true def
exit
} if
} forall
} {
/upd true def
} ifelse
} ifelse
} if
} ifelse
upd true eq {
d k v put
} if
} if
} if
} forall
d length 0 gt {
d setpagedevice
} if
} bd
/RE { % /NewFontName [NewEncodingArray] /FontName RE -
  findfont dup length dict begin
  {
    1 index /FID ne
    {def} {pop pop} ifelse
  } forall
  /Encoding exch def
  /FontName 1 index def
  currentdict definefont pop
  end
} bind def
%%EndResource
%%BeginResource: procset (Apache XML Graphics EPS ProcSet) 1.0 0
%%Version: 1.0 0
%%Copyright: (Copyright 2002-2003 The Apache Software Foundation. License terms: http://www.apache.org/licenses/LICENSE-2.0)
/BeginEPSF { %def
/b4_Inc_state save def         % Save state for cleanup
/dict_count countdictstack def % Count objects on dict stack
/op_count count 1 sub def      % Count objects on operand stack
userdict begin                 % Push userdict on dict stack
/showpage { } def              % Redefine showpage, { } = null proc
0 setgray 0 setlinecap         % Prepare graphics state
1 setlinewidth 0 setlinejoin
10 setmiterlimit [ ] 0 setdash newpath
/languagelevel where           % If level not equal to 1 then
{pop languagelevel             % set strokeadjust and
1 ne                           % overprint to their defaults.
{false setstrokeadjust false setoverprint
} if
} if
} bd
/EndEPSF { %def
count op_count sub {pop} repeat            % Clean up stacks
countdictstack dict_count sub {end} repeat
b4_Inc_state restore
} bd
%%EndResource
%FOPBeginFontDict
%%IncludeResource: font Courier-Oblique
%%IncludeResource: font Courier-BoldOblique
%%IncludeResource: font Courier-Bold
%%IncludeResource: font ZapfDingbats
%%IncludeResource: font Symbol
%%IncludeResource: font Helvetica
%%IncludeResource: font Helvetica-Oblique
%%IncludeResource: font Helvetica-Bold
%%IncludeResource: font Helvetica-BoldOblique
%%IncludeResource: font Times-Roman
%%IncludeResource: font Times-Italic
%%IncludeResource: font Times-Bold
%%IncludeResource: font Times-BoldItalic
%%IncludeResource: font Courier
%FOPEndFontDict
%%BeginResource: encoding WinAnsiEncoding
/WinAnsiEncoding [
/.notdef /.notdef /.notdef /.notdef /.notdef
/.notdef /.notdef /.notdef /.notdef /.notdef
/.notdef /.notdef /.notdef /.notdef /.notdef
/.notdef /.notdef /.notdef /.notdef /.notdef
/.notdef /.notdef /.notdef /.notdef /.notdef
/.notdef /.notdef /.notdef /.notdef /.notdef
/.notdef /.notdef /space /exclam /quotedbl
/numbersign /dollar /percent /ampersand /quotesingle
/parenleft /parenright /asterisk /plus /comma
/hyphen /period /slash /zero /one
/two /three /four /five /six
/seven /eight /nine /colon /semicolon
/less /equal /greater /question /at
/A /B /C /D /E
/F /G /H /I /J
/K /L /M /N /O
/P /Q /R /S /T
/U /V /W /X /Y
/Z /bracketleft /backslash /bracketright /asciicircum
/underscore /quoteleft /a /b /c
/d /e /f /g /h
/i /j /k /l /m
/n /o /p /q /r
/s /t /u /v /w
/x /y /z /braceleft /bar
/braceright /asciitilde /bullet /Euro /bullet
/quotesinglbase /florin /quotedblbase /ellipsis /dagger
/daggerdbl /circumflex /perthousand /Scaron /guilsinglleft
/OE /bullet /Zcaron /bullet /bullet
/quoteleft /quoteright /quotedblleft /quotedblright /bullet
/endash /emdash /asciitilde /trademark /scaron
/guilsinglright /oe /bullet /zcaron /Ydieresis
/space /exclamdown /cent /sterling /currency
/yen /brokenbar /section /dieresis /copyright
/ordfeminine /guillemotleft /logicalnot /sfthyphen /registered
/macron /degree /plusminus /twosuperior /threesuperior
/acute /mu /paragraph /middot /cedilla
/onesuperior /ordmasculine /guillemotright /onequarter /onehalf
/threequarters /questiondown /Agrave /Aacute /Acircumflex
/Atilde /Adieresis /Aring /AE /Ccedilla
/Egrave /Eacute /Ecircumflex /Edieresis /Igrave
/Iacute /Icircumflex /Idieresis /Eth /Ntilde
/Ograve /Oacute /Ocircumflex /Otilde /Odieresis
/multiply /Oslash /Ugrave /Uacute /Ucircumflex
/Udieresis /Yacute /Thorn /germandbls /agrave
/aacute /acircumflex /atilde /adieresis /aring
/ae /ccedilla /egrave /eacute /ecircumflex
/edieresis /igrave /iacute /icircumflex /idieresis
/eth /ntilde /ograve /oacute /ocircumflex
/otilde /odieresis /divide /oslash /ugrave
/uacute /ucircumflex /udieresis /yacute /thorn
/ydieresis
] def
%%EndResource
%FOPBeginFontReencode
/Courier-Oblique findfont
dup length dict begin
  {1 index /FID ne {def} {pop pop} ifelse} forall
  /Encoding WinAnsiEncoding def
  currentdict
end
/Courier-Oblique exch definefont pop
/Courier-BoldOblique findfont
dup length dict begin
  {1 index /FID ne {def} {pop pop} ifelse} forall
  /Encoding WinAnsiEncoding def
  currentdict
end
/Courier-BoldOblique exch definefont pop
/Courier-Bold findfont
dup length dict begin
  {1 index /FID ne {def} {pop pop} ifelse} forall
  /Encoding WinAnsiEncoding def
  currentdict
end
/Courier-Bold exch definefont pop
/Helvetica findfont
dup length dict begin
  {1 index /FID ne {def} {pop pop} ifelse} forall
  /Encoding WinAnsiEncoding def
  currentdict
end
/Helvetica exch definefont pop
/Helvetica-Oblique findfont
dup length dict begin
  {1 index /FID ne {def} {pop pop} ifelse} forall
  /Encoding WinAnsiEncoding def
  currentdict
end
/Helvetica-Oblique exch definefont pop
/Helvetica-Bold findfont
dup length dict begin
  {1 index /FID ne {def} {pop pop} ifelse} forall
  /Encoding WinAnsiEncoding def
  currentdict
end
/Helvetica-Bold exch definefont pop
/Helvetica-BoldOblique findfont
dup length dict begin
  {1 index /FID ne {def} {pop pop} ifelse} forall
  /Encoding WinAnsiEncoding def
  currentdict
end
/Helvetica-BoldOblique exch definefont pop
/Times-Roman findfont
dup length dict begin
  {1 index /FID ne {def} {pop pop} ifelse} forall
  /Encoding WinAnsiEncoding def
  currentdict
end
/Times-Roman exch definefont pop
/Times-Italic findfont
dup length dict begin
  {1 index /FID ne {def} {pop pop} ifelse} forall
  /Encoding WinAnsiEncoding def
  currentdict
end
/Times-Italic exch definefont pop
/Times-Bold findfont
dup length dict begin
  {1 index /FID ne {def} {pop pop} ifelse} forall
  /Encoding WinAnsiEncoding def
  currentdict
end
/Times-Bold exch definefont pop
/Times-BoldItalic findfont
dup length dict begin
  {1 index /FID ne {def} {pop pop} ifelse} forall
  /Encoding WinAnsiEncoding def
  currentdict
end
/Times-BoldItalic exch definefont pop
/Courier findfont
dup length dict begin
  {1 index /FID ne {def} {pop pop} ifelse} forall
  /Encoding WinAnsiEncoding def
  currentdict
end
/Courier exch definefont pop
%FOPEndFontReencode
%%EndProlog
%%Page: 1 1
%%PageBoundingBox: 0 0 420 315
%%BeginPageSetup
[1 0 0 -1 0 315] CT
%%EndPageSetup
GS
[0.5 0 0 0.5 0 0] CT
1 GC
N
0 0 840 630 re
f
GR
GS
[0.5 0 0 0.5 0 0] CT
1 GC
N
0 0 840 630 re
f
GR
GS
[0.5 0 0 0.5 0 0] CT
1 GC
N
115 166 M
390 166 L
390 65 L
115 65 L
cp
f
GR
GS
[0.5 0 0 0.5 0 0] CT
0.149 GC
2 setlinecap
1 LJ
N
115 166 M
390 166 L
S
GR
GS
[0.5 0 0 0.5 0 0] CT
0.149 GC
2 setlinecap
1 LJ
N
115 65 M
390 65 L
S
GR
GS
[0.5 0 0 0.5 0 0] CT
0.149 GC
2 setlinecap
1 LJ
N
115 166 M
115 163.25 L
S
GR
GS
[0.5 0 0 0.5 0 0] CT
0.149 GC
2 setlinecap
1 LJ
N
183.75 166 M
183.75 163.25 L
S
GR
GS
[0.5 0 0 0.5 0 0] CT
0.149 GC
2 setlinecap
1 LJ
N
252.5 166 M
252.5 163.25 L
S
GR
GS
[0.5 0 0 0.5 0 0] CT
0.149 GC
2 setlinecap
1 LJ
N
321.25 166 M
321.25 163.25 L
S
GR
GS
[0.5 0 0 0.5 0 0] CT
0.149 GC
2 setlinecap
1 LJ
N
390 166 M
390 163.25 L
S
GR
GS
[0.5 0 0 0.5 0 0] CT
0.149 GC
2 setlinecap
1 LJ
N
115 65 M
115 67.75 L
S
GR
GS
[0.5 0 0 0.5 0 0] CT
0.149 GC
2 setlinecap
1 LJ
N
183.75 65 M
183.75 67.75 L
S
GR
GS
[0.5 0 0 0.5 0 0] CT
0.149 GC
2 setlinecap
1 LJ
N
252.5 65 M
252.5 67.75 L
S
GR
GS
[0.5 0 0 0.5 0 0] CT
0.149 GC
2 setlinecap
1 LJ
N
321.25 65 M
321.25 67.75 L
S
GR
GS
[0.5 0 0 0.5 0 0] CT
0.149 GC
2 setlinecap
1 LJ
N
390 65 M
390 67.75 L
S
GR
GS
[0.5 0 0 0.5 57.5 85.19997] CT
0.149 GC
/Helvetica 17 F
GS
[1 0 0 1 0 0] CT
-5 18 moveto 
1 -1 scale
(0) t 
GR
GR
GS
[0.5 0 0 0.5 91.875 85.19997] CT
0.149 GC
/Helvetica 17 F
GS
[1 0 0 1 0 0] CT
-14.5 18 moveto 
1 -1 scale
(100) t 
GR
GR
GS
[0.5 0 0 0.5 126.25 85.19997] CT
0.149 GC
/Helvetica 17 F
GS
[1 0 0 1 0 0] CT
-14.5 18 moveto 
1 -1 scale
(200) t 
GR
GR
GS
[0.5 0 0 0.5 160.625 85.19997] CT
0.149 GC
/Helvetica 17 F
GS
[1 0 0 1 0 0] CT
-14.5 18 moveto 
1 -1 scale
(300) t 
GR
GR
GS
[0.5 0 0 0.5 195 85.19997] CT
0.149 GC
/Helvetica 17 F
GS
[1 0 0 1 0 0] CT
-14.5 18 moveto 
1 -1 scale
(400) t 
GR
GR
GS
[0.5 0 0 0.5 126.25007 96.44998] CT
0.149 GC
/Helvetica 18.7 F
GS
[1 0 0 1 0 0] CT
-58.5 19 moveto 
1 -1 scale
(Window index) t 
GR
GR
GS
[0.5 0 0 0.5 0 0] CT
0.149 GC
2 setlinecap
1 LJ
N
115 166 M
115 65 L
S
GR
GS
[0.5 0 0 0.5 0 0] CT
0.149 GC
2 setlinecap
1 LJ
N
390 166 M
390 65 L
S
GR
GS
[0.5 0 0 0.5 0 0] CT
0.149 GC
2 setlinecap
1 LJ
N
115 166 M
117.75 166 L
S
GR
GS
[0.5 0 0 0.5 0 0] CT
0.149 GC
2 setlinecap
1 LJ
N
115 115.5 M
117.75 115.5 L
S
GR
GS
[0.5 0 0 0.5 0 0] CT
0.149 GC
2 setlinecap
1 LJ
N
115 65 M
117.75 65 L
S
GR
GS
[0.5 0 0 0.5 0 0] CT
0.149 GC
2 setlinecap
1 LJ
N
390 166 M
387.25 166 L
S
GR
GS
[0.5 0 0 0.5 0 0] CT
0.149 GC
2 setlinecap
1 LJ
N
390 115.5 M
387.25 115.5 L
S
GR
GS
[0.5 0 0 0.5 0 0] CT
0.149 GC
2 setlinecap
1 LJ
N
390 65 M
387.25 65 L
S
GR
GS
[0.5 0 0 0.5 55.3 83] CT
0.149 GC
/Helvetica 17 F
GS
[1 0 0 1 0 0] CT
-10 7 moveto 
1 -1 scale
(4) t 
GR
GR
GS
[0.5 0 0 0.5 55.3 57.75002] CT
0.149 GC
/Helvetica 17 F
GS
[1 0 0 1 0 0] CT
-24 7 moveto 
1 -1 scale
(4.1) t 
GR
GR
GS
[0.5 0 0 0.5 55.3 32.50005] CT
0.149 GC
/Helvetica 17 F
GS
[1 0 0 1 0 0] CT
-24 7 moveto 
1 -1 scale
(4.2) t 
GR
GR
GS
[0 -0.5 0.5 0 41.8 57.75002] CT
0.149 GC
/Helvetica 18.7 F
GS
[1 0 0 1 0 0] CT
-47 -5 moveto 
1 -1 scale
(Voltage \(V\)) t 
GR
GR
GS
[0.5 0 0 0.5 117.5 25] CT
/Helvetica-Bold 18.7 F
GS
[1 0 0 1 0 0] CT
0 0 moveto 
1 -1 scale
(V) t 
GR
GR
GS
[0.5 0 0 0.5 124 29.5] CT
/Helvetica-Bold 14.96 F
GS
[1 0 0 1 0 0] CT
0 0 moveto 
1 -1 scale
(OC) t 
GR
GR
GS
[0.5 0 0 0.5 0 0] CT
0 0.447 0.741 RC
1 LJ
3 LW
N
115.688 65 M
116.375 108.23 L
117.063 111.234 L
117.75 114.075 L
118.438 117.167 L
119.125 119.938 L
119.813 122.82 L
120.5 122.992 L
121.188 124.156 L
121.875 126.139 L
122.563 126.181 L
123.25 127.67 L
123.938 128.349 L
124.625 128.617 L
125.313 130.233 L
126 131.968 L
126.688 133.487 L
127.375 134.139 L
128.063 135.148 L
128.75 135.559 L
129.438 136.515 L
130.125 138.16 L
130.813 138.574 L
131.5 140.264 L
132.188 140.946 L
132.875 142.259 L
133.563 143.406 L
134.25 143.545 L
134.938 143.424 L
135.625 144.425 L
136.313 144.731 L
137 145.189 L
137.688 145.225 L
138.375 146.358 L
139.063 148.065 L
139.75 149.101 L
140.438 148.627 L
141.125 149.928 L
141.813 149.371 L
142.5 151.063 L
143.188 151.429 L
143.875 151.72 L
144.563 151.693 L
145.25 152.124 L
145.938 152.541 L
146.625 153.57 L
147.313 154.261 L
148 155.212 L
148.688 155.429 L
149.375 154.965 L
150.063 154.228 L
150.75 155.001 L
151.438 155.801 L
152.125 156.13 L
152.813 156.177 L
153.5 157.101 L
154.188 157.05 L
154.875 158.125 L
155.563 157.361 L
156.25 158.196 L
156.938 158.15 L
157.625 160.227 L
158.313 159.276 L
159 159.499 L
159.688 160.227 L
160.375 159.536 L
161.063 158.702 L
161.75 159.638 L
162.438 160.561 L
163.125 159.828 L
163.813 160.161 L
164.5 160.773 L
165.188 161.192 L
165.875 161.92 L
166.563 161.676 L
167.25 161.465 L
167.938 161.743 L
168.625 160.886 L
169.313 161.774 L
170 162.038 L
170.688 161.932 L
171.375 162.406 L
172.063 162.23 L
172.75 162.539 L
173.438 163.348 L
174.125 163.388 L
174.813 163.784 L
175.5 164.164 L
176.188 164.479 L
176.875 163.205 L
177.563 162.706 L
178.25 162.173 L
178.938 161.027 L
179.625 161.027 L
180.313 159.74 L
181 158.607 L
181.688 159.003 L
182.375 159.35 L
183.063 159.92 L
183.75 159.382 L
184.438 159.429 L
185.125 158.273 L
185.813 158.284 L
186.5 159.273 L
187.188 159.338 L
187.875 159.673 L
188.563 159.671 L
189.25 160.498 L
189.938 160.974 L
190.625 160.469 L
191.313 159.707 L
192 160.004 L
192.688 160.287 L
193.375 160.055 L
194.063 159.361 L
194.75 160.496 L
195.438 161.31 L
196.125 161.842 L
196.813 161.098 L
197.5 161.583 L
198.188 161.041 L
198.875 161.855 L
199.563 161.801 L
200.25 161.657 L
200.938 160.999 L
201.625 160.531 L
202.313 160.266 L
203 161.055 L
203.688 161.271 L
204.375 161.543 L
205.063 161.631 L
205.75 160.349 L
206.438 159.599 L
207.125 160.239 L
207.813 160.187 L
208.5 160.603 L
209.188 160.738 L
209.875 161.293 L
210.563 160.79 L
211.25 161.431 L
211.938 160.722 L
212.625 161.209 L
213.313 161.252 L
214 162.943 L
214.688 161.841 L
215.375 161.675 L
216.063 162.408 L
216.75 161.358 L
217.438 160.369 L
218.125 161.17 L
218.813 161.773 L
219.5 160.663 L
220.188 161.039 L
220.875 161.428 L
221.563 162.045 L
222.25 162.408 L
222.938 162.223 L
223.625 161.992 L
224.313 161.864 L
225 161.398 L
225.688 161.466 L
226.375 161.94 L
227.063 161.808 L
227.75 162.296 L
228.438 161.633 L
229.125 162.456 L
229.813 162.592 L
230.5 162.719 L
231.188 163.361 L
231.875 164.059 L
232.563 164.123 L
233.25 163.151 L
233.938 162.451 L
234.625 161.966 L
235.313 161.357 L
236 160.718 L
236.688 159.585 L
237.375 158.713 L
238.063 159.132 L
238.75 158.794 L
239.438 159.533 L
240.125 158.94 L
240.813 158.62 L
241.5 157.496 L
242.188 157.444 L
242.875 158.471 L
243.563 158.399 L
244.25 158.556 L
244.938 158.449 L
245.625 159.524 L
246.313 159.916 L
247 159.001 L
247.688 158.596 L
248.375 158.325 L
249.063 159.089 L
249.75 158.418 L
250.438 157.785 L
251.125 158.896 L
251.813 159.531 L
252.5 160.476 L
253.188 159.279 L
253.875 159.39 L
254.563 159.172 L
255.25 160.523 L
255.938 160.202 L
256.625 160.069 L
257.313 159.073 L
258 159.197 L
258.688 158.966 L
259.375 160.07 L
260.063 160.122 L
260.75 160.363 L
261.438 160.007 L
262.125 159.11 L
262.813 158.274 L
263.5 158.63 L
264.188 158.639 L
264.875 159.015 L
265.563 159.332 L
266.25 159.633 L
266.938 159.557 L
267.625 160.169 L
268.313 159.356 L
269 159.629 L
269.688 160.166 L
270.375 161.643 L
271.063 160.545 L
271.75 160.407 L
272.438 160.942 L
273.125 160.216 L
273.813 159.497 L
274.5 160.37 L
275.188 160.568 L
275.875 159.709 L
276.563 160.382 L
277.25 160.603 L
277.938 161.445 L
278.625 161.56 L
279.313 161.508 L
280 161.555 L
280.688 160.836 L
281.375 160.422 L
282.063 160.976 L
282.75 161.235 L
283.438 160.788 L
284.125 161.586 L
284.813 160.614 L
285.5 161.945 L
286.188 161.697 L
286.875 161.809 L
287.563 162.463 L
288.25 162.862 L
288.938 162.884 L
289.625 161.875 L
290.313 161.473 L
291 160.171 L
291.688 159.831 L
292.375 159.475 L
293.063 158.496 L
293.75 157.758 L
294.438 158.282 L
295.125 157.858 L
295.813 158.294 L
296.5 157.986 L
297.188 157.792 L
297.875 156.54 L
298.563 156.575 L
299.25 157.276 L
299.938 157.697 L
300.625 157.711 L
301.313 157.594 L
302 158.487 L
302.688 158.773 L
303.375 157.707 L
304.063 157.411 L
304.75 157.148 L
305.438 157.805 L
306.125 157.302 L
306.813 156.811 L
307.5 157.857 L
308.188 158.541 L
308.875 159.108 L
309.563 158.297 L
310.25 158.44 L
310.938 158.222 L
311.625 159.636 L
312.313 158.996 L
313 158.718 L
313.688 158.092 L
314.375 158.112 L
315.063 158.373 L
315.75 159.639 L
316.438 159.54 L
317.125 159.962 L
317.813 159.595 L
318.5 158.69 L
319.188 158.15 L
319.875 158.533 L
320.563 158.596 L
321.25 158.975 L
321.938 159.818 L
322.625 159.899 L
323.313 160.112 L
324 160.421 L
324.688 159.737 L
325.375 159.934 L
326.063 160.717 L
326.75 161.985 L
327.438 161.252 L
328.125 161.216 L
328.813 161.637 L
329.5 160.6 L
330.188 160.406 L
330.875 160.739 L
331.563 160.818 L
332.25 160.453 L
332.938 161.031 L
333.625 161.282 L
334.313 162.163 L
335 161.966 L
335.688 162.364 L
336.375 162.195 L
337.063 161.697 L
337.75 161.424 L
338.438 161.819 L
339.125 162.084 L
339.813 162.028 L
340.5 162.596 L
341.188 161.842 L
341.875 163.336 L
342.563 163.398 L
343.25 163.509 L
343.938 164.113 L
344.625 164.677 L
345.313 164.62 L
346 163.838 L
346.688 163.405 L
347.375 161.928 L
348.063 161.729 L
348.75 161.375 L
349.438 160.747 L
350.125 159.747 L
350.813 160.609 L
351.5 159.828 L
352.188 160.219 L
352.875 159.958 L
353.563 159.702 L
354.25 158.564 L
354.938 158.83 L
355.625 159.413 L
356.313 160.038 L
357 159.637 L
357.688 159.531 L
358.375 160.453 L
359.063 160.734 L
359.75 160.027 L
360.438 159.628 L
361.125 159.433 L
361.813 159.845 L
362.5 159.784 L
363.188 159.034 L
363.875 160.444 L
364.563 160.719 L
365.25 161.341 L
365.938 160.638 L
366.625 160.37 L
367.313 160.465 L
368 162.049 L
368.688 161.377 L
369.375 161.308 L
370.063 160.426 L
370.75 160.482 L
371.438 160.544 L
372.125 161.381 L
372.813 161.793 L
373.5 161.625 L
374.188 161.501 L
374.875 160.477 L
375.563 159.93 L
S
GR
GS
[0.5 0 0 0.5 0 0] CT
1 GC
N
485 166 M
760 166 L
760 65 L
485 65 L
cp
f
GR
GS
[0.5 0 0 0.5 0 0] CT
0.149 GC
2 setlinecap
1 LJ
N
485 166 M
760 166 L
S
GR
GS
[0.5 0 0 0.5 0 0] CT
0.149 GC
2 setlinecap
1 LJ
N
485 65 M
760 65 L
S
GR
GS
[0.5 0 0 0.5 0 0] CT
0.149 GC
2 setlinecap
1 LJ
N
485 166 M
485 163.25 L
S
GR
GS
[0.5 0 0 0.5 0 0] CT
0.149 GC
2 setlinecap
1 LJ
N
553.75 166 M
553.75 163.25 L
S
GR
GS
[0.5 0 0 0.5 0 0] CT
0.149 GC
2 setlinecap
1 LJ
N
622.5 166 M
622.5 163.25 L
S
GR
GS
[0.5 0 0 0.5 0 0] CT
0.149 GC
2 setlinecap
1 LJ
N
691.25 166 M
691.25 163.25 L
S
GR
GS
[0.5 0 0 0.5 0 0] CT
0.149 GC
2 setlinecap
1 LJ
N
760 166 M
760 163.25 L
S
GR
GS
[0.5 0 0 0.5 0 0] CT
0.149 GC
2 setlinecap
1 LJ
N
485 65 M
485 67.75 L
S
GR
GS
[0.5 0 0 0.5 0 0] CT
0.149 GC
2 setlinecap
1 LJ
N
553.75 65 M
553.75 67.75 L
S
GR
GS
[0.5 0 0 0.5 0 0] CT
0.149 GC
2 setlinecap
1 LJ
N
622.5 65 M
622.5 67.75 L
S
GR
GS
[0.5 0 0 0.5 0 0] CT
0.149 GC
2 setlinecap
1 LJ
N
691.25 65 M
691.25 67.75 L
S
GR
GS
[0.5 0 0 0.5 0 0] CT
0.149 GC
2 setlinecap
1 LJ
N
760 65 M
760 67.75 L
S
GR
GS
[0.5 0 0 0.5 242.5 85.2] CT
0.149 GC
/Helvetica 17 F
GS
[1 0 0 1 0 0] CT
-5 18 moveto 
1 -1 scale
(0) t 
GR
GR
GS
[0.5 0 0 0.5 276.875 85.2] CT
0.149 GC
/Helvetica 17 F
GS
[1 0 0 1 0 0] CT
-14.5 18 moveto 
1 -1 scale
(100) t 
GR
GR
GS
[0.5 0 0 0.5 311.25 85.2] CT
0.149 GC
/Helvetica 17 F
GS
[1 0 0 1 0 0] CT
-14.5 18 moveto 
1 -1 scale
(200) t 
GR
GR
GS
[0.5 0 0 0.5 345.625 85.2] CT
0.149 GC
/Helvetica 17 F
GS
[1 0 0 1 0 0] CT
-14.5 18 moveto 
1 -1 scale
(300) t 
GR
GR
GS
[0.5 0 0 0.5 380 85.2] CT
0.149 GC
/Helvetica 17 F
GS
[1 0 0 1 0 0] CT
-14.5 18 moveto 
1 -1 scale
(400) t 
GR
GR
GS
[0.5 0 0 0.5 311.25006 96.45] CT
0.149 GC
/Helvetica 18.7 F
GS
[1 0 0 1 0 0] CT
-58.5 19 moveto 
1 -1 scale
(Window index) t 
GR
GR
GS
[0.5 0 0 0.5 0 0] CT
0.149 GC
2 setlinecap
1 LJ
N
485 166 M
485 65 L
S
GR
GS
[0.5 0 0 0.5 0 0] CT
0.149 GC
2 setlinecap
1 LJ
N
760 166 M
760 65 L
S
GR
GS
[0.5 0 0 0.5 0 0] CT
0.149 GC
2 setlinecap
1 LJ
N
485 134.157 M
487.75 134.157 L
S
GR
GS
[0.5 0 0 0.5 0 0] CT
0.149 GC
2 setlinecap
1 LJ
N
485 91.699 M
487.75 91.699 L
S
GR
GS
[0.5 0 0 0.5 0 0] CT
0.149 GC
2 setlinecap
1 LJ
N
760 134.157 M
757.25 134.157 L
S
GR
GS
[0.5 0 0 0.5 0 0] CT
0.149 GC
2 setlinecap
1 LJ
N
760 91.699 M
757.25 91.699 L
S
GR
GS
[0.5 0 0 0.5 240.3 67.0784] CT
0.149 GC
/Helvetica 17 F
GS
[1 0 0 1 0 0] CT
-34 7 moveto 
1 -1 scale
(0.08) t 
GR
GR
GS
[0.5 0 0 0.5 240.3 45.84959] CT
0.149 GC
/Helvetica 17 F
GS
[1 0 0 1 0 0] CT
-24 7 moveto 
1 -1 scale
(0.1) t 
GR
GR
GS
[0 -0.5 0.5 0 219.5 89] CT
0.149 GC
/Helvetica 18.7 F
GS
[1 0 0 1 0 0] CT
0 0 moveto 
1 -1 scale
(Resistance \() t 
GR
GR
GS
[0 -0.5 0.5 0 219.5 37] CT
0.149 GC
N
1.469 0 M
0.828 -3.156 L
1.391 -3.156 L
1.5 -2.609 1.578 -2.188 QT
1.656 -1.766 1.797 -1.594 QT
1.938 -1.422 2.234 -1.367 QT
2.531 -1.313 3.203 -1.313 QT
4.375 -1.313 L
4.094 -2.391 2.984 -4.117 QT
1.875 -5.844 1.469 -6.625 QT
1.063 -7.406 1.063 -8.641 QT
1.063 -10.078 1.922 -11.164 QT
2.781 -12.25 4.125 -12.82 QT
5.469 -13.391 6.859 -13.391 QT
8.234 -13.391 9.578 -12.82 QT
10.922 -12.25 11.781 -11.156 QT
12.641 -10.063 12.641 -8.641 QT
12.641 -7.688 12.289 -6.828 QT
11.938 -5.969 11.391 -5.117 QT
10.844 -4.266 10.203 -3.219 QT
9.563 -2.172 9.328 -1.313 QT
10.484 -1.313 L
11.172 -1.313 11.484 -1.367 QT
11.797 -1.422 11.922 -1.594 QT
12.047 -1.766 12.125 -2.188 QT
12.203 -2.609 12.313 -3.156 QT
12.859 -3.156 L
12.234 0 L
8.875 0 L
8.688 0 8.688 -0.25 QT
8.688 -1.219 8.922 -2.148 QT
9.156 -3.078 9.617 -4.391 QT
10.078 -5.703 10.344 -6.711 QT
10.609 -7.719 10.609 -8.641 QT
10.609 -9.781 10.164 -10.758 QT
9.719 -11.734 8.859 -12.32 QT
8 -12.906 6.859 -12.906 QT
5.125 -12.906 4.109 -11.664 QT
3.094 -10.422 3.094 -8.641 QT
3.109 -7.672 3.328 -6.813 QT
3.547 -5.953 4.047 -4.516 QT
4.547 -3.078 4.781 -2.148 QT
5.016 -1.219 5.016 -0.25 QT
5.016 0 4.828 0 QT
1.469 0 L
cp
f
GR
GS
[0 -0.5 0.5 0 219.5 30] CT
0.149 GC
/Helvetica 18.7 F
GS
[1 0 0 1 0 0] CT
0 0 moveto 
1 -1 scale
(\)) t 
GR
GR
GS
[0.5 0 0 0.5 305.5 25] CT
/Helvetica-Bold 18.7 F
GS
[1 0 0 1 0 0] CT
0 0 moveto 
1 -1 scale
(R) t 
GR
GR
GS
[0.5 0 0 0.5 312.5 29.5] CT
/Helvetica-Bold 14.96 F
GS
[1 0 0 1 0 0] CT
0 0 moveto 
1 -1 scale
(S) t 
GR
GR
GS
[0.5 0 0 0.5 0 0] CT
0 0.447 0.741 RC
1 LJ
3 LW
N
485.688 166 M
486.375 159.101 L
487.063 151.856 L
487.75 144.25 L
488.438 136.263 L
489.125 127.877 L
489.813 119.071 L
490.5 109.825 L
491.188 100.117 L
491.875 89.924 L
492.563 79.221 L
493.25 67.983 L
493.938 65 L
494.625 65.133 L
495.313 65.4 L
496 65.723 L
496.688 65.984 L
497.375 66.174 L
498.063 66.391 L
498.75 66.534 L
499.438 66.764 L
500.125 67.017 L
500.813 67.171 L
501.5 67.425 L
502.188 67.59 L
502.875 67.758 L
503.563 67.938 L
504.25 68.067 L
504.938 68.15 L
505.625 68.344 L
506.313 68.446 L
507 68.664 L
507.688 68.693 L
508.375 68.809 L
509.063 69.044 L
509.75 69.197 L
510.438 69.29 L
511.125 69.468 L
511.813 69.548 L
512.5 69.677 L
513.188 69.791 L
513.875 69.916 L
514.563 70.024 L
515.25 70.151 L
515.938 70.247 L
516.625 70.363 L
517.313 70.492 L
518 70.622 L
518.688 70.766 L
519.375 70.88 L
520.063 71 L
520.75 71.173 L
521.438 71.315 L
522.125 71.458 L
522.813 71.574 L
523.5 71.694 L
524.188 71.791 L
524.875 71.944 L
525.563 72.039 L
526.25 72.16 L
526.938 72.313 L
527.625 72.528 L
528.313 72.646 L
529 72.861 L
529.688 73.031 L
530.375 73.212 L
531.063 73.441 L
531.75 73.688 L
532.438 73.974 L
533.125 74.218 L
533.813 74.504 L
534.5 74.789 L
535.188 75.084 L
535.875 75.384 L
536.563 75.694 L
537.25 75.981 L
537.938 76.307 L
538.625 76.605 L
539.313 76.87 L
540 77.169 L
540.688 77.486 L
541.375 77.764 L
542.063 78.09 L
542.75 78.398 L
543.438 78.756 L
544.125 79.076 L
544.813 79.406 L
545.5 79.677 L
546.188 79.947 L
546.875 80.212 L
547.563 80.466 L
548.25 80.701 L
548.938 80.883 L
549.625 81.059 L
550.313 81.193 L
551 81.336 L
551.688 81.423 L
552.375 81.485 L
553.063 81.517 L
553.75 81.482 L
554.438 81.413 L
555.125 81.328 L
555.813 81.254 L
556.5 81.147 L
557.188 80.972 L
557.875 80.842 L
558.563 80.625 L
559.25 80.456 L
559.938 80.295 L
560.625 80.04 L
561.313 79.778 L
562 79.575 L
562.688 79.314 L
563.375 79.013 L
564.063 78.715 L
564.75 78.415 L
565.438 78.155 L
566.125 77.885 L
566.813 77.608 L
567.5 77.325 L
568.188 76.987 L
568.875 76.678 L
569.563 76.387 L
570.25 76.058 L
570.938 75.734 L
571.625 75.419 L
572.313 75.136 L
573 74.875 L
573.688 74.622 L
574.375 74.403 L
575.063 74.216 L
575.75 73.995 L
576.438 73.804 L
577.125 73.647 L
577.813 73.529 L
578.5 73.449 L
579.188 73.35 L
579.875 73.287 L
580.563 73.228 L
581.25 73.205 L
581.938 73.141 L
582.625 73.052 L
583.313 72.966 L
584 72.929 L
584.688 72.826 L
585.375 72.778 L
586.063 72.742 L
586.75 72.673 L
587.438 72.634 L
588.125 72.579 L
588.813 72.557 L
589.5 72.49 L
590.188 72.431 L
590.875 72.41 L
591.563 72.383 L
592.25 72.38 L
592.938 72.373 L
593.625 72.378 L
594.313 72.37 L
595 72.339 L
595.688 72.338 L
596.375 72.364 L
597.063 72.366 L
597.75 72.366 L
598.438 72.333 L
599.125 72.321 L
599.813 72.337 L
600.5 72.355 L
601.188 72.338 L
601.875 72.326 L
602.563 72.307 L
603.25 72.297 L
603.938 72.305 L
604.625 72.288 L
605.313 72.3 L
606 72.268 L
606.688 72.229 L
607.375 72.244 L
608.063 72.247 L
608.75 72.233 L
609.438 72.213 L
610.125 72.203 L
610.813 72.158 L
611.5 72.133 L
612.188 72.081 L
612.875 72.025 L
613.563 71.987 L
614.25 71.958 L
614.938 71.927 L
615.625 71.903 L
616.313 71.861 L
617 71.835 L
617.688 71.797 L
618.375 71.738 L
619.063 71.723 L
619.75 71.655 L
620.438 71.603 L
621.125 71.591 L
621.813 71.611 L
622.5 71.626 L
623.188 71.543 L
623.875 71.486 L
624.563 71.436 L
625.25 71.437 L
625.938 71.408 L
626.625 71.348 L
627.313 71.283 L
628 71.198 L
628.688 71.133 L
629.375 71.124 L
630.063 71.106 L
630.75 71.068 L
631.438 71.022 L
632.125 70.979 L
632.813 70.931 L
633.5 70.91 L
634.188 70.89 L
634.875 70.879 L
635.563 70.894 L
636.25 70.901 L
636.938 70.916 L
637.625 70.945 L
638.313 70.945 L
639 70.936 L
639.688 70.903 L
640.375 70.942 L
641.063 70.906 L
641.75 70.864 L
642.438 70.83 L
643.125 70.785 L
643.813 70.768 L
644.5 70.728 L
645.188 70.705 L
645.875 70.697 L
646.563 70.675 L
647.25 70.649 L
647.938 70.636 L
648.625 70.683 L
649.313 70.682 L
650 70.708 L
650.688 70.652 L
651.375 70.613 L
652.063 70.627 L
652.75 70.647 L
653.438 70.621 L
654.125 70.659 L
654.813 70.638 L
655.5 70.667 L
656.188 70.646 L
656.875 70.64 L
657.563 70.663 L
658.25 70.652 L
658.938 70.644 L
659.625 70.613 L
660.313 70.592 L
661 70.561 L
661.688 70.537 L
662.375 70.522 L
663.063 70.493 L
663.75 70.484 L
664.438 70.471 L
665.125 70.442 L
665.813 70.41 L
666.5 70.383 L
667.188 70.339 L
667.875 70.318 L
668.563 70.293 L
669.25 70.25 L
669.938 70.241 L
670.625 70.253 L
671.313 70.235 L
672 70.237 L
672.688 70.25 L
673.375 70.191 L
674.063 70.168 L
674.75 70.126 L
675.438 70.107 L
676.125 70.11 L
676.813 70.11 L
677.5 70.122 L
678.188 70.139 L
678.875 70.169 L
679.563 70.102 L
680.25 70.075 L
680.938 70.062 L
681.625 70.068 L
682.313 70.071 L
683 70.056 L
683.688 70.024 L
684.375 69.999 L
685.063 70.001 L
685.75 70.05 L
686.438 70.04 L
687.125 70.035 L
687.813 70.006 L
688.5 69.968 L
689.188 69.905 L
689.875 69.898 L
690.563 69.895 L
691.25 69.92 L
691.938 69.954 L
692.625 69.986 L
693.313 70.034 L
694 70.047 L
694.688 70.056 L
695.375 70.045 L
696.063 70.034 L
696.75 70.018 L
697.438 69.969 L
698.125 69.947 L
698.813 69.934 L
699.5 69.876 L
700.188 69.87 L
700.875 69.805 L
701.563 69.785 L
702.25 69.759 L
702.938 69.713 L
703.625 69.703 L
704.313 69.708 L
705 69.694 L
705.688 69.678 L
706.375 69.697 L
707.063 69.659 L
707.75 69.625 L
708.438 69.636 L
709.125 69.618 L
709.813 69.611 L
710.5 69.611 L
711.188 69.551 L
711.875 69.528 L
712.563 69.557 L
713.25 69.552 L
713.938 69.51 L
714.625 69.523 L
715.313 69.514 L
716 69.497 L
716.688 69.483 L
717.375 69.473 L
718.063 69.466 L
718.75 69.427 L
719.438 69.392 L
720.125 69.344 L
720.813 69.34 L
721.5 69.326 L
722.188 69.293 L
722.875 69.274 L
723.563 69.243 L
724.25 69.156 L
724.938 69.083 L
725.625 69.07 L
726.313 69.075 L
727 69.061 L
727.688 69.025 L
728.375 69.037 L
729.063 69.023 L
729.75 69.013 L
730.438 68.971 L
731.125 68.922 L
731.813 68.928 L
732.5 68.946 L
733.188 68.893 L
733.875 68.891 L
734.563 68.906 L
735.25 68.889 L
735.938 68.84 L
736.625 68.806 L
737.313 68.784 L
738 68.787 L
738.688 68.746 L
739.375 68.732 L
740.063 68.713 L
740.75 68.71 L
741.438 68.684 L
742.125 68.659 L
742.813 68.67 L
743.5 68.61 L
744.188 68.616 L
744.875 68.601 L
745.563 68.582 L
S
GR
GS
[0.5 0 0 0.5 0 0] CT
1 GC
N
115 355 M
390 355 L
390 254 L
115 254 L
cp
f
GR
GS
[0.5 0 0 0.5 0 0] CT
0.149 GC
2 setlinecap
1 LJ
N
115 355 M
390 355 L
S
GR
GS
[0.5 0 0 0.5 0 0] CT
0.149 GC
2 setlinecap
1 LJ
N
115 254 M
390 254 L
S
GR
GS
[0.5 0 0 0.5 0 0] CT
0.149 GC
2 setlinecap
1 LJ
N
115 355 M
115 352.25 L
S
GR
GS
[0.5 0 0 0.5 0 0] CT
0.149 GC
2 setlinecap
1 LJ
N
183.75 355 M
183.75 352.25 L
S
GR
GS
[0.5 0 0 0.5 0 0] CT
0.149 GC
2 setlinecap
1 LJ
N
252.5 355 M
252.5 352.25 L
S
GR
GS
[0.5 0 0 0.5 0 0] CT
0.149 GC
2 setlinecap
1 LJ
N
321.25 355 M
321.25 352.25 L
S
GR
GS
[0.5 0 0 0.5 0 0] CT
0.149 GC
2 setlinecap
1 LJ
N
390 355 M
390 352.25 L
S
GR
GS
[0.5 0 0 0.5 0 0] CT
0.149 GC
2 setlinecap
1 LJ
N
115 254 M
115 256.75 L
S
GR
GS
[0.5 0 0 0.5 0 0] CT
0.149 GC
2 setlinecap
1 LJ
N
183.75 254 M
183.75 256.75 L
S
GR
GS
[0.5 0 0 0.5 0 0] CT
0.149 GC
2 setlinecap
1 LJ
N
252.5 254 M
252.5 256.75 L
S
GR
GS
[0.5 0 0 0.5 0 0] CT
0.149 GC
2 setlinecap
1 LJ
N
321.25 254 M
321.25 256.75 L
S
GR
GS
[0.5 0 0 0.5 0 0] CT
0.149 GC
2 setlinecap
1 LJ
N
390 254 M
390 256.75 L
S
GR
GS
[0.5 0 0 0.5 57.5 179.7] CT
0.149 GC
/Helvetica 17 F
GS
[1 0 0 1 0 0] CT
-5 18 moveto 
1 -1 scale
(0) t 
GR
GR
GS
[0.5 0 0 0.5 91.875 179.7] CT
0.149 GC
/Helvetica 17 F
GS
[1 0 0 1 0 0] CT
-14.5 18 moveto 
1 -1 scale
(100) t 
GR
GR
GS
[0.5 0 0 0.5 126.25 179.7] CT
0.149 GC
/Helvetica 17 F
GS
[1 0 0 1 0 0] CT
-14.5 18 moveto 
1 -1 scale
(200) t 
GR
GR
GS
[0.5 0 0 0.5 160.625 179.7] CT
0.149 GC
/Helvetica 17 F
GS
[1 0 0 1 0 0] CT
-14.5 18 moveto 
1 -1 scale
(300) t 
GR
GR
GS
[0.5 0 0 0.5 195 179.7] CT
0.149 GC
/Helvetica 17 F
GS
[1 0 0 1 0 0] CT
-14.5 18 moveto 
1 -1 scale
(400) t 
GR
GR
GS
[0.5 0 0 0.5 126.25007 190.95] CT
0.149 GC
/Helvetica 18.7 F
GS
[1 0 0 1 0 0] CT
-58.5 19 moveto 
1 -1 scale
(Window index) t 
GR
GR
GS
[0.5 0 0 0.5 0 0] CT
0.149 GC
2 setlinecap
1 LJ
N
115 355 M
115 254 L
S
GR
GS
[0.5 0 0 0.5 0 0] CT
0.149 GC
2 setlinecap
1 LJ
N
390 355 M
390 254 L
S
GR
GS
[0.5 0 0 0.5 0 0] CT
0.149 GC
2 setlinecap
1 LJ
N
115 355 M
117.75 355 L
S
GR
GS
[0.5 0 0 0.5 0 0] CT
0.149 GC
2 setlinecap
1 LJ
N
115 304.5 M
117.75 304.5 L
S
GR
GS
[0.5 0 0 0.5 0 0] CT
0.149 GC
2 setlinecap
1 LJ
N
115 254 M
117.75 254 L
S
GR
GS
[0.5 0 0 0.5 0 0] CT
0.149 GC
2 setlinecap
1 LJ
N
390 355 M
387.25 355 L
S
GR
GS
[0.5 0 0 0.5 0 0] CT
0.149 GC
2 setlinecap
1 LJ
N
390 304.5 M
387.25 304.5 L
S
GR
GS
[0.5 0 0 0.5 0 0] CT
0.149 GC
2 setlinecap
1 LJ
N
390 254 M
387.25 254 L
S
GR
GS
[0.5 0 0 0.5 55.3 177.5] CT
0.149 GC
/Helvetica 17 F
GS
[1 0 0 1 0 0] CT
-10 7 moveto 
1 -1 scale
(0) t 
GR
GR
GS
[0.5 0 0 0.5 55.3 152.25] CT
0.149 GC
/Helvetica 17 F
GS
[1 0 0 1 0 0] CT
-34 7 moveto 
1 -1 scale
(0.05) t 
GR
GR
GS
[0.5 0 0 0.5 55.3 127] CT
0.149 GC
/Helvetica 17 F
GS
[1 0 0 1 0 0] CT
-24 7 moveto 
1 -1 scale
(0.1) t 
GR
GR
GS
[0 -0.5 0.5 0 34.5 183.5] CT
0.149 GC
/Helvetica 18.7 F
GS
[1 0 0 1 0 0] CT
0 0 moveto 
1 -1 scale
(Resistance \() t 
GR
GR
GS
[0 -0.5 0.5 0 34.5 131.5] CT
0.149 GC
N
/f708710631{1.469 0 M
0.828 -3.156 L
1.391 -3.156 L
1.5 -2.609 1.578 -2.188 QT
1.656 -1.766 1.797 -1.594 QT
1.938 -1.422 2.234 -1.367 QT
2.531 -1.313 3.203 -1.313 QT
4.375 -1.313 L
4.094 -2.391 2.984 -4.117 QT
1.875 -5.844 1.469 -6.625 QT
1.063 -7.406 1.063 -8.641 QT
1.063 -10.078 1.922 -11.164 QT
2.781 -12.25 4.125 -12.82 QT
5.469 -13.391 6.859 -13.391 QT
8.234 -13.391 9.578 -12.82 QT
10.922 -12.25 11.781 -11.156 QT
12.641 -10.063 12.641 -8.641 QT
12.641 -7.688 12.289 -6.828 QT
11.938 -5.969 11.391 -5.117 QT
10.844 -4.266 10.203 -3.219 QT
9.563 -2.172 9.328 -1.313 QT
10.484 -1.313 L
11.172 -1.313 11.484 -1.367 QT
11.797 -1.422 11.922 -1.594 QT
12.047 -1.766 12.125 -2.188 QT
12.203 -2.609 12.313 -3.156 QT
12.859 -3.156 L
12.234 0 L
8.875 0 L
8.688 0 8.688 -0.25 QT
8.688 -1.219 8.922 -2.148 QT
9.156 -3.078 9.617 -4.391 QT
10.078 -5.703 10.344 -6.711 QT
10.609 -7.719 10.609 -8.641 QT
10.609 -9.781 10.164 -10.758 QT
9.719 -11.734 8.859 -12.32 QT
8 -12.906 6.859 -12.906 QT
5.125 -12.906 4.109 -11.664 QT
3.094 -10.422 3.094 -8.641 QT
3.109 -7.672 3.328 -6.813 QT
3.547 -5.953 4.047 -4.516 QT
4.547 -3.078 4.781 -2.148 QT
5.016 -1.219 5.016 -0.25 QT
5.016 0 4.828 0 QT
1.469 0 L
cp}def
f708710631
f
GR
GS
[0 -0.5 0.5 0 34.5 124.5] CT
0.149 GC
/Helvetica 18.7 F
GS
[1 0 0 1 0 0] CT
0 0 moveto 
1 -1 scale
(\)) t 
GR
GR
GS
[0.5 0 0 0.5 118 119.5] CT
/Helvetica-Bold 18.7 F
GS
[1 0 0 1 0 0] CT
0 0 moveto 
1 -1 scale
(R) t 
GR
GR
GS
[0.5 0 0 0.5 125 124] CT
/Helvetica-Bold 14.96 F
GS
[1 0 0 1 0 0] CT
0 0 moveto 
1 -1 scale
(D1) t 
GR
GR
GS
[0.5 0 0 0.5 0 0] CT
0 0.447 0.741 RC
1 LJ
3 LW
N
115.688 254 M
116.375 259.05 L
117.063 263.847 L
117.75 268.404 L
118.438 272.731 L
119.125 276.844 L
119.813 280.751 L
120.5 284.463 L
121.188 287.988 L
121.875 291.338 L
122.563 294.521 L
123.25 297.544 L
123.938 300.417 L
124.625 303.145 L
125.313 305.737 L
126 308.199 L
126.688 310.539 L
127.375 312.762 L
128.063 314.873 L
128.75 316.879 L
129.438 318.785 L
130.125 320.595 L
130.813 322.315 L
131.5 323.949 L
132.188 325.502 L
132.875 326.972 L
133.563 328.374 L
134.25 329.704 L
134.938 330.968 L
135.625 332.169 L
136.313 333.305 L
137 334.39 L
137.688 335.42 L
138.375 336.392 L
139.063 337.297 L
139.75 338.159 L
140.438 339.001 L
141.125 339.801 L
141.813 340.56 L
142.5 341.282 L
143.188 341.968 L
143.875 342.572 L
144.563 343.193 L
145.25 343.771 L
145.938 344.218 L
146.625 344.757 L
147.313 345.033 L
148 345.463 L
148.688 345.938 L
149.375 346.387 L
150.063 346.669 L
150.75 347.052 L
151.438 347.447 L
152.125 347.794 L
152.813 348.129 L
153.5 348.47 L
154.188 348.796 L
154.875 349.106 L
155.563 349.398 L
156.25 349.654 L
156.938 349.882 L
157.625 350.135 L
158.313 349.897 L
159 349.859 L
159.688 349.606 L
160.375 349.338 L
161.063 349.067 L
161.75 348.784 L
162.438 348.751 L
163.125 348.443 L
163.813 348.213 L
164.5 347.888 L
165.188 347.61 L
165.875 347.536 L
166.563 347.75 L
167.25 347.663 L
167.938 347.937 L
168.625 347.933 L
169.313 347.969 L
170 348.125 L
170.688 348.382 L
171.375 348.689 L
172.063 348.999 L
172.75 349.293 L
173.438 349.506 L
174.125 349.713 L
174.813 349.976 L
175.5 350.215 L
176.188 350.454 L
176.875 350.677 L
177.563 350.824 L
178.25 350.816 L
178.938 350.862 L
179.625 351.067 L
180.313 351.261 L
181 351.32 L
181.688 351.25 L
182.375 351.302 L
183.063 351.362 L
183.75 351.365 L
184.438 351.371 L
185.125 351.313 L
185.813 351.262 L
186.5 351.08 L
187.188 351.045 L
187.875 351.173 L
188.563 351.197 L
189.25 351.384 L
189.938 351.56 L
190.625 351.522 L
191.313 351.408 L
192 351.45 L
192.688 351.469 L
193.375 351.31 L
194.063 351.209 L
194.75 351.135 L
195.438 351.325 L
196.125 351.425 L
196.813 351.337 L
197.5 351.315 L
198.188 351.28 L
198.875 351.225 L
199.563 351.221 L
200.25 351.195 L
200.938 351.089 L
201.625 351.109 L
202.313 351.182 L
203 351.17 L
203.688 351.137 L
204.375 351.082 L
205.063 351.086 L
205.75 351.033 L
206.438 351.025 L
207.125 350.852 L
207.813 350.848 L
208.5 350.938 L
209.188 351.006 L
209.875 351.066 L
210.563 351.179 L
211.25 351.292 L
211.938 351.378 L
212.625 351.354 L
213.313 351.32 L
214 351.323 L
214.688 351.142 L
215.375 350.951 L
216.063 350.767 L
216.75 350.565 L
217.438 350.411 L
218.125 350.229 L
218.813 349.991 L
219.5 349.809 L
220.188 349.569 L
220.875 349.344 L
221.563 349.235 L
222.25 349.274 L
222.938 349.382 L
223.625 349.557 L
224.313 349.591 L
225 349.583 L
225.688 349.586 L
226.375 349.763 L
227.063 349.771 L
227.75 349.969 L
228.438 349.887 L
229.125 350.082 L
229.813 350.168 L
230.5 350.389 L
231.188 350.494 L
231.875 350.558 L
232.563 350.564 L
233.25 350.557 L
233.938 350.556 L
234.625 350.545 L
235.313 350.716 L
236 350.849 L
236.688 350.84 L
237.375 350.911 L
238.063 351.087 L
238.75 351.142 L
239.438 351.25 L
240.125 351.296 L
240.813 351.278 L
241.5 351.272 L
242.188 351.112 L
242.875 350.963 L
243.563 351.009 L
244.25 351.063 L
244.938 351.115 L
245.625 351.176 L
246.313 351.202 L
247 351.378 L
247.688 351.51 L
248.375 351.456 L
249.063 351.496 L
249.75 351.433 L
250.438 351.423 L
251.125 351.484 L
251.813 351.647 L
252.5 351.804 L
253.188 351.645 L
253.875 351.481 L
254.563 351.496 L
255.25 351.667 L
255.938 351.646 L
256.625 351.513 L
257.313 351.353 L
258 351.325 L
258.688 351.157 L
259.375 351.272 L
260.063 351.242 L
260.75 351.12 L
261.438 350.931 L
262.125 350.742 L
262.813 350.531 L
263.5 350.477 L
264.188 350.448 L
264.875 350.461 L
265.563 350.679 L
266.25 350.773 L
266.938 350.94 L
267.625 351.139 L
268.313 351.102 L
269 351.016 L
269.688 350.841 L
270.375 350.888 L
271.063 350.737 L
271.75 350.582 L
272.438 350.363 L
273.125 350.132 L
273.813 350.026 L
274.5 349.786 L
275.188 349.529 L
275.875 349.273 L
276.563 348.993 L
277.25 348.697 L
277.938 348.574 L
278.625 348.838 L
279.313 349.007 L
280 349.263 L
280.688 348.983 L
281.375 348.761 L
282.063 349.062 L
282.75 349.276 L
283.438 349.312 L
284.125 349.583 L
284.813 349.542 L
285.5 349.77 L
286.188 349.798 L
286.875 349.814 L
287.563 350.06 L
288.25 350.036 L
288.938 350.033 L
289.625 350.081 L
290.313 350.055 L
291 350.047 L
291.688 350.044 L
292.375 349.958 L
293.063 349.992 L
293.75 349.997 L
294.438 349.963 L
295.125 350.014 L
295.813 350.04 L
296.5 350.243 L
297.188 350.261 L
297.875 350.17 L
298.563 349.959 L
299.25 349.831 L
299.938 349.968 L
300.625 350.183 L
301.313 350.207 L
302 350.421 L
302.688 350.646 L
303.375 350.526 L
304.063 350.507 L
304.75 350.445 L
305.438 350.469 L
306.125 350.636 L
306.813 350.751 L
307.5 350.932 L
308.188 351.082 L
308.875 351.276 L
309.563 351.097 L
310.25 350.908 L
310.938 350.881 L
311.625 351.075 L
312.313 351.008 L
313 351.017 L
313.688 350.958 L
314.375 350.964 L
315.063 351.019 L
315.75 351.155 L
316.438 351.108 L
317.125 351.031 L
317.813 350.869 L
318.5 350.822 L
319.188 350.615 L
319.875 350.405 L
320.563 350.406 L
321.25 350.438 L
321.938 350.663 L
322.625 350.879 L
323.313 351.084 L
324 351.185 L
324.688 351.359 L
325.375 351.342 L
326.063 351.24 L
326.75 351.147 L
327.438 350.954 L
328.125 350.792 L
328.813 350.582 L
329.5 350.362 L
330.188 350.175 L
330.875 349.934 L
331.563 349.682 L
332.25 349.418 L
332.938 349.144 L
333.625 348.911 L
334.313 348.918 L
335 348.947 L
335.688 349.028 L
336.375 349.317 L
337.063 349.424 L
337.75 349.293 L
338.438 349.572 L
339.125 349.629 L
339.813 349.645 L
340.5 349.901 L
341.188 349.79 L
341.875 349.896 L
342.563 350.149 L
343.25 350.358 L
343.938 350.375 L
344.625 350.604 L
345.313 350.742 L
346 350.74 L
346.688 350.727 L
347.375 350.869 L
348.063 350.931 L
348.75 350.944 L
349.438 350.939 L
350.125 350.847 L
350.813 350.96 L
351.5 350.918 L
352.188 350.914 L
352.875 350.932 L
353.563 350.917 L
354.25 350.721 L
354.938 350.509 L
355.625 350.407 L
356.313 350.616 L
357 350.762 L
357.688 350.647 L
358.375 350.839 L
359.063 351.011 L
359.75 350.999 L
360.438 350.876 L
361.125 350.69 L
361.813 350.687 L
362.5 350.834 L
363.188 350.722 L
363.875 350.82 L
364.563 351.004 L
365.25 351.076 L
365.938 350.881 L
366.625 350.77 L
367.313 350.759 L
368 350.91 L
368.688 350.856 L
369.375 350.857 L
370.063 350.831 L
370.75 350.933 L
371.438 350.806 L
372.125 350.834 L
372.813 350.895 L
373.5 350.731 L
374.188 350.75 L
374.875 350.723 L
375.563 350.607 L
S
GR
GS
[0.5 0 0 0.5 0 0] CT
1 GC
N
485 355 M
760 355 L
760 254 L
485 254 L
cp
f
GR
GS
[0.5 0 0 0.5 0 0] CT
0.149 GC
2 setlinecap
1 LJ
N
485 355 M
760 355 L
S
GR
GS
[0.5 0 0 0.5 0 0] CT
0.149 GC
2 setlinecap
1 LJ
N
485 254 M
760 254 L
S
GR
GS
[0.5 0 0 0.5 0 0] CT
0.149 GC
2 setlinecap
1 LJ
N
485 355 M
485 352.25 L
S
GR
GS
[0.5 0 0 0.5 0 0] CT
0.149 GC
2 setlinecap
1 LJ
N
553.75 355 M
553.75 352.25 L
S
GR
GS
[0.5 0 0 0.5 0 0] CT
0.149 GC
2 setlinecap
1 LJ
N
622.5 355 M
622.5 352.25 L
S
GR
GS
[0.5 0 0 0.5 0 0] CT
0.149 GC
2 setlinecap
1 LJ
N
691.25 355 M
691.25 352.25 L
S
GR
GS
[0.5 0 0 0.5 0 0] CT
0.149 GC
2 setlinecap
1 LJ
N
760 355 M
760 352.25 L
S
GR
GS
[0.5 0 0 0.5 0 0] CT
0.149 GC
2 setlinecap
1 LJ
N
485 254 M
485 256.75 L
S
GR
GS
[0.5 0 0 0.5 0 0] CT
0.149 GC
2 setlinecap
1 LJ
N
553.75 254 M
553.75 256.75 L
S
GR
GS
[0.5 0 0 0.5 0 0] CT
0.149 GC
2 setlinecap
1 LJ
N
622.5 254 M
622.5 256.75 L
S
GR
GS
[0.5 0 0 0.5 0 0] CT
0.149 GC
2 setlinecap
1 LJ
N
691.25 254 M
691.25 256.75 L
S
GR
GS
[0.5 0 0 0.5 0 0] CT
0.149 GC
2 setlinecap
1 LJ
N
760 254 M
760 256.75 L
S
GR
GS
[0.5 0 0 0.5 242.5 179.7] CT
0.149 GC
/Helvetica 17 F
GS
[1 0 0 1 0 0] CT
-5 18 moveto 
1 -1 scale
(0) t 
GR
GR
GS
[0.5 0 0 0.5 276.875 179.7] CT
0.149 GC
/Helvetica 17 F
GS
[1 0 0 1 0 0] CT
-14.5 18 moveto 
1 -1 scale
(100) t 
GR
GR
GS
[0.5 0 0 0.5 311.25 179.7] CT
0.149 GC
/Helvetica 17 F
GS
[1 0 0 1 0 0] CT
-14.5 18 moveto 
1 -1 scale
(200) t 
GR
GR
GS
[0.5 0 0 0.5 345.625 179.7] CT
0.149 GC
/Helvetica 17 F
GS
[1 0 0 1 0 0] CT
-14.5 18 moveto 
1 -1 scale
(300) t 
GR
GR
GS
[0.5 0 0 0.5 380 179.7] CT
0.149 GC
/Helvetica 17 F
GS
[1 0 0 1 0 0] CT
-14.5 18 moveto 
1 -1 scale
(400) t 
GR
GR
GS
[0.5 0 0 0.5 311.25006 190.95] CT
0.149 GC
/Helvetica 18.7 F
GS
[1 0 0 1 0 0] CT
-58.5 19 moveto 
1 -1 scale
(Window index) t 
GR
GR
GS
[0.5 0 0 0.5 0 0] CT
0.149 GC
2 setlinecap
1 LJ
N
485 355 M
485 254 L
S
GR
GS
[0.5 0 0 0.5 0 0] CT
0.149 GC
2 setlinecap
1 LJ
N
760 355 M
760 254 L
S
GR
GS
[0.5 0 0 0.5 0 0] CT
0.149 GC
2 setlinecap
1 LJ
N
485 355 M
487.75 355 L
S
GR
GS
[0.5 0 0 0.5 0 0] CT
0.149 GC
2 setlinecap
1 LJ
N
485 304.5 M
487.75 304.5 L
S
GR
GS
[0.5 0 0 0.5 0 0] CT
0.149 GC
2 setlinecap
1 LJ
N
485 254 M
487.75 254 L
S
GR
GS
[0.5 0 0 0.5 0 0] CT
0.149 GC
2 setlinecap
1 LJ
N
760 355 M
757.25 355 L
S
GR
GS
[0.5 0 0 0.5 0 0] CT
0.149 GC
2 setlinecap
1 LJ
N
760 304.5 M
757.25 304.5 L
S
GR
GS
[0.5 0 0 0.5 0 0] CT
0.149 GC
2 setlinecap
1 LJ
N
760 254 M
757.25 254 L
S
GR
GS
[0.5 0 0 0.5 240.3 177.5] CT
0.149 GC
/Helvetica 17 F
GS
[1 0 0 1 0 0] CT
-10 7 moveto 
1 -1 scale
(0) t 
GR
GR
GS
[0.5 0 0 0.5 240.3 152.25] CT
0.149 GC
/Helvetica 17 F
GS
[1 0 0 1 0 0] CT
-38 7 moveto 
1 -1 scale
(5000) t 
GR
GR
GS
[0.5 0 0 0.5 240.3 127] CT
0.149 GC
/Helvetica 17 F
GS
[1 0 0 1 0 0] CT
-48 7 moveto 
1 -1 scale
(10000) t 
GR
GR
GS
[0 -0.5 0.5 0 214.8 152.24997] CT
0.149 GC
/Helvetica 18.7 F
GS
[1 0 0 1 0 0] CT
-66.5 -5 moveto 
1 -1 scale
(Capacitance \(F\)) t 
GR
GR
GS
[0.5 0 0 0.5 303 119.5] CT
/Helvetica-Bold 18.7 F
GS
[1 0 0 1 0 0] CT
0 0 moveto 
1 -1 scale
(C) t 
GR
GR
GS
[0.5 0 0 0.5 310 124] CT
/Helvetica-Bold 14.96 F
GS
[1 0 0 1 0 0] CT
0 0 moveto 
1 -1 scale
(D1) t 
GR
GR
GS
[0.5 0 0 0.5 0 0] CT
0 0.447 0.741 RC
1 LJ
3 LW
N
485.688 254 M
486.375 259.049 L
487.063 263.846 L
487.75 268.403 L
488.438 272.727 L
489.125 276.84 L
489.813 280.747 L
490.5 284.458 L
491.188 287.98 L
491.875 291.329 L
492.563 294.511 L
493.25 297.43 L
493.938 300.199 L
494.625 302.904 L
495.313 305.509 L
496 307.959 L
496.688 309.595 L
497.375 311.865 L
498.063 314.017 L
498.75 316.066 L
499.438 318.012 L
500.125 319.861 L
500.813 321.617 L
501.5 323.286 L
502.188 324.872 L
502.875 326.373 L
503.563 327.804 L
504.25 329.163 L
504.938 330.454 L
505.625 331.681 L
506.313 332.843 L
507 333.951 L
507.688 335.004 L
508.375 336.001 L
509.063 336.936 L
509.75 337.825 L
510.438 338.684 L
511.125 339.5 L
511.813 340.275 L
512.5 341.011 L
513.188 341.71 L
513.875 342.362 L
514.563 342.994 L
515.25 343.591 L
515.938 344.148 L
516.625 344.69 L
517.313 345.134 L
518 345.61 L
518.688 346.079 L
519.375 346.524 L
520.063 346.947 L
520.75 347.341 L
521.438 347.722 L
522.125 348.06 L
522.813 348.23 L
523.5 348.302 L
524.188 348.296 L
524.875 348.293 L
525.563 348.307 L
526.25 348.397 L
526.938 348.405 L
527.625 348.584 L
528.313 348.427 L
529 348.411 L
529.688 348.247 L
530.375 348.158 L
531.063 348.115 L
531.75 348.116 L
532.438 348.169 L
533.125 348.143 L
533.813 348.105 L
534.5 348.091 L
535.188 348.1 L
535.875 348.002 L
536.563 348.05 L
537.25 348.065 L
537.938 348.039 L
538.625 348.112 L
539.313 348.134 L
540 348.163 L
540.688 348.218 L
541.375 348.136 L
542.063 348.135 L
542.75 348.19 L
543.438 348.238 L
544.125 348.214 L
544.813 348.29 L
545.5 348.172 L
546.188 348.116 L
546.875 348.152 L
547.563 348.185 L
548.25 348.176 L
548.938 348.188 L
549.625 348.282 L
550.313 348.23 L
551 348.233 L
551.688 348.132 L
552.375 348.135 L
553.063 348.119 L
553.75 348.106 L
554.438 348.1 L
555.125 348.093 L
555.813 348.12 L
556.5 348.166 L
557.188 348.13 L
557.875 348.181 L
558.563 348.16 L
559.25 348.302 L
559.938 348.287 L
560.625 348.279 L
561.313 348.26 L
562 348.483 L
562.688 348.507 L
563.375 348.497 L
564.063 348.518 L
564.75 348.538 L
565.438 348.605 L
566.125 348.665 L
566.813 348.71 L
567.5 348.719 L
568.188 348.716 L
568.875 348.75 L
569.563 348.792 L
570.25 348.76 L
570.938 348.827 L
571.625 348.951 L
572.313 349.125 L
573 349.129 L
573.688 349.075 L
574.375 349.021 L
575.063 348.986 L
575.75 348.964 L
576.438 348.949 L
577.125 348.901 L
577.813 348.899 L
578.5 348.906 L
579.188 348.84 L
579.875 348.873 L
580.563 348.958 L
581.25 349.005 L
581.938 349.078 L
582.625 349.077 L
583.313 349.076 L
584 349.05 L
584.688 348.93 L
585.375 348.942 L
586.063 348.897 L
586.75 348.814 L
587.438 348.795 L
588.125 348.801 L
588.813 348.794 L
589.5 348.684 L
590.188 348.583 L
590.875 348.527 L
591.563 348.537 L
592.25 348.523 L
592.938 348.512 L
593.625 348.605 L
594.313 348.611 L
595 348.641 L
595.688 348.711 L
596.375 348.793 L
597.063 348.782 L
597.75 348.779 L
598.438 348.744 L
599.125 348.766 L
599.813 348.793 L
600.5 348.837 L
601.188 348.85 L
601.875 348.87 L
602.563 348.875 L
603.25 348.897 L
603.938 348.959 L
604.625 348.984 L
605.313 349.09 L
606 349.104 L
606.688 349.09 L
607.375 349.154 L
608.063 349.222 L
608.75 349.261 L
609.438 349.247 L
610.125 349.387 L
610.813 349.4 L
611.5 349.387 L
612.188 349.275 L
612.875 349.183 L
613.563 349.218 L
614.25 349.207 L
614.938 349.228 L
615.625 349.244 L
616.313 349.238 L
617 349.323 L
617.688 349.45 L
618.375 349.442 L
619.063 349.52 L
619.75 349.501 L
620.438 349.49 L
621.125 349.577 L
621.813 349.642 L
622.5 349.707 L
623.188 349.644 L
623.875 349.602 L
624.563 349.603 L
625.25 349.675 L
625.938 349.662 L
626.625 349.557 L
627.313 349.495 L
628 349.391 L
628.688 349.353 L
629.375 349.368 L
630.063 349.392 L
630.75 349.337 L
631.438 349.26 L
632.125 349.283 L
632.813 349.25 L
633.5 349.291 L
634.188 349.286 L
634.875 349.3 L
635.563 349.402 L
636.25 349.4 L
636.938 349.465 L
637.625 349.486 L
638.313 349.458 L
639 349.447 L
639.688 349.374 L
640.375 349.388 L
641.063 349.37 L
641.75 349.288 L
642.438 349.192 L
643.125 349.128 L
643.813 349.114 L
644.5 348.99 L
645.188 348.892 L
645.875 348.905 L
646.563 348.795 L
647.25 348.715 L
647.938 348.693 L
648.625 348.745 L
649.313 348.741 L
650 348.788 L
650.688 348.676 L
651.375 348.617 L
652.063 348.638 L
652.75 348.657 L
653.438 348.695 L
654.125 348.731 L
654.813 348.751 L
655.5 348.811 L
656.188 348.786 L
656.875 348.802 L
657.563 348.875 L
658.25 348.88 L
658.938 348.864 L
659.625 348.806 L
660.313 348.808 L
661 348.803 L
661.688 348.785 L
662.375 348.828 L
663.063 348.844 L
663.75 348.85 L
664.438 348.839 L
665.125 348.867 L
665.813 348.899 L
666.5 348.952 L
667.188 348.968 L
667.875 348.952 L
668.563 348.939 L
669.25 348.911 L
669.938 348.935 L
670.625 348.981 L
671.313 349.014 L
672 349.083 L
672.688 349.129 L
673.375 349.095 L
674.063 349.121 L
674.75 349.138 L
675.438 349.16 L
676.125 349.208 L
676.813 349.221 L
677.5 349.281 L
678.188 349.312 L
678.875 349.427 L
679.563 349.406 L
680.25 349.402 L
680.938 349.376 L
681.625 349.409 L
682.313 349.526 L
683 349.504 L
683.688 349.492 L
684.375 349.496 L
685.063 349.527 L
685.75 349.588 L
686.438 349.512 L
687.125 349.469 L
687.813 349.348 L
688.5 349.331 L
689.188 349.258 L
689.875 349.223 L
690.563 349.217 L
691.25 349.223 L
691.938 349.215 L
692.625 349.271 L
693.313 349.343 L
694 349.349 L
694.688 349.305 L
695.375 349.297 L
696.063 349.248 L
696.75 349.14 L
697.438 349.075 L
698.125 349.058 L
698.813 349.037 L
699.5 348.983 L
700.188 348.965 L
700.875 348.871 L
701.563 348.845 L
702.25 348.764 L
702.938 348.633 L
703.625 348.62 L
704.313 348.626 L
705 348.638 L
705.688 348.65 L
706.375 348.698 L
707.063 348.726 L
707.75 348.729 L
708.438 348.84 L
709.125 348.884 L
709.813 348.916 L
710.5 348.963 L
711.188 348.941 L
711.875 348.954 L
712.563 349.076 L
713.25 349.142 L
713.938 349.154 L
714.625 349.248 L
715.313 349.359 L
716 349.36 L
716.688 349.394 L
717.375 349.467 L
718.063 349.526 L
718.75 349.508 L
719.438 349.526 L
720.125 349.478 L
720.813 349.54 L
721.5 349.544 L
722.188 349.538 L
722.875 349.546 L
723.563 349.536 L
724.25 349.448 L
724.938 349.38 L
725.625 349.369 L
726.313 349.424 L
727 349.459 L
727.688 349.42 L
728.375 349.44 L
729.063 349.483 L
729.75 349.466 L
730.438 349.488 L
731.125 349.49 L
731.813 349.497 L
732.5 349.535 L
733.188 349.487 L
733.875 349.491 L
734.563 349.492 L
735.25 349.517 L
735.938 349.437 L
736.625 349.413 L
737.313 349.398 L
738 349.418 L
738.688 349.416 L
739.375 349.392 L
740.063 349.386 L
740.75 349.402 L
741.438 349.373 L
742.125 349.361 L
742.813 349.388 L
743.5 349.354 L
744.188 349.348 L
744.875 349.304 L
745.563 349.268 L
S
GR
GS
[0.5 0 0 0.5 0 0] CT
1 GC
N
115 544 M
390 544 L
390 443 L
115 443 L
cp
f
GR
GS
[0.5 0 0 0.5 0 0] CT
0.149 GC
2 setlinecap
1 LJ
N
115 544 M
390 544 L
S
GR
GS
[0.5 0 0 0.5 0 0] CT
0.149 GC
2 setlinecap
1 LJ
N
115 443 M
390 443 L
S
GR
GS
[0.5 0 0 0.5 0 0] CT
0.149 GC
2 setlinecap
1 LJ
N
115 544 M
115 541.25 L
S
GR
GS
[0.5 0 0 0.5 0 0] CT
0.149 GC
2 setlinecap
1 LJ
N
183.75 544 M
183.75 541.25 L
S
GR
GS
[0.5 0 0 0.5 0 0] CT
0.149 GC
2 setlinecap
1 LJ
N
252.5 544 M
252.5 541.25 L
S
GR
GS
[0.5 0 0 0.5 0 0] CT
0.149 GC
2 setlinecap
1 LJ
N
321.25 544 M
321.25 541.25 L
S
GR
GS
[0.5 0 0 0.5 0 0] CT
0.149 GC
2 setlinecap
1 LJ
N
390 544 M
390 541.25 L
S
GR
GS
[0.5 0 0 0.5 0 0] CT
0.149 GC
2 setlinecap
1 LJ
N
115 443 M
115 445.75 L
S
GR
GS
[0.5 0 0 0.5 0 0] CT
0.149 GC
2 setlinecap
1 LJ
N
183.75 443 M
183.75 445.75 L
S
GR
GS
[0.5 0 0 0.5 0 0] CT
0.149 GC
2 setlinecap
1 LJ
N
252.5 443 M
252.5 445.75 L
S
GR
GS
[0.5 0 0 0.5 0 0] CT
0.149 GC
2 setlinecap
1 LJ
N
321.25 443 M
321.25 445.75 L
S
GR
GS
[0.5 0 0 0.5 0 0] CT
0.149 GC
2 setlinecap
1 LJ
N
390 443 M
390 445.75 L
S
GR
GS
[0.5 0 0 0.5 57.5 274.20001] CT
0.149 GC
/Helvetica 17 F
GS
[1 0 0 1 0 0] CT
-5 18 moveto 
1 -1 scale
(0) t 
GR
GR
GS
[0.5 0 0 0.5 91.875 274.20001] CT
0.149 GC
/Helvetica 17 F
GS
[1 0 0 1 0 0] CT
-14.5 18 moveto 
1 -1 scale
(100) t 
GR
GR
GS
[0.5 0 0 0.5 126.25 274.20001] CT
0.149 GC
/Helvetica 17 F
GS
[1 0 0 1 0 0] CT
-14.5 18 moveto 
1 -1 scale
(200) t 
GR
GR
GS
[0.5 0 0 0.5 160.625 274.20001] CT
0.149 GC
/Helvetica 17 F
GS
[1 0 0 1 0 0] CT
-14.5 18 moveto 
1 -1 scale
(300) t 
GR
GR
GS
[0.5 0 0 0.5 195 274.20001] CT
0.149 GC
/Helvetica 17 F
GS
[1 0 0 1 0 0] CT
-14.5 18 moveto 
1 -1 scale
(400) t 
GR
GR
GS
[0.5 0 0 0.5 126.25007 285.45001] CT
0.149 GC
/Helvetica 18.7 F
GS
[1 0 0 1 0 0] CT
-58.5 19 moveto 
1 -1 scale
(Window index) t 
GR
GR
GS
[0.5 0 0 0.5 0 0] CT
0.149 GC
2 setlinecap
1 LJ
N
115 544 M
115 443 L
S
GR
GS
[0.5 0 0 0.5 0 0] CT
0.149 GC
2 setlinecap
1 LJ
N
390 544 M
390 443 L
S
GR
GS
[0.5 0 0 0.5 0 0] CT
0.149 GC
2 setlinecap
1 LJ
N
115 544 M
117.75 544 L
S
GR
GS
[0.5 0 0 0.5 0 0] CT
0.149 GC
2 setlinecap
1 LJ
N
115 493.5 M
117.75 493.5 L
S
GR
GS
[0.5 0 0 0.5 0 0] CT
0.149 GC
2 setlinecap
1 LJ
N
115 443 M
117.75 443 L
S
GR
GS
[0.5 0 0 0.5 0 0] CT
0.149 GC
2 setlinecap
1 LJ
N
390 544 M
387.25 544 L
S
GR
GS
[0.5 0 0 0.5 0 0] CT
0.149 GC
2 setlinecap
1 LJ
N
390 493.5 M
387.25 493.5 L
S
GR
GS
[0.5 0 0 0.5 0 0] CT
0.149 GC
2 setlinecap
1 LJ
N
390 443 M
387.25 443 L
S
GR
GS
[0.5 0 0 0.5 55.3 272] CT
0.149 GC
/Helvetica 17 F
GS
[1 0 0 1 0 0] CT
-10 7 moveto 
1 -1 scale
(0) t 
GR
GR
GS
[0.5 0 0 0.5 55.3 246.75] CT
0.149 GC
/Helvetica 17 F
GS
[1 0 0 1 0 0] CT
-24 7 moveto 
1 -1 scale
(0.1) t 
GR
GR
GS
[0.5 0 0 0.5 55.3 221.5] CT
0.149 GC
/Helvetica 17 F
GS
[1 0 0 1 0 0] CT
-24 7 moveto 
1 -1 scale
(0.2) t 
GR
GR
GS
[0 -0.5 0.5 0 39.5 278] CT
0.149 GC
/Helvetica 18.7 F
GS
[1 0 0 1 0 0] CT
0 0 moveto 
1 -1 scale
(Resistance \() t 
GR
GR
GS
[0 -0.5 0.5 0 39.5 226] CT
0.149 GC
N
f708710631
f
GR
GS
[0 -0.5 0.5 0 39.5 219] CT
0.149 GC
/Helvetica 18.7 F
GS
[1 0 0 1 0 0] CT
0 0 moveto 
1 -1 scale
(\)) t 
GR
GR
GS
[0.5 0 0 0.5 118 214] CT
/Helvetica-Bold 18.7 F
GS
[1 0 0 1 0 0] CT
0 0 moveto 
1 -1 scale
(R) t 
GR
GR
GS
[0.5 0 0 0.5 125 218.5] CT
/Helvetica-Bold 14.96 F
GS
[1 0 0 1 0 0] CT
0 0 moveto 
1 -1 scale
(D2) t 
GR
GR
GS
[0.5 0 0 0.5 0 0] CT
0 0.447 0.741 RC
1 LJ
3 LW
N
115.688 443 M
116.375 448.05 L
117.063 452.847 L
117.75 457.404 L
118.438 461.733 L
119.125 465.846 L
119.813 469.753 L
120.5 473.466 L
121.188 476.991 L
121.875 480.342 L
122.563 483.524 L
123.25 486.548 L
123.938 489.42 L
124.625 492.148 L
125.313 494.741 L
126 497.203 L
126.688 499.543 L
127.375 501.766 L
128.063 503.877 L
128.75 505.883 L
129.438 507.788 L
130.125 509.599 L
130.813 511.319 L
131.5 512.953 L
132.188 514.505 L
132.875 515.975 L
133.563 517.376 L
134.25 518.706 L
134.938 519.969 L
135.625 521.171 L
136.313 522.302 L
137 523.387 L
137.688 524.416 L
138.375 525.378 L
139.063 526.28 L
139.75 527.146 L
140.438 527.988 L
141.125 528.788 L
141.813 528.027 L
142.5 528.825 L
143.188 529.584 L
143.875 529.715 L
144.563 529.005 L
145.25 529.728 L
145.938 530.234 L
146.625 530.922 L
147.313 531.261 L
148 531.825 L
148.688 532.374 L
149.375 531.796 L
150.063 531.187 L
150.75 530.554 L
151.438 529.902 L
152.125 529.279 L
152.813 529.931 L
153.5 530.632 L
154.188 531.3 L
154.875 531.934 L
155.563 532.52 L
156.25 532.535 L
156.938 531.964 L
157.625 532.558 L
158.313 531.987 L
159 531.518 L
159.688 530.896 L
160.375 530.242 L
161.063 529.558 L
161.75 528.838 L
162.438 528.573 L
163.125 527.806 L
163.813 527.381 L
164.5 527.909 L
165.188 528.275 L
165.875 529.055 L
166.563 529.794 L
167.25 530.501 L
167.938 531.152 L
168.625 530.708 L
169.313 531.097 L
170 531.669 L
170.688 532.269 L
171.375 532.609 L
172.063 532.603 L
172.75 532.768 L
173.438 533.149 L
174.125 533.389 L
174.813 533.914 L
175.5 534.251 L
176.188 534.342 L
176.875 534.356 L
177.563 534.236 L
178.25 534.347 L
178.938 534.547 L
179.625 534.67 L
180.313 534.606 L
181 534.522 L
181.688 534.421 L
182.375 534.536 L
183.063 534.716 L
183.75 534.617 L
184.438 534.626 L
185.125 534.42 L
185.813 534.136 L
186.5 534.259 L
187.188 534.166 L
187.875 534.219 L
188.563 534.24 L
189.25 534.336 L
189.938 534.525 L
190.625 534.329 L
191.313 534.195 L
192 534.22 L
192.688 534.252 L
193.375 533.801 L
194.063 533.715 L
194.75 533.525 L
195.438 533.678 L
196.125 533.587 L
196.813 533.291 L
197.5 533.263 L
198.188 533.089 L
198.875 532.696 L
199.563 532.504 L
200.25 532.596 L
200.938 532.616 L
201.625 532.699 L
202.313 532.764 L
203 532.654 L
203.688 532.718 L
204.375 532.473 L
205.063 532.67 L
205.75 532.258 L
206.438 532.242 L
207.125 532.397 L
207.813 532.392 L
208.5 532.582 L
209.188 532.723 L
209.875 532.974 L
210.563 533.054 L
211.25 533.24 L
211.938 533.233 L
212.625 532.931 L
213.313 532.66 L
214 533.012 L
214.688 532.464 L
215.375 531.89 L
216.063 531.319 L
216.75 530.695 L
217.438 530.097 L
218.125 529.681 L
218.813 530.009 L
219.5 529.54 L
220.188 529.381 L
220.875 529.371 L
221.563 529.621 L
222.25 530.16 L
222.938 530.426 L
223.625 530.547 L
224.313 530.569 L
225 530.388 L
225.688 530.497 L
226.375 530.749 L
227.063 530.701 L
227.75 530.883 L
228.438 530.58 L
229.125 530.668 L
229.813 530.889 L
230.5 531.16 L
231.188 531.455 L
231.875 531.596 L
232.563 531.567 L
233.25 531.508 L
233.938 531.444 L
234.625 531.349 L
235.313 531.636 L
236 531.631 L
236.688 531.571 L
237.375 531.662 L
238.063 531.629 L
238.75 531.788 L
239.438 531.966 L
240.125 531.887 L
240.813 531.839 L
241.5 531.719 L
242.188 531.202 L
242.875 531.058 L
243.563 530.972 L
244.25 531.137 L
244.938 531.215 L
245.625 531.662 L
246.313 531.874 L
247 531.929 L
247.688 531.745 L
248.375 531.635 L
249.063 531.978 L
249.75 531.839 L
250.438 531.695 L
251.125 531.72 L
251.813 532.107 L
252.5 532.543 L
253.188 531.971 L
253.875 531.5 L
254.563 531.564 L
255.25 531.77 L
255.938 531.742 L
256.625 531.718 L
257.313 531.48 L
258 531.672 L
258.688 531.466 L
259.375 531.659 L
260.063 531.563 L
260.75 531.246 L
261.438 531.136 L
262.125 530.832 L
262.813 530.409 L
263.5 530.544 L
264.188 530.659 L
264.875 530.813 L
265.563 531.21 L
266.25 531.336 L
266.938 531.374 L
267.625 531.774 L
268.313 531.672 L
269 531.362 L
269.688 530.897 L
270.375 531.549 L
271.063 530.965 L
271.75 530.381 L
272.438 529.706 L
273.125 528.992 L
273.813 528.476 L
274.5 528.18 L
275.188 528.646 L
275.875 528.189 L
276.563 528.237 L
277.25 528.392 L
277.938 528.778 L
278.625 529.506 L
279.313 529.646 L
280 530.31 L
280.688 529.968 L
281.375 529.911 L
282.063 530.448 L
282.75 530.659 L
283.438 530.334 L
284.125 530.724 L
284.813 530.41 L
285.5 530.714 L
286.188 530.744 L
286.875 530.906 L
287.563 531.311 L
288.25 531.494 L
288.938 531.477 L
289.625 531.384 L
290.313 531.219 L
291 531.222 L
291.688 531.358 L
292.375 531.375 L
293.063 531.375 L
293.75 531.365 L
294.438 531.357 L
295.125 531.53 L
295.813 531.637 L
296.5 531.7 L
297.188 531.64 L
297.875 531.229 L
298.563 530.653 L
299.25 530.595 L
299.938 530.736 L
300.625 530.951 L
301.313 530.921 L
302 531.417 L
302.688 531.62 L
303.375 531.233 L
304.063 531.031 L
304.75 530.812 L
305.438 531.088 L
306.125 531.561 L
306.813 531.38 L
307.5 531.534 L
308.188 532.034 L
308.875 532.118 L
309.563 531.527 L
310.25 531.206 L
310.938 531.344 L
311.625 531.722 L
312.313 531.32 L
313 531.333 L
313.688 531.292 L
314.375 531.406 L
315.063 531.416 L
315.75 531.991 L
316.438 531.786 L
317.125 531.575 L
317.813 531.404 L
318.5 531.135 L
319.188 530.714 L
319.875 531.015 L
320.563 530.949 L
321.25 531.081 L
321.938 531.723 L
322.625 532.108 L
323.313 532.456 L
324 532.652 L
324.688 532.585 L
325.375 532.269 L
326.063 531.793 L
326.75 532.005 L
327.438 531.405 L
328.125 530.824 L
328.813 530.167 L
329.5 529.475 L
330.188 528.802 L
330.875 528.091 L
331.563 528.338 L
332.25 527.811 L
332.938 528.113 L
333.625 527.99 L
334.313 528.591 L
335 528.995 L
335.688 529.417 L
336.375 529.941 L
337.063 529.596 L
337.75 529.518 L
338.438 529.937 L
339.125 530.059 L
339.813 529.907 L
340.5 530.25 L
341.188 530.02 L
341.875 530.334 L
342.563 530.492 L
343.25 530.744 L
343.938 530.993 L
344.625 531.377 L
345.313 531.334 L
346 531.326 L
346.688 531.226 L
347.375 531.331 L
348.063 531.397 L
348.75 531.383 L
349.438 531.263 L
350.125 531.14 L
350.813 531.429 L
351.5 531.276 L
352.188 531.301 L
352.875 531.353 L
353.563 531.267 L
354.25 530.849 L
354.938 530.2 L
355.625 530.28 L
356.313 530.612 L
357 530.496 L
357.688 530.515 L
358.375 531.063 L
359.063 531.277 L
359.75 531.13 L
360.438 530.783 L
361.125 530.624 L
361.813 530.744 L
362.5 531.381 L
363.188 531.059 L
363.875 531.306 L
364.563 531.689 L
365.25 531.732 L
365.938 531.12 L
366.625 530.779 L
367.313 530.883 L
368 531.38 L
368.688 531.076 L
369.375 531.126 L
370.063 531.057 L
370.75 531.257 L
371.438 531.142 L
372.125 531.468 L
372.813 531.642 L
373.5 531.254 L
374.188 531.32 L
374.875 531.107 L
375.563 530.884 L
S
GR
GS
[0.5 0 0 0.5 0 0] CT
1 GC
N
485 544 M
760 544 L
760 443 L
485 443 L
cp
f
GR
GS
[0.5 0 0 0.5 0 0] CT
0.149 GC
2 setlinecap
1 LJ
N
485 544 M
760 544 L
S
GR
GS
[0.5 0 0 0.5 0 0] CT
0.149 GC
2 setlinecap
1 LJ
N
485 443 M
760 443 L
S
GR
GS
[0.5 0 0 0.5 0 0] CT
0.149 GC
2 setlinecap
1 LJ
N
485 544 M
485 541.25 L
S
GR
GS
[0.5 0 0 0.5 0 0] CT
0.149 GC
2 setlinecap
1 LJ
N
553.75 544 M
553.75 541.25 L
S
GR
GS
[0.5 0 0 0.5 0 0] CT
0.149 GC
2 setlinecap
1 LJ
N
622.5 544 M
622.5 541.25 L
S
GR
GS
[0.5 0 0 0.5 0 0] CT
0.149 GC
2 setlinecap
1 LJ
N
691.25 544 M
691.25 541.25 L
S
GR
GS
[0.5 0 0 0.5 0 0] CT
0.149 GC
2 setlinecap
1 LJ
N
760 544 M
760 541.25 L
S
GR
GS
[0.5 0 0 0.5 0 0] CT
0.149 GC
2 setlinecap
1 LJ
N
485 443 M
485 445.75 L
S
GR
GS
[0.5 0 0 0.5 0 0] CT
0.149 GC
2 setlinecap
1 LJ
N
553.75 443 M
553.75 445.75 L
S
GR
GS
[0.5 0 0 0.5 0 0] CT
0.149 GC
2 setlinecap
1 LJ
N
622.5 443 M
622.5 445.75 L
S
GR
GS
[0.5 0 0 0.5 0 0] CT
0.149 GC
2 setlinecap
1 LJ
N
691.25 443 M
691.25 445.75 L
S
GR
GS
[0.5 0 0 0.5 0 0] CT
0.149 GC
2 setlinecap
1 LJ
N
760 443 M
760 445.75 L
S
GR
GS
[0.5 0 0 0.5 242.5 274.20001] CT
0.149 GC
/Helvetica 17 F
GS
[1 0 0 1 0 0] CT
-5 18 moveto 
1 -1 scale
(0) t 
GR
GR
GS
[0.5 0 0 0.5 276.875 274.20001] CT
0.149 GC
/Helvetica 17 F
GS
[1 0 0 1 0 0] CT
-14.5 18 moveto 
1 -1 scale
(100) t 
GR
GR
GS
[0.5 0 0 0.5 311.25 274.20001] CT
0.149 GC
/Helvetica 17 F
GS
[1 0 0 1 0 0] CT
-14.5 18 moveto 
1 -1 scale
(200) t 
GR
GR
GS
[0.5 0 0 0.5 345.625 274.20001] CT
0.149 GC
/Helvetica 17 F
GS
[1 0 0 1 0 0] CT
-14.5 18 moveto 
1 -1 scale
(300) t 
GR
GR
GS
[0.5 0 0 0.5 380 274.20001] CT
0.149 GC
/Helvetica 17 F
GS
[1 0 0 1 0 0] CT
-14.5 18 moveto 
1 -1 scale
(400) t 
GR
GR
GS
[0.5 0 0 0.5 311.25006 285.45001] CT
0.149 GC
/Helvetica 18.7 F
GS
[1 0 0 1 0 0] CT
-58.5 19 moveto 
1 -1 scale
(Window index) t 
GR
GR
GS
[0.5 0 0 0.5 0 0] CT
0.149 GC
2 setlinecap
1 LJ
N
485 544 M
485 443 L
S
GR
GS
[0.5 0 0 0.5 0 0] CT
0.149 GC
2 setlinecap
1 LJ
N
760 544 M
760 443 L
S
GR
GS
[0.5 0 0 0.5 0 0] CT
0.149 GC
2 setlinecap
1 LJ
N
485 531.687 M
487.75 531.687 L
S
GR
GS
[0.5 0 0 0.5 0 0] CT
0.149 GC
2 setlinecap
1 LJ
N
485 487.7 M
487.75 487.7 L
S
GR
GS
[0.5 0 0 0.5 0 0] CT
0.149 GC
2 setlinecap
1 LJ
N
485 443.714 M
487.75 443.714 L
S
GR
GS
[0.5 0 0 0.5 0 0] CT
0.149 GC
2 setlinecap
1 LJ
N
760 531.687 M
757.25 531.687 L
S
GR
GS
[0.5 0 0 0.5 0 0] CT
0.149 GC
2 setlinecap
1 LJ
N
760 487.7 M
757.25 487.7 L
S
GR
GS
[0.5 0 0 0.5 0 0] CT
0.149 GC
2 setlinecap
1 LJ
N
760 443.714 M
757.25 443.714 L
S
GR
GS
[0.5 0 0 0.5 240.3 265.84335] CT
0.149 GC
/Helvetica 17 F
GS
[1 0 0 1 0 0] CT
-38 7 moveto 
1 -1 scale
(2000) t 
GR
GR
GS
[0.5 0 0 0.5 240.3 243.85016] CT
0.149 GC
/Helvetica 17 F
GS
[1 0 0 1 0 0] CT
-38 7 moveto 
1 -1 scale
(4000) t 
GR
GR
GS
[0.5 0 0 0.5 240.3 221.85698] CT
0.149 GC
/Helvetica 17 F
GS
[1 0 0 1 0 0] CT
-38 7 moveto 
1 -1 scale
(6000) t 
GR
GR
GS
[0 -0.5 0.5 0 219.8 246.74997] CT
0.149 GC
/Helvetica 18.7 F
GS
[1 0 0 1 0 0] CT
-66.5 -5 moveto 
1 -1 scale
(Capacitance \(F\)) t 
GR
GR
GS
[0.5 0 0 0.5 303 214] CT
/Helvetica-Bold 18.7 F
GS
[1 0 0 1 0 0] CT
0 0 moveto 
1 -1 scale
(C) t 
GR
GR
GS
[0.5 0 0 0.5 310 218.5] CT
/Helvetica-Bold 14.96 F
GS
[1 0 0 1 0 0] CT
0 0 moveto 
1 -1 scale
(D2) t 
GR
GR
GS
[0.5 0 0 0.5 0 0] CT
0 0.447 0.741 RC
1 LJ
3 LW
N
485.688 465.707 M
486.375 471.205 L
487.063 476.428 L
487.75 481.39 L
488.438 486.101 L
489.125 490.579 L
489.813 494.833 L
490.5 498.874 L
491.188 502.711 L
491.875 506.358 L
492.563 509.823 L
493.25 513.059 L
493.938 509.93 L
494.625 506.68 L
495.313 505.68 L
496 502.203 L
496.688 498.536 L
497.375 494.679 L
498.063 490.637 L
498.75 486.388 L
499.438 481.926 L
500.125 477.241 L
500.813 472.324 L
501.5 467.157 L
502.188 461.735 L
502.875 456.181 L
503.563 450.215 L
504.25 443.99 L
504.938 447.247 L
505.625 453.638 L
506.313 455.326 L
507 449.31 L
507.688 443 L
508.375 447.727 L
509.063 451.152 L
509.75 455.505 L
510.438 461.506 L
511.125 467.167 L
511.813 464.164 L
512.5 469.729 L
513.188 475.025 L
513.875 477.227 L
514.563 479.064 L
515.25 482.433 L
515.938 486.468 L
516.625 490.927 L
517.313 492.686 L
518 496.309 L
518.688 500.125 L
519.375 503.8 L
520.063 507.259 L
520.75 509.744 L
521.438 511.818 L
522.125 511.686 L
522.813 514.149 L
523.5 517.182 L
524.188 520.023 L
524.875 522.69 L
525.563 524.604 L
526.25 527.062 L
526.938 529.381 L
527.625 530.554 L
528.313 528.709 L
529 528.009 L
529.688 526.082 L
530.375 523.778 L
531.063 521.28 L
531.75 518.577 L
532.438 515.745 L
533.125 512.798 L
533.813 510.56 L
534.5 507.403 L
535.188 504.059 L
535.875 500.736 L
536.563 504.421 L
537.25 501.163 L
537.938 504.79 L
538.625 503.714 L
539.313 504.3 L
540 506.922 L
540.688 510.332 L
541.375 513.548 L
542.063 516.525 L
542.75 519.391 L
543.438 520.861 L
544.125 521.894 L
544.813 524.01 L
545.5 526.081 L
546.188 528.273 L
546.875 529.892 L
547.563 530.354 L
548.25 530.609 L
548.938 530.553 L
549.625 532.503 L
550.313 533.869 L
551 533.348 L
551.688 533.023 L
552.375 532.558 L
553.063 533.215 L
553.75 533.268 L
554.438 533.256 L
555.125 533.07 L
555.813 532.75 L
556.5 531.456 L
557.188 532.094 L
557.875 533.566 L
558.563 533.423 L
559.25 535.47 L
559.938 536.726 L
560.625 536.357 L
561.313 535.549 L
562 536.332 L
562.688 536.635 L
563.375 535.499 L
564.063 535.037 L
564.75 534.79 L
565.438 536.472 L
566.125 537.591 L
566.813 537.368 L
567.5 536.88 L
568.188 537.163 L
568.875 537.222 L
569.563 537.171 L
570.25 537.345 L
570.938 536.633 L
571.625 537.022 L
572.313 537.816 L
573 538.257 L
573.688 538.2 L
574.375 537.859 L
575.063 537.749 L
575.75 537.402 L
576.438 537.335 L
577.125 535.934 L
577.813 536.027 L
578.5 536.868 L
579.188 537.829 L
579.875 538.208 L
580.563 538.909 L
581.25 539.894 L
581.938 540.618 L
582.625 540.042 L
583.313 539.915 L
584 539.608 L
584.688 538.125 L
585.375 537.238 L
586.063 536.281 L
586.75 534.961 L
587.438 533.239 L
588.125 531.891 L
588.813 530.027 L
589.5 528.738 L
590.188 526.845 L
590.875 525.319 L
591.563 525.091 L
592.25 525.063 L
592.938 526.484 L
593.625 527.442 L
594.313 527.425 L
595 527.275 L
595.688 527.521 L
596.375 529.062 L
597.063 528.947 L
597.75 529.587 L
598.438 529.169 L
599.125 530.713 L
599.813 531.003 L
600.5 532.186 L
601.188 532.93 L
601.875 533.505 L
602.563 533.629 L
603.25 533.687 L
603.938 533.508 L
604.625 534.149 L
605.313 534.601 L
606 535.88 L
606.688 535.929 L
607.375 535.833 L
608.063 537.267 L
608.75 537.344 L
609.438 538.412 L
610.125 539.12 L
610.813 539.214 L
611.5 539.257 L
612.188 537.928 L
612.875 537.168 L
613.563 538.069 L
614.25 538.272 L
614.938 538.433 L
615.625 539.185 L
616.313 539.35 L
617 541.046 L
617.688 541.902 L
618.375 541.407 L
619.063 541.728 L
619.75 541.502 L
620.438 541.404 L
621.125 542.265 L
621.813 543.225 L
622.5 543.773 L
623.188 543.218 L
623.875 542.176 L
624.563 542.555 L
625.25 544 L
625.938 543.756 L
626.625 542.904 L
627.313 541.836 L
628 541.922 L
628.688 541.077 L
629.375 541.608 L
630.063 541.53 L
630.75 540.643 L
631.438 539.562 L
632.125 538.562 L
632.813 537.491 L
633.5 537.085 L
634.188 537.867 L
634.875 537.614 L
635.563 539.345 L
636.25 539.577 L
636.938 540.274 L
637.625 540.932 L
638.313 540.769 L
639 540.359 L
639.688 539.516 L
640.375 540.225 L
641.063 539.076 L
641.75 537.95 L
642.438 536.493 L
643.125 535.131 L
643.813 534.207 L
644.5 532.431 L
645.188 530.592 L
645.875 528.629 L
646.563 527.073 L
647.25 524.919 L
647.938 524.202 L
648.625 525.974 L
649.313 526.86 L
650 528.427 L
650.688 526.9 L
651.375 524.818 L
652.063 526.896 L
652.75 527.996 L
653.438 528.231 L
654.125 529.263 L
654.813 529.17 L
655.5 531.35 L
656.188 531.444 L
656.875 531.331 L
657.563 533.067 L
658.25 533.216 L
658.938 533.448 L
659.625 533.615 L
660.313 532.975 L
661 533.339 L
661.688 532.993 L
662.375 532.792 L
663.063 533.158 L
663.75 532.92 L
664.438 532.469 L
665.125 532.285 L
665.813 533.15 L
666.5 534.699 L
667.188 534.906 L
667.875 534.482 L
668.563 533.372 L
669.25 532.585 L
669.938 534.32 L
670.625 535.575 L
671.313 535.384 L
672 537.207 L
672.688 538.826 L
673.375 538.387 L
674.063 538.136 L
674.75 537.255 L
675.438 537.084 L
676.125 538.064 L
676.813 538.943 L
677.5 540.411 L
678.188 541.045 L
678.875 542.241 L
679.563 541.031 L
680.25 539.8 L
680.938 540.034 L
681.625 541.299 L
682.313 540.775 L
683 540.761 L
683.688 540.38 L
684.375 540.514 L
685.063 540.721 L
685.75 541.052 L
686.438 541.273 L
687.125 540.466 L
687.813 539.483 L
688.5 538.999 L
689.188 537.51 L
689.875 535.701 L
690.563 535.962 L
691.25 535.842 L
691.938 537.542 L
692.625 539.005 L
693.313 540.233 L
694 540.594 L
694.688 541.933 L
695.375 541.636 L
696.063 540.608 L
696.75 540.358 L
697.438 538.607 L
698.125 537.882 L
698.813 536.496 L
699.5 535.324 L
700.188 533.77 L
700.875 531.796 L
701.563 530.442 L
702.25 528.49 L
702.938 526.782 L
703.625 525.658 L
704.313 526.155 L
705 526.104 L
705.688 526.956 L
706.375 529.045 L
707.063 529.595 L
707.75 528.451 L
708.438 530.583 L
709.125 531.094 L
709.813 530.932 L
710.5 532.649 L
711.188 531.8 L
711.875 532.747 L
712.563 534.523 L
713.25 535.563 L
713.938 535.604 L
714.625 537.068 L
715.313 537.764 L
716 537.802 L
716.688 537.773 L
717.375 539.01 L
718.063 539.17 L
718.75 539.334 L
719.438 539.212 L
720.125 538.313 L
720.813 538.767 L
721.5 538.775 L
722.188 538.917 L
722.875 539.085 L
723.563 539.169 L
724.25 537.895 L
724.938 536.162 L
725.625 535.427 L
726.313 537.34 L
727 538.438 L
727.688 537.59 L
728.375 539.163 L
729.063 540.378 L
729.75 540.333 L
730.438 539.541 L
731.125 538.275 L
731.813 538.187 L
732.5 539.193 L
733.188 538.366 L
733.875 539.367 L
734.563 539.917 L
735.25 540.806 L
735.938 539.219 L
736.625 538.757 L
737.313 538.813 L
738 540.209 L
738.688 539.839 L
739.375 539.855 L
740.063 539.601 L
740.75 540.416 L
741.438 539.261 L
742.125 539.371 L
742.813 539.908 L
743.5 539.024 L
744.188 539.083 L
744.875 539.06 L
745.563 538.442 L
S
GR
%%Trailer
%%Pages: 1
%%EOF
