%!PS-Adobe-3.0 EPSF-3.0
%%Creator: (MATLAB, The Mathworks, Inc. Version 9.4.0.813654 \(R2018a\). Operating System: Windows 10)
%%Title: C:/Users/robbe/OneDrive/VUB/Thesis/Thesis/POI_PRBS_End.eps
%%CreationDate: 2019-05-23T02:11:44
%%Pages: (atend)
%%BoundingBox: 0 0 420 315
%%LanguageLevel: 3
%%EndComments
%%BeginProlog
%%BeginResource: procset (Apache XML Graphics Std ProcSet) 1.2 0
%%Version: 1.2 0
%%Copyright: (Copyright 2001-2003,2010 The Apache Software Foundation. License terms: http://www.apache.org/licenses/LICENSE-2.0)
/bd{bind def}bind def
/ld{load def}bd
/GR/grestore ld
/GS/gsave ld
/RM/rmoveto ld
/C/curveto ld
/t/show ld
/L/lineto ld
/ML/setmiterlimit ld
/CT/concat ld
/f/fill ld
/N/newpath ld
/S/stroke ld
/CC/setcmykcolor ld
/A/ashow ld
/cp/closepath ld
/RC/setrgbcolor ld
/LJ/setlinejoin ld
/GC/setgray ld
/LW/setlinewidth ld
/M/moveto ld
/re {4 2 roll M
1 index 0 rlineto
0 exch rlineto
neg 0 rlineto
cp } bd
/_ctm matrix def
/_tm matrix def
/BT { _ctm currentmatrix pop matrix _tm copy pop 0 0 moveto } bd
/ET { _ctm setmatrix } bd
/iTm { _ctm setmatrix _tm concat } bd
/Tm { _tm astore pop iTm 0 0 moveto } bd
/ux 0.0 def
/uy 0.0 def
/F {
  /Tp exch def
  /Tf exch def
  Tf findfont Tp scalefont setfont
  /cf Tf def  /cs Tp def
} bd
/ULS {currentpoint /uy exch def /ux exch def} bd
/ULE {
  /Tcx currentpoint pop def
  gsave
  newpath
  cf findfont cs scalefont dup
  /FontMatrix get 0 get /Ts exch def /FontInfo get dup
  /UnderlinePosition get Ts mul /To exch def
  /UnderlineThickness get Ts mul /Tt exch def
  ux uy To add moveto  Tcx uy To add lineto
  Tt setlinewidth stroke
  grestore
} bd
/OLE {
  /Tcx currentpoint pop def
  gsave
  newpath
  cf findfont cs scalefont dup
  /FontMatrix get 0 get /Ts exch def /FontInfo get dup
  /UnderlinePosition get Ts mul /To exch def
  /UnderlineThickness get Ts mul /Tt exch def
  ux uy To add cs add moveto Tcx uy To add cs add lineto
  Tt setlinewidth stroke
  grestore
} bd
/SOE {
  /Tcx currentpoint pop def
  gsave
  newpath
  cf findfont cs scalefont dup
  /FontMatrix get 0 get /Ts exch def /FontInfo get dup
  /UnderlinePosition get Ts mul /To exch def
  /UnderlineThickness get Ts mul /Tt exch def
  ux uy To add cs 10 mul 26 idiv add moveto Tcx uy To add cs 10 mul 26 idiv add lineto
  Tt setlinewidth stroke
  grestore
} bd
/QT {
/Y22 exch store
/X22 exch store
/Y21 exch store
/X21 exch store
currentpoint
/Y21 load 2 mul add 3 div exch
/X21 load 2 mul add 3 div exch
/X21 load 2 mul /X22 load add 3 div
/Y21 load 2 mul /Y22 load add 3 div
/X22 load /Y22 load curveto
} bd
/SSPD {
dup length /d exch dict def
{
/v exch def
/k exch def
currentpagedevice k known {
/cpdv currentpagedevice k get def
v cpdv ne {
/upd false def
/nullv v type /nulltype eq def
/nullcpdv cpdv type /nulltype eq def
nullv nullcpdv or
{
/upd true def
} {
/sametype v type cpdv type eq def
sametype {
v type /arraytype eq {
/vlen v length def
/cpdvlen cpdv length def
vlen cpdvlen eq {
0 1 vlen 1 sub {
/i exch def
/obj v i get def
/cpdobj cpdv i get def
obj cpdobj ne {
/upd true def
exit
} if
} for
} {
/upd true def
} ifelse
} {
v type /dicttype eq {
v {
/dv exch def
/dk exch def
/cpddv cpdv dk get def
dv cpddv ne {
/upd true def
exit
} if
} forall
} {
/upd true def
} ifelse
} ifelse
} if
} ifelse
upd true eq {
d k v put
} if
} if
} if
} forall
d length 0 gt {
d setpagedevice
} if
} bd
/RE { % /NewFontName [NewEncodingArray] /FontName RE -
  findfont dup length dict begin
  {
    1 index /FID ne
    {def} {pop pop} ifelse
  } forall
  /Encoding exch def
  /FontName 1 index def
  currentdict definefont pop
  end
} bind def
%%EndResource
%%BeginResource: procset (Apache XML Graphics EPS ProcSet) 1.0 0
%%Version: 1.0 0
%%Copyright: (Copyright 2002-2003 The Apache Software Foundation. License terms: http://www.apache.org/licenses/LICENSE-2.0)
/BeginEPSF { %def
/b4_Inc_state save def         % Save state for cleanup
/dict_count countdictstack def % Count objects on dict stack
/op_count count 1 sub def      % Count objects on operand stack
userdict begin                 % Push userdict on dict stack
/showpage { } def              % Redefine showpage, { } = null proc
0 setgray 0 setlinecap         % Prepare graphics state
1 setlinewidth 0 setlinejoin
10 setmiterlimit [ ] 0 setdash newpath
/languagelevel where           % If level not equal to 1 then
{pop languagelevel             % set strokeadjust and
1 ne                           % overprint to their defaults.
{false setstrokeadjust false setoverprint
} if
} if
} bd
/EndEPSF { %def
count op_count sub {pop} repeat            % Clean up stacks
countdictstack dict_count sub {end} repeat
b4_Inc_state restore
} bd
%%EndResource
%FOPBeginFontDict
%%IncludeResource: font Courier-Oblique
%%IncludeResource: font Courier-BoldOblique
%%IncludeResource: font Courier-Bold
%%IncludeResource: font ZapfDingbats
%%IncludeResource: font Symbol
%%IncludeResource: font Helvetica
%%IncludeResource: font Helvetica-Oblique
%%IncludeResource: font Helvetica-Bold
%%IncludeResource: font Helvetica-BoldOblique
%%IncludeResource: font Times-Roman
%%IncludeResource: font Times-Italic
%%IncludeResource: font Times-Bold
%%IncludeResource: font Times-BoldItalic
%%IncludeResource: font Courier
%FOPEndFontDict
%%BeginResource: encoding WinAnsiEncoding
/WinAnsiEncoding [
/.notdef /.notdef /.notdef /.notdef /.notdef
/.notdef /.notdef /.notdef /.notdef /.notdef
/.notdef /.notdef /.notdef /.notdef /.notdef
/.notdef /.notdef /.notdef /.notdef /.notdef
/.notdef /.notdef /.notdef /.notdef /.notdef
/.notdef /.notdef /.notdef /.notdef /.notdef
/.notdef /.notdef /space /exclam /quotedbl
/numbersign /dollar /percent /ampersand /quotesingle
/parenleft /parenright /asterisk /plus /comma
/hyphen /period /slash /zero /one
/two /three /four /five /six
/seven /eight /nine /colon /semicolon
/less /equal /greater /question /at
/A /B /C /D /E
/F /G /H /I /J
/K /L /M /N /O
/P /Q /R /S /T
/U /V /W /X /Y
/Z /bracketleft /backslash /bracketright /asciicircum
/underscore /quoteleft /a /b /c
/d /e /f /g /h
/i /j /k /l /m
/n /o /p /q /r
/s /t /u /v /w
/x /y /z /braceleft /bar
/braceright /asciitilde /bullet /Euro /bullet
/quotesinglbase /florin /quotedblbase /ellipsis /dagger
/daggerdbl /circumflex /perthousand /Scaron /guilsinglleft
/OE /bullet /Zcaron /bullet /bullet
/quoteleft /quoteright /quotedblleft /quotedblright /bullet
/endash /emdash /asciitilde /trademark /scaron
/guilsinglright /oe /bullet /zcaron /Ydieresis
/space /exclamdown /cent /sterling /currency
/yen /brokenbar /section /dieresis /copyright
/ordfeminine /guillemotleft /logicalnot /sfthyphen /registered
/macron /degree /plusminus /twosuperior /threesuperior
/acute /mu /paragraph /middot /cedilla
/onesuperior /ordmasculine /guillemotright /onequarter /onehalf
/threequarters /questiondown /Agrave /Aacute /Acircumflex
/Atilde /Adieresis /Aring /AE /Ccedilla
/Egrave /Eacute /Ecircumflex /Edieresis /Igrave
/Iacute /Icircumflex /Idieresis /Eth /Ntilde
/Ograve /Oacute /Ocircumflex /Otilde /Odieresis
/multiply /Oslash /Ugrave /Uacute /Ucircumflex
/Udieresis /Yacute /Thorn /germandbls /agrave
/aacute /acircumflex /atilde /adieresis /aring
/ae /ccedilla /egrave /eacute /ecircumflex
/edieresis /igrave /iacute /icircumflex /idieresis
/eth /ntilde /ograve /oacute /ocircumflex
/otilde /odieresis /divide /oslash /ugrave
/uacute /ucircumflex /udieresis /yacute /thorn
/ydieresis
] def
%%EndResource
%FOPBeginFontReencode
/Courier-Oblique findfont
dup length dict begin
  {1 index /FID ne {def} {pop pop} ifelse} forall
  /Encoding WinAnsiEncoding def
  currentdict
end
/Courier-Oblique exch definefont pop
/Courier-BoldOblique findfont
dup length dict begin
  {1 index /FID ne {def} {pop pop} ifelse} forall
  /Encoding WinAnsiEncoding def
  currentdict
end
/Courier-BoldOblique exch definefont pop
/Courier-Bold findfont
dup length dict begin
  {1 index /FID ne {def} {pop pop} ifelse} forall
  /Encoding WinAnsiEncoding def
  currentdict
end
/Courier-Bold exch definefont pop
/Helvetica findfont
dup length dict begin
  {1 index /FID ne {def} {pop pop} ifelse} forall
  /Encoding WinAnsiEncoding def
  currentdict
end
/Helvetica exch definefont pop
/Helvetica-Oblique findfont
dup length dict begin
  {1 index /FID ne {def} {pop pop} ifelse} forall
  /Encoding WinAnsiEncoding def
  currentdict
end
/Helvetica-Oblique exch definefont pop
/Helvetica-Bold findfont
dup length dict begin
  {1 index /FID ne {def} {pop pop} ifelse} forall
  /Encoding WinAnsiEncoding def
  currentdict
end
/Helvetica-Bold exch definefont pop
/Helvetica-BoldOblique findfont
dup length dict begin
  {1 index /FID ne {def} {pop pop} ifelse} forall
  /Encoding WinAnsiEncoding def
  currentdict
end
/Helvetica-BoldOblique exch definefont pop
/Times-Roman findfont
dup length dict begin
  {1 index /FID ne {def} {pop pop} ifelse} forall
  /Encoding WinAnsiEncoding def
  currentdict
end
/Times-Roman exch definefont pop
/Times-Italic findfont
dup length dict begin
  {1 index /FID ne {def} {pop pop} ifelse} forall
  /Encoding WinAnsiEncoding def
  currentdict
end
/Times-Italic exch definefont pop
/Times-Bold findfont
dup length dict begin
  {1 index /FID ne {def} {pop pop} ifelse} forall
  /Encoding WinAnsiEncoding def
  currentdict
end
/Times-Bold exch definefont pop
/Times-BoldItalic findfont
dup length dict begin
  {1 index /FID ne {def} {pop pop} ifelse} forall
  /Encoding WinAnsiEncoding def
  currentdict
end
/Times-BoldItalic exch definefont pop
/Courier findfont
dup length dict begin
  {1 index /FID ne {def} {pop pop} ifelse} forall
  /Encoding WinAnsiEncoding def
  currentdict
end
/Courier exch definefont pop
%FOPEndFontReencode
%%EndProlog
%%Page: 1 1
%%PageBoundingBox: 0 0 420 315
%%BeginPageSetup
[1 0 0 -1 0 315] CT
%%EndPageSetup
GS
[0.5 0 0 0.5 0 0] CT
1 GC
N
0 0 840 630 re
f
GR
GS
[0.5 0 0 0.5 0 0] CT
1 GC
N
0 0 840 630 re
f
GR
GS
[0.5 0 0 0.5 0 0] CT
1 GC
N
109 261 M
760 261 L
760 47 L
109 47 L
cp
f
GR
GS
[0.5 0 0 0.5 0 0] CT
0.149 GC
2 setlinecap
1 LJ
N
109 261 M
760 261 L
S
GR
GS
[0.5 0 0 0.5 0 0] CT
0.149 GC
2 setlinecap
1 LJ
N
109 47 M
760 47 L
S
GR
GS
[0.5 0 0 0.5 0 0] CT
0.149 GC
2 setlinecap
1 LJ
N
109 261 M
109 254.49 L
S
GR
GS
[0.5 0 0 0.5 0 0] CT
0.149 GC
2 setlinecap
1 LJ
N
321.758 261 M
321.758 254.49 L
S
GR
GS
[0.5 0 0 0.5 0 0] CT
0.149 GC
2 setlinecap
1 LJ
N
534.517 261 M
534.517 254.49 L
S
GR
GS
[0.5 0 0 0.5 0 0] CT
0.149 GC
2 setlinecap
1 LJ
N
747.275 261 M
747.275 254.49 L
S
GR
GS
[0.5 0 0 0.5 0 0] CT
0.149 GC
2 setlinecap
1 LJ
N
109 47 M
109 53.51 L
S
GR
GS
[0.5 0 0 0.5 0 0] CT
0.149 GC
2 setlinecap
1 LJ
N
321.758 47 M
321.758 53.51 L
S
GR
GS
[0.5 0 0 0.5 0 0] CT
0.149 GC
2 setlinecap
1 LJ
N
534.517 47 M
534.517 53.51 L
S
GR
GS
[0.5 0 0 0.5 0 0] CT
0.149 GC
2 setlinecap
1 LJ
N
747.275 47 M
747.275 53.51 L
S
GR
GS
[0.5 0 0 0.5 54.5 133.3] CT
0.149 GC
/Helvetica 18 F
GS
[1 0 0 1 0 0] CT
-5.5 19 moveto 
1 -1 scale
(0) t 
GR
GR
GS
[0.5 0 0 0.5 160.8792 133.3] CT
0.149 GC
/Helvetica 18 F
GS
[1 0 0 1 0 0] CT
-10.5 19 moveto 
1 -1 scale
(50) t 
GR
GR
GS
[0.5 0 0 0.5 267.25839 133.3] CT
0.149 GC
/Helvetica 18 F
GS
[1 0 0 1 0 0] CT
-15.5 19 moveto 
1 -1 scale
(100) t 
GR
GR
GS
[0.5 0 0 0.5 373.6376 133.3] CT
0.149 GC
/Helvetica 18 F
GS
[1 0 0 1 0 0] CT
-15.5 19 moveto 
1 -1 scale
(150) t 
GR
GR
GS
[0.5 0 0 0.5 217.25015 145.30002] CT
0.149 GC
/Helvetica 19.8 F
GS
[1 0 0 1 0 0] CT
-36.5 20 moveto 
1 -1 scale
(Time \(s\)) t 
GR
GR
GS
[0.5 0 0 0.5 0 0] CT
0.149 GC
2 setlinecap
1 LJ
N
109 261 M
109 47 L
S
GR
GS
[0.5 0 0 0.5 0 0] CT
0.149 GC
2 setlinecap
1 LJ
N
760 261 M
760 47 L
S
GR
GS
[0.5 0 0 0.5 0 0] CT
0.149 GC
2 setlinecap
1 LJ
N
109 221.2 M
115.51 221.2 L
S
GR
GS
[0.5 0 0 0.5 0 0] CT
0.149 GC
2 setlinecap
1 LJ
N
109 163.134 M
115.51 163.134 L
S
GR
GS
[0.5 0 0 0.5 0 0] CT
0.149 GC
2 setlinecap
1 LJ
N
109 105.067 M
115.51 105.067 L
S
GR
GS
[0.5 0 0 0.5 0 0] CT
0.149 GC
2 setlinecap
1 LJ
N
109 47 M
115.51 47 L
S
GR
GS
[0.5 0 0 0.5 0 0] CT
0.149 GC
2 setlinecap
1 LJ
N
760 221.2 M
753.49 221.2 L
S
GR
GS
[0.5 0 0 0.5 0 0] CT
0.149 GC
2 setlinecap
1 LJ
N
760 163.134 M
753.49 163.134 L
S
GR
GS
[0.5 0 0 0.5 0 0] CT
0.149 GC
2 setlinecap
1 LJ
N
760 105.067 M
753.49 105.067 L
S
GR
GS
[0.5 0 0 0.5 0 0] CT
0.149 GC
2 setlinecap
1 LJ
N
760 47 M
753.49 47 L
S
GR
GS
[0.5 0 0 0.5 51.7 110.6002] CT
0.149 GC
/Helvetica 18 F
GS
[1 0 0 1 0 0] CT
-36 7.5 moveto 
1 -1 scale
(3.95) t 
GR
GR
GS
[0.5 0 0 0.5 51.7 81.56682] CT
0.149 GC
/Helvetica 18 F
GS
[1 0 0 1 0 0] CT
-11 7.5 moveto 
1 -1 scale
(4) t 
GR
GR
GS
[0.5 0 0 0.5 51.7 52.5333] CT
0.149 GC
/Helvetica 18 F
GS
[1 0 0 1 0 0] CT
-36 7.5 moveto 
1 -1 scale
(4.05) t 
GR
GR
GS
[0.5 0 0 0.5 51.7 23.50006] CT
0.149 GC
/Helvetica 18 F
GS
[1 0 0 1 0 0] CT
-26 7.5 moveto 
1 -1 scale
(4.1) t 
GR
GR
GS
[0 -0.5 0.5 0 31.7 76.99989] CT
0.149 GC
/Helvetica 19.8 F
GS
[1 0 0 1 0 0] CT
-49.5 -5 moveto 
1 -1 scale
(Voltage \(V\)) t 
GR
GR
GS
[0.5 0 0 0.5 217.25021 22.26266] CT
/Helvetica-Bold 19.8 F
GS
[1 0 0 1 0 0] CT
-56 -5 moveto 
1 -1 scale
(Cell voltage) t 
GR
GR
GS
[0.5 0 0 0.5 0 0] CT
0 0.447 0.741 RC
1 LJ
N
109 60.936 M
109.851 60.936 L
110.702 237.459 L
111.553 237.459 L
112.404 237.459 L
113.255 237.459 L
114.106 237.459 L
114.957 237.459 L
115.808 237.459 L
116.659 237.459 L
117.51 242.105 L
118.361 242.105 L
119.212 65.581 L
120.063 60.936 L
120.914 60.936 L
121.766 60.936 L
122.617 60.936 L
123.468 237.459 L
124.319 242.105 L
125.17 242.105 L
126.021 242.105 L
126.872 242.105 L
127.723 242.105 L
128.574 242.105 L
129.425 242.105 L
130.276 242.105 L
131.127 242.105 L
131.978 242.105 L
132.829 242.105 L
133.68 242.105 L
134.531 242.105 L
135.382 242.105 L
136.233 65.581 L
137.084 65.581 L
137.935 60.936 L
138.786 60.936 L
139.637 60.936 L
140.488 60.936 L
141.339 60.936 L
142.19 60.936 L
143.041 60.936 L
143.892 60.936 L
144.743 237.459 L
145.594 242.105 L
146.445 242.105 L
147.297 242.105 L
148.148 242.105 L
148.999 65.581 L
149.85 60.936 L
150.701 60.936 L
151.552 60.936 L
152.403 60.936 L
153.254 237.459 L
154.105 242.105 L
154.956 242.105 L
155.807 242.105 L
156.658 242.105 L
157.509 242.105 L
158.36 242.105 L
159.211 242.105 L
160.062 242.105 L
160.913 242.105 L
161.764 65.581 L
162.615 65.581 L
163.466 60.936 L
164.317 60.936 L
165.168 60.936 L
166.019 60.936 L
166.87 60.936 L
167.721 60.936 L
168.572 60.936 L
169.423 60.936 L
170.274 237.459 L
171.125 237.459 L
171.976 242.105 L
172.828 242.105 L
173.679 242.105 L
174.53 60.936 L
175.381 60.936 L
176.232 60.936 L
177.083 60.936 L
177.934 60.936 L
178.785 60.936 L
179.636 60.936 L
180.487 60.936 L
181.423 60.936 L
182.146 60.936 L
182.997 60.936 L
183.891 60.936 L
184.742 60.936 L
185.593 60.936 L
186.444 60.936 L
187.295 60.936 L
188.146 60.936 L
188.997 60.936 L
189.848 60.936 L
190.699 60.936 L
191.55 60.936 L
192.401 60.936 L
193.252 60.936 L
194.103 60.936 L
194.954 60.936 L
195.805 60.936 L
196.656 60.936 L
197.507 60.936 L
198.359 60.936 L
199.21 60.936 L
200.061 232.814 L
200.912 232.814 L
201.763 237.459 L
202.614 237.459 L
203.465 237.459 L
204.316 60.936 L
205.167 60.936 L
206.018 60.936 L
206.869 60.936 L
207.72 60.936 L
208.571 232.814 L
209.422 237.459 L
210.273 237.459 L
211.124 237.459 L
211.975 237.459 L
212.826 60.936 L
213.677 60.936 L
214.528 60.936 L
215.379 60.936 L
216.23 60.936 L
217.081 60.936 L
217.932 60.936 L
218.954 60.936 L
219.634 60.936 L
220.485 60.936 L
221.336 60.936 L
222.187 60.936 L
223.038 60.936 L
223.89 60.936 L
224.741 60.936 L
225.592 60.936 L
226.443 56.291 L
227.294 56.291 L
228.145 56.291 L
228.996 60.936 L
229.847 232.814 L
230.698 232.814 L
231.549 232.814 L
232.4 232.814 L
233.251 232.814 L
234.102 232.814 L
234.953 237.459 L
235.804 237.459 L
236.655 237.459 L
237.506 237.459 L
238.357 60.936 L
239.208 60.936 L
240.059 60.936 L
240.91 60.936 L
241.761 60.936 L
242.612 232.814 L
243.463 232.814 L
244.314 237.459 L
245.165 237.459 L
246.016 237.459 L
246.867 237.459 L
247.718 237.459 L
248.57 237.459 L
249.421 237.459 L
250.272 237.459 L
251.123 237.459 L
251.974 237.459 L
252.825 237.459 L
253.676 237.459 L
254.527 237.459 L
255.378 242.105 L
256.229 242.105 L
257.08 242.105 L
257.931 242.105 L
258.782 242.105 L
259.633 65.581 L
260.484 60.936 L
261.335 60.936 L
262.186 60.936 L
263.037 60.936 L
263.888 237.459 L
264.739 237.459 L
265.59 237.459 L
266.441 242.105 L
267.292 242.105 L
268.143 242.105 L
268.994 242.105 L
269.845 242.105 L
270.696 242.105 L
271.547 242.105 L
272.398 242.105 L
273.249 242.105 L
274.101 242.105 L
274.952 242.105 L
275.803 242.105 L
276.654 242.105 L
277.505 242.105 L
278.356 242.105 L
279.207 242.105 L
280.058 242.105 L
280.909 65.581 L
281.76 65.581 L
282.611 65.581 L
283.462 60.936 L
284.313 60.936 L
285.164 242.105 L
286.015 242.105 L
286.866 242.105 L
287.717 242.105 L
288.568 242.105 L
289.419 65.581 L
290.27 65.581 L
291.164 60.936 L
291.972 60.936 L
292.823 60.936 L
293.674 60.936 L
294.525 60.936 L
295.376 60.936 L
296.44 60.936 L
297.078 60.936 L
297.929 60.936 L
298.78 60.936 L
299.632 60.936 L
300.483 60.936 L
301.334 60.936 L
302.185 60.936 L
303.036 60.936 L
303.887 60.936 L
304.738 60.936 L
305.589 60.936 L
306.44 232.814 L
307.291 237.459 L
308.142 237.459 L
308.993 237.459 L
309.844 237.459 L
310.695 237.459 L
311.546 237.459 L
312.397 237.459 L
313.248 242.105 L
314.099 242.105 L
314.95 242.105 L
315.801 242.105 L
316.652 242.105 L
317.503 242.105 L
318.354 242.105 L
319.205 65.581 L
320.056 60.936 L
320.907 60.936 L
321.758 60.936 L
322.609 60.936 L
323.46 237.459 L
324.311 237.459 L
325.163 242.105 L
326.014 242.105 L
326.865 242.105 L
327.716 242.105 L
328.567 242.105 L
329.418 242.105 L
330.269 242.105 L
331.12 242.105 L
331.971 242.105 L
332.822 242.105 L
333.673 242.105 L
334.524 242.105 L
335.545 242.105 L
336.226 242.105 L
337.077 242.105 L
337.928 242.105 L
338.779 242.105 L
339.63 242.105 L
340.481 242.105 L
341.332 246.75 L
342.183 242.105 L
343.034 242.105 L
343.885 242.105 L
344.736 246.75 L
345.587 246.75 L
346.438 246.75 L
347.289 246.75 L
348.14 246.75 L
348.991 65.581 L
349.842 65.581 L
350.694 65.581 L
351.545 65.581 L
352.396 65.581 L
353.247 242.105 L
354.098 242.105 L
354.949 242.105 L
355.8 242.105 L
356.651 242.105 L
357.502 65.581 L
358.353 65.581 L
359.204 65.581 L
360.055 65.581 L
360.906 65.581 L
361.757 242.105 L
362.608 242.105 L
363.459 242.105 L
364.31 242.105 L
365.161 242.105 L
366.012 242.105 L
366.863 246.75 L
367.714 242.105 L
368.565 246.75 L
369.416 246.75 L
370.267 65.581 L
371.118 65.581 L
371.969 65.581 L
372.82 65.581 L
373.842 65.581 L
374.522 65.581 L
375.374 60.936 L
376.225 65.581 L
377.076 60.936 L
377.927 60.936 L
378.778 237.459 L
379.629 242.105 L
380.48 242.105 L
381.331 242.105 L
382.182 242.105 L
383.033 242.105 L
383.884 242.105 L
384.735 242.105 L
385.586 242.105 L
386.437 242.105 L
387.288 242.105 L
388.139 242.105 L
388.99 246.75 L
389.841 246.75 L
390.692 246.75 L
391.543 65.581 L
392.394 65.581 L
393.245 65.581 L
394.096 65.581 L
394.947 65.581 L
395.798 65.581 L
396.649 65.581 L
397.458 65.581 L
398.309 65.581 L
399.16 60.936 L
400.053 60.936 L
400.905 60.936 L
401.756 60.936 L
402.607 60.936 L
403.458 60.936 L
404.309 60.936 L
405.16 60.936 L
406.011 60.936 L
406.862 60.936 L
407.713 60.936 L
408.564 237.459 L
409.415 237.459 L
410.266 237.459 L
411.117 242.105 L
411.968 242.105 L
412.819 65.581 L
413.67 60.936 L
414.521 60.936 L
415.372 60.936 L
416.223 60.936 L
417.074 60.936 L
417.925 60.936 L
418.776 60.936 L
419.627 60.936 L
420.478 60.936 L
421.329 237.459 L
422.18 237.459 L
423.031 237.459 L
423.882 242.105 L
424.733 242.105 L
425.585 60.936 L
426.393 60.936 L
427.287 60.936 L
428.095 60.936 L
428.946 60.936 L
429.797 60.936 L
430.648 60.936 L
431.499 60.936 L
432.393 60.936 L
433.244 60.936 L
434.095 237.459 L
434.946 237.459 L
435.797 237.459 L
436.605 237.459 L
437.456 237.459 L
438.307 237.459 L
439.201 242.105 L
440.052 242.105 L
440.903 242.105 L
441.754 242.105 L
442.605 242.105 L
443.456 242.105 L
444.307 242.105 L
445.158 242.105 L
446.009 242.105 L
446.86 242.105 L
447.711 242.105 L
448.562 242.105 L
449.413 242.105 L
450.264 242.105 L
451.116 242.105 L
451.967 242.105 L
452.818 242.105 L
453.669 242.105 L
454.52 242.105 L
455.371 65.581 L
456.222 65.581 L
457.073 65.581 L
457.924 65.581 L
458.775 65.581 L
459.626 242.105 L
460.477 242.105 L
461.328 242.105 L
462.179 242.105 L
463.03 242.105 L
463.881 65.581 L
464.732 65.581 L
465.583 65.581 L
466.434 60.936 L
467.285 65.581 L
468.136 242.105 L
468.987 242.105 L
469.838 242.105 L
470.689 242.105 L
471.54 242.105 L
472.391 242.105 L
473.242 242.105 L
474.093 242.105 L
474.944 242.105 L
475.795 242.105 L
476.647 242.105 L
477.498 242.105 L
478.349 242.105 L
479.2 242.105 L
480.051 246.75 L
480.902 65.581 L
481.753 65.581 L
482.604 65.581 L
483.455 65.581 L
484.306 65.581 L
485.157 65.581 L
486.008 65.581 L
486.859 60.936 L
487.71 60.936 L
488.731 60.936 L
489.412 60.936 L
490.263 60.936 L
491.114 60.936 L
491.965 60.936 L
492.816 60.936 L
493.667 60.936 L
494.518 60.936 L
495.369 60.936 L
496.22 60.936 L
497.071 60.936 L
497.922 60.936 L
498.773 60.936 L
499.624 60.936 L
500.475 60.936 L
501.326 60.936 L
502.178 237.459 L
503.029 237.459 L
503.88 237.459 L
504.731 237.459 L
505.582 242.105 L
506.433 242.105 L
507.284 242.105 L
508.135 242.105 L
508.986 242.105 L
509.837 242.105 L
510.688 65.581 L
511.539 65.581 L
512.39 65.581 L
513.241 60.936 L
514.092 60.936 L
514.943 237.459 L
515.794 237.459 L
516.645 237.459 L
517.496 242.105 L
518.347 242.105 L
519.198 65.581 L
520.049 60.936 L
520.9 60.936 L
521.751 60.936 L
522.602 60.936 L
523.453 60.936 L
524.304 60.936 L
525.155 60.936 L
526.177 60.936 L
526.857 60.936 L
527.709 60.936 L
528.56 60.936 L
529.411 60.936 L
530.262 60.936 L
531.113 60.936 L
531.964 237.459 L
532.815 237.459 L
533.666 237.459 L
534.517 237.459 L
535.368 237.459 L
536.219 60.936 L
537.07 60.936 L
537.921 60.936 L
538.729 60.936 L
539.58 60.936 L
540.431 237.459 L
541.325 237.459 L
542.176 237.459 L
543.027 237.459 L
543.878 242.105 L
544.729 60.936 L
545.58 60.936 L
546.474 60.936 L
547.282 60.936 L
548.133 60.936 L
548.984 60.936 L
549.835 60.936 L
550.686 60.936 L
551.537 60.936 L
552.388 60.936 L
553.24 60.936 L
554.091 60.936 L
554.942 60.936 L
555.793 60.936 L
556.644 60.936 L
557.495 60.936 L
558.346 60.936 L
559.197 60.936 L
560.048 60.936 L
560.899 60.936 L
561.75 60.936 L
562.601 60.936 L
563.452 60.936 L
564.473 60.936 L
565.154 60.936 L
566.005 56.291 L
566.856 60.936 L
567.707 56.291 L
568.558 56.291 L
569.409 56.291 L
570.26 232.814 L
571.111 232.814 L
571.962 232.814 L
572.813 232.814 L
573.664 237.459 L
574.515 60.936 L
575.366 60.936 L
576.217 60.936 L
577.068 60.936 L
577.919 60.936 L
578.771 60.936 L
579.622 60.936 L
580.473 60.936 L
581.324 60.936 L
582.175 60.936 L
583.026 60.936 L
583.877 60.936 L
584.728 56.291 L
585.579 56.291 L
586.43 56.291 L
587.281 56.291 L
588.132 56.291 L
588.983 56.291 L
589.834 56.291 L
590.685 56.291 L
591.536 232.814 L
592.387 232.814 L
593.238 232.814 L
594.089 232.814 L
594.94 232.814 L
595.791 232.814 L
596.642 237.459 L
597.493 232.814 L
598.344 237.459 L
599.195 237.459 L
600.046 237.459 L
600.897 237.459 L
601.748 237.459 L
602.599 237.459 L
603.621 237.459 L
604.302 237.459 L
605.153 237.459 L
606.004 237.459 L
606.855 237.459 L
607.706 237.459 L
608.557 237.459 L
609.408 237.459 L
610.259 242.105 L
611.11 242.105 L
611.961 242.105 L
612.812 242.105 L
613.663 242.105 L
614.514 242.105 L
615.365 242.105 L
616.216 242.105 L
617.067 242.105 L
617.918 242.105 L
618.769 242.105 L
619.62 242.105 L
620.471 242.105 L
621.322 242.105 L
622.173 242.105 L
623.024 242.105 L
623.875 242.105 L
624.726 242.105 L
625.577 242.105 L
626.428 242.105 L
627.279 242.105 L
628.13 242.105 L
628.982 242.105 L
629.833 242.105 L
630.684 242.105 L
631.535 242.105 L
632.386 242.105 L
633.237 242.105 L
634.088 65.581 L
634.939 65.581 L
635.79 65.581 L
636.641 65.581 L
637.492 65.581 L
638.343 65.581 L
639.194 60.936 L
640.045 60.936 L
640.896 60.936 L
641.747 60.936 L
642.811 60.936 L
643.407 60.936 L
644.258 60.936 L
645.109 60.936 L
646.002 60.936 L
646.853 237.459 L
647.704 237.459 L
648.555 242.105 L
649.406 242.105 L
650.257 242.105 L
651.108 242.105 L
651.959 242.105 L
652.81 242.105 L
653.661 242.105 L
654.513 242.105 L
655.364 242.105 L
656.215 242.105 L
657.066 242.105 L
657.917 242.105 L
658.768 242.105 L
659.619 242.105 L
660.47 242.105 L
661.321 242.105 L
662.172 242.105 L
663.023 246.75 L
663.874 65.581 L
664.725 65.581 L
665.576 65.581 L
666.427 65.581 L
667.278 65.581 L
668.129 242.105 L
668.98 242.105 L
669.831 242.105 L
670.682 242.105 L
671.533 242.105 L
672.384 242.105 L
673.235 242.105 L
674.086 242.105 L
674.937 246.75 L
675.788 242.105 L
676.639 246.75 L
677.49 242.105 L
678.341 246.75 L
679.193 246.75 L
680.044 246.75 L
680.895 246.75 L
681.746 246.75 L
686.043 246.75 L
686.171 246.75 L
686.809 65.581 L
687.66 65.581 L
688.554 65.581 L
689.405 242.105 L
690.256 246.75 L
691.107 246.75 L
691.915 246.75 L
692.766 246.75 L
693.617 65.581 L
694.511 65.581 L
695.362 65.581 L
696.213 65.581 L
697.064 65.581 L
697.915 242.105 L
698.766 242.105 L
699.617 242.105 L
700.468 246.75 L
701.319 246.75 L
702.17 65.581 L
703.021 65.581 L
703.872 65.581 L
704.724 65.581 L
705.575 65.581 L
706.426 65.581 L
707.277 65.581 L
708.128 65.581 L
708.979 60.936 L
709.83 60.936 L
710.681 242.105 L
711.532 242.105 L
712.383 242.105 L
713.234 242.105 L
714.085 242.105 L
714.936 65.581 L
715.787 65.581 L
716.638 65.581 L
717.489 65.581 L
718.34 65.581 L
719.191 242.105 L
720.085 242.105 L
720.893 242.105 L
721.744 242.105 L
722.595 242.105 L
723.446 65.581 L
724.297 65.581 L
725.148 65.581 L
725.999 65.581 L
726.85 65.581 L
727.701 242.105 L
728.552 242.105 L
729.404 242.105 L
730.255 242.105 L
731.106 242.105 L
731.957 242.105 L
732.808 242.105 L
733.659 242.105 L
734.51 242.105 L
735.361 242.105 L
736.212 246.75 L
737.063 246.75 L
737.914 246.75 L
738.765 246.75 L
739.616 246.75 L
740.467 246.75 L
741.318 246.75 L
742.169 246.75 L
743.02 246.75 L
743.871 246.75 L
744.722 246.75 L
745.573 246.75 L
746.424 246.75 L
747.275 246.75 L
748.126 246.75 L
748.977 65.581 L
749.828 65.581 L
750.679 65.581 L
751.53 65.581 L
752.381 65.581 L
753.232 242.105 L
754.083 246.75 L
754.935 246.75 L
755.786 246.75 L
756.637 246.75 L
757.488 65.581 L
758.381 65.581 L
759.19 65.581 L
760.041 65.581 L
760.078 65.581 L
S
GR
GS
[0.5 0 0 0.5 0 0] CT
0.851 0.325 0.098 RC
1 LJ
N
109 62.2 M
109.851 61.887 L
110.702 238.224 L
111.553 238.569 L
112.404 238.653 L
113.255 238.995 L
114.106 239.263 L
114.957 239.56 L
115.808 239.89 L
116.659 240.201 L
117.51 240.471 L
118.361 240.725 L
119.212 63.153 L
120.063 63.046 L
120.914 62.795 L
121.766 62.5 L
122.617 62.261 L
123.468 240.635 L
124.319 240.994 L
125.17 241.329 L
126.021 241.667 L
126.872 241.934 L
127.723 242.155 L
128.574 242.333 L
129.425 242.623 L
130.276 242.718 L
131.127 242.954 L
131.978 243.049 L
132.829 243.156 L
133.68 243.382 L
134.531 243.238 L
135.382 243.547 L
136.233 64.103 L
137.084 63.976 L
137.935 63.738 L
138.786 63.408 L
139.637 63.088 L
140.488 62.748 L
141.339 62.488 L
142.19 62.23 L
143.041 61.971 L
143.892 61.684 L
144.743 239.873 L
145.594 239.912 L
146.445 240.305 L
147.297 240.671 L
148.148 240.986 L
148.999 62.383 L
149.85 62.365 L
150.701 62.17 L
151.552 61.95 L
152.403 61.728 L
153.254 239.599 L
154.105 239.936 L
154.956 240.063 L
155.807 240.394 L
156.658 240.598 L
157.509 240.933 L
158.36 241.222 L
159.211 241.569 L
160.062 241.847 L
160.913 242.135 L
161.764 63.437 L
162.615 63.356 L
163.466 63.157 L
164.317 62.889 L
165.168 62.598 L
166.019 62.336 L
166.87 62.097 L
167.721 61.857 L
168.572 61.638 L
169.423 61.412 L
170.274 239.456 L
171.125 239.885 L
171.976 240.257 L
172.828 240.624 L
173.679 241.015 L
174.53 62.255 L
175.381 62.232 L
176.232 62.03 L
177.083 61.827 L
177.934 61.672 L
178.785 61.41 L
179.636 61.244 L
180.487 61.018 L
181.423 60.885 L
182.146 60.715 L
182.997 60.534 L
183.891 60.365 L
184.742 60.207 L
185.593 60.06 L
186.444 59.974 L
187.295 59.845 L
188.146 59.7 L
188.997 59.536 L
189.848 59.482 L
190.699 59.357 L
191.55 59.265 L
192.401 59.177 L
193.252 59.07 L
194.103 58.967 L
194.954 58.894 L
195.805 58.851 L
196.656 58.734 L
197.507 58.648 L
198.359 58.563 L
199.21 58.508 L
200.061 234.671 L
200.912 235.284 L
201.763 235.596 L
202.614 236.071 L
203.465 236.329 L
204.316 59.975 L
205.167 60.041 L
206.018 59.92 L
206.869 59.79 L
207.72 59.65 L
208.571 236.306 L
209.422 236.679 L
210.273 236.5 L
211.124 236.981 L
211.975 237.407 L
212.826 60.638 L
213.677 60.705 L
214.528 60.567 L
215.379 60.4 L
216.23 60.175 L
217.081 59.996 L
217.932 59.833 L
218.954 59.635 L
219.634 59.478 L
220.485 59.308 L
221.336 59.15 L
222.187 59.029 L
223.038 58.867 L
223.89 58.741 L
224.741 58.624 L
225.592 58.514 L
226.443 58.387 L
227.294 58.241 L
228.145 58.151 L
228.996 58.069 L
229.847 232.765 L
230.698 233.349 L
231.549 233.892 L
232.4 234.448 L
233.251 234.969 L
234.102 235.432 L
234.953 235.865 L
235.804 236.297 L
236.655 236.677 L
237.506 237.06 L
238.357 60.665 L
239.208 60.678 L
240.059 60.488 L
240.91 60.274 L
241.761 60.059 L
242.612 235.566 L
243.463 235.978 L
244.314 236.413 L
245.165 236.771 L
246.016 237.183 L
246.867 237.522 L
247.718 237.84 L
248.57 238.167 L
249.421 238.45 L
250.272 238.744 L
251.123 239.024 L
251.974 239.265 L
252.825 239.493 L
253.676 239.71 L
254.527 239.943 L
255.378 240.166 L
256.229 240.38 L
257.08 240.561 L
257.931 240.76 L
258.782 240.926 L
259.633 62.938 L
260.484 62.806 L
261.335 62.513 L
262.186 62.155 L
263.037 61.884 L
263.888 238.634 L
264.739 238.964 L
265.59 239.275 L
266.441 239.593 L
267.292 239.869 L
268.143 240.155 L
268.994 240.402 L
269.845 240.661 L
270.696 240.908 L
271.547 241.222 L
272.398 241.423 L
273.249 241.64 L
274.101 241.848 L
274.952 242.023 L
275.803 242.216 L
276.654 242.403 L
277.505 242.557 L
278.356 242.731 L
279.207 242.874 L
280.058 243.013 L
280.909 63.736 L
281.76 63.728 L
282.611 63.381 L
283.462 63.023 L
284.313 62.727 L
285.164 240.588 L
286.015 240.798 L
286.866 241.067 L
287.717 241.369 L
288.568 241.63 L
289.419 62.904 L
290.27 62.848 L
291.164 62.572 L
291.972 62.328 L
292.823 62.063 L
293.674 61.774 L
294.525 61.509 L
295.376 61.269 L
296.44 61.1 L
297.078 60.849 L
297.929 60.642 L
298.78 60.451 L
299.632 60.275 L
300.483 60.113 L
301.334 59.965 L
302.185 59.828 L
303.036 59.677 L
303.887 59.561 L
304.738 59.429 L
305.589 59.306 L
306.44 235.51 L
307.291 236.09 L
308.142 236.657 L
308.993 237.162 L
309.844 237.658 L
310.695 238.124 L
311.546 238.535 L
312.397 238.946 L
313.248 239.332 L
314.099 239.671 L
314.95 240.015 L
315.801 240.314 L
316.652 240.621 L
317.503 240.913 L
318.354 241.19 L
319.205 62.919 L
320.056 62.831 L
320.907 62.575 L
321.758 62.326 L
322.609 62.057 L
323.46 239.036 L
324.311 239.36 L
325.163 239.814 L
326.014 240.041 L
326.865 240.35 L
327.716 240.667 L
328.567 240.967 L
329.418 241.226 L
330.269 241.496 L
331.12 241.727 L
331.971 241.946 L
332.822 242.18 L
333.673 242.403 L
334.524 242.591 L
335.545 242.77 L
336.226 242.967 L
337.077 243.131 L
337.928 243.313 L
338.779 243.489 L
339.63 243.608 L
340.481 243.773 L
341.332 243.907 L
342.183 244.062 L
343.034 244.187 L
343.885 244.308 L
344.736 244.45 L
345.587 244.564 L
346.438 244.649 L
347.289 244.782 L
348.14 244.887 L
348.991 65.27 L
349.842 65.077 L
350.694 64.7 L
351.545 64.366 L
352.396 64.07 L
353.247 242.576 L
354.098 242.87 L
354.949 243.145 L
355.8 243.404 L
356.651 243.649 L
357.502 64.057 L
358.353 63.956 L
359.204 63.79 L
360.055 63.503 L
360.906 63.196 L
361.757 241.554 L
362.608 241.923 L
363.459 242.243 L
364.31 242.566 L
365.161 242.895 L
366.012 243.206 L
366.863 243.499 L
367.714 243.751 L
368.565 244.015 L
369.416 244.239 L
370.267 64.423 L
371.118 64.433 L
371.969 64.174 L
372.82 63.872 L
373.842 63.602 L
374.522 63.336 L
375.374 63.072 L
376.225 62.805 L
377.076 62.562 L
377.927 62.339 L
378.778 240.259 L
379.629 240.693 L
380.48 241.122 L
381.331 241.548 L
382.182 241.948 L
383.033 242.324 L
383.884 242.652 L
384.735 242.96 L
385.586 243.274 L
386.437 243.545 L
387.288 243.852 L
388.139 244.093 L
388.99 244.32 L
389.841 244.56 L
390.692 244.789 L
391.543 64.902 L
392.394 64.842 L
393.245 64.592 L
394.096 64.274 L
394.947 63.964 L
395.798 63.685 L
396.649 63.408 L
397.458 63.182 L
398.309 62.902 L
399.16 62.67 L
400.053 62.484 L
400.905 62.264 L
401.756 62.062 L
402.607 61.849 L
403.458 61.676 L
404.309 61.542 L
405.16 61.369 L
406.011 61.233 L
406.862 61.08 L
407.713 60.989 L
408.564 238.18 L
409.415 238.748 L
410.266 239.303 L
411.117 239.795 L
411.968 240.254 L
412.819 62.071 L
413.67 62.132 L
414.521 62.01 L
415.372 61.883 L
416.223 61.645 L
417.074 61.475 L
417.925 61.346 L
418.776 61.154 L
419.627 61.001 L
420.478 60.834 L
421.329 237.667 L
422.18 238.187 L
423.031 238.722 L
423.882 239.221 L
424.733 239.664 L
425.585 62.11 L
426.393 62.135 L
427.287 61.977 L
428.095 61.788 L
428.946 61.594 L
429.797 61.443 L
430.648 61.231 L
431.499 61.085 L
432.393 60.927 L
433.244 60.781 L
434.095 237.043 L
434.946 237.558 L
435.797 238.036 L
436.605 238.506 L
437.456 238.892 L
438.307 239.302 L
439.201 239.71 L
440.052 240.069 L
440.903 240.431 L
441.754 240.746 L
442.605 241.069 L
443.456 241.348 L
444.307 241.637 L
445.158 241.911 L
446.009 242.146 L
446.86 242.394 L
447.711 242.604 L
448.562 242.856 L
449.413 243.046 L
450.264 243.253 L
451.116 243.426 L
451.967 243.591 L
452.818 243.775 L
453.669 243.952 L
454.52 244.097 L
455.371 64.955 L
456.222 64.774 L
457.073 64.431 L
457.924 64.153 L
458.775 63.809 L
459.626 241.749 L
460.477 242.065 L
461.328 242.361 L
462.179 242.639 L
463.03 242.875 L
463.881 63.995 L
464.732 63.912 L
465.583 63.686 L
466.434 63.415 L
467.285 63.122 L
468.136 240.901 L
468.987 241.28 L
469.838 241.609 L
470.689 241.89 L
471.54 242.175 L
472.391 242.493 L
473.242 242.767 L
474.093 243.052 L
474.944 243.295 L
475.795 243.551 L
476.647 243.769 L
477.498 244 L
478.349 244.17 L
479.2 244.329 L
480.051 244.479 L
480.902 65.108 L
481.753 65.054 L
482.604 64.784 L
483.455 64.45 L
484.306 64.15 L
485.157 63.857 L
486.008 63.592 L
486.859 63.278 L
487.71 63.013 L
488.731 62.822 L
489.412 62.576 L
490.263 62.322 L
491.114 62.138 L
491.965 61.919 L
492.816 61.791 L
493.667 61.6 L
494.518 61.422 L
495.369 61.281 L
496.22 61.151 L
497.071 61.031 L
497.922 60.895 L
498.773 60.767 L
499.624 60.646 L
500.475 60.559 L
501.326 60.427 L
502.178 237.16 L
503.029 237.731 L
503.88 238.338 L
504.731 238.88 L
505.582 239.388 L
506.433 239.864 L
507.284 240.284 L
508.135 240.702 L
508.986 241.069 L
509.837 241.465 L
510.688 63.022 L
511.539 62.986 L
512.39 62.749 L
513.241 62.539 L
514.092 62.328 L
514.943 239.491 L
515.794 239.864 L
516.645 240.261 L
517.496 240.632 L
518.347 241.005 L
519.198 62.848 L
520.049 62.842 L
520.9 62.66 L
521.751 62.454 L
522.602 62.196 L
523.453 61.96 L
524.304 61.745 L
525.155 61.549 L
526.177 61.345 L
526.857 61.158 L
527.709 60.96 L
528.56 60.826 L
529.411 60.628 L
530.262 60.493 L
531.113 60.369 L
531.964 236.806 L
532.815 237.365 L
533.666 237.861 L
534.517 238.32 L
535.368 238.774 L
536.219 61.564 L
537.07 61.549 L
537.921 61.452 L
538.729 61.275 L
539.58 61.115 L
540.431 237.678 L
541.325 238.165 L
542.176 238.619 L
543.027 239.07 L
543.878 239.493 L
544.729 61.872 L
545.58 61.91 L
546.474 61.693 L
547.282 61.551 L
548.133 61.328 L
548.984 61.126 L
549.835 60.89 L
550.686 60.749 L
551.537 60.546 L
552.388 60.383 L
553.24 60.208 L
554.091 60.071 L
554.942 59.944 L
555.793 59.803 L
556.644 59.671 L
557.495 59.522 L
558.346 59.407 L
559.197 59.274 L
560.048 59.173 L
560.899 59.053 L
561.75 58.964 L
562.601 58.855 L
563.452 58.777 L
564.473 58.678 L
565.154 58.583 L
566.005 58.492 L
566.856 58.456 L
567.707 58.346 L
568.558 58.266 L
569.409 58.188 L
570.26 233.324 L
571.111 233.935 L
571.962 234.529 L
572.813 235.107 L
573.664 235.624 L
574.515 59.658 L
575.366 59.83 L
576.217 59.714 L
577.068 59.562 L
577.919 59.4 L
578.771 59.252 L
579.622 59.116 L
580.473 58.941 L
581.324 58.854 L
582.175 58.699 L
583.026 58.579 L
583.877 58.468 L
584.728 58.365 L
585.579 58.243 L
586.43 58.128 L
587.281 58.018 L
588.132 57.915 L
588.983 57.842 L
589.834 57.774 L
590.685 57.634 L
591.536 232.192 L
592.387 232.793 L
593.238 233.35 L
594.089 233.894 L
594.94 234.427 L
595.791 234.902 L
596.642 235.372 L
597.493 235.788 L
598.344 236.204 L
599.195 236.597 L
600.046 236.916 L
600.897 237.266 L
601.748 237.572 L
602.599 237.887 L
603.621 238.186 L
604.302 238.444 L
605.153 238.716 L
606.004 238.974 L
606.855 239.196 L
607.706 239.433 L
608.557 239.66 L
609.408 239.879 L
610.259 240.063 L
611.11 240.266 L
611.961 240.436 L
612.812 240.625 L
613.663 240.808 L
614.514 240.96 L
615.365 241.132 L
616.216 241.3 L
617.067 241.438 L
617.918 241.597 L
618.769 241.727 L
619.62 241.879 L
620.471 242.028 L
621.322 242.174 L
622.173 242.291 L
623.024 242.431 L
623.875 242.569 L
624.726 242.679 L
625.577 242.812 L
626.428 242.944 L
627.279 243.047 L
628.13 243.15 L
628.982 243.302 L
629.833 243.4 L
630.684 243.498 L
631.535 243.62 L
632.386 243.74 L
633.237 243.834 L
634.088 64.336 L
634.939 64.187 L
635.79 63.907 L
636.641 63.541 L
637.492 63.19 L
638.343 62.849 L
639.194 62.542 L
640.045 62.214 L
640.896 61.966 L
641.747 61.641 L
642.811 61.443 L
643.407 61.164 L
644.258 60.982 L
645.109 60.742 L
646.002 60.57 L
646.853 237.532 L
647.704 238.006 L
648.555 238.498 L
649.406 238.933 L
650.257 239.34 L
651.108 239.721 L
651.959 240.078 L
652.81 240.438 L
653.661 240.777 L
654.513 241.098 L
655.364 241.402 L
656.215 241.664 L
657.066 241.963 L
657.917 242.223 L
658.768 242.445 L
659.619 242.681 L
660.47 242.906 L
661.321 243.122 L
662.172 243.303 L
663.023 243.528 L
663.874 64.051 L
664.725 63.968 L
665.576 63.749 L
666.427 63.388 L
667.278 63.087 L
668.129 241.224 L
668.98 241.53 L
669.831 241.867 L
670.682 242.185 L
671.533 242.46 L
672.384 242.744 L
673.235 242.963 L
674.086 243.22 L
674.937 243.464 L
675.788 243.696 L
676.639 243.918 L
677.49 244.105 L
678.341 244.309 L
679.193 244.504 L
680.044 244.692 L
680.895 244.873 L
681.746 245.047 L
686.043 245.189 L
686.171 245.811 L
686.809 65.18 L
687.66 65.101 L
688.554 64.888 L
689.405 244.282 L
690.256 244.545 L
691.107 244.743 L
691.915 244.981 L
692.766 245.207 L
693.617 64.853 L
694.511 64.763 L
695.362 64.534 L
696.213 64.187 L
697.064 63.873 L
697.915 242.717 L
698.766 243.035 L
699.617 243.382 L
700.468 243.684 L
701.319 243.993 L
702.17 64.282 L
703.021 64.316 L
703.872 64.051 L
704.724 63.817 L
705.575 63.508 L
706.426 63.303 L
707.277 63.018 L
708.128 62.807 L
708.979 62.617 L
709.83 62.419 L
710.681 240.387 L
711.532 240.842 L
712.383 241.265 L
713.234 241.708 L
714.085 242.099 L
714.936 63.182 L
715.787 63.156 L
716.638 63.002 L
717.489 62.796 L
718.34 62.612 L
719.191 240.545 L
720.085 240.943 L
720.893 241.361 L
721.744 241.753 L
722.595 242.118 L
723.446 63.282 L
724.297 63.261 L
725.148 63.141 L
725.999 62.918 L
726.85 62.692 L
727.701 240.559 L
728.552 240.969 L
729.404 241.351 L
730.255 241.731 L
731.106 242.112 L
731.957 242.47 L
732.808 242.782 L
733.659 243.101 L
734.51 243.376 L
735.361 243.635 L
736.212 243.905 L
737.063 244.135 L
737.914 244.378 L
738.765 244.584 L
739.616 244.805 L
740.467 244.989 L
741.318 245.191 L
742.169 245.359 L
743.02 245.518 L
743.871 245.671 L
744.722 245.817 L
745.573 246.008 L
746.424 246.142 L
747.275 246.296 L
748.126 246.42 L
748.977 66.074 L
749.828 65.919 L
750.679 65.578 L
751.53 65.305 L
752.381 64.941 L
753.232 244.098 L
754.083 244.401 L
754.935 244.684 L
755.786 244.976 L
756.637 245.252 L
757.488 65.047 L
758.381 64.974 L
759.19 64.784 L
760.041 64.472 L
760.078 64.46 L
S
GR
GS
[0.5 0 0 0.5 0 0] CT
1 GC
N
744 108 M
744 59 L
559 59 L
559 108 L
cp
f
GR
GS
[0.5 0 0 0.5 314.84552 36.28461] CT
/Helvetica 16.2 F
GS
[1 0 0 1 0 0] CT
0 6.5 moveto 
1 -1 scale
(Measurements) t 
GR
GR
GS
[0.5 0 0 0.5 0 0] CT
0 0.447 0.741 RC
1 LJ
N
565.016 72.569 M
625.179 72.569 L
S
GR
GS
[0.5 0 0 0.5 314.84552 47.21539] CT
/Helvetica 16.2 F
GS
[1 0 0 1 0 0] CT
0 6.5 moveto 
1 -1 scale
(Simulation) t 
GR
GR
GS
[0.5 0 0 0.5 0 0] CT
0.851 0.325 0.098 RC
1 LJ
N
565.016 94.431 M
625.179 94.431 L
S
GR
GS
[0.5 0 0 0.5 0 0] CT
0.149 GC
10.0 ML
N
559 108 M
559 59 L
744 59 L
744 108 L
cp
S
GR
GS
[0.5 0 0 0.5 0 0] CT
1 GC
N
109 560 M
760 560 L
760 346 L
109 346 L
cp
f
GR
GS
[0.5 0 0 0.5 0 0] CT
0.149 GC
2 setlinecap
1 LJ
N
109 560 M
760 560 L
S
GR
GS
[0.5 0 0 0.5 0 0] CT
0.149 GC
2 setlinecap
1 LJ
N
109 346 M
760 346 L
S
GR
GS
[0.5 0 0 0.5 0 0] CT
0.149 GC
2 setlinecap
1 LJ
N
109 560 M
109 553.49 L
S
GR
GS
[0.5 0 0 0.5 0 0] CT
0.149 GC
2 setlinecap
1 LJ
N
320.993 560 M
320.993 553.49 L
S
GR
GS
[0.5 0 0 0.5 0 0] CT
0.149 GC
2 setlinecap
1 LJ
N
532.987 560 M
532.987 553.49 L
S
GR
GS
[0.5 0 0 0.5 0 0] CT
0.149 GC
2 setlinecap
1 LJ
N
744.98 560 M
744.98 553.49 L
S
GR
GS
[0.5 0 0 0.5 0 0] CT
0.149 GC
2 setlinecap
1 LJ
N
109 346 M
109 352.51 L
S
GR
GS
[0.5 0 0 0.5 0 0] CT
0.149 GC
2 setlinecap
1 LJ
N
320.993 346 M
320.993 352.51 L
S
GR
GS
[0.5 0 0 0.5 0 0] CT
0.149 GC
2 setlinecap
1 LJ
N
532.987 346 M
532.987 352.51 L
S
GR
GS
[0.5 0 0 0.5 0 0] CT
0.149 GC
2 setlinecap
1 LJ
N
744.98 346 M
744.98 352.51 L
S
GR
GS
[0.5 0 0 0.5 54.5 282.79999] CT
0.149 GC
/Helvetica 18 F
GS
[1 0 0 1 0 0] CT
-5.5 19 moveto 
1 -1 scale
(0) t 
GR
GR
GS
[0.5 0 0 0.5 160.49666 282.79999] CT
0.149 GC
/Helvetica 18 F
GS
[1 0 0 1 0 0] CT
-10.5 19 moveto 
1 -1 scale
(50) t 
GR
GR
GS
[0.5 0 0 0.5 266.49332 282.79999] CT
0.149 GC
/Helvetica 18 F
GS
[1 0 0 1 0 0] CT
-15.5 19 moveto 
1 -1 scale
(100) t 
GR
GR
GS
[0.5 0 0 0.5 372.48996 282.79999] CT
0.149 GC
/Helvetica 18 F
GS
[1 0 0 1 0 0] CT
-15.5 19 moveto 
1 -1 scale
(150) t 
GR
GR
GS
[0.5 0 0 0.5 217.25017 294.79999] CT
0.149 GC
/Helvetica 19.8 F
GS
[1 0 0 1 0 0] CT
-36.5 20 moveto 
1 -1 scale
(Time \(s\)) t 
GR
GR
GS
[0.5 0 0 0.5 0 0] CT
0.149 GC
2 setlinecap
1 LJ
N
109 560 M
109 346 L
S
GR
GS
[0.5 0 0 0.5 0 0] CT
0.149 GC
2 setlinecap
1 LJ
N
760 560 M
760 346 L
S
GR
GS
[0.5 0 0 0.5 0 0] CT
0.149 GC
2 setlinecap
1 LJ
N
109 512.539 M
115.51 512.539 L
S
GR
GS
[0.5 0 0 0.5 0 0] CT
0.149 GC
2 setlinecap
1 LJ
N
109 450.31 M
115.51 450.31 L
S
GR
GS
[0.5 0 0 0.5 0 0] CT
0.149 GC
2 setlinecap
1 LJ
N
109 388.08 M
115.51 388.08 L
S
GR
GS
[0.5 0 0 0.5 0 0] CT
0.149 GC
2 setlinecap
1 LJ
N
760 512.539 M
753.49 512.539 L
S
GR
GS
[0.5 0 0 0.5 0 0] CT
0.149 GC
2 setlinecap
1 LJ
N
760 450.31 M
753.49 450.31 L
S
GR
GS
[0.5 0 0 0.5 0 0] CT
0.149 GC
2 setlinecap
1 LJ
N
760 388.08 M
753.49 388.08 L
S
GR
GS
[0.5 0 0 0.5 51.7 256.26932] CT
0.149 GC
/Helvetica 18 F
GS
[1 0 0 1 0 0] CT
-32 7.5 moveto 
1 -1 scale
(-0.5) t 
GR
GR
GS
[0.5 0 0 0.5 51.7 225.15475] CT
0.149 GC
/Helvetica 18 F
GS
[1 0 0 1 0 0] CT
-11 7.5 moveto 
1 -1 scale
(0) t 
GR
GR
GS
[0.5 0 0 0.5 51.7 194.04018] CT
0.149 GC
/Helvetica 18 F
GS
[1 0 0 1 0 0] CT
-26 7.5 moveto 
1 -1 scale
(0.5) t 
GR
GR
GS
[0 -0.5 0.5 0 33.7 226.49995] CT
0.149 GC
/Helvetica 19.8 F
GS
[1 0 0 1 0 0] CT
-49 -5 moveto 
1 -1 scale
(Current \(A\)) t 
GR
GR
GS
[0.5 0 0 0.5 217.25021 171.7625] CT
/Helvetica-Bold 19.8 F
GS
[1 0 0 1 0 0] CT
-71 -5 moveto 
1 -1 scale
(Battery current) t 
GR
GR
GS
[0.5 0 0 0.5 0 0] CT
0 0.447 0.741 RC
1 LJ
N
109 366.275 M
109.848 366.35 L
110.696 537.082 L
111.544 536.982 L
112.392 536.659 L
113.24 536.609 L
114.088 536.509 L
114.936 536.46 L
115.784 536.46 L
116.632 536.46 L
117.48 536.435 L
118.328 536.41 L
119.176 364.583 L
120.024 365.006 L
120.872 365.255 L
121.72 365.429 L
122.568 365.628 L
123.416 538.376 L
124.264 538.326 L
125.111 538.277 L
125.959 538.252 L
126.807 538.177 L
127.655 538.078 L
128.503 537.953 L
129.351 537.953 L
130.199 537.779 L
131.047 537.754 L
131.895 537.605 L
132.743 537.48 L
133.591 537.48 L
134.439 537.132 L
135.287 537.231 L
136.135 363.662 L
136.983 364.135 L
137.831 364.458 L
138.679 364.657 L
139.527 364.832 L
140.375 364.956 L
141.223 365.13 L
142.071 365.28 L
142.919 365.404 L
143.767 365.479 L
144.615 537.978 L
145.463 537.555 L
146.311 537.505 L
147.159 537.455 L
148.007 537.381 L
148.855 364.458 L
149.703 364.881 L
150.551 365.105 L
151.399 365.28 L
152.247 365.429 L
153.095 537.629 L
153.943 537.505 L
154.791 537.206 L
155.639 537.132 L
156.486 536.957 L
157.334 536.932 L
158.182 536.883 L
159.03 536.908 L
159.878 536.883 L
160.726 536.883 L
161.574 363.96 L
162.422 364.408 L
163.27 364.707 L
164.118 364.906 L
164.966 365.056 L
165.814 365.205 L
166.662 365.354 L
167.51 365.479 L
168.358 365.603 L
169.206 365.703 L
170.054 538.028 L
170.902 537.953 L
171.75 537.853 L
172.598 537.779 L
173.446 537.754 L
174.294 364.657 L
175.142 365.056 L
175.99 365.255 L
176.838 365.429 L
177.686 365.628 L
178.534 365.703 L
179.382 365.852 L
180.23 365.927 L
181.163 366.076 L
181.883 366.176 L
182.731 366.25 L
183.622 366.325 L
184.47 366.4 L
185.318 366.474 L
186.166 366.599 L
187.014 366.674 L
187.862 366.723 L
188.709 366.748 L
189.557 366.873 L
190.405 366.922 L
191.253 366.997 L
192.101 367.072 L
192.949 367.122 L
193.797 367.171 L
194.645 367.246 L
195.493 367.346 L
196.341 367.371 L
197.189 367.42 L
198.037 367.47 L
198.885 367.545 L
199.733 537.878 L
200.581 537.829 L
201.429 537.53 L
202.277 537.43 L
203.125 537.156 L
203.973 366.275 L
204.821 366.649 L
205.669 366.823 L
206.517 366.972 L
207.365 367.097 L
208.213 538.028 L
209.061 537.853 L
209.909 537.181 L
210.757 537.181 L
211.605 537.156 L
212.453 365.952 L
213.301 366.4 L
214.149 366.624 L
214.997 366.798 L
215.845 366.898 L
216.693 367.022 L
217.541 367.146 L
218.558 367.221 L
219.237 367.321 L
220.085 367.395 L
220.932 367.47 L
221.78 367.57 L
222.628 367.619 L
223.476 367.694 L
224.324 367.769 L
225.172 367.843 L
226.02 367.893 L
226.868 367.918 L
227.716 367.993 L
228.564 368.067 L
229.412 537.007 L
230.26 536.957 L
231.108 536.908 L
231.956 536.908 L
232.804 536.908 L
233.652 536.883 L
234.5 536.858 L
235.348 536.858 L
236.196 536.833 L
237.044 536.833 L
237.892 366.051 L
238.74 366.499 L
239.588 366.723 L
240.436 366.898 L
241.284 367.047 L
242.132 536.957 L
242.98 536.908 L
243.828 536.908 L
244.676 536.858 L
245.524 536.883 L
246.372 536.858 L
247.22 536.833 L
248.068 536.833 L
248.916 536.808 L
249.764 536.808 L
250.612 536.808 L
251.46 536.783 L
252.307 536.758 L
253.155 536.733 L
254.003 536.733 L
254.851 536.733 L
255.699 536.733 L
256.547 536.708 L
257.395 536.708 L
258.243 536.684 L
259.091 364.533 L
259.939 365.006 L
260.787 365.28 L
261.635 365.454 L
262.483 365.678 L
263.331 536.908 L
264.179 536.883 L
265.027 536.858 L
265.875 536.858 L
266.723 536.833 L
267.571 536.833 L
268.419 536.808 L
269.267 536.808 L
270.115 536.808 L
270.963 536.883 L
271.811 536.858 L
272.659 536.858 L
273.507 536.858 L
274.355 536.833 L
275.203 536.833 L
276.051 536.833 L
276.899 536.808 L
277.747 536.808 L
278.595 536.783 L
279.443 536.758 L
280.291 363.388 L
281.139 364.01 L
281.987 364.259 L
282.835 364.458 L
283.682 364.682 L
284.53 537.007 L
285.378 536.883 L
286.226 536.833 L
287.074 536.833 L
287.922 536.808 L
288.77 363.861 L
289.618 364.334 L
290.509 364.558 L
291.314 364.782 L
292.162 364.956 L
293.01 365.08 L
293.858 365.205 L
294.706 365.329 L
295.766 365.504 L
296.402 365.578 L
297.25 365.678 L
298.098 365.777 L
298.946 365.877 L
299.794 365.977 L
300.642 366.076 L
301.49 366.176 L
302.338 366.25 L
303.186 366.35 L
304.034 366.425 L
304.882 366.499 L
305.73 536.932 L
306.578 536.908 L
307.426 536.908 L
308.274 536.883 L
309.122 536.883 L
309.97 536.883 L
310.818 536.858 L
311.666 536.858 L
312.514 536.858 L
313.362 536.833 L
314.21 536.833 L
315.057 536.808 L
315.905 536.808 L
316.753 536.808 L
317.601 536.808 L
318.449 364.309 L
319.297 364.757 L
320.145 365.006 L
320.993 365.23 L
321.841 365.404 L
322.689 536.808 L
323.537 536.733 L
324.385 536.808 L
325.233 536.684 L
326.081 536.659 L
326.929 536.659 L
327.777 536.659 L
328.625 536.634 L
329.473 536.634 L
330.321 536.609 L
331.169 536.584 L
332.017 536.584 L
332.865 536.584 L
333.713 536.559 L
334.73 536.534 L
335.409 536.534 L
336.257 536.509 L
337.105 536.509 L
337.953 536.509 L
338.801 536.46 L
339.649 536.46 L
340.497 536.435 L
341.345 536.435 L
342.193 536.41 L
343.041 536.385 L
343.889 536.385 L
344.737 536.36 L
345.585 536.31 L
346.432 536.31 L
347.28 536.285 L
348.128 362.616 L
348.976 363.089 L
349.824 363.338 L
350.672 363.587 L
351.52 363.836 L
352.368 536.808 L
353.216 536.783 L
354.064 536.758 L
354.912 536.733 L
355.76 536.708 L
356.608 362.94 L
357.456 363.388 L
358.304 363.736 L
359.152 363.935 L
360 364.085 L
360.848 536.833 L
361.696 536.808 L
362.544 536.758 L
363.392 536.733 L
364.24 536.733 L
365.088 536.733 L
365.936 536.733 L
366.784 536.708 L
367.632 536.708 L
368.48 536.684 L
369.328 362.716 L
370.176 363.288 L
371.024 363.562 L
371.872 363.761 L
372.889 363.96 L
373.568 364.135 L
374.416 364.284 L
375.264 364.408 L
376.112 364.533 L
376.96 364.657 L
377.808 536.883 L
378.655 536.833 L
379.503 536.808 L
380.351 536.808 L
381.199 536.808 L
382.047 536.808 L
382.895 536.783 L
383.743 536.758 L
384.591 536.758 L
385.439 536.733 L
386.287 536.758 L
387.135 536.733 L
387.983 536.708 L
388.831 536.708 L
389.679 536.708 L
390.527 362.691 L
391.375 363.214 L
392.223 363.512 L
393.071 363.711 L
393.919 363.886 L
394.767 364.06 L
395.615 364.209 L
396.421 364.384 L
397.268 364.483 L
398.116 364.608 L
399.007 364.757 L
399.855 364.856 L
400.703 364.956 L
401.551 365.031 L
402.399 365.13 L
403.247 365.255 L
404.095 365.329 L
404.943 365.429 L
405.791 365.504 L
406.639 365.628 L
407.487 537.032 L
408.335 537.007 L
409.183 537.007 L
410.03 536.982 L
410.878 536.957 L
411.726 364.359 L
412.574 364.782 L
413.422 365.006 L
414.27 365.205 L
415.118 365.28 L
415.966 365.404 L
416.814 365.553 L
417.662 365.628 L
418.51 365.728 L
419.358 365.802 L
420.206 536.883 L
421.054 536.833 L
421.902 536.833 L
422.75 536.833 L
423.598 536.808 L
424.446 364.832 L
425.252 365.23 L
426.142 365.429 L
426.948 365.578 L
427.796 365.703 L
428.643 365.852 L
429.491 365.927 L
430.339 366.051 L
431.23 366.151 L
432.078 366.25 L
432.926 536.783 L
433.774 536.733 L
434.622 536.684 L
435.427 536.659 L
436.275 536.584 L
437.123 536.559 L
438.014 536.559 L
438.862 536.534 L
439.71 536.534 L
440.558 536.509 L
441.406 536.509 L
442.253 536.484 L
443.101 536.484 L
443.949 536.484 L
444.797 536.46 L
445.645 536.46 L
446.493 536.435 L
447.341 536.46 L
448.189 536.435 L
449.037 536.435 L
449.885 536.41 L
450.733 536.385 L
451.581 536.385 L
452.429 536.385 L
453.277 536.36 L
454.125 363.114 L
454.973 363.562 L
455.821 363.811 L
456.669 364.085 L
457.517 364.259 L
458.365 536.659 L
459.213 536.634 L
460.061 536.609 L
460.909 536.584 L
461.757 536.534 L
462.605 363.438 L
463.453 363.886 L
464.301 364.159 L
465.149 364.359 L
465.997 364.508 L
466.845 536.684 L
467.693 536.659 L
468.541 536.609 L
469.389 536.534 L
470.237 536.484 L
471.085 536.484 L
471.933 536.46 L
472.781 536.46 L
473.628 536.435 L
474.476 536.435 L
475.324 536.41 L
476.172 536.41 L
477.02 536.36 L
477.868 536.31 L
478.716 536.26 L
479.564 362.766 L
480.412 363.313 L
481.26 363.612 L
482.108 363.811 L
482.956 364.01 L
483.804 364.184 L
484.652 364.359 L
485.5 364.458 L
486.348 364.583 L
487.366 364.757 L
488.044 364.856 L
488.892 364.931 L
489.74 365.056 L
490.588 365.13 L
491.436 365.28 L
492.284 365.354 L
493.132 365.429 L
493.98 365.529 L
494.828 365.628 L
495.676 365.728 L
496.524 365.802 L
497.372 365.877 L
498.22 365.952 L
499.068 366.051 L
499.916 366.101 L
500.764 537.032 L
501.612 536.982 L
502.46 537.007 L
503.308 537.007 L
504.156 537.007 L
505.004 537.007 L
505.851 536.982 L
506.699 536.982 L
507.547 536.957 L
508.395 536.982 L
509.243 364.234 L
510.091 364.657 L
510.939 364.856 L
511.787 365.056 L
512.635 365.23 L
513.483 536.758 L
514.331 536.684 L
515.179 536.659 L
516.027 536.634 L
516.875 536.634 L
517.723 364.159 L
518.571 364.608 L
519.419 364.856 L
520.267 365.056 L
521.115 365.18 L
521.963 365.305 L
522.811 365.429 L
523.659 365.553 L
524.676 365.653 L
525.355 365.753 L
526.203 365.827 L
527.051 365.952 L
527.899 366.001 L
528.747 366.101 L
529.595 366.201 L
530.443 536.883 L
531.291 536.858 L
532.139 536.808 L
532.987 536.758 L
533.835 536.733 L
534.683 365.08 L
535.531 365.429 L
536.379 365.678 L
537.184 365.827 L
538.032 365.977 L
538.88 536.858 L
539.77 536.833 L
540.618 536.808 L
541.466 536.808 L
542.314 536.808 L
543.162 364.807 L
544.01 365.255 L
544.901 365.429 L
545.706 365.653 L
546.554 365.777 L
547.402 365.902 L
548.25 365.977 L
549.098 366.126 L
549.946 366.201 L
550.794 366.3 L
551.642 366.375 L
552.49 366.474 L
553.338 366.574 L
554.186 366.649 L
555.034 366.723 L
555.882 366.773 L
556.73 366.848 L
557.578 366.898 L
558.426 366.972 L
559.274 367.022 L
560.122 367.097 L
560.97 367.146 L
561.818 367.221 L
562.835 367.271 L
563.514 367.321 L
564.362 367.371 L
565.21 367.47 L
566.058 367.495 L
566.906 367.545 L
567.753 367.595 L
568.602 536.932 L
569.449 536.883 L
570.297 536.858 L
571.145 536.858 L
571.993 536.833 L
572.841 366.325 L
573.689 366.798 L
574.537 366.972 L
575.385 367.097 L
576.233 367.196 L
577.081 367.296 L
577.929 367.395 L
578.777 367.445 L
579.625 367.57 L
580.473 367.619 L
581.321 367.694 L
582.169 367.769 L
583.017 367.843 L
583.865 367.893 L
584.713 367.943 L
585.561 367.993 L
586.409 368.043 L
587.257 368.117 L
588.105 368.192 L
588.953 368.192 L
589.801 536.982 L
590.649 536.932 L
591.497 536.883 L
592.345 536.858 L
593.193 536.858 L
594.041 536.833 L
594.889 536.833 L
595.737 536.808 L
596.585 536.808 L
597.433 536.808 L
598.281 536.758 L
599.129 536.758 L
599.977 536.733 L
600.824 536.733 L
601.842 536.733 L
602.52 536.708 L
603.368 536.708 L
604.216 536.708 L
605.064 536.684 L
605.912 536.684 L
606.76 536.684 L
607.608 536.684 L
608.456 536.659 L
609.304 536.659 L
610.152 536.634 L
611 536.634 L
611.848 536.634 L
612.696 536.609 L
613.544 536.609 L
614.392 536.609 L
615.24 536.584 L
616.088 536.584 L
616.936 536.559 L
617.784 536.559 L
618.632 536.559 L
619.48 536.559 L
620.328 536.534 L
621.176 536.534 L
622.024 536.534 L
622.872 536.509 L
623.72 536.509 L
624.568 536.509 L
625.416 536.484 L
626.264 536.46 L
627.112 536.484 L
627.96 536.46 L
628.808 536.435 L
629.656 536.435 L
630.504 536.435 L
631.352 536.41 L
632.199 362.865 L
633.047 363.388 L
633.895 363.736 L
634.743 363.96 L
635.591 364.159 L
636.439 364.334 L
637.287 364.508 L
638.135 364.632 L
638.983 364.807 L
639.831 364.881 L
640.891 365.056 L
641.485 365.13 L
642.333 365.28 L
643.181 365.354 L
644.071 365.479 L
644.919 536.733 L
645.767 536.684 L
646.615 536.684 L
647.463 536.659 L
648.311 536.634 L
649.159 536.609 L
650.007 536.584 L
650.855 536.584 L
651.703 536.584 L
652.551 536.584 L
653.399 536.584 L
654.247 536.559 L
655.095 536.584 L
655.943 536.584 L
656.791 536.559 L
657.639 536.559 L
658.487 536.559 L
659.335 536.559 L
660.183 536.534 L
661.031 536.559 L
661.879 362.965 L
662.727 363.487 L
663.575 363.836 L
664.422 364.01 L
665.27 364.209 L
666.118 536.783 L
666.966 536.733 L
667.814 536.733 L
668.662 536.733 L
669.51 536.708 L
670.358 536.708 L
671.206 536.659 L
672.054 536.659 L
672.902 536.659 L
673.75 536.659 L
674.598 536.659 L
675.446 536.634 L
676.294 536.634 L
677.142 536.634 L
677.99 536.634 L
678.838 536.634 L
679.686 536.634 L
683.968 536.609 L
684.011 536.609 L
684.095 536.609 L
684.731 361.944 L
685.579 362.517 L
686.47 362.915 L
687.318 536.808 L
688.166 536.808 L
689.014 536.758 L
689.819 536.758 L
690.667 536.758 L
691.515 362.293 L
692.406 362.79 L
693.254 363.114 L
694.102 363.288 L
694.949 363.463 L
695.797 536.708 L
696.645 536.659 L
697.493 536.659 L
698.341 536.634 L
699.189 536.634 L
700.037 362.716 L
700.885 363.263 L
701.733 363.487 L
702.581 363.711 L
703.429 363.836 L
704.277 364.035 L
705.125 364.135 L
705.973 364.284 L
706.821 364.433 L
707.669 364.558 L
708.517 536.808 L
709.365 536.758 L
710.213 536.708 L
711.061 536.708 L
711.909 536.684 L
712.757 363.438 L
713.605 363.836 L
714.453 364.085 L
715.301 364.259 L
716.149 364.433 L
716.997 536.684 L
717.887 536.609 L
718.693 536.584 L
719.541 536.559 L
720.389 536.534 L
721.237 363.388 L
722.085 363.811 L
722.933 364.11 L
723.781 364.284 L
724.629 364.433 L
725.477 536.634 L
726.325 536.584 L
727.172 536.534 L
728.02 536.509 L
728.868 536.509 L
729.716 536.509 L
730.564 536.484 L
731.412 536.484 L
732.26 536.46 L
733.108 536.435 L
733.956 536.435 L
734.804 536.41 L
735.652 536.41 L
736.5 536.385 L
737.348 536.385 L
738.196 536.36 L
739.044 536.36 L
739.892 536.335 L
740.74 536.31 L
741.588 536.285 L
742.436 536.26 L
743.284 536.285 L
744.132 536.26 L
744.98 536.26 L
745.828 536.236 L
746.676 361.845 L
747.524 362.342 L
748.372 362.616 L
749.22 362.915 L
750.068 363.089 L
750.916 536.684 L
751.764 536.659 L
752.612 536.634 L
753.46 536.634 L
754.308 536.634 L
755.156 362.268 L
756.046 362.741 L
756.852 363.064 L
757.7 363.238 L
758.547 363.413 L
759.395 363.587 L
760.078 363.707 L
S
GR
%%Trailer
%%Pages: 1
%%EOF
