%!PS-Adobe-3.0 EPSF-3.0
%%Creator: (MATLAB, The Mathworks, Inc. Version 9.4.0.813654 \(R2018a\). Operating System: Windows 10)
%%Title: C:/Users/robbe/OneDrive/VUB/Thesis/Thesis/PRBS_Spectra.eps
%%CreationDate: 2019-05-29T22:55:39
%%Pages: (atend)
%%BoundingBox: 0 0 420 315
%%LanguageLevel: 3
%%EndComments
%%BeginProlog
%%BeginResource: procset (Apache XML Graphics Std ProcSet) 1.2 0
%%Version: 1.2 0
%%Copyright: (Copyright 2001-2003,2010 The Apache Software Foundation. License terms: http://www.apache.org/licenses/LICENSE-2.0)
/bd{bind def}bind def
/ld{load def}bd
/GR/grestore ld
/GS/gsave ld
/RM/rmoveto ld
/C/curveto ld
/t/show ld
/L/lineto ld
/ML/setmiterlimit ld
/CT/concat ld
/f/fill ld
/N/newpath ld
/S/stroke ld
/CC/setcmykcolor ld
/A/ashow ld
/cp/closepath ld
/RC/setrgbcolor ld
/LJ/setlinejoin ld
/GC/setgray ld
/LW/setlinewidth ld
/M/moveto ld
/re {4 2 roll M
1 index 0 rlineto
0 exch rlineto
neg 0 rlineto
cp } bd
/_ctm matrix def
/_tm matrix def
/BT { _ctm currentmatrix pop matrix _tm copy pop 0 0 moveto } bd
/ET { _ctm setmatrix } bd
/iTm { _ctm setmatrix _tm concat } bd
/Tm { _tm astore pop iTm 0 0 moveto } bd
/ux 0.0 def
/uy 0.0 def
/F {
  /Tp exch def
  /Tf exch def
  Tf findfont Tp scalefont setfont
  /cf Tf def  /cs Tp def
} bd
/ULS {currentpoint /uy exch def /ux exch def} bd
/ULE {
  /Tcx currentpoint pop def
  gsave
  newpath
  cf findfont cs scalefont dup
  /FontMatrix get 0 get /Ts exch def /FontInfo get dup
  /UnderlinePosition get Ts mul /To exch def
  /UnderlineThickness get Ts mul /Tt exch def
  ux uy To add moveto  Tcx uy To add lineto
  Tt setlinewidth stroke
  grestore
} bd
/OLE {
  /Tcx currentpoint pop def
  gsave
  newpath
  cf findfont cs scalefont dup
  /FontMatrix get 0 get /Ts exch def /FontInfo get dup
  /UnderlinePosition get Ts mul /To exch def
  /UnderlineThickness get Ts mul /Tt exch def
  ux uy To add cs add moveto Tcx uy To add cs add lineto
  Tt setlinewidth stroke
  grestore
} bd
/SOE {
  /Tcx currentpoint pop def
  gsave
  newpath
  cf findfont cs scalefont dup
  /FontMatrix get 0 get /Ts exch def /FontInfo get dup
  /UnderlinePosition get Ts mul /To exch def
  /UnderlineThickness get Ts mul /Tt exch def
  ux uy To add cs 10 mul 26 idiv add moveto Tcx uy To add cs 10 mul 26 idiv add lineto
  Tt setlinewidth stroke
  grestore
} bd
/QT {
/Y22 exch store
/X22 exch store
/Y21 exch store
/X21 exch store
currentpoint
/Y21 load 2 mul add 3 div exch
/X21 load 2 mul add 3 div exch
/X21 load 2 mul /X22 load add 3 div
/Y21 load 2 mul /Y22 load add 3 div
/X22 load /Y22 load curveto
} bd
/SSPD {
dup length /d exch dict def
{
/v exch def
/k exch def
currentpagedevice k known {
/cpdv currentpagedevice k get def
v cpdv ne {
/upd false def
/nullv v type /nulltype eq def
/nullcpdv cpdv type /nulltype eq def
nullv nullcpdv or
{
/upd true def
} {
/sametype v type cpdv type eq def
sametype {
v type /arraytype eq {
/vlen v length def
/cpdvlen cpdv length def
vlen cpdvlen eq {
0 1 vlen 1 sub {
/i exch def
/obj v i get def
/cpdobj cpdv i get def
obj cpdobj ne {
/upd true def
exit
} if
} for
} {
/upd true def
} ifelse
} {
v type /dicttype eq {
v {
/dv exch def
/dk exch def
/cpddv cpdv dk get def
dv cpddv ne {
/upd true def
exit
} if
} forall
} {
/upd true def
} ifelse
} ifelse
} if
} ifelse
upd true eq {
d k v put
} if
} if
} if
} forall
d length 0 gt {
d setpagedevice
} if
} bd
/RE { % /NewFontName [NewEncodingArray] /FontName RE -
  findfont dup length dict begin
  {
    1 index /FID ne
    {def} {pop pop} ifelse
  } forall
  /Encoding exch def
  /FontName 1 index def
  currentdict definefont pop
  end
} bind def
%%EndResource
%%BeginResource: procset (Apache XML Graphics EPS ProcSet) 1.0 0
%%Version: 1.0 0
%%Copyright: (Copyright 2002-2003 The Apache Software Foundation. License terms: http://www.apache.org/licenses/LICENSE-2.0)
/BeginEPSF { %def
/b4_Inc_state save def         % Save state for cleanup
/dict_count countdictstack def % Count objects on dict stack
/op_count count 1 sub def      % Count objects on operand stack
userdict begin                 % Push userdict on dict stack
/showpage { } def              % Redefine showpage, { } = null proc
0 setgray 0 setlinecap         % Prepare graphics state
1 setlinewidth 0 setlinejoin
10 setmiterlimit [ ] 0 setdash newpath
/languagelevel where           % If level not equal to 1 then
{pop languagelevel             % set strokeadjust and
1 ne                           % overprint to their defaults.
{false setstrokeadjust false setoverprint
} if
} if
} bd
/EndEPSF { %def
count op_count sub {pop} repeat            % Clean up stacks
countdictstack dict_count sub {end} repeat
b4_Inc_state restore
} bd
%%EndResource
%FOPBeginFontDict
%%IncludeResource: font Courier-Oblique
%%IncludeResource: font Courier-BoldOblique
%%IncludeResource: font Courier-Bold
%%IncludeResource: font ZapfDingbats
%%IncludeResource: font Symbol
%%IncludeResource: font Helvetica
%%IncludeResource: font Helvetica-Oblique
%%IncludeResource: font Helvetica-Bold
%%IncludeResource: font Helvetica-BoldOblique
%%IncludeResource: font Times-Roman
%%IncludeResource: font Times-Italic
%%IncludeResource: font Times-Bold
%%IncludeResource: font Times-BoldItalic
%%IncludeResource: font Courier
%FOPEndFontDict
%%BeginResource: encoding WinAnsiEncoding
/WinAnsiEncoding [
/.notdef /.notdef /.notdef /.notdef /.notdef
/.notdef /.notdef /.notdef /.notdef /.notdef
/.notdef /.notdef /.notdef /.notdef /.notdef
/.notdef /.notdef /.notdef /.notdef /.notdef
/.notdef /.notdef /.notdef /.notdef /.notdef
/.notdef /.notdef /.notdef /.notdef /.notdef
/.notdef /.notdef /space /exclam /quotedbl
/numbersign /dollar /percent /ampersand /quotesingle
/parenleft /parenright /asterisk /plus /comma
/hyphen /period /slash /zero /one
/two /three /four /five /six
/seven /eight /nine /colon /semicolon
/less /equal /greater /question /at
/A /B /C /D /E
/F /G /H /I /J
/K /L /M /N /O
/P /Q /R /S /T
/U /V /W /X /Y
/Z /bracketleft /backslash /bracketright /asciicircum
/underscore /quoteleft /a /b /c
/d /e /f /g /h
/i /j /k /l /m
/n /o /p /q /r
/s /t /u /v /w
/x /y /z /braceleft /bar
/braceright /asciitilde /bullet /Euro /bullet
/quotesinglbase /florin /quotedblbase /ellipsis /dagger
/daggerdbl /circumflex /perthousand /Scaron /guilsinglleft
/OE /bullet /Zcaron /bullet /bullet
/quoteleft /quoteright /quotedblleft /quotedblright /bullet
/endash /emdash /asciitilde /trademark /scaron
/guilsinglright /oe /bullet /zcaron /Ydieresis
/space /exclamdown /cent /sterling /currency
/yen /brokenbar /section /dieresis /copyright
/ordfeminine /guillemotleft /logicalnot /sfthyphen /registered
/macron /degree /plusminus /twosuperior /threesuperior
/acute /mu /paragraph /middot /cedilla
/onesuperior /ordmasculine /guillemotright /onequarter /onehalf
/threequarters /questiondown /Agrave /Aacute /Acircumflex
/Atilde /Adieresis /Aring /AE /Ccedilla
/Egrave /Eacute /Ecircumflex /Edieresis /Igrave
/Iacute /Icircumflex /Idieresis /Eth /Ntilde
/Ograve /Oacute /Ocircumflex /Otilde /Odieresis
/multiply /Oslash /Ugrave /Uacute /Ucircumflex
/Udieresis /Yacute /Thorn /germandbls /agrave
/aacute /acircumflex /atilde /adieresis /aring
/ae /ccedilla /egrave /eacute /ecircumflex
/edieresis /igrave /iacute /icircumflex /idieresis
/eth /ntilde /ograve /oacute /ocircumflex
/otilde /odieresis /divide /oslash /ugrave
/uacute /ucircumflex /udieresis /yacute /thorn
/ydieresis
] def
%%EndResource
%FOPBeginFontReencode
/Courier-Oblique findfont
dup length dict begin
  {1 index /FID ne {def} {pop pop} ifelse} forall
  /Encoding WinAnsiEncoding def
  currentdict
end
/Courier-Oblique exch definefont pop
/Courier-BoldOblique findfont
dup length dict begin
  {1 index /FID ne {def} {pop pop} ifelse} forall
  /Encoding WinAnsiEncoding def
  currentdict
end
/Courier-BoldOblique exch definefont pop
/Courier-Bold findfont
dup length dict begin
  {1 index /FID ne {def} {pop pop} ifelse} forall
  /Encoding WinAnsiEncoding def
  currentdict
end
/Courier-Bold exch definefont pop
/Helvetica findfont
dup length dict begin
  {1 index /FID ne {def} {pop pop} ifelse} forall
  /Encoding WinAnsiEncoding def
  currentdict
end
/Helvetica exch definefont pop
/Helvetica-Oblique findfont
dup length dict begin
  {1 index /FID ne {def} {pop pop} ifelse} forall
  /Encoding WinAnsiEncoding def
  currentdict
end
/Helvetica-Oblique exch definefont pop
/Helvetica-Bold findfont
dup length dict begin
  {1 index /FID ne {def} {pop pop} ifelse} forall
  /Encoding WinAnsiEncoding def
  currentdict
end
/Helvetica-Bold exch definefont pop
/Helvetica-BoldOblique findfont
dup length dict begin
  {1 index /FID ne {def} {pop pop} ifelse} forall
  /Encoding WinAnsiEncoding def
  currentdict
end
/Helvetica-BoldOblique exch definefont pop
/Times-Roman findfont
dup length dict begin
  {1 index /FID ne {def} {pop pop} ifelse} forall
  /Encoding WinAnsiEncoding def
  currentdict
end
/Times-Roman exch definefont pop
/Times-Italic findfont
dup length dict begin
  {1 index /FID ne {def} {pop pop} ifelse} forall
  /Encoding WinAnsiEncoding def
  currentdict
end
/Times-Italic exch definefont pop
/Times-Bold findfont
dup length dict begin
  {1 index /FID ne {def} {pop pop} ifelse} forall
  /Encoding WinAnsiEncoding def
  currentdict
end
/Times-Bold exch definefont pop
/Times-BoldItalic findfont
dup length dict begin
  {1 index /FID ne {def} {pop pop} ifelse} forall
  /Encoding WinAnsiEncoding def
  currentdict
end
/Times-BoldItalic exch definefont pop
/Courier findfont
dup length dict begin
  {1 index /FID ne {def} {pop pop} ifelse} forall
  /Encoding WinAnsiEncoding def
  currentdict
end
/Courier exch definefont pop
%FOPEndFontReencode
%%EndProlog
%%Page: 1 1
%%PageBoundingBox: 0 0 420 315
%%BeginPageSetup
[1 0 0 -1 0 315] CT
%%EndPageSetup
GS
[0.5 0 0 0.5 0 0] CT
1 GC
N
0 0 840 630 re
f
GR
GS
[0.5 0 0 0.5 0 0] CT
1 GC
N
0 0 840 630 re
f
GR
GS
[0.5 0 0 0.5 0 0] CT
1 GC
N
109 560 M
760 560 L
760 47 L
109 47 L
cp
f
GR
GS
[0.5 0 0 0.5 0 0] CT
0.775 GC
[1 3] 0 setdash
2 LJ
N
148.194 560 M
148.194 47 L
S
GR
GS
[0.5 0 0 0.5 0 0] CT
0.775 GC
[1 3] 0 setdash
2 LJ
N
171.121 560 M
171.121 47 L
S
GR
GS
[0.5 0 0 0.5 0 0] CT
0.775 GC
[1 3] 0 setdash
2 LJ
N
187.388 560 M
187.388 47 L
S
GR
GS
[0.5 0 0 0.5 0 0] CT
0.775 GC
[1 3] 0 setdash
2 LJ
N
200.006 560 M
200.006 47 L
S
GR
GS
[0.5 0 0 0.5 0 0] CT
0.775 GC
[1 3] 0 setdash
2 LJ
N
210.315 560 M
210.315 47 L
S
GR
GS
[0.5 0 0 0.5 0 0] CT
0.775 GC
[1 3] 0 setdash
2 LJ
N
219.032 560 M
219.032 47 L
S
GR
GS
[0.5 0 0 0.5 0 0] CT
0.775 GC
[1 3] 0 setdash
2 LJ
N
226.582 560 M
226.582 47 L
S
GR
GS
[0.5 0 0 0.5 0 0] CT
0.775 GC
[1 3] 0 setdash
2 LJ
N
233.242 560 M
233.242 47 L
S
GR
GS
[0.5 0 0 0.5 0 0] CT
0.775 GC
[1 3] 0 setdash
2 LJ
N
239.2 560 M
239.2 47 L
S
GR
GS
[0.5 0 0 0.5 0 0] CT
0.775 GC
[1 3] 0 setdash
2 LJ
N
278.394 560 M
278.394 47 L
S
GR
GS
[0.5 0 0 0.5 0 0] CT
0.775 GC
[1 3] 0 setdash
2 LJ
N
301.321 560 M
301.321 47 L
S
GR
GS
[0.5 0 0 0.5 0 0] CT
0.775 GC
[1 3] 0 setdash
2 LJ
N
317.588 560 M
317.588 47 L
S
GR
GS
[0.5 0 0 0.5 0 0] CT
0.775 GC
[1 3] 0 setdash
2 LJ
N
330.206 560 M
330.206 47 L
S
GR
GS
[0.5 0 0 0.5 0 0] CT
0.775 GC
[1 3] 0 setdash
2 LJ
N
340.515 560 M
340.515 47 L
S
GR
GS
[0.5 0 0 0.5 0 0] CT
0.775 GC
[1 3] 0 setdash
2 LJ
N
349.232 560 M
349.232 47 L
S
GR
GS
[0.5 0 0 0.5 0 0] CT
0.775 GC
[1 3] 0 setdash
2 LJ
N
356.782 560 M
356.782 47 L
S
GR
GS
[0.5 0 0 0.5 0 0] CT
0.775 GC
[1 3] 0 setdash
2 LJ
N
363.442 560 M
363.442 47 L
S
GR
GS
[0.5 0 0 0.5 0 0] CT
0.775 GC
[1 3] 0 setdash
2 LJ
N
408.594 560 M
408.594 47 L
S
GR
GS
[0.5 0 0 0.5 0 0] CT
0.775 GC
[1 3] 0 setdash
2 LJ
N
431.521 560 M
431.521 47 L
S
GR
GS
[0.5 0 0 0.5 0 0] CT
0.775 GC
[1 3] 0 setdash
2 LJ
N
447.788 560 M
447.788 47 L
S
GR
GS
[0.5 0 0 0.5 0 0] CT
0.775 GC
[1 3] 0 setdash
2 LJ
N
460.406 560 M
460.406 47 L
S
GR
GS
[0.5 0 0 0.5 0 0] CT
0.775 GC
[1 3] 0 setdash
2 LJ
N
470.715 560 M
470.715 47 L
S
GR
GS
[0.5 0 0 0.5 0 0] CT
0.775 GC
[1 3] 0 setdash
2 LJ
N
479.432 560 M
479.432 47 L
S
GR
GS
[0.5 0 0 0.5 0 0] CT
0.775 GC
[1 3] 0 setdash
2 LJ
N
486.982 560 M
486.982 47 L
S
GR
GS
[0.5 0 0 0.5 0 0] CT
0.775 GC
[1 3] 0 setdash
2 LJ
N
493.642 560 M
493.642 47 L
S
GR
GS
[0.5 0 0 0.5 0 0] CT
0.775 GC
[1 3] 0 setdash
2 LJ
N
538.794 560 M
538.794 47 L
S
GR
GS
[0.5 0 0 0.5 0 0] CT
0.775 GC
[1 3] 0 setdash
2 LJ
N
561.721 560 M
561.721 47 L
S
GR
GS
[0.5 0 0 0.5 0 0] CT
0.775 GC
[1 3] 0 setdash
2 LJ
N
577.988 560 M
577.988 47 L
S
GR
GS
[0.5 0 0 0.5 0 0] CT
0.775 GC
[1 3] 0 setdash
2 LJ
N
590.606 560 M
590.606 47 L
S
GR
GS
[0.5 0 0 0.5 0 0] CT
0.775 GC
[1 3] 0 setdash
2 LJ
N
600.915 560 M
600.915 47 L
S
GR
GS
[0.5 0 0 0.5 0 0] CT
0.775 GC
[1 3] 0 setdash
2 LJ
N
609.632 560 M
609.632 47 L
S
GR
GS
[0.5 0 0 0.5 0 0] CT
0.775 GC
[1 3] 0 setdash
2 LJ
N
617.182 560 M
617.182 47 L
S
GR
GS
[0.5 0 0 0.5 0 0] CT
0.775 GC
[1 3] 0 setdash
2 LJ
N
623.842 560 M
623.842 47 L
S
GR
GS
[0.5 0 0 0.5 0 0] CT
0.775 GC
[1 3] 0 setdash
2 LJ
N
668.994 560 M
668.994 47 L
S
GR
GS
[0.5 0 0 0.5 0 0] CT
0.775 GC
[1 3] 0 setdash
2 LJ
N
691.921 560 M
691.921 47 L
S
GR
GS
[0.5 0 0 0.5 0 0] CT
0.775 GC
[1 3] 0 setdash
2 LJ
N
708.188 560 M
708.188 47 L
S
GR
GS
[0.5 0 0 0.5 0 0] CT
0.775 GC
[1 3] 0 setdash
2 LJ
N
720.806 560 M
720.806 47 L
S
GR
GS
[0.5 0 0 0.5 0 0] CT
0.775 GC
[1 3] 0 setdash
2 LJ
N
731.115 560 M
731.115 47 L
S
GR
GS
[0.5 0 0 0.5 0 0] CT
0.775 GC
[1 3] 0 setdash
2 LJ
N
739.832 560 M
739.832 47 L
S
GR
GS
[0.5 0 0 0.5 0 0] CT
0.775 GC
[1 3] 0 setdash
2 LJ
N
747.382 560 M
747.382 47 L
S
GR
GS
[0.5 0 0 0.5 0 0] CT
0.775 GC
[1 3] 0 setdash
2 LJ
N
754.042 560 M
754.042 47 L
S
GR
GS
[0.5 0 0 0.5 0 0] CT
0.873 GC
1 LJ
N
109 560 M
109 47 L
S
GR
GS
[0.5 0 0 0.5 0 0] CT
0.873 GC
1 LJ
N
239.2 560 M
239.2 47 L
S
GR
GS
[0.5 0 0 0.5 0 0] CT
0.873 GC
1 LJ
N
369.4 560 M
369.4 47 L
S
GR
GS
[0.5 0 0 0.5 0 0] CT
0.873 GC
1 LJ
N
499.6 560 M
499.6 47 L
S
GR
GS
[0.5 0 0 0.5 0 0] CT
0.873 GC
1 LJ
N
629.8 560 M
629.8 47 L
S
GR
GS
[0.5 0 0 0.5 0 0] CT
0.873 GC
1 LJ
N
760 560 M
760 47 L
S
GR
GS
[0.5 0 0 0.5 0 0] CT
0.873 GC
1 LJ
N
760 560 M
109 560 L
S
GR
GS
[0.5 0 0 0.5 0 0] CT
0.873 GC
1 LJ
N
760 495.875 M
109 495.875 L
S
GR
GS
[0.5 0 0 0.5 0 0] CT
0.873 GC
1 LJ
N
760 431.75 M
109 431.75 L
S
GR
GS
[0.5 0 0 0.5 0 0] CT
0.873 GC
1 LJ
N
760 367.625 M
109 367.625 L
S
GR
GS
[0.5 0 0 0.5 0 0] CT
0.873 GC
1 LJ
N
760 303.5 M
109 303.5 L
S
GR
GS
[0.5 0 0 0.5 0 0] CT
0.873 GC
1 LJ
N
760 239.375 M
109 239.375 L
S
GR
GS
[0.5 0 0 0.5 0 0] CT
0.873 GC
1 LJ
N
760 175.25 M
109 175.25 L
S
GR
GS
[0.5 0 0 0.5 0 0] CT
0.873 GC
1 LJ
N
760 111.125 M
109 111.125 L
S
GR
GS
[0.5 0 0 0.5 0 0] CT
0.873 GC
1 LJ
N
760 47 M
109 47 L
S
GR
GS
[0.5 0 0 0.5 0 0] CT
0.149 GC
2 setlinecap
1 LJ
N
109 560 M
760 560 L
S
GR
GS
[0.5 0 0 0.5 0 0] CT
0.149 GC
2 setlinecap
1 LJ
N
109 47 M
760 47 L
S
GR
GS
[0.5 0 0 0.5 0 0] CT
0.149 GC
2 setlinecap
1 LJ
N
109 560 M
109 553.49 L
S
GR
GS
[0.5 0 0 0.5 0 0] CT
0.149 GC
2 setlinecap
1 LJ
N
239.2 560 M
239.2 553.49 L
S
GR
GS
[0.5 0 0 0.5 0 0] CT
0.149 GC
2 setlinecap
1 LJ
N
369.4 560 M
369.4 553.49 L
S
GR
GS
[0.5 0 0 0.5 0 0] CT
0.149 GC
2 setlinecap
1 LJ
N
499.6 560 M
499.6 553.49 L
S
GR
GS
[0.5 0 0 0.5 0 0] CT
0.149 GC
2 setlinecap
1 LJ
N
629.8 560 M
629.8 553.49 L
S
GR
GS
[0.5 0 0 0.5 0 0] CT
0.149 GC
2 setlinecap
1 LJ
N
760 560 M
760 553.49 L
S
GR
GS
[0.5 0 0 0.5 0 0] CT
0.149 GC
2 setlinecap
1 LJ
N
109 47 M
109 53.51 L
S
GR
GS
[0.5 0 0 0.5 0 0] CT
0.149 GC
2 setlinecap
1 LJ
N
239.2 47 M
239.2 53.51 L
S
GR
GS
[0.5 0 0 0.5 0 0] CT
0.149 GC
2 setlinecap
1 LJ
N
369.4 47 M
369.4 53.51 L
S
GR
GS
[0.5 0 0 0.5 0 0] CT
0.149 GC
2 setlinecap
1 LJ
N
499.6 47 M
499.6 53.51 L
S
GR
GS
[0.5 0 0 0.5 0 0] CT
0.149 GC
2 setlinecap
1 LJ
N
629.8 47 M
629.8 53.51 L
S
GR
GS
[0.5 0 0 0.5 0 0] CT
0.149 GC
2 setlinecap
1 LJ
N
760 47 M
760 53.51 L
S
GR
GS
[0.5 0 0 0.5 0 0] CT
0.149 GC
2 setlinecap
1 LJ
N
109 560 M
109 556.745 L
S
GR
GS
[0.5 0 0 0.5 0 0] CT
0.149 GC
2 setlinecap
1 LJ
N
148.194 560 M
148.194 556.745 L
S
GR
GS
[0.5 0 0 0.5 0 0] CT
0.149 GC
2 setlinecap
1 LJ
N
171.121 560 M
171.121 556.745 L
S
GR
GS
[0.5 0 0 0.5 0 0] CT
0.149 GC
2 setlinecap
1 LJ
N
187.388 560 M
187.388 556.745 L
S
GR
GS
[0.5 0 0 0.5 0 0] CT
0.149 GC
2 setlinecap
1 LJ
N
200.006 560 M
200.006 556.745 L
S
GR
GS
[0.5 0 0 0.5 0 0] CT
0.149 GC
2 setlinecap
1 LJ
N
210.315 560 M
210.315 556.745 L
S
GR
GS
[0.5 0 0 0.5 0 0] CT
0.149 GC
2 setlinecap
1 LJ
N
219.032 560 M
219.032 556.745 L
S
GR
GS
[0.5 0 0 0.5 0 0] CT
0.149 GC
2 setlinecap
1 LJ
N
226.582 560 M
226.582 556.745 L
S
GR
GS
[0.5 0 0 0.5 0 0] CT
0.149 GC
2 setlinecap
1 LJ
N
233.242 560 M
233.242 556.745 L
S
GR
GS
[0.5 0 0 0.5 0 0] CT
0.149 GC
2 setlinecap
1 LJ
N
239.2 560 M
239.2 556.745 L
S
GR
GS
[0.5 0 0 0.5 0 0] CT
0.149 GC
2 setlinecap
1 LJ
N
239.2 560 M
239.2 556.745 L
S
GR
GS
[0.5 0 0 0.5 0 0] CT
0.149 GC
2 setlinecap
1 LJ
N
278.394 560 M
278.394 556.745 L
S
GR
GS
[0.5 0 0 0.5 0 0] CT
0.149 GC
2 setlinecap
1 LJ
N
301.321 560 M
301.321 556.745 L
S
GR
GS
[0.5 0 0 0.5 0 0] CT
0.149 GC
2 setlinecap
1 LJ
N
317.588 560 M
317.588 556.745 L
S
GR
GS
[0.5 0 0 0.5 0 0] CT
0.149 GC
2 setlinecap
1 LJ
N
330.206 560 M
330.206 556.745 L
S
GR
GS
[0.5 0 0 0.5 0 0] CT
0.149 GC
2 setlinecap
1 LJ
N
340.515 560 M
340.515 556.745 L
S
GR
GS
[0.5 0 0 0.5 0 0] CT
0.149 GC
2 setlinecap
1 LJ
N
349.232 560 M
349.232 556.745 L
S
GR
GS
[0.5 0 0 0.5 0 0] CT
0.149 GC
2 setlinecap
1 LJ
N
356.782 560 M
356.782 556.745 L
S
GR
GS
[0.5 0 0 0.5 0 0] CT
0.149 GC
2 setlinecap
1 LJ
N
363.442 560 M
363.442 556.745 L
S
GR
GS
[0.5 0 0 0.5 0 0] CT
0.149 GC
2 setlinecap
1 LJ
N
369.4 560 M
369.4 556.745 L
S
GR
GS
[0.5 0 0 0.5 0 0] CT
0.149 GC
2 setlinecap
1 LJ
N
408.594 560 M
408.594 556.745 L
S
GR
GS
[0.5 0 0 0.5 0 0] CT
0.149 GC
2 setlinecap
1 LJ
N
431.521 560 M
431.521 556.745 L
S
GR
GS
[0.5 0 0 0.5 0 0] CT
0.149 GC
2 setlinecap
1 LJ
N
447.788 560 M
447.788 556.745 L
S
GR
GS
[0.5 0 0 0.5 0 0] CT
0.149 GC
2 setlinecap
1 LJ
N
460.406 560 M
460.406 556.745 L
S
GR
GS
[0.5 0 0 0.5 0 0] CT
0.149 GC
2 setlinecap
1 LJ
N
470.715 560 M
470.715 556.745 L
S
GR
GS
[0.5 0 0 0.5 0 0] CT
0.149 GC
2 setlinecap
1 LJ
N
479.432 560 M
479.432 556.745 L
S
GR
GS
[0.5 0 0 0.5 0 0] CT
0.149 GC
2 setlinecap
1 LJ
N
486.982 560 M
486.982 556.745 L
S
GR
GS
[0.5 0 0 0.5 0 0] CT
0.149 GC
2 setlinecap
1 LJ
N
493.642 560 M
493.642 556.745 L
S
GR
GS
[0.5 0 0 0.5 0 0] CT
0.149 GC
2 setlinecap
1 LJ
N
499.6 560 M
499.6 556.745 L
S
GR
GS
[0.5 0 0 0.5 0 0] CT
0.149 GC
2 setlinecap
1 LJ
N
538.794 560 M
538.794 556.745 L
S
GR
GS
[0.5 0 0 0.5 0 0] CT
0.149 GC
2 setlinecap
1 LJ
N
561.721 560 M
561.721 556.745 L
S
GR
GS
[0.5 0 0 0.5 0 0] CT
0.149 GC
2 setlinecap
1 LJ
N
577.988 560 M
577.988 556.745 L
S
GR
GS
[0.5 0 0 0.5 0 0] CT
0.149 GC
2 setlinecap
1 LJ
N
590.606 560 M
590.606 556.745 L
S
GR
GS
[0.5 0 0 0.5 0 0] CT
0.149 GC
2 setlinecap
1 LJ
N
600.915 560 M
600.915 556.745 L
S
GR
GS
[0.5 0 0 0.5 0 0] CT
0.149 GC
2 setlinecap
1 LJ
N
609.632 560 M
609.632 556.745 L
S
GR
GS
[0.5 0 0 0.5 0 0] CT
0.149 GC
2 setlinecap
1 LJ
N
617.182 560 M
617.182 556.745 L
S
GR
GS
[0.5 0 0 0.5 0 0] CT
0.149 GC
2 setlinecap
1 LJ
N
623.842 560 M
623.842 556.745 L
S
GR
GS
[0.5 0 0 0.5 0 0] CT
0.149 GC
2 setlinecap
1 LJ
N
629.8 560 M
629.8 556.745 L
S
GR
GS
[0.5 0 0 0.5 0 0] CT
0.149 GC
2 setlinecap
1 LJ
N
668.994 560 M
668.994 556.745 L
S
GR
GS
[0.5 0 0 0.5 0 0] CT
0.149 GC
2 setlinecap
1 LJ
N
691.921 560 M
691.921 556.745 L
S
GR
GS
[0.5 0 0 0.5 0 0] CT
0.149 GC
2 setlinecap
1 LJ
N
708.188 560 M
708.188 556.745 L
S
GR
GS
[0.5 0 0 0.5 0 0] CT
0.149 GC
2 setlinecap
1 LJ
N
720.806 560 M
720.806 556.745 L
S
GR
GS
[0.5 0 0 0.5 0 0] CT
0.149 GC
2 setlinecap
1 LJ
N
731.115 560 M
731.115 556.745 L
S
GR
GS
[0.5 0 0 0.5 0 0] CT
0.149 GC
2 setlinecap
1 LJ
N
739.832 560 M
739.832 556.745 L
S
GR
GS
[0.5 0 0 0.5 0 0] CT
0.149 GC
2 setlinecap
1 LJ
N
747.382 560 M
747.382 556.745 L
S
GR
GS
[0.5 0 0 0.5 0 0] CT
0.149 GC
2 setlinecap
1 LJ
N
754.042 560 M
754.042 556.745 L
S
GR
GS
[0.5 0 0 0.5 0 0] CT
0.149 GC
2 setlinecap
1 LJ
N
760 560 M
760 556.745 L
S
GR
GS
[0.5 0 0 0.5 0 0] CT
0.149 GC
2 setlinecap
1 LJ
N
109 47 M
109 50.255 L
S
GR
GS
[0.5 0 0 0.5 0 0] CT
0.149 GC
2 setlinecap
1 LJ
N
148.194 47 M
148.194 50.255 L
S
GR
GS
[0.5 0 0 0.5 0 0] CT
0.149 GC
2 setlinecap
1 LJ
N
171.121 47 M
171.121 50.255 L
S
GR
GS
[0.5 0 0 0.5 0 0] CT
0.149 GC
2 setlinecap
1 LJ
N
187.388 47 M
187.388 50.255 L
S
GR
GS
[0.5 0 0 0.5 0 0] CT
0.149 GC
2 setlinecap
1 LJ
N
200.006 47 M
200.006 50.255 L
S
GR
GS
[0.5 0 0 0.5 0 0] CT
0.149 GC
2 setlinecap
1 LJ
N
210.315 47 M
210.315 50.255 L
S
GR
GS
[0.5 0 0 0.5 0 0] CT
0.149 GC
2 setlinecap
1 LJ
N
219.032 47 M
219.032 50.255 L
S
GR
GS
[0.5 0 0 0.5 0 0] CT
0.149 GC
2 setlinecap
1 LJ
N
226.582 47 M
226.582 50.255 L
S
GR
GS
[0.5 0 0 0.5 0 0] CT
0.149 GC
2 setlinecap
1 LJ
N
233.242 47 M
233.242 50.255 L
S
GR
GS
[0.5 0 0 0.5 0 0] CT
0.149 GC
2 setlinecap
1 LJ
N
239.2 47 M
239.2 50.255 L
S
GR
GS
[0.5 0 0 0.5 0 0] CT
0.149 GC
2 setlinecap
1 LJ
N
239.2 47 M
239.2 50.255 L
S
GR
GS
[0.5 0 0 0.5 0 0] CT
0.149 GC
2 setlinecap
1 LJ
N
278.394 47 M
278.394 50.255 L
S
GR
GS
[0.5 0 0 0.5 0 0] CT
0.149 GC
2 setlinecap
1 LJ
N
301.321 47 M
301.321 50.255 L
S
GR
GS
[0.5 0 0 0.5 0 0] CT
0.149 GC
2 setlinecap
1 LJ
N
317.588 47 M
317.588 50.255 L
S
GR
GS
[0.5 0 0 0.5 0 0] CT
0.149 GC
2 setlinecap
1 LJ
N
330.206 47 M
330.206 50.255 L
S
GR
GS
[0.5 0 0 0.5 0 0] CT
0.149 GC
2 setlinecap
1 LJ
N
340.515 47 M
340.515 50.255 L
S
GR
GS
[0.5 0 0 0.5 0 0] CT
0.149 GC
2 setlinecap
1 LJ
N
349.232 47 M
349.232 50.255 L
S
GR
GS
[0.5 0 0 0.5 0 0] CT
0.149 GC
2 setlinecap
1 LJ
N
356.782 47 M
356.782 50.255 L
S
GR
GS
[0.5 0 0 0.5 0 0] CT
0.149 GC
2 setlinecap
1 LJ
N
363.442 47 M
363.442 50.255 L
S
GR
GS
[0.5 0 0 0.5 0 0] CT
0.149 GC
2 setlinecap
1 LJ
N
369.4 47 M
369.4 50.255 L
S
GR
GS
[0.5 0 0 0.5 0 0] CT
0.149 GC
2 setlinecap
1 LJ
N
408.594 47 M
408.594 50.255 L
S
GR
GS
[0.5 0 0 0.5 0 0] CT
0.149 GC
2 setlinecap
1 LJ
N
431.521 47 M
431.521 50.255 L
S
GR
GS
[0.5 0 0 0.5 0 0] CT
0.149 GC
2 setlinecap
1 LJ
N
447.788 47 M
447.788 50.255 L
S
GR
GS
[0.5 0 0 0.5 0 0] CT
0.149 GC
2 setlinecap
1 LJ
N
460.406 47 M
460.406 50.255 L
S
GR
GS
[0.5 0 0 0.5 0 0] CT
0.149 GC
2 setlinecap
1 LJ
N
470.715 47 M
470.715 50.255 L
S
GR
GS
[0.5 0 0 0.5 0 0] CT
0.149 GC
2 setlinecap
1 LJ
N
479.432 47 M
479.432 50.255 L
S
GR
GS
[0.5 0 0 0.5 0 0] CT
0.149 GC
2 setlinecap
1 LJ
N
486.982 47 M
486.982 50.255 L
S
GR
GS
[0.5 0 0 0.5 0 0] CT
0.149 GC
2 setlinecap
1 LJ
N
493.642 47 M
493.642 50.255 L
S
GR
GS
[0.5 0 0 0.5 0 0] CT
0.149 GC
2 setlinecap
1 LJ
N
499.6 47 M
499.6 50.255 L
S
GR
GS
[0.5 0 0 0.5 0 0] CT
0.149 GC
2 setlinecap
1 LJ
N
538.794 47 M
538.794 50.255 L
S
GR
GS
[0.5 0 0 0.5 0 0] CT
0.149 GC
2 setlinecap
1 LJ
N
561.721 47 M
561.721 50.255 L
S
GR
GS
[0.5 0 0 0.5 0 0] CT
0.149 GC
2 setlinecap
1 LJ
N
577.988 47 M
577.988 50.255 L
S
GR
GS
[0.5 0 0 0.5 0 0] CT
0.149 GC
2 setlinecap
1 LJ
N
590.606 47 M
590.606 50.255 L
S
GR
GS
[0.5 0 0 0.5 0 0] CT
0.149 GC
2 setlinecap
1 LJ
N
600.915 47 M
600.915 50.255 L
S
GR
GS
[0.5 0 0 0.5 0 0] CT
0.149 GC
2 setlinecap
1 LJ
N
609.632 47 M
609.632 50.255 L
S
GR
GS
[0.5 0 0 0.5 0 0] CT
0.149 GC
2 setlinecap
1 LJ
N
617.182 47 M
617.182 50.255 L
S
GR
GS
[0.5 0 0 0.5 0 0] CT
0.149 GC
2 setlinecap
1 LJ
N
623.842 47 M
623.842 50.255 L
S
GR
GS
[0.5 0 0 0.5 0 0] CT
0.149 GC
2 setlinecap
1 LJ
N
629.8 47 M
629.8 50.255 L
S
GR
GS
[0.5 0 0 0.5 0 0] CT
0.149 GC
2 setlinecap
1 LJ
N
668.994 47 M
668.994 50.255 L
S
GR
GS
[0.5 0 0 0.5 0 0] CT
0.149 GC
2 setlinecap
1 LJ
N
691.921 47 M
691.921 50.255 L
S
GR
GS
[0.5 0 0 0.5 0 0] CT
0.149 GC
2 setlinecap
1 LJ
N
708.188 47 M
708.188 50.255 L
S
GR
GS
[0.5 0 0 0.5 0 0] CT
0.149 GC
2 setlinecap
1 LJ
N
720.806 47 M
720.806 50.255 L
S
GR
GS
[0.5 0 0 0.5 0 0] CT
0.149 GC
2 setlinecap
1 LJ
N
731.115 47 M
731.115 50.255 L
S
GR
GS
[0.5 0 0 0.5 0 0] CT
0.149 GC
2 setlinecap
1 LJ
N
739.832 47 M
739.832 50.255 L
S
GR
GS
[0.5 0 0 0.5 0 0] CT
0.149 GC
2 setlinecap
1 LJ
N
747.382 47 M
747.382 50.255 L
S
GR
GS
[0.5 0 0 0.5 0 0] CT
0.149 GC
2 setlinecap
1 LJ
N
754.042 47 M
754.042 50.255 L
S
GR
GS
[0.5 0 0 0.5 0 0] CT
0.149 GC
2 setlinecap
1 LJ
N
760 47 M
760 50.255 L
S
GR
GS
[0.5 0 0 0.5 45 297.5] CT
0.149 GC
/Helvetica 20 F
GS
[1 0 0 1 0 0] CT
0 0 moveto 
1 -1 scale
(10) t 
GR
GR
GS
[0.5 0 0 0.5 56.5 292.5] CT
0.149 GC
/Helvetica 16 F
GS
[1 0 0 1 0 0] CT
0 0 moveto 
1 -1 scale
(-5) t 
GR
GR
GS
[0.5 0 0 0.5 110 297.5] CT
0.149 GC
/Helvetica 20 F
GS
[1 0 0 1 0 0] CT
0 0 moveto 
1 -1 scale
(10) t 
GR
GR
GS
[0.5 0 0 0.5 121.5 292.5] CT
0.149 GC
/Helvetica 16 F
GS
[1 0 0 1 0 0] CT
0 0 moveto 
1 -1 scale
(-4) t 
GR
GR
GS
[0.5 0 0 0.5 175 297.5] CT
0.149 GC
/Helvetica 20 F
GS
[1 0 0 1 0 0] CT
0 0 moveto 
1 -1 scale
(10) t 
GR
GR
GS
[0.5 0 0 0.5 186.5 292.5] CT
0.149 GC
/Helvetica 16 F
GS
[1 0 0 1 0 0] CT
0 0 moveto 
1 -1 scale
(-3) t 
GR
GR
GS
[0.5 0 0 0.5 240.5 297.5] CT
0.149 GC
/Helvetica 20 F
GS
[1 0 0 1 0 0] CT
0 0 moveto 
1 -1 scale
(10) t 
GR
GR
GS
[0.5 0 0 0.5 252 292.5] CT
0.149 GC
/Helvetica 16 F
GS
[1 0 0 1 0 0] CT
0 0 moveto 
1 -1 scale
(-2) t 
GR
GR
GS
[0.5 0 0 0.5 305.5 297.5] CT
0.149 GC
/Helvetica 20 F
GS
[1 0 0 1 0 0] CT
0 0 moveto 
1 -1 scale
(10) t 
GR
GR
GS
[0.5 0 0 0.5 317 292.5] CT
0.149 GC
/Helvetica 16 F
GS
[1 0 0 1 0 0] CT
0 0 moveto 
1 -1 scale
(-1) t 
GR
GR
GS
[0.5 0 0 0.5 372 297.5] CT
0.149 GC
/Helvetica 20 F
GS
[1 0 0 1 0 0] CT
0 0 moveto 
1 -1 scale
(10) t 
GR
GR
GS
[0.5 0 0 0.5 383.5 292.5] CT
0.149 GC
/Helvetica 16 F
GS
[1 0 0 1 0 0] CT
0 0 moveto 
1 -1 scale
(0) t 
GR
GR
GS
[0.5 0 0 0.5 217.25015 301] CT
0.149 GC
/Helvetica 22 F
GS
[1 0 0 1 0 0] CT
-76 23 moveto 
1 -1 scale
(Frequency \(Hz\)) t 
GR
GR
GS
[0.5 0 0 0.5 0 0] CT
0.149 GC
2 setlinecap
1 LJ
N
109 560 M
109 47 L
S
GR
GS
[0.5 0 0 0.5 0 0] CT
0.149 GC
2 setlinecap
1 LJ
N
760 560 M
760 47 L
S
GR
GS
[0.5 0 0 0.5 0 0] CT
0.149 GC
2 setlinecap
1 LJ
N
109 560 M
115.51 560 L
S
GR
GS
[0.5 0 0 0.5 0 0] CT
0.149 GC
2 setlinecap
1 LJ
N
109 495.875 M
115.51 495.875 L
S
GR
GS
[0.5 0 0 0.5 0 0] CT
0.149 GC
2 setlinecap
1 LJ
N
109 431.75 M
115.51 431.75 L
S
GR
GS
[0.5 0 0 0.5 0 0] CT
0.149 GC
2 setlinecap
1 LJ
N
109 367.625 M
115.51 367.625 L
S
GR
GS
[0.5 0 0 0.5 0 0] CT
0.149 GC
2 setlinecap
1 LJ
N
109 303.5 M
115.51 303.5 L
S
GR
GS
[0.5 0 0 0.5 0 0] CT
0.149 GC
2 setlinecap
1 LJ
N
109 239.375 M
115.51 239.375 L
S
GR
GS
[0.5 0 0 0.5 0 0] CT
0.149 GC
2 setlinecap
1 LJ
N
109 175.25 M
115.51 175.25 L
S
GR
GS
[0.5 0 0 0.5 0 0] CT
0.149 GC
2 setlinecap
1 LJ
N
109 111.125 M
115.51 111.125 L
S
GR
GS
[0.5 0 0 0.5 0 0] CT
0.149 GC
2 setlinecap
1 LJ
N
109 47 M
115.51 47 L
S
GR
GS
[0.5 0 0 0.5 0 0] CT
0.149 GC
2 setlinecap
1 LJ
N
760 560 M
753.49 560 L
S
GR
GS
[0.5 0 0 0.5 0 0] CT
0.149 GC
2 setlinecap
1 LJ
N
760 495.875 M
753.49 495.875 L
S
GR
GS
[0.5 0 0 0.5 0 0] CT
0.149 GC
2 setlinecap
1 LJ
N
760 431.75 M
753.49 431.75 L
S
GR
GS
[0.5 0 0 0.5 0 0] CT
0.149 GC
2 setlinecap
1 LJ
N
760 367.625 M
753.49 367.625 L
S
GR
GS
[0.5 0 0 0.5 0 0] CT
0.149 GC
2 setlinecap
1 LJ
N
760 303.5 M
753.49 303.5 L
S
GR
GS
[0.5 0 0 0.5 0 0] CT
0.149 GC
2 setlinecap
1 LJ
N
760 239.375 M
753.49 239.375 L
S
GR
GS
[0.5 0 0 0.5 0 0] CT
0.149 GC
2 setlinecap
1 LJ
N
760 175.25 M
753.49 175.25 L
S
GR
GS
[0.5 0 0 0.5 0 0] CT
0.149 GC
2 setlinecap
1 LJ
N
760 111.125 M
753.49 111.125 L
S
GR
GS
[0.5 0 0 0.5 0 0] CT
0.149 GC
2 setlinecap
1 LJ
N
760 47 M
753.49 47 L
S
GR
GS
[0.5 0 0 0.5 50.5 280] CT
0.149 GC
/Helvetica 20 F
GS
[1 0 0 1 0 0] CT
-23 8 moveto 
1 -1 scale
(30) t 
GR
GR
GS
[0.5 0 0 0.5 50.5 247.9375] CT
0.149 GC
/Helvetica 20 F
GS
[1 0 0 1 0 0] CT
-23 8 moveto 
1 -1 scale
(35) t 
GR
GR
GS
[0.5 0 0 0.5 50.5 215.875] CT
0.149 GC
/Helvetica 20 F
GS
[1 0 0 1 0 0] CT
-23 8 moveto 
1 -1 scale
(40) t 
GR
GR
GS
[0.5 0 0 0.5 50.5 183.8125] CT
0.149 GC
/Helvetica 20 F
GS
[1 0 0 1 0 0] CT
-23 8 moveto 
1 -1 scale
(45) t 
GR
GR
GS
[0.5 0 0 0.5 50.5 151.75] CT
0.149 GC
/Helvetica 20 F
GS
[1 0 0 1 0 0] CT
-23 8 moveto 
1 -1 scale
(50) t 
GR
GR
GS
[0.5 0 0 0.5 50.5 119.6875] CT
0.149 GC
/Helvetica 20 F
GS
[1 0 0 1 0 0] CT
-23 8 moveto 
1 -1 scale
(55) t 
GR
GR
GS
[0.5 0 0 0.5 50.5 87.625] CT
0.149 GC
/Helvetica 20 F
GS
[1 0 0 1 0 0] CT
-23 8 moveto 
1 -1 scale
(60) t 
GR
GR
GS
[0.5 0 0 0.5 50.5 55.5625] CT
0.149 GC
/Helvetica 20 F
GS
[1 0 0 1 0 0] CT
-23 8 moveto 
1 -1 scale
(65) t 
GR
GR
GS
[0.5 0 0 0.5 50.5 23.5] CT
0.149 GC
/Helvetica 20 F
GS
[1 0 0 1 0 0] CT
-23 8 moveto 
1 -1 scale
(70) t 
GR
GR
GS
[0 -0.5 0.5 0 36 151.74988] CT
0.149 GC
/Helvetica 22 F
GS
[1 0 0 1 0 0] CT
-49 -5 moveto 
1 -1 scale
(Amplitude) t 
GR
GR
GS
[0.5 0 0 0.5 0 0] CT
0 0.447 0.741 RC
1 LJ
3 LW
N
161.781 165.938 M
206.364 137.432 L
230.979 127.298 L
248.072 125.068 L
261.179 114.229 L
271.813 119.771 L
280.759 117.486 L
288.482 117.542 L
295.276 116.012 L
301.34 116.71 L
306.816 113.002 L
311.809 113.731 L
316.396 114.968 L
320.639 112.289 L
324.585 109.641 L
328.274 112.757 L
331.737 113.837 L
335.001 113.132 L
338.086 111.042 L
341.011 109.495 L
343.793 109.589 L
346.444 110.566 L
348.976 111.926 L
351.4 110.097 L
353.724 111.456 L
355.956 110.033 L
358.104 106.955 L
360.173 109.706 L
362.168 112.22 L
364.096 112.273 L
365.961 109.362 L
367.765 110.79 L
369.514 111.889 L
371.211 109.892 L
372.858 111.024 L
374.458 110.383 L
376.015 108.92 L
377.529 110.016 L
379.005 109.077 L
380.442 110.484 L
381.844 109.078 L
383.212 106.752 L
384.548 109.456 L
385.853 108.806 L
387.129 107.629 L
388.376 110.125 L
389.596 108.09 L
390.791 109.923 L
391.961 106.728 L
393.107 110.427 L
394.231 109.527 L
395.332 109.898 L
396.413 108.223 L
397.473 107.533 L
398.514 110.004 L
399.536 109.428 L
400.539 110.32 L
401.526 106.841 L
402.495 109.563 L
403.448 107.104 L
404.385 108.233 L
405.307 106.689 L
406.214 109.534 L
407.107 110.034 L
407.986 110.295 L
408.852 110.26 L
409.704 109.29 L
410.544 108.348 L
411.372 108.874 L
412.187 108.989 L
412.991 108.06 L
413.784 109.538 L
414.566 110.857 L
415.337 108.216 L
416.097 111.208 L
416.848 110.766 L
417.589 108.451 L
418.32 110.124 L
419.042 108.138 L
419.755 109.787 L
420.458 109.08 L
421.154 108.807 L
421.84 107.897 L
422.519 106.481 L
423.19 109.33 L
423.852 106.006 L
424.507 107.263 L
425.155 106.624 L
425.795 106.746 L
426.428 107.84 L
427.054 107.73 L
427.673 110.714 L
428.285 110.055 L
428.891 108.641 L
429.49 106.555 L
430.084 108.451 L
430.671 107.959 L
431.252 107.98 L
431.827 108.461 L
432.396 109.435 L
432.959 110.384 L
433.517 108.663 L
434.07 107.387 L
434.617 109.169 L
435.159 107.633 L
435.696 105.365 L
436.228 109.205 L
436.755 106.847 L
437.277 106.915 L
437.794 107.29 L
438.306 106.617 L
438.814 107.558 L
439.318 104.507 L
439.816 109.497 L
440.311 107.761 L
440.801 106.807 L
441.287 106.746 L
441.769 106.29 L
442.247 107.216 L
442.721 105.633 L
443.191 108.559 L
443.657 109.029 L
444.119 107.643 L
444.578 106.813 L
445.032 107.491 L
445.484 109.597 L
445.931 111.46 L
446.375 109.824 L
446.816 108.959 L
447.253 108.132 L
447.687 107.67 L
448.117 109.64 L
448.545 108.964 L
448.969 106.72 L
449.39 109.813 L
449.808 106.838 L
450.222 108.791 L
450.634 108.986 L
451.043 109.326 L
451.449 109.685 L
451.852 105.705 L
452.252 105.821 L
452.649 108.098 L
453.043 107.34 L
453.435 107.534 L
453.824 108.703 L
454.211 106.035 L
454.594 106.868 L
454.976 105.924 L
455.354 107.331 L
455.73 107.23 L
456.104 108.766 L
456.475 104.524 L
456.844 107.537 L
457.21 108.429 L
457.575 108.027 L
457.936 108.016 L
458.296 106.312 L
458.653 105.414 L
459.008 107.2 L
459.36 108.323 L
459.711 107.678 L
460.059 108.031 L
460.405 107.344 L
460.749 110.137 L
461.091 109.962 L
461.431 109.122 L
461.769 106.702 L
462.105 105.857 L
462.439 106.46 L
462.771 106.422 L
463.101 105.086 L
463.429 107.125 L
463.755 108.906 L
464.08 106.635 L
464.402 106.298 L
464.723 107.699 L
465.042 106.468 L
465.359 104.733 L
465.674 105.081 L
465.988 103.886 L
466.3 108.493 L
466.61 106.245 L
466.918 106.874 L
467.225 106.862 L
467.53 108.14 L
467.833 106.709 L
468.135 105.674 L
468.436 107.04 L
468.734 106.936 L
469.031 106.957 L
469.327 105.65 L
469.621 105.434 L
469.913 104.594 L
470.204 106.459 L
470.494 103.327 L
470.782 104.316 L
471.068 106.714 L
471.353 105.74 L
471.637 107.721 L
471.919 103.334 L
472.2 106.444 L
472.48 103.649 L
472.758 104.991 L
473.034 105.703 L
473.31 106.257 L
473.857 103.946 L
474.128 105.922 L
474.398 103.92 L
474.667 104.565 L
474.935 106.981 L
475.466 105.699 L
475.73 107.279 L
475.992 104.423 L
476.254 104.704 L
476.514 107.594 L
476.773 105.838 L
477.031 103.549 L
477.287 106.08 L
477.543 105.016 L
477.797 105.414 L
478.05 103.666 L
478.302 104.584 L
478.553 103.562 L
479.052 105.224 L
479.3 105.97 L
479.546 107.472 L
479.792 105.209 L
480.036 104.554 L
480.522 104.809 L
480.763 104.13 L
481.243 102.73 L
481.481 106.279 L
481.718 106.273 L
481.954 103.908 L
482.19 104.691 L
482.424 105.015 L
482.657 103.504 L
482.89 105.878 L
483.121 104.822 L
483.581 102.515 L
483.81 106.056 L
484.037 103.946 L
484.264 107.269 L
484.49 105.253 L
484.715 104.717 L
484.939 104.296 L
485.162 106.724 L
485.385 105.945 L
485.827 109.48 L
486.046 106.762 L
486.265 105.062 L
486.483 107.051 L
486.701 106.356 L
486.917 106.674 L
487.347 107.165 L
487.561 106.342 L
487.774 106.883 L
488.198 104.621 L
488.409 106.373 L
488.828 104.746 L
489.036 106.57 L
489.244 109.572 L
489.657 105.133 L
489.862 105.19 L
490.271 106.518 L
490.474 104.861 L
490.676 104.476 L
491.079 106.784 L
491.279 105.123 L
491.479 106.822 L
491.876 103.322 L
492.074 106.261 L
492.27 104.469 L
492.662 105.809 L
492.857 106.565 L
493.244 108.03 L
493.437 105.214 L
493.629 105.532 L
494.011 106.804 L
494.201 104.53 L
494.391 106.294 L
494.58 105.222 L
494.956 105.305 L
495.143 105.635 L
495.329 106.861 L
495.7 105.152 L
495.885 106.082 L
496.069 106.819 L
496.252 104.018 L
496.435 106.434 L
496.617 105.625 L
496.98 103.457 L
497.16 105.733 L
497.34 104.35 L
497.876 105.001 L
498.054 102.678 L
498.584 105.71 L
498.759 105.963 L
499.282 106.099 L
499.455 104.284 L
499.628 104.709 L
499.972 107.488 L
500.143 101.792 L
500.314 106.208 L
500.823 103.193 L
500.991 105.06 L
501.16 104.086 L
501.327 103.937 L
501.494 106.26 L
501.661 105.087 L
501.827 105.446 L
502.158 105.83 L
502.323 102.893 L
502.487 103.611 L
502.651 104.217 L
502.814 102.925 L
503.139 105.142 L
503.301 104.955 L
503.462 105.265 L
503.944 104.165 L
504.103 105.227 L
504.737 103.609 L
504.895 102.423 L
505.208 105.151 L
505.364 104.967 L
505.52 105.374 L
505.83 105.601 L
505.984 102.483 L
506.138 104.516 L
506.291 103.705 L
506.445 105.855 L
506.901 104.441 L
507.053 103.568 L
507.655 105.746 L
507.804 104.253 L
507.953 102.97 L
508.25 105.375 L
508.398 103.222 L
508.546 103.617 L
508.986 105.48 L
509.132 104.21 L
509.277 105.665 L
509.712 104.377 L
509.856 107.091 L
510 104.601 L
510.143 105.301 L
510.429 102.661 L
510.713 104.911 L
510.855 106.496 L
511.137 102.976 L
511.418 103.746 L
511.557 102.565 L
511.975 104.866 L
512.113 103.562 L
512.252 104.284 L
512.389 103.556 L
512.801 105.718 L
512.937 104.96 L
513.073 105.493 L
513.48 107.919 L
513.615 103.439 L
513.749 107.269 L
513.883 104.181 L
514.017 105.373 L
514.417 103.364 L
514.55 105.369 L
514.946 105.856 L
515.077 103.229 L
515.208 105.332 L
515.339 104.456 L
515.73 105.34 L
515.859 103.566 L
515.989 104.852 L
516.118 103.452 L
516.631 105.203 L
516.758 104.432 L
517.139 104.127 L
517.392 105.16 L
517.517 104.586 L
517.643 105.199 L
517.768 103.158 L
518.143 104.242 L
518.267 103.314 L
518.514 104.283 L
518.761 102.923 L
518.884 103.958 L
519.006 103.425 L
519.372 101.799 L
519.615 105.063 L
519.736 103.037 L
519.857 103.59 L
519.977 101.948 L
520.337 104.09 L
520.457 103.224 L
520.576 105.027 L
520.813 103.445 L
521.168 105.166 L
521.286 105.781 L
521.403 102.127 L
521.521 105.871 L
521.987 103.808 L
522.103 106.581 L
522.68 101.589 L
522.794 104.334 L
523.023 107.461 L
523.25 102.146 L
523.477 105.694 L
523.59 103.634 L
524.04 107.196 L
524.152 104.286 L
524.264 103.767 L
524.486 103.633 L
524.929 107.446 L
525.039 107.101 L
525.368 101.532 L
525.696 106.243 L
525.804 106.513 L
526.345 103.496 L
526.452 104.304 L
526.559 105.11 L
526.773 105.285 L
527.092 102.366 L
527.198 104.486 L
527.304 106.042 L
527.726 106.935 L
527.935 103.812 L
528.039 104.771 L
528.144 103.719 L
528.559 106.688 L
528.662 105.169 L
528.765 104.696 L
528.868 102.913 L
529.278 105.375 L
529.482 105.124 L
529.584 105.476 L
529.988 101.852 L
530.19 104.078 L
530.29 104.383 L
530.49 102.256 L
530.988 105.066 L
531.087 103.328 L
531.481 105.986 L
531.677 105.113 L
531.775 104.487 L
531.97 103.498 L
532.358 107.608 L
532.454 107.539 L
532.551 107.475 L
532.935 102.77 L
533.221 105.894 L
533.316 104.996 L
533.506 105.587 L
533.884 103.578 L
533.978 105.109 L
534.072 105.315 L
534.352 105.469 L
534.725 102.837 L
534.817 101.904 L
534.91 105.763 L
535.462 103.282 L
535.553 105.181 L
535.917 101.679 L
536.008 105.92 L
536.189 103.405 L
536.279 103.463 L
536.369 105.545 L
536.729 102.185 L
536.996 103.869 L
537.085 103.236 L
537.44 105.885 L
537.528 102.243 L
537.705 103.632 L
537.792 105.542 L
538.23 101.164 L
538.491 105.911 L
538.577 104.262 L
538.75 103.278 L
538.923 105.957 L
539.18 103.851 L
539.266 103.626 L
539.607 106.162 L
539.862 102.865 L
539.947 103.738 L
540.031 102.418 L
540.619 101.669 L
540.702 104.994 L
540.786 103.117 L
540.869 101.767 L
541.448 105.186 L
541.53 102.372 L
541.777 105.363 L
542.103 101.413 L
542.184 101.479 L
542.266 103.595 L
542.508 105.43 L
542.911 103.184 L
542.991 103.377 L
543.071 102.505 L
543.628 106.458 L
543.708 103.99 L
543.787 104.885 L
544.023 101.72 L
544.493 104.027 L
544.571 104.643 L
545.114 100.903 L
545.191 102.994 L
545.268 102.749 L
545.575 100.47 L
545.88 104.573 L
545.956 103.325 L
546.032 100.72 L
546.335 100.239 L
546.411 104.694 L
546.711 103.984 L
546.786 103.693 L
547.085 101.085 L
547.234 105.957 L
547.457 105.227 L
547.531 105.31 L
547.604 106.323 L
548.119 101.372 L
548.192 102.984 L
548.265 103.456 L
548.629 105.239 L
548.918 101.505 L
548.99 102.334 L
549.062 106.388 L
549.492 101.471 L
549.706 102.187 L
549.777 104.841 L
549.919 101.274 L
550.061 105.137 L
550.483 103.217 L
550.553 104.378 L
550.693 102.443 L
550.972 104.881 L
551.25 103.824 L
551.319 103.947 L
551.595 101.388 L
551.938 102.844 L
552.006 102.624 L
552.415 105.461 L
552.618 101.811 L
552.685 105.309 L
552.753 104.91 L
552.82 101.586 L
552.955 105.195 L
553.489 102.861 L
553.556 103.506 L
553.689 101.524 L
554.085 103.834 L
554.217 102.293 L
554.282 102.744 L
554.675 101.723 L
554.805 105.073 L
554.999 103.919 L
555.064 102.811 L
555.579 106.125 L
555.708 101.705 L
555.771 103.846 L
556.026 104.541 L
556.09 101.017 L
556.47 104.092 L
556.533 104.861 L
556.722 102.109 L
557.16 105.871 L
557.223 105.563 L
557.285 105.225 L
557.842 101.746 L
557.965 103.171 L
558.026 104.147 L
558.394 105.313 L
558.698 100.927 L
558.759 102.474 L
559.241 105.304 L
559.422 99.972 L
559.481 104.278 L
559.541 103.823 L
559.839 101.155 L
559.958 105.861 L
560.195 102.494 L
560.254 102.821 L
560.607 101.293 L
560.724 105.301 L
560.958 104.043 L
561.016 101.126 L
561.191 104.755 L
561.711 102.711 L
561.769 101.205 L
562.283 104.024 L
562.454 102.032 L
562.511 103.2 L
562.794 102.811 L
563.243 104.838 L
563.299 103.38 L
563.69 101.602 L
563.967 107.217 L
564.022 106.012 L
564.242 106.577 L
564.352 102.582 L
564.735 102.622 L
564.79 103.685 L
565.007 105.748 L
565.494 101.945 L
565.548 101.897 L
565.816 104.429 L
566.242 102.53 L
566.295 102.577 L
566.507 105.609 L
566.665 101.765 L
566.981 103.296 L
567.033 102.37 L
567.19 101.97 L
567.658 106.393 L
567.71 106.159 L
567.762 106.571 L
567.813 101.218 L
568.481 106.006 L
568.532 104.827 L
568.786 105.533 L
569.191 101.762 L
569.241 103.781 L
569.292 102.048 L
569.643 105.748 L
569.792 101.644 L
569.992 103.762 L
570.041 105.29 L
570.338 101.476 L
570.732 104.905 L
570.781 105.614 L
571.123 107.367 L
571.221 102.982 L
571.463 105.045 L
571.512 105.208 L
571.753 109.207 L
572.041 101.838 L
572.233 103.911 L
572.28 104.369 L
572.328 102.1 L
572.423 105.457 L
572.992 105.126 L
573.039 104.135 L
573.461 106.633 L
573.648 100.432 L
573.741 102.722 L
573.787 103.327 L
574.019 101.823 L
574.112 105.781 L
574.48 103.533 L
574.526 105.531 L
574.572 106.676 L
574.663 101.846 L
575.21 104.2 L
575.255 102.855 L
575.3 105.762 L
575.93 101.66 L
575.975 103.209 L
576.02 104.343 L
576.465 101.308 L
576.641 106.205 L
576.73 103.829 L
576.774 102.49 L
577.213 105.245 L
577.431 100.848 L
577.475 103.954 L
577.518 104.516 L
577.605 106.658 L
577.735 102.098 L
578.21 103.314 L
578.253 103.524 L
578.382 102.495 L
578.681 105.309 L
578.978 103.483 L
579.021 104.079 L
579.232 100.454 L
579.359 104.787 L
579.736 103.201 L
579.778 103.943 L
579.82 100.52 L
580.402 104.785 L
580.484 103.805 L
580.526 103.69 L
580.567 105.11 L
580.731 101.718 L
581.222 103.38 L
581.263 103.412 L
581.507 105.867 L
581.669 102.035 L
581.991 102.504 L
582.031 104.366 L
582.312 100.809 L
582.551 105.354 L
582.75 103.105 L
582.79 103.887 L
583.066 100.644 L
583.263 105.714 L
583.498 104.888 L
583.538 101.927 L
583.655 105.459 L
583.927 101.614 L
584.237 101.785 L
584.276 104.513 L
584.507 105.309 L
584.775 101.53 L
584.966 103.328 L
585.004 102.078 L
585.233 105.007 L
585.535 101.374 L
585.724 103.399 L
585.762 104.782 L
585.799 105.952 L
586.323 101.58 L
586.471 105.078 L
586.509 105.085 L
587.026 105.767 L
587.173 100.741 L
587.246 103.159 L
587.283 103.851 L
587.319 100.411 L
587.684 105.371 L
587.974 102.117 L
588.01 102.647 L
588.334 104.858 L
588.621 100.75 L
588.728 101.922 L
588.764 102.615 L
588.835 105.931 L
589.225 101.201 L
589.472 104.594 L
589.508 105.815 L
589.683 105.963 L
589.788 100.527 L
590.242 105.011 L
590.276 106.706 L
590.346 106.713 L
590.588 100.07 L
590.967 104.604 L
591.001 103.497 L
591.069 106.719 L
591.513 99.277 L
591.75 103.553 L
591.784 102.765 L
592.087 101.084 L
592.255 106.674 L
592.489 104.307 L
592.522 104.275 L
592.888 102.159 L
593.12 106.236 L
593.219 104.704 L
593.252 106.292 L
593.874 101.617 L
593.939 107.054 L
593.972 103.012 L
594.004 103.737 L
594.167 106.047 L
594.715 102.456 L
594.747 104.935 L
594.779 106.197 L
595.353 101.001 L
595.48 102.873 L
595.511 102.564 L
595.859 101.692 L
596.235 106.591 L
596.266 104.682 L
596.359 107.917 L
596.546 102.057 L
596.98 105 L
597.01 104.373 L
597.287 105.76 L
597.654 101.657 L
597.745 103.612 L
597.776 102.308 L
597.927 100.654 L
598.109 106.305 L
598.471 104.991 L
598.501 103.583 L
598.561 107.203 L
598.621 100.683 L
599.246 102.728 L
599.276 101.966 L
599.982 105.725 L
600.011 106.344 L
600.099 101.716 L
600.535 107.28 L
600.737 102.5 L
600.766 104.747 L
600.996 102.124 L
601.14 106.297 L
601.482 104.973 L
601.511 101.838 L
601.738 101.442 L
601.851 105.985 L
602.246 105.363 L
602.274 105.987 L
602.944 102.155 L
602.972 106.755 L
602.999 105.408 L
603.027 104.886 L
603.469 108.327 L
603.551 103.211 L
603.743 105.237 L
603.77 103.817 L
603.989 101.297 L
604.125 107.981 L
604.477 104.242 L
604.504 104.726 L
604.692 101.056 L
604.773 106.616 L
605.228 104.096 L
605.255 103.247 L
605.388 102.159 L
605.653 107.641 L
605.996 106.471 L
606.022 102.443 L
606.467 102.39 L
606.649 108.496 L
606.727 105.361 L
606.753 107.381 L
606.805 103.062 L
607.089 108.597 L
607.475 105.175 L
607.5 105.925 L
607.526 108.65 L
608.111 102.71 L
608.238 105.325 L
608.263 103.843 L
608.339 102.124 L
608.841 106.991 L
608.991 103.464 L
609.016 105.149 L
609.314 107.256 L
609.586 101.641 L
609.734 105.955 L
609.758 104.144 L
610.346 108.344 L
610.419 103.983 L
610.492 106.292 L
610.516 105.966 L
610.589 103.082 L
610.951 109.37 L
611.239 104.984 L
611.263 107.216 L
611.93 103.482 L
611.977 103.738 L
612.001 104.156 L
612.095 101.934 L
612.472 106.743 L
612.729 106.21 L
612.752 103.636 L
612.799 102.583 L
612.962 107.076 L
613.494 105.438 L
613.517 105.101 L
613.93 108.489 L
614.249 103.679 L
614.271 105.003 L
614.566 106.775 L
614.589 102.042 L
614.994 105.37 L
615.016 103.555 L
615.083 102.48 L
615.329 107.821 L
615.729 103.803 L
615.751 102.778 L
616.082 101.969 L
616.433 106.945 L
616.498 104.781 L
616.52 104.462 L
616.607 106.871 L
616.629 101.931 L
617.236 104.879 L
617.257 104.088 L
617.279 102.078 L
617.558 107.088 L
617.985 104.691 L
618.006 105.947 L
618.64 107.502 L
618.745 101.212 L
618.766 106.395 L
619.268 101.999 L
619.496 104.157 L
619.516 104.01 L
619.929 102.104 L
620.134 106.394 L
620.236 103.355 L
620.257 105.965 L
620.461 106.593 L
620.826 102.004 L
620.987 104.707 L
621.008 103.869 L
621.529 101.533 L
621.649 106.76 L
621.749 103.36 L
621.769 106.792 L
621.848 102.054 L
622.046 107.599 L
622.5 103.324 L
622.519 104.614 L
622.637 108.196 L
622.93 101.992 L
623.241 104.272 L
623.26 102.93 L
623.377 107.665 L
623.819 101.54 L
623.992 103.83 L
624.011 104.507 L
624.506 102.026 L
624.638 107.463 L
624.733 103.035 L
624.752 107.682 L
625.352 101.48 L
625.483 103.155 L
625.501 104.52 L
625.743 101.758 L
625.78 106.645 L
626.241 104.992 L
626.26 104.562 L
626.516 100.797 L
626.753 105.663 L
626.99 104.456 L
627.008 105.984 L
627.405 106.542 L
627.513 101.337 L
627.746 104.581 L
627.764 103.85 L
627.961 101.89 L
628.228 107.265 L
628.493 104.262 L
628.511 105.637 L
628.705 107.179 L
628.775 102.809 L
629.247 104.738 L
629.265 103.658 L
629.474 107.185 L
629.785 101.694 L
629.992 102.774 L
630.009 103.92 L
630.403 107.555 L
630.642 102.128 L
630.743 106.298 L
630.76 106.217 L
631.25 103.344 L
631.401 107.627 L
631.485 107.177 L
631.502 106.53 L
631.936 101.938 L
632.234 103.615 L
632.251 105.345 L
632.891 102.515 L
632.989 107.35 L
633.006 106.619 L
633.038 102.442 L
633.136 108.36 L
633.735 105.672 L
633.751 107.856 L
634.024 109.732 L
634.152 102.576 L
634.486 103.824 L
634.502 105.385 L
634.835 108.319 L
635.055 102.179 L
635.244 103.577 L
635.259 104.533 L
635.556 108.252 L
635.914 102.505 L
635.991 104.295 L
636.006 106.528 L
636.161 108.069 L
636.361 102.541 L
636.744 104.507 L
636.759 103.837 L
637.351 102.529 L
637.487 107.154 L
637.502 105.714 L
637.952 108.087 L
638.131 102.728 L
638.25 104.369 L
638.265 104.701 L
638.309 102.684 L
638.605 107.4 L
638.988 104.993 L
639.003 104.528 L
639.12 107.62 L
639.324 102.712 L
639.746 106.797 L
639.76 105.598 L
640.092 107.314 L
640.193 102.391 L
640.493 105.11 L
640.508 106.021 L
640.849 102.765 L
641.048 107.711 L
641.245 106.331 L
641.259 105.36 L
641.611 103.553 L
641.876 109.036 L
641.987 106.976 L
642.001 106.416 L
642.417 109.877 L
642.679 103.971 L
642.747 107.174 L
642.761 107.867 L
642.898 103.155 L
643.402 109.649 L
643.497 106.816 L
643.511 105.886 L
643.592 103.539 L
644.117 109.291 L
644.237 107.073 L
644.251 106.125 L
644.411 103.441 L
644.902 108.512 L
644.994 105.152 L
645.008 105.327 L
645.297 108.55 L
645.441 104.109 L
645.741 104.507 L
645.754 105.562 L
645.845 110.28 L
645.91 103.946 L
646.491 108.449 L
646.504 108.13 L
646.799 109.823 L
647.155 104.676 L
647.244 105.429 L
647.257 105.942 L
647.307 104.354 L
648 110.233 L
648.012 108.55 L
648.286 110.477 L
648.597 104.953 L
648.745 107.372 L
648.757 108.982 L
648.918 105.074 L
649.481 110.027 L
649.493 107.219 L
649.505 107.386 L
650.075 111.42 L
650.243 105.898 L
650.255 106.759 L
650.471 109.52 L
650.507 105.523 L
650.996 106.929 L
651.008 108.581 L
651.374 112.011 L
651.492 104.708 L
651.75 106.42 L
651.762 107.806 L
652.112 110.528 L
652.378 104.315 L
652.494 105.995 L
652.506 106.355 L
652.529 104.68 L
653.126 111.251 L
653.24 106.934 L
653.251 106.343 L
653.717 110.61 L
653.954 103.908 L
653.999 107.125 L
654.01 106.61 L
654.413 110.189 L
654.536 104.815 L
654.747 106.763 L
654.758 108.237 L
655.124 109.504 L
655.355 103.654 L
655.497 107.065 L
655.508 106.098 L
655.923 110.42 L
656.118 104.841 L
656.248 107.689 L
656.259 108.192 L
656.345 110.993 L
656.807 105.387 L
657 106.895 L
657.01 106.396 L
657.234 110.644 L
657.287 105.301 L
657.742 105.88 L
657.752 107.104 L
657.826 110.744 L
657.941 104.733 L
658.495 106.692 L
658.505 106.64 L
658.692 109.825 L
658.94 104.757 L
659.248 107.956 L
659.258 108.895 L
659.534 105.542 L
659.728 110.307 L
659.991 105.549 L
660.001 108.073 L
660.385 110.431 L
660.405 104.396 L
660.745 106.996 L
660.755 108.273 L
661.262 110.959 L
661.44 104.858 L
661.499 108.361 L
661.509 108.57 L
661.774 105.35 L
662.213 111.896 L
662.243 107.169 L
662.252 107.826 L
662.301 106.183 L
662.543 113.447 L
662.996 108.123 L
663.005 107.726 L
663.063 112.457 L
663.092 106.5 L
663.749 110.503 L
663.758 108.467 L
663.787 111.91 L
664.276 106.462 L
664.492 108.877 L
664.501 108.793 L
664.836 105.52 L
664.892 111.418 L
665.244 110.037 L
665.253 109.244 L
665.446 111.605 L
665.831 105.906 L
665.995 109.04 L
666.004 108.561 L
666.421 112.167 L
666.709 105.641 L
666.745 108.933 L
666.754 111.136 L
666.87 107.113 L
667.031 112.566 L
667.494 111.911 L
667.503 112.557 L
668.014 113.768 L
668.163 107.663 L
668.242 108.327 L
668.251 110.082 L
668.347 107.363 L
668.669 113.989 L
668.998 111.141 L
669.006 110.186 L
669.144 113.218 L
669.273 106.8 L
669.744 111.669 L
669.752 109.521 L
669.854 108.491 L
670.261 114.684 L
670.496 113.007 L
670.505 110.168 L
670.881 114.712 L
671.048 108.318 L
671.247 108.905 L
671.256 109.182 L
671.603 108.523 L
671.718 115.389 L
671.997 112.918 L
672.005 110.604 L
672.266 108.757 L
672.745 115.388 L
672.753 111.981 L
672.777 116.073 L
673.315 109.254 L
673.499 110.946 L
673.507 112.27 L
674.062 115.419 L
674.101 108.901 L
674.243 114.182 L
674.251 109.191 L
674.884 116.818 L
674.993 111.956 L
675 111.143 L
675.479 114.479 L
675.733 109.263 L
675.748 111.001 L
675.756 112.223 L
676.13 114.203 L
676.319 109.158 L
676.494 111.774 L
676.501 111.136 L
676.614 109.738 L
677.162 115.624 L
677.244 112.072 L
677.252 110.356 L
677.505 110.297 L
677.845 116.237 L
678 113.59 L
678.007 111.384 L
678.125 116.278 L
678.293 109.694 L
678.745 115.816 L
678.753 114.941 L
678.984 116.134 L
679.359 109.495 L
679.496 110.855 L
679.503 113.428 L
679.796 115.469 L
680.009 110.113 L
680.243 115.249 L
680.25 111.147 L
680.271 110.977 L
680.342 118.119 L
680.995 114.212 L
681.002 113.351 L
681.036 111.231 L
681.605 118.749 L
681.743 115.093 L
681.75 114.763 L
682.011 117.522 L
682.292 110.762 L
682.496 113.984 L
682.503 116.477 L
682.659 111.467 L
683.232 117.543 L
683.245 114.718 L
683.252 114.148 L
683.279 112.028 L
683.599 118.59 L
683.998 112.665 L
684.005 116.293 L
684.374 112.383 L
684.518 118.51 L
684.747 114.17 L
684.754 116.46 L
684.819 111.321 L
685.493 120.254 L
685.5 113.075 L
685.506 119.14 L
685.577 113.117 L
686.204 119.211 L
686.249 116.22 L
686.255 114.642 L
686.319 120.737 L
686.591 114.253 L
686.994 116.218 L
687.001 115.784 L
687.388 114.129 L
687.531 120.976 L
687.749 117.964 L
687.755 118.797 L
687.773 113.858 L
688.273 122.666 L
688.499 120.327 L
688.505 120.563 L
688.883 115.447 L
689.179 122.331 L
689.246 119.692 L
689.252 119.643 L
689.432 122.904 L
689.517 115.83 L
689.995 117.26 L
690.001 119.539 L
690.303 114.971 L
690.363 122.78 L
690.746 117.442 L
690.751 120.515 L
690.857 122.345 L
691.243 116.048 L
691.498 120.315 L
691.504 119.858 L
692.029 116.895 L
692.195 122.827 L
692.247 120.686 L
692.252 121.018 L
692.759 116.979 L
692.94 123.901 L
692.997 118.794 L
693.002 119.983 L
693.182 115.548 L
693.698 122.878 L
693.748 118.537 L
693.753 119.983 L
693.859 116.766 L
694.324 123.742 L
694.495 119.796 L
694.5 121.683 L
694.561 117.37 L
695.199 124.193 L
695.248 122.141 L
695.254 119.615 L
695.351 119.486 L
695.826 126.316 L
695.997 122.13 L
696.002 119.143 L
696.189 125.639 L
696.747 121.032 L
696.752 120.385 L
696.921 119.28 L
697.241 125.986 L
697.497 123.06 L
697.502 121.668 L
697.861 126.841 L
698.042 120.266 L
698.248 123.011 L
698.253 121.373 L
698.263 121.306 L
698.877 127.435 L
698.999 122.285 L
699.004 124.997 L
699.282 127.438 L
699.6 121.494 L
699.745 124.721 L
699.75 124.871 L
699.835 122.12 L
700.437 128.809 L
700.496 126.996 L
700.501 125.095 L
700.92 123.184 L
701.111 130.705 L
701.248 127.12 L
701.253 126.464 L
701.452 124.324 L
701.772 131.738 L
701.999 125.33 L
702.003 126.092 L
702.244 124.717 L
702.568 131.182 L
702.749 126.13 L
702.754 127.491 L
702.82 125.1 L
702.911 130.845 L
703.5 127.136 L
703.504 126.36 L
703.659 130.942 L
703.938 124.911 L
704.249 129.326 L
704.254 129.38 L
704.475 125.401 L
704.838 133.804 L
704.998 129.448 L
705.003 127.553 L
705.299 132.801 L
705.33 124.975 L
705.746 130.004 L
705.751 130.184 L
705.827 127.379 L
706.079 133.859 L
706.498 127.955 L
706.503 130.96 L
706.507 127.438 L
707.2 136.293 L
707.249 132.036 L
707.253 130.76 L
707.572 128.932 L
707.89 135.333 L
707.998 132.798 L
708.003 133.542 L
708.154 130.227 L
708.339 136.394 L
708.746 133.633 L
708.751 133.131 L
708.977 130.553 L
709.468 138.003 L
709.498 134.493 L
709.502 134.24 L
709.632 131.806 L
710.147 138.54 L
710.247 135.092 L
710.251 134.177 L
710.736 132.398 L
710.831 139.421 L
710.999 136.649 L
711.003 137.449 L
711.114 134.242 L
711.526 141.474 L
711.749 138.864 L
711.754 137.251 L
711.915 135.333 L
712.382 142.2 L
712.498 139.801 L
712.502 139.376 L
712.705 142.939 L
713.17 135.849 L
713.248 139.611 L
713.252 138.725 L
713.661 136.811 L
713.911 143.477 L
713.997 139.439 L
714.001 139.373 L
714.497 135.858 L
714.682 144.289 L
714.747 140.978 L
714.751 139.713 L
714.801 137.888 L
715.431 144.709 L
715.499 141.087 L
715.503 139.994 L
715.677 145.762 L
715.832 139.327 L
716.248 144.837 L
716.252 143.864 L
716.334 140.525 L
716.903 148.267 L
716.999 144.598 L
717.003 146.008 L
717.077 141.562 L
717.51 148.967 L
717.747 145.131 L
717.751 143.398 L
718.46 150.807 L
718.496 148.232 L
718.5 148.363 L
718.532 144.274 L
719.055 151.458 L
719.25 147.713 L
719.254 148.221 L
719.448 145.88 L
719.899 152.788 L
719.997 149.54 L
720.001 148.735 L
720.099 147.304 L
720.748 155.727 L
720.752 152.366 L
720.807 157.291 L
721.103 149.642 L
721.5 152.218 L
721.503 150.446 L
721.979 156.559 L
722.248 152.102 L
722.252 153.715 L
722.336 150.555 L
722.794 159.761 L
722.997 156.775 L
723 153.793 L
723.282 152.793 L
723.44 160.167 L
723.749 156.857 L
723.752 157.318 L
723.886 154.017 L
724.287 162.595 L
724.498 161.419 L
724.501 159.401 L
724.948 156.67 L
725.102 163.768 L
725.249 160.029 L
725.252 159.01 L
725.345 156.781 L
725.849 165.43 L
725.997 162.344 L
726 161.68 L
726.399 159.298 L
726.732 167.713 L
726.748 162.468 L
726.751 165.616 L
727.033 162.185 L
727.258 168.866 L
727.498 165.766 L
727.501 166.375 L
727.712 163.922 L
727.889 172.557 L
728.247 168.97 L
728.25 167.998 L
728.395 167.053 L
728.774 173.045 L
728.999 169.131 L
729.002 169.772 L
729.201 167.187 L
729.619 175.021 L
729.749 174.657 L
729.752 173.157 L
729.761 169.84 L
730.242 177.144 L
730.498 170.432 L
730.501 172.878 L
730.504 169.831 L
731.019 180.089 L
731.249 176.693 L
731.252 175.859 L
731.258 173.917 L
731.763 183.861 L
731.999 177.008 L
732.002 180.297 L
732.084 175.391 L
732.478 184.594 L
732.75 181.501 L
732.753 181.123 L
732.834 177.131 L
733.48 188.432 L
733.499 183.577 L
733.502 183.557 L
733.51 181.78 L
733.95 190.825 L
734.25 186.061 L
734.253 186.884 L
734.397 193.704 L
734.486 184.117 L
734.999 191.228 L
735.001 191.607 L
735.194 187.401 L
735.738 195.985 L
735.748 195.513 L
735.751 195.522 L
735.976 189.451 L
736.357 199.266 L
736.498 194.183 L
736.501 195.38 L
736.561 189.951 L
737.066 201.412 L
737.249 199.269 L
737.252 198.46 L
737.275 195.58 L
737.995 204.864 L
737.998 202.808 L
738 201.4 L
738.186 199.332 L
738.711 207.906 L
738.749 205.233 L
738.751 204.665 L
738.817 201.831 L
739.485 213.521 L
739.498 208.937 L
739.5 207.779 L
739.518 205.451 L
739.972 217.571 L
740.249 213.83 L
740.252 213.021 L
740.447 210.212 L
740.904 220.827 L
740.998 215.13 L
741 217.719 L
741.174 214.163 L
741.732 224.556 L
741.749 219.908 L
741.751 221.295 L
741.825 217.734 L
742.466 228.333 L
742.499 226.239 L
742.502 226.701 L
742.56 220.009 L
743.219 232.461 L
743.249 226.699 L
743.251 229.336 L
743.254 225.898 L
743.734 239.03 L
743.998 232.583 L
744.001 236.578 L
744.023 230.288 L
744.656 242.333 L
744.749 239.189 L
744.751 242.768 L
744.792 234.805 L
745.139 248.703 L
745.499 247.93 L
745.501 247.375 L
745.579 242.328 L
746.038 255.936 L
746.25 249.43 L
746.252 252.642 L
746.256 248.323 L
746.976 262.307 L
747 260.96 L
747.002 259.21 L
747.032 251.769 L
747.624 267.57 L
747.748 263.453 L
747.75 264.164 L
747.755 257.932 L
748.311 273.499 L
748.5 268.663 L
748.502 267.66 L
748.574 265.596 L
749.235 283.344 L
749.25 274.364 L
749.252 280.924 L
749.262 271.641 L
749.651 286.147 L
749.689 282.964 L
S
GR
GS
[0.5 0 0 0.5 0 0] CT
0.851 0.325 0.098 RC
1 LJ
3 LW
N
161.781 185.087 M
206.364 227.897 L
230.979 260.131 L
248.072 273.675 L
261.179 277.444 L
271.813 297.229 L
280.759 296.247 L
288.482 302.865 L
295.276 304.434 L
301.34 308.446 L
306.816 307.953 L
311.809 315.314 L
316.396 316.203 L
320.639 313.098 L
324.585 311.821 L
328.274 317.684 L
331.737 319.174 L
335.001 319.595 L
338.086 318.17 L
341.011 317.872 L
343.793 321.104 L
346.444 321.582 L
348.976 328.826 L
351.4 321.747 L
353.724 326.462 L
355.956 323.668 L
358.104 320.588 L
360.173 322.519 L
362.168 325.63 L
364.096 325.704 L
365.961 324.794 L
367.765 325.443 L
369.514 326.845 L
371.211 325.989 L
372.858 329.77 L
374.458 327.611 L
376.015 329.609 L
377.529 327.453 L
379.005 327.594 L
380.442 327.829 L
381.844 327.663 L
383.212 326.067 L
384.548 330.458 L
385.853 327.04 L
387.129 325.765 L
388.376 332.492 L
389.596 327.207 L
390.791 330.047 L
391.961 326.63 L
393.107 332.484 L
394.231 329.961 L
395.332 330.635 L
396.413 331.343 L
397.473 329.614 L
398.514 331.113 L
399.536 330.401 L
400.539 334.633 L
401.526 328.393 L
402.495 331.192 L
403.448 328.187 L
404.385 330.078 L
405.307 328.685 L
406.214 331.755 L
407.107 331.689 L
407.986 332.623 L
408.852 332.125 L
409.704 332.29 L
410.544 331.562 L
411.372 332.187 L
412.187 333.489 L
412.991 332.2 L
413.784 332.196 L
414.566 336.182 L
415.337 334.122 L
416.097 336.278 L
416.848 335.064 L
417.589 332.641 L
418.32 334.304 L
419.042 332.442 L
419.755 334.046 L
420.458 333.545 L
421.154 333.404 L
421.84 334.29 L
422.519 331.537 L
423.19 335.56 L
423.852 333.604 L
424.507 334.209 L
425.155 331.561 L
425.795 334.245 L
426.428 334.069 L
427.054 335.883 L
427.673 337.975 L
428.285 335.899 L
428.891 334.808 L
429.49 333.503 L
430.084 335.315 L
430.671 334.221 L
431.252 334.264 L
431.827 336.88 L
432.396 337.666 L
432.959 337.052 L
433.517 335.175 L
434.07 333.66 L
434.617 335.598 L
435.159 334.847 L
435.696 333.395 L
436.228 336.88 L
436.755 334.469 L
437.277 334.898 L
437.794 335.047 L
438.306 334.589 L
438.814 334.664 L
439.318 332.978 L
439.816 338.178 L
440.311 336.254 L
440.801 334.957 L
441.287 336.012 L
441.769 334.586 L
442.247 336.858 L
442.721 334.57 L
443.191 338.396 L
443.657 337.367 L
444.119 335.904 L
444.578 335.149 L
445.032 336.855 L
445.484 338.078 L
445.931 340.487 L
446.375 338.569 L
446.816 337.508 L
447.253 337.364 L
447.687 337.481 L
448.117 339.57 L
448.545 338.529 L
448.969 335.44 L
449.39 339.239 L
449.808 335.867 L
450.222 339.294 L
450.634 338.873 L
451.043 339.163 L
451.449 339.514 L
451.852 336.137 L
452.252 336.036 L
452.649 337.669 L
453.043 336.166 L
453.435 336.826 L
453.824 340.155 L
454.211 335.56 L
454.594 338.599 L
454.976 336.246 L
455.354 338.101 L
455.73 336.936 L
456.104 338.858 L
456.475 336.181 L
456.844 338.526 L
457.21 338.616 L
457.575 339.388 L
457.936 338.762 L
458.296 336.08 L
458.653 337.821 L
459.008 338.748 L
459.36 340.45 L
459.711 338.191 L
460.059 339.823 L
460.405 338.865 L
460.749 342.788 L
461.091 342.21 L
461.431 340.863 L
461.769 337.203 L
462.105 338.442 L
462.439 338.693 L
462.771 338.783 L
463.101 337.305 L
463.429 339.462 L
463.755 340.148 L
464.08 338.024 L
464.402 337.823 L
464.723 340.483 L
465.042 339.39 L
465.674 335.938 L
465.988 336.097 L
466.3 342.123 L
466.61 338.224 L
466.918 339.269 L
467.225 338.495 L
467.53 339.573 L
467.833 338.979 L
468.135 337.342 L
468.734 339.605 L
469.031 340.475 L
469.327 337.955 L
469.621 339.034 L
469.913 337.399 L
470.204 339.808 L
470.494 335.954 L
470.782 336.785 L
471.068 340.166 L
471.353 339.17 L
471.637 340.667 L
471.919 337.229 L
472.2 339.8 L
472.48 337.144 L
472.758 336.907 L
473.034 338.489 L
473.31 338.689 L
473.584 338.893 L
473.857 336.55 L
474.128 339.612 L
474.398 336.861 L
474.667 338.12 L
474.935 340.634 L
475.201 340.75 L
475.466 340.156 L
475.73 341.196 L
475.992 338.087 L
476.254 337.929 L
476.514 340.834 L
476.773 339.535 L
477.031 336.996 L
477.287 339.394 L
477.543 338.202 L
477.797 339.427 L
478.05 336.845 L
478.302 337.532 L
478.553 337.736 L
478.803 337.503 L
479.052 340.099 L
479.3 340.305 L
479.546 342.445 L
479.792 339.116 L
480.036 338.661 L
480.279 338.66 L
480.522 338.684 L
480.763 339.023 L
481.243 336.774 L
481.481 339.783 L
481.718 339.61 L
481.954 337.373 L
482.19 338.521 L
482.424 339.458 L
482.89 339.793 L
483.121 338.478 L
483.352 338.48 L
483.581 337.618 L
483.81 340.5 L
484.037 338.545 L
484.264 342.641 L
484.49 339.682 L
484.715 339.286 L
484.939 338.921 L
485.162 340.865 L
485.385 340.523 L
485.827 343.429 L
486.046 340.928 L
486.265 340.624 L
486.701 341.603 L
486.917 341.509 L
487.133 342.573 L
487.347 341.817 L
487.561 341.916 L
487.987 342.293 L
488.198 339.23 L
488.409 339.969 L
488.619 341.079 L
488.828 339.749 L
489.036 340.625 L
489.451 343.998 L
489.657 340.267 L
489.862 340.479 L
490.067 342.495 L
490.474 339.814 L
490.676 341.071 L
490.878 340.815 L
491.079 342.185 L
491.279 339.959 L
491.479 341.811 L
491.876 338.585 L
492.074 341.848 L
492.27 339.676 L
492.662 342.425 L
492.857 341.811 L
493.051 344.624 L
493.437 340.191 L
493.629 342.018 L
493.82 343.564 L
494.201 339.89 L
494.391 341.968 L
494.956 340.487 L
495.143 341.967 L
495.329 342.37 L
495.7 341.773 L
495.885 342.535 L
496.069 343.304 L
496.252 340.227 L
496.435 342.143 L
496.617 341.634 L
496.98 340.016 L
497.16 342.554 L
497.34 340.029 L
497.52 341.918 L
497.876 341.307 L
498.054 339.608 L
498.584 342.644 L
498.759 342.322 L
499.282 342.955 L
499.455 340.844 L
499.628 341.033 L
499.972 344.075 L
500.143 338.263 L
500.314 343.283 L
500.823 339.675 L
500.991 341.263 L
501.16 339.502 L
501.494 342.718 L
501.661 342.526 L
501.827 342.616 L
502.158 343.257 L
502.323 339.749 L
502.487 340.553 L
502.651 340.846 L
502.814 339.465 L
503.139 341.782 L
503.301 341.522 L
503.462 342.61 L
503.623 341.169 L
503.944 341.21 L
504.103 342.088 L
504.421 343.017 L
504.737 340.594 L
504.895 339.995 L
505.364 342.245 L
505.52 343.27 L
505.675 340.049 L
505.83 343.279 L
506.138 341.936 L
506.291 341.826 L
506.445 342.842 L
506.597 340.47 L
506.901 342.522 L
507.053 340.793 L
507.655 343.343 L
507.804 341.408 L
507.953 340.109 L
508.25 342.403 L
508.398 340.324 L
508.546 341.398 L
508.839 341.351 L
508.986 342.871 L
509.132 341.79 L
509.277 343.899 L
509.712 342.305 L
509.856 345.565 L
510 342.51 L
510.143 342.513 L
510.429 340.221 L
510.571 343.432 L
510.713 341.982 L
510.855 343.057 L
511.137 340.501 L
511.277 343.139 L
511.418 341.443 L
511.557 340.971 L
511.975 342.293 L
512.113 340.997 L
512.252 342.109 L
512.389 341.287 L
512.801 344.517 L
512.937 341.843 L
513.073 342.358 L
513.48 346.784 L
513.615 340.973 L
513.749 346.17 L
513.883 341.799 L
514.017 343.505 L
514.417 341.461 L
514.55 343.179 L
514.814 341.367 L
514.946 344.205 L
515.208 343.582 L
515.339 342.943 L
515.6 344.14 L
515.859 341.942 L
515.989 343.436 L
516.118 341.552 L
516.246 341.32 L
516.375 343.18 L
516.631 342.875 L
516.758 342.724 L
516.885 342.586 L
517.266 343.53 L
517.392 343.056 L
517.517 342.935 L
517.643 344.33 L
517.768 341.859 L
518.143 341.901 L
518.267 341.885 L
518.514 343.202 L
518.761 341.331 L
518.884 342.592 L
519.006 341.786 L
519.372 339.17 L
519.615 342.635 L
519.736 341.786 L
519.857 342.225 L
519.977 339.96 L
520.337 343.273 L
520.457 341.636 L
520.576 344.157 L
520.813 342.203 L
520.932 344.339 L
521.168 343.521 L
521.286 343.858 L
521.403 340.885 L
521.521 344.988 L
521.987 343.199 L
522.103 345.839 L
522.68 340.124 L
522.794 342.827 L
523.023 345.523 L
523.25 340.341 L
523.477 345.17 L
523.59 341.832 L
524.04 345.748 L
524.152 343.253 L
524.264 342.629 L
524.929 345.652 L
525.039 346.06 L
525.368 340.327 L
525.696 345.113 L
525.804 345.005 L
525.913 345.514 L
526.345 341.887 L
526.452 342.862 L
526.559 344.113 L
526.773 344.554 L
527.092 341.892 L
527.198 343.016 L
527.304 345.386 L
527.935 343.511 L
528.039 343.538 L
528.559 346.096 L
528.662 344.134 L
528.765 344.081 L
528.868 342.18 L
529.278 344.969 L
529.482 344.819 L
529.584 345.638 L
529.988 341.086 L
530.19 344.242 L
530.29 344.151 L
530.39 340.963 L
530.888 345.085 L
530.988 344.043 L
531.087 342.801 L
531.481 345.6 L
531.677 345.511 L
531.775 343.649 L
531.97 342.798 L
532.358 347.301 L
532.454 346.958 L
532.551 347.53 L
533.031 342.308 L
533.221 344.92 L
533.316 344.524 L
533.695 345.328 L
533.884 343.75 L
533.978 344.381 L
534.072 345.151 L
534.632 342.877 L
534.725 342.893 L
534.817 341.783 L
534.91 345.765 L
535.462 343.27 L
535.553 345.137 L
535.917 341.137 L
536.008 345.781 L
536.189 342.426 L
536.279 343.975 L
536.369 345.093 L
536.818 342.102 L
536.996 344.433 L
537.085 343.046 L
537.174 342.183 L
537.44 346.349 L
537.705 344.224 L
537.792 345.578 L
538.23 340.503 L
538.491 346.823 L
538.577 343.778 L
538.664 342.73 L
538.923 345.497 L
539.18 343.901 L
539.266 344.158 L
539.607 346.141 L
539.862 342.196 L
539.947 343.967 L
540.031 342.172 L
540.619 341.498 L
540.702 345.307 L
540.786 342.891 L
540.869 341.683 L
541.448 345.795 L
541.53 342.753 L
541.695 345.69 L
542.184 340.979 L
542.266 344.216 L
542.75 345.534 L
542.911 343.622 L
542.991 344.094 L
543.071 342.566 L
543.628 347.135 L
543.708 343.967 L
543.787 345.494 L
544.18 342.385 L
544.493 344.387 L
544.571 346.17 L
545.114 341.101 L
545.191 343.379 L
545.268 342.493 L
545.575 341.01 L
545.651 345.315 L
545.956 343.499 L
546.032 341.327 L
546.335 340.536 L
546.711 345.416 L
546.786 343.988 L
547.085 341.828 L
547.234 346.888 L
547.457 346.531 L
547.531 345.84 L
547.604 346.815 L
548.119 341.739 L
548.192 344.124 L
548.265 343.789 L
548.629 345.875 L
548.918 342.037 L
548.99 343.396 L
549.062 347.063 L
549.134 347.187 L
549.492 342.537 L
549.706 342.799 L
549.777 345.587 L
549.848 346.473 L
549.919 342.404 L
550.483 343.987 L
550.553 345.872 L
550.693 343.652 L
551.25 344.601 L
551.319 344.948 L
551.457 345.692 L
551.732 341.943 L
551.938 343.996 L
552.006 343.655 L
552.415 346.26 L
552.618 343.058 L
552.685 345.728 L
552.753 344.944 L
552.82 342.392 L
552.955 345.886 L
553.489 344.183 L
553.556 344.644 L
553.689 342.668 L
554.085 345.107 L
554.217 343.475 L
554.282 344.521 L
554.675 343.365 L
554.805 346.427 L
554.999 344.585 L
555.064 343.919 L
555.387 347.711 L
555.708 342.114 L
555.771 345.691 L
556.09 341.534 L
556.47 345.201 L
556.533 346.513 L
556.722 343.117 L
557.16 347.093 L
557.223 346.706 L
557.285 346.653 L
557.657 346.853 L
557.842 343.534 L
557.965 344.745 L
558.026 344.48 L
558.394 347.143 L
558.455 342.022 L
558.698 342.687 L
558.759 343.283 L
559.241 346.774 L
559.422 341.275 L
559.481 345.109 L
559.541 344.78 L
559.839 342.483 L
559.958 347.051 L
560.195 343.982 L
560.254 343.524 L
560.607 342.86 L
560.724 346.305 L
560.958 345.779 L
561.016 343.477 L
561.075 346.535 L
561.423 342.758 L
561.711 344.341 L
561.769 342.356 L
562.283 345.49 L
562.454 343.605 L
562.511 344.612 L
562.794 344.099 L
562.85 347.14 L
563.243 346.428 L
563.299 344.484 L
563.411 342.524 L
563.967 348.809 L
564.022 346.857 L
564.242 348.064 L
564.462 344.311 L
564.735 344.613 L
564.79 345.198 L
565.007 347.364 L
565.062 343.592 L
565.494 343.829 L
565.548 343.374 L
565.816 345.773 L
566.242 343.978 L
566.295 345.035 L
566.665 343.314 L
566.771 347.74 L
566.981 344.811 L
567.033 344.33 L
567.19 343.643 L
567.71 348.075 L
567.762 348.933 L
567.813 342.877 L
568.481 347.612 L
568.532 346.359 L
568.786 347.567 L
569.191 343.372 L
569.241 346.519 L
569.292 344.715 L
569.743 348.019 L
569.792 344.065 L
569.992 345.185 L
570.041 347.404 L
570.289 343.036 L
570.585 347.856 L
570.732 346.473 L
570.781 346.932 L
570.928 349.731 L
571.221 344.117 L
571.463 346.739 L
571.512 347.126 L
571.753 351.434 L
572.041 344.343 L
572.233 346.053 L
572.28 347.165 L
572.328 343.876 L
572.423 348.332 L
572.992 347.86 L
573.039 347.151 L
573.461 349.273 L
573.648 342.4 L
573.741 344.903 L
573.787 345.584 L
574.019 343.732 L
574.112 348.288 L
574.48 345.129 L
574.526 347.936 L
574.572 349.131 L
574.663 344.059 L
575.21 345.527 L
575.255 344.896 L
575.3 348.11 L
575.93 343.806 L
575.975 345.958 L
576.02 346.56 L
576.198 343.703 L
576.641 348.241 L
576.73 344.896 L
576.774 345.053 L
577.213 347.628 L
577.431 343.58 L
577.475 346.094 L
577.518 346.298 L
577.605 349.197 L
578.081 344.437 L
578.21 345.969 L
578.253 346.014 L
578.382 344.495 L
578.681 347.565 L
578.978 346.018 L
579.021 346.301 L
579.232 343.162 L
579.359 347.316 L
579.736 345.758 L
579.778 345.926 L
579.82 342.314 L
580.402 347.096 L
580.484 346.213 L
580.526 346.185 L
580.567 348.058 L
580.731 343.985 L
581.222 345.39 L
581.263 346.171 L
581.345 344.144 L
581.507 348.492 L
581.991 345.015 L
582.031 345.792 L
582.312 343.017 L
582.551 347.768 L
582.75 345.463 L
582.79 346.49 L
583.066 342.083 L
583.263 348.534 L
583.498 347.699 L
583.538 344.832 L
583.927 343.985 L
584.082 347.938 L
584.237 344.252 L
584.276 347.701 L
584.775 343.498 L
584.966 345.967 L
585.004 344.873 L
585.233 348.463 L
585.309 343.318 L
585.724 345.919 L
585.762 348.028 L
586.286 343.928 L
586.471 347.614 L
586.509 347.416 L
587.026 348.776 L
587.173 343.269 L
587.246 344.986 L
587.283 346.552 L
587.319 343.279 L
587.684 348.382 L
587.974 344.757 L
588.01 345.34 L
588.442 347.524 L
588.621 343.566 L
588.728 344.965 L
588.764 344.717 L
589.084 349.211 L
589.225 342.955 L
589.472 347.425 L
589.508 348.175 L
589.683 349.233 L
589.788 343.687 L
590.242 347.86 L
590.276 349.404 L
590.588 342.53 L
590.967 347.223 L
591.001 345.673 L
591.069 350.249 L
591.513 341.398 L
591.75 345.384 L
591.784 345.024 L
592.087 343.874 L
592.255 349.443 L
592.489 346.647 L
592.522 347.566 L
592.656 344.698 L
593.12 349.391 L
593.219 348.014 L
593.252 349.058 L
593.482 344.731 L
593.939 350.059 L
593.972 345.994 L
594.004 346.62 L
594.167 348.978 L
594.715 345.61 L
594.747 347.356 L
594.779 349.369 L
595.13 343.952 L
595.48 345.515 L
595.511 345.558 L
595.606 344.057 L
596.235 350.225 L
596.266 348.095 L
596.515 350.811 L
596.546 345.655 L
596.98 348.25 L
597.01 346.847 L
597.287 348.611 L
597.654 343.919 L
597.745 346.29 L
597.776 344.658 L
597.927 343.014 L
598.109 349.611 L
598.471 348.58 L
598.501 345.77 L
598.561 350.257 L
598.621 343.808 L
599.246 345.681 L
599.276 345.118 L
599.982 348.89 L
600.011 349.003 L
600.099 344.136 L
600.535 350.181 L
600.737 345.467 L
600.766 347.159 L
601.34 345.431 L
601.454 349.067 L
601.482 348.602 L
601.511 345.165 L
601.738 344.185 L
601.851 348.93 L
602.246 348.577 L
602.274 349.013 L
602.582 345.855 L
602.972 349.921 L
602.999 348.8 L
603.027 347.778 L
603.469 351.734 L
603.661 346.066 L
603.743 348.235 L
603.77 346.506 L
603.989 344.561 L
604.125 351.141 L
604.477 347.163 L
604.504 348.214 L
604.692 344.778 L
604.773 350.252 L
605.228 348.479 L
605.255 346.593 L
605.388 345.13 L
605.653 351.012 L
605.996 349.895 L
606.022 345.69 L
606.545 345.417 L
606.649 351.741 L
606.727 348.814 L
606.753 349.968 L
606.805 346.631 L
607.089 352.13 L
607.475 347.927 L
607.5 348.877 L
607.756 353.016 L
608.137 346.088 L
608.238 348.596 L
608.263 346.859 L
608.339 346.245 L
608.841 350.912 L
608.991 346.668 L
609.016 348.018 L
609.314 351.029 L
609.586 345.229 L
609.734 349.622 L
609.758 347.727 L
610.053 352.847 L
610.077 347.256 L
610.492 349.325 L
610.516 349.214 L
610.589 346.432 L
610.879 352.733 L
611.239 347.925 L
611.263 350.771 L
611.455 351.22 L
611.954 346.99 L
611.977 347.282 L
612.001 348.569 L
612.095 345.262 L
612.166 350.136 L
612.729 349.806 L
612.752 347.506 L
612.962 351.102 L
613.402 346.285 L
613.494 349.026 L
613.517 348.744 L
613.93 352.684 L
614.249 346.784 L
614.271 349.171 L
614.521 350.5 L
614.589 345.539 L
614.994 349.928 L
615.016 347.889 L
615.083 345.398 L
615.329 351.807 L
615.729 346.937 L
615.751 346.202 L
616.082 346.064 L
616.257 350.748 L
616.498 347.569 L
616.52 347.772 L
616.607 351.08 L
616.629 345.236 L
617.236 349.438 L
617.257 347.642 L
617.279 345.484 L
617.558 351.038 L
617.985 348.469 L
618.006 349.266 L
618.64 351.807 L
618.745 344.372 L
618.766 349.769 L
619.164 350.38 L
619.268 345.202 L
619.496 347.713 L
619.516 348.277 L
619.929 345.74 L
620.052 350.293 L
620.236 346.863 L
620.257 349.32 L
620.704 350.528 L
620.826 345.462 L
620.987 348.789 L
621.008 347.471 L
621.529 344.94 L
621.649 350.675 L
621.749 347.676 L
621.769 350.552 L
621.848 345.945 L
622.401 351.163 L
622.5 346.762 L
622.519 349.052 L
622.637 352.444 L
622.93 345.618 L
623.241 348.681 L
623.26 347.413 L
623.704 351.401 L
623.896 345.011 L
623.992 347.077 L
624.011 348.487 L
624.259 351.587 L
624.506 345.895 L
624.733 346.949 L
624.752 352.53 L
625.352 344.796 L
625.483 347.124 L
625.501 347.627 L
625.706 350.91 L
625.743 345.309 L
626.241 349.113 L
626.26 347.782 L
626.516 344.157 L
626.753 349.384 L
626.99 348.062 L
627.008 350.059 L
627.225 350.632 L
627.513 345.247 L
627.746 347.848 L
627.764 347.838 L
627.961 345.454 L
628.228 351.255 L
628.493 347.615 L
628.511 348.636 L
628.705 351.137 L
629.213 346.261 L
629.247 349.089 L
629.265 347.669 L
629.474 352.528 L
629.56 345.754 L
629.992 345.981 L
630.009 347.646 L
630.352 345.349 L
630.403 351.809 L
630.743 351.027 L
630.76 350.897 L
631.267 351.464 L
631.435 347.296 L
631.485 350.485 L
631.502 350.441 L
631.719 350.893 L
631.936 345.969 L
632.234 346.951 L
632.251 349.877 L
632.826 346.088 L
632.989 351.145 L
633.006 352.082 L
633.038 346.761 L
633.136 352.43 L
633.735 348.629 L
633.751 352.087 L
634.024 353.585 L
634.088 346.916 L
634.486 347.949 L
634.502 348.64 L
634.835 352.424 L
635.055 347.094 L
635.244 347.611 L
635.259 348.676 L
635.385 346.624 L
635.556 352.557 L
635.991 348.012 L
636.006 350.409 L
636.161 352.42 L
636.361 345.907 L
636.744 349.371 L
636.759 348.11 L
637.109 346.608 L
637.321 351.824 L
637.487 351.816 L
637.502 349.321 L
637.712 352.03 L
637.907 346.701 L
638.25 349.381 L
638.265 348.8 L
638.591 346.506 L
638.605 351.703 L
638.988 349.074 L
639.003 349.176 L
639.032 352.026 L
639.324 346.338 L
639.746 350.477 L
639.76 349.085 L
639.775 346.862 L
639.847 351.93 L
640.493 348.971 L
640.508 349.568 L
640.849 346.177 L
641.048 352.155 L
641.245 350.165 L
641.259 349.379 L
641.597 347.162 L
641.876 353.094 L
641.987 351.302 L
642.001 350.216 L
642.417 354.256 L
642.624 348.077 L
642.747 351.918 L
642.761 351.581 L
642.898 347.309 L
643.402 354.014 L
643.497 350.735 L
643.511 350.216 L
643.592 346.928 L
643.673 353.54 L
644.237 351.228 L
644.251 350.341 L
644.411 347.141 L
644.902 352.796 L
644.994 348.511 L
645.008 348.865 L
645.034 352.917 L
645.689 347.725 L
645.741 348.291 L
645.754 349.93 L
645.91 348.112 L
646.027 354.76 L
646.491 352.956 L
646.504 352.68 L
646.799 354.343 L
647.028 348.209 L
647.244 349.683 L
647.257 350.033 L
647.799 348.407 L
647.937 354.45 L
648 354.233 L
648.012 353.016 L
648.025 355.173 L
648.634 349.6 L
648.745 351.274 L
648.757 353.396 L
648.77 354.855 L
648.918 349.136 L
649.493 351.299 L
649.505 351.018 L
649.797 349.679 L
650.075 355.944 L
650.243 350.66 L
650.255 350.963 L
650.471 354.374 L
650.877 349.854 L
650.996 350.604 L
651.008 353.484 L
651.291 349.353 L
651.374 356.617 L
651.75 350.663 L
651.762 351.84 L
651.995 348.322 L
652.053 354.263 L
652.494 349.436 L
652.506 350.839 L
652.529 348.861 L
653.126 356.156 L
653.24 351.225 L
653.251 350.845 L
653.717 355.102 L
653.954 348.49 L
653.999 351.348 L
654.01 350.885 L
654.402 355.799 L
654.491 348.75 L
654.747 350.817 L
654.758 352.611 L
655.124 353.993 L
655.355 348.574 L
655.497 351.163 L
655.508 350.227 L
655.814 354.804 L
656.118 349.108 L
656.248 352.591 L
656.259 353.206 L
656.345 355.701 L
656.925 349.554 L
657 349.929 L
657.01 350.73 L
657.202 355.21 L
657.499 350.099 L
657.742 350.733 L
657.752 351.945 L
657.826 355.119 L
657.941 349.033 L
658.495 351.067 L
658.505 351.47 L
659.125 348.633 L
659.227 354.097 L
659.248 351.796 L
659.258 353.448 L
659.534 349.908 L
659.718 355.832 L
659.991 350.866 L
660.001 352.567 L
660.032 355.18 L
660.405 348.928 L
660.745 351.473 L
660.755 352.74 L
661.262 355.453 L
661.44 348.699 L
661.499 352.44 L
661.509 353.809 L
661.823 350.012 L
662.213 356.05 L
662.243 351.748 L
662.252 352.528 L
662.301 349.91 L
662.543 358.268 L
662.996 352.063 L
663.005 352.262 L
663.063 356.689 L
663.092 350.696 L
663.749 355.083 L
663.758 353.068 L
663.787 356.903 L
663.985 350.393 L
664.492 352.864 L
664.501 353.643 L
664.688 356.688 L
664.864 349.956 L
665.244 354.484 L
665.253 353.6 L
665.446 356.356 L
665.831 350.006 L
665.995 353.959 L
666.004 353.09 L
666.013 357 L
666.709 349.84 L
666.745 353.499 L
666.754 356.316 L
666.799 351.63 L
667.112 357.345 L
667.494 355.937 L
667.503 357.122 L
668.014 358.399 L
668.163 352.187 L
668.242 353.245 L
668.251 354.609 L
668.347 351.971 L
668.669 358.681 L
668.998 355.631 L
669.006 354.944 L
669.067 357.459 L
669.273 351.942 L
669.744 356.509 L
669.752 354.395 L
669.888 353.493 L
670.151 359.476 L
670.496 358.235 L
670.505 355.278 L
670.881 359.952 L
671.214 353.018 L
671.247 353.36 L
671.256 353.265 L
671.603 352.59 L
671.636 359.431 L
671.997 357.771 L
672.005 355.413 L
672.266 352.714 L
672.331 360.351 L
672.745 358.97 L
672.753 357.534 L
672.922 361.653 L
673.347 354.025 L
673.499 355.308 L
673.507 357.482 L
674.07 360.689 L
674.101 352.821 L
674.243 358.768 L
674.251 354.259 L
674.321 354.058 L
674.884 361.238 L
674.993 357.324 L
675 355.223 L
675.364 360.371 L
675.702 353.843 L
675.748 355.689 L
675.756 357.406 L
676.228 359.734 L
676.319 354.257 L
676.494 356.437 L
676.501 356.057 L
676.614 354.123 L
677.162 361.3 L
677.244 356.482 L
677.252 355.098 L
677.505 354.561 L
677.845 361.203 L
678 358.545 L
678.007 356.735 L
678.125 361.497 L
678.293 354.345 L
678.745 360.175 L
678.753 359.86 L
678.984 361.478 L
679.359 353.705 L
679.496 355.623 L
679.503 358.625 L
679.824 354.677 L
680.229 361.473 L
680.243 359.128 L
680.25 355.682 L
680.342 362.148 L
680.391 355.247 L
680.995 358.88 L
681.002 357.963 L
681.28 356.186 L
681.605 363.226 L
681.743 359.858 L
681.75 359.965 L
682.237 362.404 L
682.292 354.362 L
682.496 359.502 L
682.503 361.906 L
682.949 356.422 L
683.232 362.78 L
683.245 359.02 L
683.252 360.162 L
683.279 356.405 L
683.599 364.31 L
683.998 357.094 L
684.005 360.829 L
684.038 357.619 L
684.518 364.086 L
684.747 358.567 L
684.754 359.978 L
685.157 364.954 L
685.41 356.302 L
685.5 358.687 L
685.506 363.595 L
685.577 357.846 L
685.962 364.608 L
686.249 360.676 L
686.255 359.209 L
686.319 366.058 L
686.831 358.752 L
686.994 360.124 L
687.001 360.204 L
687.307 359.554 L
687.531 365.674 L
687.749 362.684 L
687.755 363.534 L
687.773 359.337 L
688.273 367.049 L
688.499 364.973 L
688.505 364.896 L
688.524 360.23 L
689.059 367.232 L
689.246 364.462 L
689.252 365.012 L
689.432 367.52 L
689.971 359.818 L
689.995 362.057 L
690.001 364.474 L
690.303 360.198 L
690.363 367.891 L
690.746 362.494 L
690.751 365.57 L
690.857 368.155 L
691.243 360.667 L
691.498 364.568 L
691.504 364.955 L
691.701 367.995 L
691.966 361.017 L
692.247 365.837 L
692.252 366.404 L
692.759 361.846 L
692.94 368.862 L
692.997 362.973 L
693.002 365.775 L
693.182 360.353 L
693.457 368.56 L
693.748 363.541 L
693.753 364.716 L
693.859 361.889 L
694.324 369.746 L
694.495 365.181 L
694.5 366.41 L
694.714 361.858 L
694.873 368.89 L
695.248 367.695 L
695.254 364.853 L
695.351 363.614 L
695.826 371.964 L
695.997 367.596 L
696.002 364.256 L
696.189 370.935 L
696.747 365.592 L
696.752 365.956 L
696.942 363.604 L
697.183 370.79 L
697.497 368.371 L
697.502 366.544 L
697.861 372.405 L
698.042 365.17 L
698.248 368.37 L
698.253 366.348 L
698.877 372.752 L
698.902 365.542 L
698.999 367.851 L
699.004 369.828 L
699.024 372.615 L
699.67 366.37 L
699.745 369.226 L
699.75 371.039 L
700.154 366.843 L
700.437 374.662 L
700.496 371.735 L
700.501 369.205 L
700.92 368.425 L
701.111 376.045 L
701.248 372.522 L
701.253 371.65 L
701.452 369.011 L
701.772 377.417 L
701.999 370.817 L
702.003 371.355 L
702.559 376.97 L
702.692 369.316 L
702.749 369.578 L
702.754 371.848 L
702.82 369.447 L
702.882 377.205 L
703.5 373.839 L
703.504 370.497 L
703.938 370.018 L
704.203 377.593 L
704.249 375.229 L
704.254 374.287 L
704.737 370.523 L
704.838 379.688 L
704.998 373.353 L
705.003 372.312 L
705.153 369.984 L
705.389 378.437 L
705.746 376.357 L
705.751 375.735 L
705.773 372.375 L
706.079 379.626 L
706.498 373.067 L
706.503 375.623 L
706.507 371.902 L
707.2 381.089 L
707.249 376.122 L
707.253 375.487 L
707.673 380.714 L
707.912 372.875 L
707.998 377.285 L
708.003 379.005 L
708.154 375.199 L
708.485 380.998 L
708.746 378.342 L
708.751 377.648 L
708.977 375.727 L
709.388 383.244 L
709.498 379.821 L
709.502 379.556 L
709.514 383.401 L
709.594 377.158 L
710.247 380.266 L
710.251 379.236 L
710.305 377.159 L
710.831 384.647 L
710.999 381.765 L
711.003 383.088 L
711.073 378.41 L
711.542 385.772 L
711.749 382.99 L
711.754 382.557 L
712.254 380.219 L
712.382 388.25 L
712.498 385.63 L
712.502 383.551 L
712.705 388.372 L
713.063 381.219 L
713.248 385.458 L
713.252 384.657 L
713.806 381.871 L
713.935 387.962 L
713.997 385.409 L
714.001 384.792 L
714.497 381.192 L
714.682 389.958 L
714.747 385.127 L
714.751 385.298 L
715.096 382.948 L
715.168 390.324 L
715.499 386.28 L
715.503 384.577 L
715.869 384.312 L
716.129 392.113 L
716.248 390.336 L
716.252 388.26 L
716.334 385.274 L
716.844 393.651 L
716.999 390.538 L
717.003 390.674 L
717.095 393.887 L
717.349 386.088 L
717.747 390.6 L
717.751 390.098 L
717.947 387.657 L
718.46 396.64 L
718.496 394.15 L
718.5 394.218 L
718.532 389.404 L
718.744 396.99 L
719.25 393.929 L
719.254 393.135 L
719.374 390.173 L
719.987 398.364 L
719.997 393.81 L
720.001 393.792 L
720.029 393.035 L
720.582 401.136 L
720.748 401.042 L
720.752 397.812 L
721.069 394.59 L
721.377 403.386 L
721.5 398.805 L
721.503 395.712 L
721.66 395.704 L
721.789 402.928 L
722.248 397.194 L
722.252 398.235 L
722.369 396.175 L
722.794 404.988 L
722.997 402.063 L
723 399.272 L
723.282 397.332 L
723.44 406.506 L
723.749 402.223 L
723.752 402.416 L
723.994 399.274 L
724.287 408.739 L
724.498 408.047 L
724.501 404.971 L
724.698 410.125 L
724.948 401.145 L
725.249 405.907 L
725.252 403.914 L
725.345 401.32 L
725.849 411.636 L
725.997 407.482 L
726 406.913 L
726.33 413.8 L
726.399 404.185 L
726.748 408.672 L
726.751 411.679 L
727.033 406.651 L
727.479 415.102 L
727.498 409.595 L
727.501 411.759 L
727.797 408.731 L
728.135 419.086 L
728.247 413.545 L
728.25 413.268 L
728.395 412.099 L
728.741 420.166 L
728.999 415.966 L
729.002 415.308 L
729.359 412.005 L
729.619 420.778 L
729.749 419.444 L
729.752 418.872 L
729.778 415.055 L
730.324 423.37 L
730.498 415.867 L
730.501 418.86 L
730.504 414.443 L
731.221 425.9 L
731.249 422.172 L
731.252 421.175 L
731.378 419.01 L
731.763 429.793 L
731.999 422.805 L
732.002 426.124 L
732.216 421.076 L
732.478 430.467 L
732.75 428.073 L
732.753 426.928 L
732.834 423.044 L
733.48 434.505 L
733.499 429.583 L
733.502 428.38 L
733.835 426.693 L
734.146 436.004 L
734.25 430.927 L
734.253 430.957 L
734.483 429.076 L
734.966 438.889 L
734.999 436.866 L
735.001 437.784 L
735.194 432.277 L
735.748 442.182 L
735.751 441.883 L
735.976 434.606 L
736.357 444.961 L
736.498 439.774 L
736.501 441.114 L
736.561 434.48 L
737.081 448.721 L
737.249 443.454 L
737.252 442.821 L
737.311 440.421 L
737.995 451.18 L
737.998 449.334 L
738 447.146 L
738.021 443.65 L
738.087 453.443 L
738.749 450.045 L
738.751 450.863 L
738.817 446.299 L
739.485 459.677 L
739.498 454.221 L
739.5 453.788 L
739.518 450.803 L
739.972 462.669 L
740.249 459.565 L
740.252 458.015 L
740.447 455.499 L
740.87 467.019 L
740.998 461.22 L
741 463.008 L
741.08 459.575 L
741.682 470.68 L
741.749 464.231 L
741.751 468.071 L
742.003 462.759 L
742.386 475.448 L
742.499 472.39 L
742.502 472.359 L
742.596 465.328 L
743.121 478.62 L
743.249 472.039 L
743.251 475.123 L
743.437 471.857 L
743.734 485.901 L
743.998 478.814 L
744.001 482.486 L
744.023 476.51 L
744.74 488.92 L
744.749 486.559 L
744.751 488.781 L
744.796 479.801 L
745.499 495.148 L
745.501 493.875 L
745.617 487.511 L
746.038 502.388 L
746.25 495.323 L
746.252 500.412 L
746.3 493.36 L
747 508.037 L
747.002 504.783 L
747.164 498.602 L
747.624 513.508 L
747.748 509.591 L
747.75 510.589 L
747.945 502.459 L
748.311 520.095 L
748.5 514.786 L
748.502 515.597 L
748.574 511.244 L
748.99 529.924 L
749.25 522.278 L
749.252 526.99 L
749.323 517.593 L
749.678 533.505 L
749.689 528.333 L
S
GR
GS
[0.5 0 0 0.5 0 0] CT
1 GC
N
319 542 M
319 489 L
130 489 L
130 542 L
cp
f
GR
GS
[0.5 0 0 0.5 100.15699 251.78436] CT
/Helvetica 18 F
GS
[1 0 0 1 0 0] CT
0 7.5 moveto 
1 -1 scale
(Current \(dBA\)) t 
GR
GR
GS
[0.5 0 0 0.5 0 0] CT
0 0.447 0.741 RC
1 LJ
3 LW
N
135.984 503.569 M
195.826 503.569 L
S
GR
GS
[0.5 0 0 0.5 100.15699 263.71564] CT
/Helvetica 18 F
GS
[1 0 0 1 0 0] CT
0 7.5 moveto 
1 -1 scale
(Voltage \(dBV\)) t 
GR
GR
GS
[0.5 0 0 0.5 0 0] CT
0.851 0.325 0.098 RC
1 LJ
3 LW
N
135.984 527.431 M
195.826 527.431 L
S
GR
GS
[0.5 0 0 0.5 0 0] CT
0.149 GC
10.0 ML
N
130 542 M
130 489 L
319 489 L
319 542 L
cp
S
GR
%%Trailer
%%Pages: 1
%%EOF
