%!PS-Adobe-3.0 EPSF-3.0
%%Creator: (MATLAB, The Mathworks, Inc. Version 9.4.0.813654 \(R2018a\). Operating System: Windows 10)
%%Title: C:/Users/robbe/OneDrive/VUB/Thesis/Thesis/PRBS.eps
%%CreationDate: 2019-05-28T15:33:58
%%Pages: (atend)
%%BoundingBox: 0 0 420 315
%%LanguageLevel: 3
%%EndComments
%%BeginProlog
%%BeginResource: procset (Apache XML Graphics Std ProcSet) 1.2 0
%%Version: 1.2 0
%%Copyright: (Copyright 2001-2003,2010 The Apache Software Foundation. License terms: http://www.apache.org/licenses/LICENSE-2.0)
/bd{bind def}bind def
/ld{load def}bd
/GR/grestore ld
/GS/gsave ld
/RM/rmoveto ld
/C/curveto ld
/t/show ld
/L/lineto ld
/ML/setmiterlimit ld
/CT/concat ld
/f/fill ld
/N/newpath ld
/S/stroke ld
/CC/setcmykcolor ld
/A/ashow ld
/cp/closepath ld
/RC/setrgbcolor ld
/LJ/setlinejoin ld
/GC/setgray ld
/LW/setlinewidth ld
/M/moveto ld
/re {4 2 roll M
1 index 0 rlineto
0 exch rlineto
neg 0 rlineto
cp } bd
/_ctm matrix def
/_tm matrix def
/BT { _ctm currentmatrix pop matrix _tm copy pop 0 0 moveto } bd
/ET { _ctm setmatrix } bd
/iTm { _ctm setmatrix _tm concat } bd
/Tm { _tm astore pop iTm 0 0 moveto } bd
/ux 0.0 def
/uy 0.0 def
/F {
  /Tp exch def
  /Tf exch def
  Tf findfont Tp scalefont setfont
  /cf Tf def  /cs Tp def
} bd
/ULS {currentpoint /uy exch def /ux exch def} bd
/ULE {
  /Tcx currentpoint pop def
  gsave
  newpath
  cf findfont cs scalefont dup
  /FontMatrix get 0 get /Ts exch def /FontInfo get dup
  /UnderlinePosition get Ts mul /To exch def
  /UnderlineThickness get Ts mul /Tt exch def
  ux uy To add moveto  Tcx uy To add lineto
  Tt setlinewidth stroke
  grestore
} bd
/OLE {
  /Tcx currentpoint pop def
  gsave
  newpath
  cf findfont cs scalefont dup
  /FontMatrix get 0 get /Ts exch def /FontInfo get dup
  /UnderlinePosition get Ts mul /To exch def
  /UnderlineThickness get Ts mul /Tt exch def
  ux uy To add cs add moveto Tcx uy To add cs add lineto
  Tt setlinewidth stroke
  grestore
} bd
/SOE {
  /Tcx currentpoint pop def
  gsave
  newpath
  cf findfont cs scalefont dup
  /FontMatrix get 0 get /Ts exch def /FontInfo get dup
  /UnderlinePosition get Ts mul /To exch def
  /UnderlineThickness get Ts mul /Tt exch def
  ux uy To add cs 10 mul 26 idiv add moveto Tcx uy To add cs 10 mul 26 idiv add lineto
  Tt setlinewidth stroke
  grestore
} bd
/QT {
/Y22 exch store
/X22 exch store
/Y21 exch store
/X21 exch store
currentpoint
/Y21 load 2 mul add 3 div exch
/X21 load 2 mul add 3 div exch
/X21 load 2 mul /X22 load add 3 div
/Y21 load 2 mul /Y22 load add 3 div
/X22 load /Y22 load curveto
} bd
/SSPD {
dup length /d exch dict def
{
/v exch def
/k exch def
currentpagedevice k known {
/cpdv currentpagedevice k get def
v cpdv ne {
/upd false def
/nullv v type /nulltype eq def
/nullcpdv cpdv type /nulltype eq def
nullv nullcpdv or
{
/upd true def
} {
/sametype v type cpdv type eq def
sametype {
v type /arraytype eq {
/vlen v length def
/cpdvlen cpdv length def
vlen cpdvlen eq {
0 1 vlen 1 sub {
/i exch def
/obj v i get def
/cpdobj cpdv i get def
obj cpdobj ne {
/upd true def
exit
} if
} for
} {
/upd true def
} ifelse
} {
v type /dicttype eq {
v {
/dv exch def
/dk exch def
/cpddv cpdv dk get def
dv cpddv ne {
/upd true def
exit
} if
} forall
} {
/upd true def
} ifelse
} ifelse
} if
} ifelse
upd true eq {
d k v put
} if
} if
} if
} forall
d length 0 gt {
d setpagedevice
} if
} bd
/RE { % /NewFontName [NewEncodingArray] /FontName RE -
  findfont dup length dict begin
  {
    1 index /FID ne
    {def} {pop pop} ifelse
  } forall
  /Encoding exch def
  /FontName 1 index def
  currentdict definefont pop
  end
} bind def
%%EndResource
%%BeginResource: procset (Apache XML Graphics EPS ProcSet) 1.0 0
%%Version: 1.0 0
%%Copyright: (Copyright 2002-2003 The Apache Software Foundation. License terms: http://www.apache.org/licenses/LICENSE-2.0)
/BeginEPSF { %def
/b4_Inc_state save def         % Save state for cleanup
/dict_count countdictstack def % Count objects on dict stack
/op_count count 1 sub def      % Count objects on operand stack
userdict begin                 % Push userdict on dict stack
/showpage { } def              % Redefine showpage, { } = null proc
0 setgray 0 setlinecap         % Prepare graphics state
1 setlinewidth 0 setlinejoin
10 setmiterlimit [ ] 0 setdash newpath
/languagelevel where           % If level not equal to 1 then
{pop languagelevel             % set strokeadjust and
1 ne                           % overprint to their defaults.
{false setstrokeadjust false setoverprint
} if
} if
} bd
/EndEPSF { %def
count op_count sub {pop} repeat            % Clean up stacks
countdictstack dict_count sub {end} repeat
b4_Inc_state restore
} bd
%%EndResource
%FOPBeginFontDict
%%IncludeResource: font Courier-Oblique
%%IncludeResource: font Courier-BoldOblique
%%IncludeResource: font Courier-Bold
%%IncludeResource: font ZapfDingbats
%%IncludeResource: font Symbol
%%IncludeResource: font Helvetica
%%IncludeResource: font Helvetica-Oblique
%%IncludeResource: font Helvetica-Bold
%%IncludeResource: font Helvetica-BoldOblique
%%IncludeResource: font Times-Roman
%%IncludeResource: font Times-Italic
%%IncludeResource: font Times-Bold
%%IncludeResource: font Times-BoldItalic
%%IncludeResource: font Courier
%FOPEndFontDict
%%BeginResource: encoding WinAnsiEncoding
/WinAnsiEncoding [
/.notdef /.notdef /.notdef /.notdef /.notdef
/.notdef /.notdef /.notdef /.notdef /.notdef
/.notdef /.notdef /.notdef /.notdef /.notdef
/.notdef /.notdef /.notdef /.notdef /.notdef
/.notdef /.notdef /.notdef /.notdef /.notdef
/.notdef /.notdef /.notdef /.notdef /.notdef
/.notdef /.notdef /space /exclam /quotedbl
/numbersign /dollar /percent /ampersand /quotesingle
/parenleft /parenright /asterisk /plus /comma
/hyphen /period /slash /zero /one
/two /three /four /five /six
/seven /eight /nine /colon /semicolon
/less /equal /greater /question /at
/A /B /C /D /E
/F /G /H /I /J
/K /L /M /N /O
/P /Q /R /S /T
/U /V /W /X /Y
/Z /bracketleft /backslash /bracketright /asciicircum
/underscore /quoteleft /a /b /c
/d /e /f /g /h
/i /j /k /l /m
/n /o /p /q /r
/s /t /u /v /w
/x /y /z /braceleft /bar
/braceright /asciitilde /bullet /Euro /bullet
/quotesinglbase /florin /quotedblbase /ellipsis /dagger
/daggerdbl /circumflex /perthousand /Scaron /guilsinglleft
/OE /bullet /Zcaron /bullet /bullet
/quoteleft /quoteright /quotedblleft /quotedblright /bullet
/endash /emdash /asciitilde /trademark /scaron
/guilsinglright /oe /bullet /zcaron /Ydieresis
/space /exclamdown /cent /sterling /currency
/yen /brokenbar /section /dieresis /copyright
/ordfeminine /guillemotleft /logicalnot /sfthyphen /registered
/macron /degree /plusminus /twosuperior /threesuperior
/acute /mu /paragraph /middot /cedilla
/onesuperior /ordmasculine /guillemotright /onequarter /onehalf
/threequarters /questiondown /Agrave /Aacute /Acircumflex
/Atilde /Adieresis /Aring /AE /Ccedilla
/Egrave /Eacute /Ecircumflex /Edieresis /Igrave
/Iacute /Icircumflex /Idieresis /Eth /Ntilde
/Ograve /Oacute /Ocircumflex /Otilde /Odieresis
/multiply /Oslash /Ugrave /Uacute /Ucircumflex
/Udieresis /Yacute /Thorn /germandbls /agrave
/aacute /acircumflex /atilde /adieresis /aring
/ae /ccedilla /egrave /eacute /ecircumflex
/edieresis /igrave /iacute /icircumflex /idieresis
/eth /ntilde /ograve /oacute /ocircumflex
/otilde /odieresis /divide /oslash /ugrave
/uacute /ucircumflex /udieresis /yacute /thorn
/ydieresis
] def
%%EndResource
%FOPBeginFontReencode
/Courier-Oblique findfont
dup length dict begin
  {1 index /FID ne {def} {pop pop} ifelse} forall
  /Encoding WinAnsiEncoding def
  currentdict
end
/Courier-Oblique exch definefont pop
/Courier-BoldOblique findfont
dup length dict begin
  {1 index /FID ne {def} {pop pop} ifelse} forall
  /Encoding WinAnsiEncoding def
  currentdict
end
/Courier-BoldOblique exch definefont pop
/Courier-Bold findfont
dup length dict begin
  {1 index /FID ne {def} {pop pop} ifelse} forall
  /Encoding WinAnsiEncoding def
  currentdict
end
/Courier-Bold exch definefont pop
/Helvetica findfont
dup length dict begin
  {1 index /FID ne {def} {pop pop} ifelse} forall
  /Encoding WinAnsiEncoding def
  currentdict
end
/Helvetica exch definefont pop
/Helvetica-Oblique findfont
dup length dict begin
  {1 index /FID ne {def} {pop pop} ifelse} forall
  /Encoding WinAnsiEncoding def
  currentdict
end
/Helvetica-Oblique exch definefont pop
/Helvetica-Bold findfont
dup length dict begin
  {1 index /FID ne {def} {pop pop} ifelse} forall
  /Encoding WinAnsiEncoding def
  currentdict
end
/Helvetica-Bold exch definefont pop
/Helvetica-BoldOblique findfont
dup length dict begin
  {1 index /FID ne {def} {pop pop} ifelse} forall
  /Encoding WinAnsiEncoding def
  currentdict
end
/Helvetica-BoldOblique exch definefont pop
/Times-Roman findfont
dup length dict begin
  {1 index /FID ne {def} {pop pop} ifelse} forall
  /Encoding WinAnsiEncoding def
  currentdict
end
/Times-Roman exch definefont pop
/Times-Italic findfont
dup length dict begin
  {1 index /FID ne {def} {pop pop} ifelse} forall
  /Encoding WinAnsiEncoding def
  currentdict
end
/Times-Italic exch definefont pop
/Times-Bold findfont
dup length dict begin
  {1 index /FID ne {def} {pop pop} ifelse} forall
  /Encoding WinAnsiEncoding def
  currentdict
end
/Times-Bold exch definefont pop
/Times-BoldItalic findfont
dup length dict begin
  {1 index /FID ne {def} {pop pop} ifelse} forall
  /Encoding WinAnsiEncoding def
  currentdict
end
/Times-BoldItalic exch definefont pop
/Courier findfont
dup length dict begin
  {1 index /FID ne {def} {pop pop} ifelse} forall
  /Encoding WinAnsiEncoding def
  currentdict
end
/Courier exch definefont pop
%FOPEndFontReencode
%%EndProlog
%%Page: 1 1
%%PageBoundingBox: 0 0 420 315
%%BeginPageSetup
[1 0 0 -1 0 315] CT
%%EndPageSetup
GS
[0.5 0 0 0.5 0 0] CT
1 GC
N
0 0 840 630 re
f
GR
GS
[0.5 0 0 0.5 0 0] CT
1 GC
N
0 0 840 630 re
f
GR
GS
[0.5 0 0 0.5 0 0] CT
1 GC
N
109 261 M
760 261 L
760 47 L
109 47 L
cp
f
GR
GS
[0.5 0 0 0.5 0 0] CT
0.149 GC
2 setlinecap
1 LJ
N
109 261 M
760 261 L
S
GR
GS
[0.5 0 0 0.5 0 0] CT
0.149 GC
2 setlinecap
1 LJ
N
109 47 M
760 47 L
S
GR
GS
[0.5 0 0 0.5 0 0] CT
0.149 GC
2 setlinecap
1 LJ
N
109 261 M
109 254.49 L
S
GR
GS
[0.5 0 0 0.5 0 0] CT
0.149 GC
2 setlinecap
1 LJ
N
210.719 261 M
210.719 254.49 L
S
GR
GS
[0.5 0 0 0.5 0 0] CT
0.149 GC
2 setlinecap
1 LJ
N
312.438 261 M
312.438 254.49 L
S
GR
GS
[0.5 0 0 0.5 0 0] CT
0.149 GC
2 setlinecap
1 LJ
N
414.156 261 M
414.156 254.49 L
S
GR
GS
[0.5 0 0 0.5 0 0] CT
0.149 GC
2 setlinecap
1 LJ
N
515.875 261 M
515.875 254.49 L
S
GR
GS
[0.5 0 0 0.5 0 0] CT
0.149 GC
2 setlinecap
1 LJ
N
617.594 261 M
617.594 254.49 L
S
GR
GS
[0.5 0 0 0.5 0 0] CT
0.149 GC
2 setlinecap
1 LJ
N
719.313 261 M
719.313 254.49 L
S
GR
GS
[0.5 0 0 0.5 0 0] CT
0.149 GC
2 setlinecap
1 LJ
N
109 47 M
109 53.51 L
S
GR
GS
[0.5 0 0 0.5 0 0] CT
0.149 GC
2 setlinecap
1 LJ
N
210.719 47 M
210.719 53.51 L
S
GR
GS
[0.5 0 0 0.5 0 0] CT
0.149 GC
2 setlinecap
1 LJ
N
312.438 47 M
312.438 53.51 L
S
GR
GS
[0.5 0 0 0.5 0 0] CT
0.149 GC
2 setlinecap
1 LJ
N
414.156 47 M
414.156 53.51 L
S
GR
GS
[0.5 0 0 0.5 0 0] CT
0.149 GC
2 setlinecap
1 LJ
N
515.875 47 M
515.875 53.51 L
S
GR
GS
[0.5 0 0 0.5 0 0] CT
0.149 GC
2 setlinecap
1 LJ
N
617.594 47 M
617.594 53.51 L
S
GR
GS
[0.5 0 0 0.5 0 0] CT
0.149 GC
2 setlinecap
1 LJ
N
719.313 47 M
719.313 53.51 L
S
GR
GS
[0.5 0 0 0.5 54.5 133.3] CT
0.149 GC
/Helvetica 18 F
GS
[1 0 0 1 0 0] CT
-5.5 19 moveto 
1 -1 scale
(0) t 
GR
GR
GS
[0.5 0 0 0.5 105.35938 133.3] CT
0.149 GC
/Helvetica 18 F
GS
[1 0 0 1 0 0] CT
-10.5 19 moveto 
1 -1 scale
(10) t 
GR
GR
GS
[0.5 0 0 0.5 156.21875 133.3] CT
0.149 GC
/Helvetica 18 F
GS
[1 0 0 1 0 0] CT
-10.5 19 moveto 
1 -1 scale
(20) t 
GR
GR
GS
[0.5 0 0 0.5 207.07813 133.3] CT
0.149 GC
/Helvetica 18 F
GS
[1 0 0 1 0 0] CT
-10.5 19 moveto 
1 -1 scale
(30) t 
GR
GR
GS
[0.5 0 0 0.5 257.9375 133.3] CT
0.149 GC
/Helvetica 18 F
GS
[1 0 0 1 0 0] CT
-10.5 19 moveto 
1 -1 scale
(40) t 
GR
GR
GS
[0.5 0 0 0.5 308.79688 133.3] CT
0.149 GC
/Helvetica 18 F
GS
[1 0 0 1 0 0] CT
-10.5 19 moveto 
1 -1 scale
(50) t 
GR
GR
GS
[0.5 0 0 0.5 359.65625 133.3] CT
0.149 GC
/Helvetica 18 F
GS
[1 0 0 1 0 0] CT
-10.5 19 moveto 
1 -1 scale
(60) t 
GR
GR
GS
[0.5 0 0 0.5 217.25015 145.3] CT
0.149 GC
/Helvetica 19.8 F
GS
[1 0 0 1 0 0] CT
-22 20 moveto 
1 -1 scale
(Time) t 
GR
GR
GS
[0.5 0 0 0.5 0 0] CT
0.149 GC
2 setlinecap
1 LJ
N
109 261 M
109 47 L
S
GR
GS
[0.5 0 0 0.5 0 0] CT
0.149 GC
2 setlinecap
1 LJ
N
760 261 M
760 47 L
S
GR
GS
[0.5 0 0 0.5 0 0] CT
0.149 GC
2 setlinecap
1 LJ
N
109 261 M
115.51 261 L
S
GR
GS
[0.5 0 0 0.5 0 0] CT
0.149 GC
2 setlinecap
1 LJ
N
109 225.333 M
115.51 225.333 L
S
GR
GS
[0.5 0 0 0.5 0 0] CT
0.149 GC
2 setlinecap
1 LJ
N
109 189.667 M
115.51 189.667 L
S
GR
GS
[0.5 0 0 0.5 0 0] CT
0.149 GC
2 setlinecap
1 LJ
N
109 154 M
115.51 154 L
S
GR
GS
[0.5 0 0 0.5 0 0] CT
0.149 GC
2 setlinecap
1 LJ
N
109 118.333 M
115.51 118.333 L
S
GR
GS
[0.5 0 0 0.5 0 0] CT
0.149 GC
2 setlinecap
1 LJ
N
109 82.667 M
115.51 82.667 L
S
GR
GS
[0.5 0 0 0.5 0 0] CT
0.149 GC
2 setlinecap
1 LJ
N
109 47 M
115.51 47 L
S
GR
GS
[0.5 0 0 0.5 0 0] CT
0.149 GC
2 setlinecap
1 LJ
N
760 261 M
753.49 261 L
S
GR
GS
[0.5 0 0 0.5 0 0] CT
0.149 GC
2 setlinecap
1 LJ
N
760 225.333 M
753.49 225.333 L
S
GR
GS
[0.5 0 0 0.5 0 0] CT
0.149 GC
2 setlinecap
1 LJ
N
760 189.667 M
753.49 189.667 L
S
GR
GS
[0.5 0 0 0.5 0 0] CT
0.149 GC
2 setlinecap
1 LJ
N
760 154 M
753.49 154 L
S
GR
GS
[0.5 0 0 0.5 0 0] CT
0.149 GC
2 setlinecap
1 LJ
N
760 118.333 M
753.49 118.333 L
S
GR
GS
[0.5 0 0 0.5 0 0] CT
0.149 GC
2 setlinecap
1 LJ
N
760 82.667 M
753.49 82.667 L
S
GR
GS
[0.5 0 0 0.5 0 0] CT
0.149 GC
2 setlinecap
1 LJ
N
760 47 M
753.49 47 L
S
GR
GS
[0.5 0 0 0.5 51.7 130.5] CT
0.149 GC
/Helvetica 18 F
GS
[1 0 0 1 0 0] CT
-32 7.5 moveto 
1 -1 scale
(-1.5) t 
GR
GR
GS
[0.5 0 0 0.5 51.7 112.66666] CT
0.149 GC
/Helvetica 18 F
GS
[1 0 0 1 0 0] CT
-17 7.5 moveto 
1 -1 scale
(-1) t 
GR
GR
GS
[0.5 0 0 0.5 51.7 94.83334] CT
0.149 GC
/Helvetica 18 F
GS
[1 0 0 1 0 0] CT
-32 7.5 moveto 
1 -1 scale
(-0.5) t 
GR
GR
GS
[0.5 0 0 0.5 51.7 77] CT
0.149 GC
/Helvetica 18 F
GS
[1 0 0 1 0 0] CT
-11 7.5 moveto 
1 -1 scale
(0) t 
GR
GR
GS
[0.5 0 0 0.5 51.7 59.16667] CT
0.149 GC
/Helvetica 18 F
GS
[1 0 0 1 0 0] CT
-26 7.5 moveto 
1 -1 scale
(0.5) t 
GR
GR
GS
[0.5 0 0 0.5 51.7 41.33333] CT
0.149 GC
/Helvetica 18 F
GS
[1 0 0 1 0 0] CT
-11 7.5 moveto 
1 -1 scale
(1) t 
GR
GR
GS
[0.5 0 0 0.5 51.7 23.5] CT
0.149 GC
/Helvetica 18 F
GS
[1 0 0 1 0 0] CT
-26 7.5 moveto 
1 -1 scale
(1.5) t 
GR
GR
GS
[0 -0.5 0.5 0 33.7 76.99995] CT
0.149 GC
/Helvetica 19.8 F
GS
[1 0 0 1 0 0] CT
-44 -5 moveto 
1 -1 scale
(Amplitude) t 
GR
GR
GS
[0.5 0 0 0.5 217.25021 22.2625] CT
/Helvetica-Bold 19.8 F
GS
[1 0 0 1 0 0] CT
-193.5 -5 moveto 
1 -1 scale
(Pseudo-Random Binary Sequence \(k = 6\)) t 
GR
GR
GS
[0.5 0 0 0.5 0 0] CT
0 0.447 0.741 RC
1 LJ
3 LW
N
109 225.333 M
110.017 225.333 L
111.034 225.333 L
112.052 225.333 L
113.069 225.333 L
114.086 225.333 L
115.103 225.333 L
116.12 225.333 L
117.137 225.333 L
118.155 225.333 L
119.172 225.333 L
120.189 225.333 L
121.206 225.333 L
122.223 225.333 L
123.241 225.333 L
124.258 225.333 L
125.275 225.333 L
126.292 225.333 L
127.309 225.333 L
128.327 225.333 L
129.344 225.333 L
130.361 225.333 L
131.378 225.333 L
132.395 225.333 L
133.413 225.333 L
134.43 225.333 L
135.447 225.333 L
136.464 225.333 L
137.481 225.333 L
138.498 225.333 L
139.516 225.333 L
140.533 225.333 L
141.55 225.333 L
142.567 225.333 L
143.584 225.333 L
144.602 225.333 L
145.619 225.333 L
146.636 225.333 L
147.653 225.333 L
148.67 225.333 L
149.688 225.333 L
150.705 225.333 L
151.722 225.333 L
152.739 225.333 L
153.756 225.333 L
154.773 225.333 L
155.791 225.333 L
156.808 225.333 L
157.825 225.333 L
158.842 225.333 L
159.859 225.333 L
160.877 225.333 L
161.894 225.333 L
162.911 225.333 L
163.928 225.333 L
164.945 225.333 L
165.962 225.333 L
166.98 225.333 L
167.997 225.333 L
169.014 225.333 L
170.031 225.333 L
171.048 82.667 L
172.066 82.667 L
173.083 82.667 L
174.1 82.667 L
175.117 82.667 L
176.134 82.667 L
177.152 82.667 L
178.169 82.667 L
179.186 82.667 L
180.203 82.667 L
181.22 225.333 L
182.238 225.333 L
183.255 225.333 L
184.272 225.333 L
185.289 225.333 L
186.306 225.333 L
187.323 225.333 L
188.341 225.333 L
189.358 225.333 L
190.375 225.333 L
191.392 82.667 L
192.409 82.667 L
193.427 82.667 L
194.444 82.667 L
195.461 82.667 L
196.478 82.667 L
197.495 82.667 L
198.512 82.667 L
199.53 82.667 L
200.547 82.667 L
201.564 225.333 L
202.581 225.333 L
203.598 225.333 L
204.616 225.333 L
205.633 225.333 L
206.65 225.333 L
207.667 225.333 L
208.684 225.333 L
209.702 225.333 L
210.719 225.333 L
211.736 82.667 L
212.753 82.667 L
213.77 82.667 L
214.787 82.667 L
215.805 82.667 L
216.822 82.667 L
217.839 82.667 L
218.856 82.667 L
219.873 82.667 L
220.891 82.667 L
221.908 225.333 L
222.925 225.333 L
223.942 225.333 L
224.959 225.333 L
225.977 225.333 L
226.994 225.333 L
228.011 225.333 L
229.028 225.333 L
230.045 225.333 L
231.063 225.333 L
232.08 225.333 L
233.097 225.333 L
234.114 225.333 L
235.131 225.333 L
236.148 225.333 L
237.166 225.333 L
238.183 225.333 L
239.2 225.333 L
240.217 225.333 L
241.234 225.333 L
242.252 82.667 L
243.269 82.667 L
244.286 82.667 L
245.303 82.667 L
246.32 82.667 L
247.338 82.667 L
248.355 82.667 L
249.372 82.667 L
250.389 82.667 L
251.406 82.667 L
252.423 82.667 L
253.441 82.667 L
254.458 82.667 L
255.475 82.667 L
256.492 82.667 L
257.509 82.667 L
258.527 82.667 L
259.544 82.667 L
260.561 82.667 L
261.578 82.667 L
262.595 225.333 L
263.612 225.333 L
264.63 225.333 L
265.647 225.333 L
266.664 225.333 L
267.681 225.333 L
268.698 225.333 L
269.716 225.333 L
270.733 225.333 L
271.75 225.333 L
272.767 225.333 L
273.784 225.333 L
274.802 225.333 L
275.819 225.333 L
276.836 225.333 L
277.853 225.333 L
278.87 225.333 L
279.887 225.333 L
280.905 225.333 L
281.922 225.333 L
282.939 82.667 L
283.956 82.667 L
284.973 82.667 L
285.991 82.667 L
287.008 82.667 L
288.025 82.667 L
289.042 82.667 L
290.059 82.667 L
291.077 82.667 L
292.094 82.667 L
293.111 225.333 L
294.128 225.333 L
295.145 225.333 L
296.163 225.333 L
297.18 225.333 L
298.197 225.333 L
299.214 225.333 L
300.231 225.333 L
301.248 225.333 L
302.266 225.333 L
303.283 225.333 L
304.3 225.333 L
305.317 225.333 L
306.334 225.333 L
307.352 225.333 L
308.369 225.333 L
309.386 225.333 L
310.403 225.333 L
311.42 225.333 L
312.438 225.333 L
313.455 225.333 L
314.472 225.333 L
315.489 225.333 L
316.506 225.333 L
317.523 225.333 L
318.541 225.333 L
319.558 225.333 L
320.575 225.333 L
321.592 225.333 L
322.609 225.333 L
323.627 82.667 L
324.644 82.667 L
325.661 82.667 L
326.678 82.667 L
327.695 82.667 L
328.712 82.667 L
329.73 82.667 L
330.747 82.667 L
331.764 82.667 L
332.781 82.667 L
333.798 225.333 L
334.816 225.333 L
335.833 225.333 L
336.85 225.333 L
337.867 225.333 L
338.884 225.333 L
339.902 225.333 L
340.919 225.333 L
341.936 225.333 L
342.953 225.333 L
343.97 225.333 L
344.988 225.333 L
346.005 225.333 L
347.022 225.333 L
348.039 225.333 L
349.056 225.333 L
350.073 225.333 L
351.091 225.333 L
352.108 225.333 L
353.125 225.333 L
354.142 82.667 L
355.159 82.667 L
356.177 82.667 L
357.194 82.667 L
358.211 82.667 L
359.228 82.667 L
360.245 82.667 L
361.262 82.667 L
362.28 82.667 L
363.297 82.667 L
364.314 225.333 L
365.331 225.333 L
366.348 225.333 L
367.366 225.333 L
368.383 225.333 L
369.4 225.333 L
370.417 225.333 L
371.434 225.333 L
372.452 225.333 L
373.469 225.333 L
374.486 82.667 L
375.503 82.667 L
376.52 82.667 L
377.538 82.667 L
378.555 82.667 L
379.572 82.667 L
380.589 82.667 L
381.606 82.667 L
382.623 82.667 L
383.641 82.667 L
384.658 82.667 L
385.675 82.667 L
386.692 82.667 L
387.709 82.667 L
388.727 82.667 L
389.744 82.667 L
390.761 82.667 L
391.778 82.667 L
392.795 82.667 L
393.813 82.667 L
394.83 225.333 L
395.847 225.333 L
396.864 225.333 L
397.881 225.333 L
398.898 225.333 L
399.916 225.333 L
400.933 225.333 L
401.95 225.333 L
402.967 225.333 L
403.984 225.333 L
405.002 82.667 L
406.019 82.667 L
407.036 82.667 L
408.053 82.667 L
409.07 82.667 L
410.087 82.667 L
411.105 82.667 L
412.122 82.667 L
413.139 82.667 L
414.156 82.667 L
415.173 82.667 L
416.191 82.667 L
417.208 82.667 L
418.225 82.667 L
419.242 82.667 L
420.259 82.667 L
421.277 82.667 L
422.294 82.667 L
423.311 82.667 L
424.328 82.667 L
425.345 225.333 L
426.363 225.333 L
427.38 225.333 L
428.397 225.333 L
429.414 225.333 L
430.431 225.333 L
431.448 225.333 L
432.466 225.333 L
433.483 225.333 L
434.5 225.333 L
435.517 225.333 L
436.534 225.333 L
437.552 225.333 L
438.569 225.333 L
439.586 225.333 L
440.603 225.333 L
441.62 225.333 L
442.637 225.333 L
443.655 225.333 L
444.672 225.333 L
445.689 225.333 L
446.706 225.333 L
447.723 225.333 L
448.741 225.333 L
449.758 225.333 L
450.775 225.333 L
451.792 225.333 L
452.809 225.333 L
453.827 225.333 L
454.844 225.333 L
455.861 82.667 L
456.878 82.667 L
457.895 82.667 L
458.913 82.667 L
459.93 82.667 L
460.947 82.667 L
461.964 82.667 L
462.981 82.667 L
463.998 82.667 L
465.016 82.667 L
466.033 82.667 L
467.05 82.667 L
468.067 82.667 L
469.084 82.667 L
470.102 82.667 L
471.119 82.667 L
472.136 82.667 L
473.153 82.667 L
474.17 82.667 L
475.188 82.667 L
476.205 82.667 L
477.222 82.667 L
478.239 82.667 L
479.256 82.667 L
480.273 82.667 L
481.291 82.667 L
482.308 82.667 L
483.325 82.667 L
484.342 82.667 L
485.359 82.667 L
486.377 225.333 L
487.394 225.333 L
488.411 225.333 L
489.428 225.333 L
490.445 225.333 L
491.462 225.333 L
492.48 225.333 L
493.497 225.333 L
494.514 225.333 L
495.531 225.333 L
496.548 82.667 L
497.566 82.667 L
498.583 82.667 L
499.6 82.667 L
500.617 82.667 L
501.634 82.667 L
502.652 82.667 L
503.669 82.667 L
504.686 82.667 L
505.703 82.667 L
506.72 225.333 L
507.738 225.333 L
508.755 225.333 L
509.772 225.333 L
510.789 225.333 L
511.806 225.333 L
512.823 225.333 L
513.841 225.333 L
514.858 225.333 L
515.875 225.333 L
516.892 225.333 L
517.909 225.333 L
518.927 225.333 L
519.944 225.333 L
520.961 225.333 L
521.978 225.333 L
522.995 225.333 L
524.013 225.333 L
525.03 225.333 L
526.047 225.333 L
527.064 225.333 L
528.081 225.333 L
529.098 225.333 L
530.116 225.333 L
531.133 225.333 L
532.15 225.333 L
533.167 225.333 L
534.184 225.333 L
535.202 225.333 L
536.219 225.333 L
537.236 225.333 L
538.253 225.333 L
539.27 225.333 L
540.288 225.333 L
541.305 225.333 L
542.322 225.333 L
543.339 225.333 L
544.356 225.333 L
545.373 225.333 L
546.391 225.333 L
547.408 82.667 L
548.425 82.667 L
549.442 82.667 L
550.459 82.667 L
551.477 82.667 L
552.494 82.667 L
553.511 82.667 L
554.528 82.667 L
555.545 82.667 L
556.563 82.667 L
557.58 82.667 L
558.597 82.667 L
559.614 82.667 L
560.631 82.667 L
561.648 82.667 L
562.666 82.667 L
563.683 82.667 L
564.7 82.667 L
565.717 82.667 L
566.734 82.667 L
567.752 225.333 L
568.769 225.333 L
569.786 225.333 L
570.803 225.333 L
571.82 225.333 L
572.837 225.333 L
573.855 225.333 L
574.872 225.333 L
575.889 225.333 L
576.906 225.333 L
577.923 82.667 L
578.941 82.667 L
579.958 82.667 L
580.975 82.667 L
581.992 82.667 L
583.009 82.667 L
584.027 82.667 L
585.044 82.667 L
586.061 82.667 L
587.078 82.667 L
588.095 225.333 L
589.112 225.333 L
590.13 225.333 L
591.147 225.333 L
592.164 225.333 L
593.181 225.333 L
594.198 225.333 L
595.216 225.333 L
596.233 225.333 L
597.25 225.333 L
598.267 82.667 L
599.284 82.667 L
600.302 82.667 L
601.319 82.667 L
602.336 82.667 L
603.353 82.667 L
604.37 82.667 L
605.388 82.667 L
606.405 82.667 L
607.422 82.667 L
608.439 82.667 L
609.456 82.667 L
610.473 82.667 L
611.491 82.667 L
612.508 82.667 L
613.525 82.667 L
614.542 82.667 L
615.559 82.667 L
616.577 82.667 L
617.594 82.667 L
618.611 82.667 L
619.628 82.667 L
620.645 82.667 L
621.663 82.667 L
622.68 82.667 L
623.697 82.667 L
624.714 82.667 L
625.731 82.667 L
626.748 82.667 L
627.766 82.667 L
628.783 225.333 L
629.8 225.333 L
630.817 225.333 L
631.834 225.333 L
632.852 225.333 L
633.869 225.333 L
634.886 225.333 L
635.903 225.333 L
636.92 225.333 L
637.938 225.333 L
638.955 225.333 L
639.972 225.333 L
640.989 225.333 L
642.006 225.333 L
643.023 225.333 L
644.041 225.333 L
645.058 225.333 L
646.075 225.333 L
647.092 225.333 L
648.109 225.333 L
649.127 82.667 L
650.144 82.667 L
651.161 82.667 L
652.178 82.667 L
653.195 82.667 L
654.212 82.667 L
655.23 82.667 L
656.247 82.667 L
657.264 82.667 L
658.281 82.667 L
659.298 82.667 L
660.316 82.667 L
661.333 82.667 L
662.35 82.667 L
663.367 82.667 L
664.384 82.667 L
665.402 82.667 L
666.419 82.667 L
667.436 82.667 L
668.453 82.667 L
669.47 82.667 L
670.487 82.667 L
671.505 82.667 L
672.522 82.667 L
673.539 82.667 L
674.556 82.667 L
675.573 82.667 L
676.591 82.667 L
677.608 82.667 L
678.625 82.667 L
679.642 82.667 L
680.659 82.667 L
681.677 82.667 L
682.694 82.667 L
683.711 82.667 L
684.728 82.667 L
685.745 82.667 L
686.763 82.667 L
687.78 82.667 L
688.797 82.667 L
689.814 225.333 L
690.831 225.333 L
691.848 225.333 L
692.866 225.333 L
693.883 225.333 L
694.9 225.333 L
695.917 225.333 L
696.934 225.333 L
697.952 225.333 L
698.969 225.333 L
699.986 82.667 L
701.003 82.667 L
702.02 82.667 L
703.038 82.667 L
704.055 82.667 L
705.072 82.667 L
706.089 82.667 L
707.106 82.667 L
708.123 82.667 L
709.141 82.667 L
710.158 82.667 L
711.175 82.667 L
712.192 82.667 L
713.209 82.667 L
714.227 82.667 L
715.244 82.667 L
716.261 82.667 L
717.278 82.667 L
718.295 82.667 L
719.313 82.667 L
720.33 82.667 L
721.347 82.667 L
722.364 82.667 L
723.381 82.667 L
724.398 82.667 L
725.416 82.667 L
726.433 82.667 L
727.45 82.667 L
728.467 82.667 L
729.484 82.667 L
730.502 82.667 L
731.519 82.667 L
732.536 82.667 L
733.553 82.667 L
734.57 82.667 L
735.587 82.667 L
736.605 82.667 L
737.622 82.667 L
738.639 82.667 L
739.656 82.667 L
740.673 82.667 L
741.691 82.667 L
742.708 82.667 L
743.725 82.667 L
744.742 82.667 L
745.759 82.667 L
746.777 82.667 L
747.794 82.667 L
748.811 82.667 L
S
GR
GS
[0.5 0 0 0.5 0 0] CT
1 GC
N
109 560 M
760 560 L
760 346 L
109 346 L
cp
f
GR
GS
[0.5 0 0 0.5 0 0] CT
0.149 GC
2 setlinecap
1 LJ
N
109 560 M
760 560 L
S
GR
GS
[0.5 0 0 0.5 0 0] CT
0.149 GC
2 setlinecap
1 LJ
N
109 346 M
760 346 L
S
GR
GS
[0.5 0 0 0.5 0 0] CT
0.149 GC
2 setlinecap
1 LJ
N
109 560 M
109 553.49 L
S
GR
GS
[0.5 0 0 0.5 0 0] CT
0.149 GC
2 setlinecap
1 LJ
N
190.375 560 M
190.375 553.49 L
S
GR
GS
[0.5 0 0 0.5 0 0] CT
0.149 GC
2 setlinecap
1 LJ
N
271.75 560 M
271.75 553.49 L
S
GR
GS
[0.5 0 0 0.5 0 0] CT
0.149 GC
2 setlinecap
1 LJ
N
353.125 560 M
353.125 553.49 L
S
GR
GS
[0.5 0 0 0.5 0 0] CT
0.149 GC
2 setlinecap
1 LJ
N
434.5 560 M
434.5 553.49 L
S
GR
GS
[0.5 0 0 0.5 0 0] CT
0.149 GC
2 setlinecap
1 LJ
N
515.875 560 M
515.875 553.49 L
S
GR
GS
[0.5 0 0 0.5 0 0] CT
0.149 GC
2 setlinecap
1 LJ
N
597.25 560 M
597.25 553.49 L
S
GR
GS
[0.5 0 0 0.5 0 0] CT
0.149 GC
2 setlinecap
1 LJ
N
678.625 560 M
678.625 553.49 L
S
GR
GS
[0.5 0 0 0.5 0 0] CT
0.149 GC
2 setlinecap
1 LJ
N
760 560 M
760 553.49 L
S
GR
GS
[0.5 0 0 0.5 0 0] CT
0.149 GC
2 setlinecap
1 LJ
N
109 346 M
109 352.51 L
S
GR
GS
[0.5 0 0 0.5 0 0] CT
0.149 GC
2 setlinecap
1 LJ
N
190.375 346 M
190.375 352.51 L
S
GR
GS
[0.5 0 0 0.5 0 0] CT
0.149 GC
2 setlinecap
1 LJ
N
271.75 346 M
271.75 352.51 L
S
GR
GS
[0.5 0 0 0.5 0 0] CT
0.149 GC
2 setlinecap
1 LJ
N
353.125 346 M
353.125 352.51 L
S
GR
GS
[0.5 0 0 0.5 0 0] CT
0.149 GC
2 setlinecap
1 LJ
N
434.5 346 M
434.5 352.51 L
S
GR
GS
[0.5 0 0 0.5 0 0] CT
0.149 GC
2 setlinecap
1 LJ
N
515.875 346 M
515.875 352.51 L
S
GR
GS
[0.5 0 0 0.5 0 0] CT
0.149 GC
2 setlinecap
1 LJ
N
597.25 346 M
597.25 352.51 L
S
GR
GS
[0.5 0 0 0.5 0 0] CT
0.149 GC
2 setlinecap
1 LJ
N
678.625 346 M
678.625 352.51 L
S
GR
GS
[0.5 0 0 0.5 0 0] CT
0.149 GC
2 setlinecap
1 LJ
N
760 346 M
760 352.51 L
S
GR
GS
[0.5 0 0 0.5 54.5 282.79999] CT
0.149 GC
/Helvetica 18 F
GS
[1 0 0 1 0 0] CT
-13.5 19 moveto 
1 -1 scale
(-40) t 
GR
GR
GS
[0.5 0 0 0.5 95.1875 282.79999] CT
0.149 GC
/Helvetica 18 F
GS
[1 0 0 1 0 0] CT
-13.5 19 moveto 
1 -1 scale
(-30) t 
GR
GR
GS
[0.5 0 0 0.5 135.875 282.79999] CT
0.149 GC
/Helvetica 18 F
GS
[1 0 0 1 0 0] CT
-13.5 19 moveto 
1 -1 scale
(-20) t 
GR
GR
GS
[0.5 0 0 0.5 176.5625 282.79999] CT
0.149 GC
/Helvetica 18 F
GS
[1 0 0 1 0 0] CT
-13.5 19 moveto 
1 -1 scale
(-10) t 
GR
GR
GS
[0.5 0 0 0.5 217.25 282.79999] CT
0.149 GC
/Helvetica 18 F
GS
[1 0 0 1 0 0] CT
-5.5 19 moveto 
1 -1 scale
(0) t 
GR
GR
GS
[0.5 0 0 0.5 257.9375 282.79999] CT
0.149 GC
/Helvetica 18 F
GS
[1 0 0 1 0 0] CT
-10.5 19 moveto 
1 -1 scale
(10) t 
GR
GR
GS
[0.5 0 0 0.5 298.625 282.79999] CT
0.149 GC
/Helvetica 18 F
GS
[1 0 0 1 0 0] CT
-10.5 19 moveto 
1 -1 scale
(20) t 
GR
GR
GS
[0.5 0 0 0.5 339.3125 282.79999] CT
0.149 GC
/Helvetica 18 F
GS
[1 0 0 1 0 0] CT
-10.5 19 moveto 
1 -1 scale
(30) t 
GR
GR
GS
[0.5 0 0 0.5 380 282.79999] CT
0.149 GC
/Helvetica 18 F
GS
[1 0 0 1 0 0] CT
-10.5 19 moveto 
1 -1 scale
(40) t 
GR
GR
GS
[0.5 0 0 0.5 217.25015 294.79999] CT
0.149 GC
/Helvetica 19.8 F
GS
[1 0 0 1 0 0] CT
-63 20 moveto 
1 -1 scale
(Frequency bin) t 
GR
GR
GS
[0.5 0 0 0.5 0 0] CT
0.149 GC
2 setlinecap
1 LJ
N
109 560 M
109 346 L
S
GR
GS
[0.5 0 0 0.5 0 0] CT
0.149 GC
2 setlinecap
1 LJ
N
760 560 M
760 346 L
S
GR
GS
[0.5 0 0 0.5 0 0] CT
0.149 GC
2 setlinecap
1 LJ
N
109 560 M
115.51 560 L
S
GR
GS
[0.5 0 0 0.5 0 0] CT
0.149 GC
2 setlinecap
1 LJ
N
109 512.444 M
115.51 512.444 L
S
GR
GS
[0.5 0 0 0.5 0 0] CT
0.149 GC
2 setlinecap
1 LJ
N
109 464.889 M
115.51 464.889 L
S
GR
GS
[0.5 0 0 0.5 0 0] CT
0.149 GC
2 setlinecap
1 LJ
N
109 417.333 M
115.51 417.333 L
S
GR
GS
[0.5 0 0 0.5 0 0] CT
0.149 GC
2 setlinecap
1 LJ
N
109 369.778 M
115.51 369.778 L
S
GR
GS
[0.5 0 0 0.5 0 0] CT
0.149 GC
2 setlinecap
1 LJ
N
760 560 M
753.49 560 L
S
GR
GS
[0.5 0 0 0.5 0 0] CT
0.149 GC
2 setlinecap
1 LJ
N
760 512.444 M
753.49 512.444 L
S
GR
GS
[0.5 0 0 0.5 0 0] CT
0.149 GC
2 setlinecap
1 LJ
N
760 464.889 M
753.49 464.889 L
S
GR
GS
[0.5 0 0 0.5 0 0] CT
0.149 GC
2 setlinecap
1 LJ
N
760 417.333 M
753.49 417.333 L
S
GR
GS
[0.5 0 0 0.5 0 0] CT
0.149 GC
2 setlinecap
1 LJ
N
760 369.778 M
753.49 369.778 L
S
GR
GS
[0.5 0 0 0.5 51.7 280] CT
0.149 GC
/Helvetica 18 F
GS
[1 0 0 1 0 0] CT
-11 7.5 moveto 
1 -1 scale
(0) t 
GR
GR
GS
[0.5 0 0 0.5 51.7 256.22223] CT
0.149 GC
/Helvetica 18 F
GS
[1 0 0 1 0 0] CT
-11 7.5 moveto 
1 -1 scale
(2) t 
GR
GR
GS
[0.5 0 0 0.5 51.7 232.44444] CT
0.149 GC
/Helvetica 18 F
GS
[1 0 0 1 0 0] CT
-11 7.5 moveto 
1 -1 scale
(4) t 
GR
GR
GS
[0.5 0 0 0.5 51.7 208.66667] CT
0.149 GC
/Helvetica 18 F
GS
[1 0 0 1 0 0] CT
-11 7.5 moveto 
1 -1 scale
(6) t 
GR
GR
GS
[0.5 0 0 0.5 51.7 184.88889] CT
0.149 GC
/Helvetica 18 F
GS
[1 0 0 1 0 0] CT
-11 7.5 moveto 
1 -1 scale
(8) t 
GR
GR
GS
[0 -0.5 0.5 0 44.2 226.49995] CT
0.149 GC
/Helvetica 19.8 F
GS
[1 0 0 1 0 0] CT
-83.5 -5 moveto 
1 -1 scale
(Spectral Amplitude) t 
GR
GR
GS
[0.5 0 0 0.5 217.25021 171.7625] CT
/Helvetica-Bold 19.8 F
GS
[1 0 0 1 0 0] CT
-88 -5 moveto 
1 -1 scale
(Frequency domain) t 
GR
GR
GS
[0.5 0 0 0.5 0 0] CT
0 0.447 0.741 RC
1 LJ
3 LW
N
182.238 369.778 M
190.375 369.778 L
198.512 369.778 L
206.65 369.778 L
214.788 369.778 L
222.925 369.778 L
231.063 369.778 L
239.2 369.778 L
247.337 369.778 L
255.475 369.778 L
263.612 369.778 L
271.75 369.778 L
279.888 369.778 L
288.025 369.778 L
296.163 369.778 L
304.3 369.778 L
312.438 369.778 L
320.575 369.778 L
328.712 369.778 L
336.85 369.778 L
344.987 369.778 L
353.125 369.778 L
361.263 369.778 L
369.4 369.778 L
377.538 369.778 L
385.675 369.778 L
393.813 369.778 L
401.95 369.778 L
410.087 369.778 L
418.225 369.778 L
426.362 369.778 L
434.5 536.222 L
442.638 369.778 L
450.775 369.778 L
458.913 369.778 L
467.05 369.778 L
475.188 369.778 L
483.325 369.778 L
491.462 369.778 L
499.6 369.778 L
507.737 369.778 L
515.875 369.778 L
524.013 369.778 L
532.15 369.778 L
540.287 369.778 L
548.425 369.778 L
556.563 369.778 L
564.7 369.778 L
572.838 369.778 L
580.975 369.778 L
589.112 369.778 L
597.25 369.778 L
605.388 369.778 L
613.525 369.778 L
621.662 369.778 L
629.8 369.778 L
637.938 369.778 L
646.075 369.778 L
654.213 369.778 L
662.35 369.778 L
670.487 369.778 L
678.625 369.778 L
686.763 369.778 L
S
GR
%%Trailer
%%Pages: 1
%%EOF
