%!PS-Adobe-3.0 EPSF-3.0
%%Creator: (MATLAB, The Mathworks, Inc. Version 9.4.0.813654 \(R2018a\). Operating System: Windows 10)
%%Title: C:/Users/robbe/OneDrive/VUB/Thesis/OscMeasurements/BALCAP/ALL0003/shuttlingBigDifference.eps
%%CreationDate: 2019-05-14T18:35:20
%%Pages: (atend)
%%BoundingBox: 0 0 420 315
%%LanguageLevel: 3
%%EndComments
%%BeginProlog
%%BeginResource: procset (Apache XML Graphics Std ProcSet) 1.2 0
%%Version: 1.2 0
%%Copyright: (Copyright 2001-2003,2010 The Apache Software Foundation. License terms: http://www.apache.org/licenses/LICENSE-2.0)
/bd{bind def}bind def
/ld{load def}bd
/GR/grestore ld
/GS/gsave ld
/RM/rmoveto ld
/C/curveto ld
/t/show ld
/L/lineto ld
/ML/setmiterlimit ld
/CT/concat ld
/f/fill ld
/N/newpath ld
/S/stroke ld
/CC/setcmykcolor ld
/A/ashow ld
/cp/closepath ld
/RC/setrgbcolor ld
/LJ/setlinejoin ld
/GC/setgray ld
/LW/setlinewidth ld
/M/moveto ld
/re {4 2 roll M
1 index 0 rlineto
0 exch rlineto
neg 0 rlineto
cp } bd
/_ctm matrix def
/_tm matrix def
/BT { _ctm currentmatrix pop matrix _tm copy pop 0 0 moveto } bd
/ET { _ctm setmatrix } bd
/iTm { _ctm setmatrix _tm concat } bd
/Tm { _tm astore pop iTm 0 0 moveto } bd
/ux 0.0 def
/uy 0.0 def
/F {
  /Tp exch def
  /Tf exch def
  Tf findfont Tp scalefont setfont
  /cf Tf def  /cs Tp def
} bd
/ULS {currentpoint /uy exch def /ux exch def} bd
/ULE {
  /Tcx currentpoint pop def
  gsave
  newpath
  cf findfont cs scalefont dup
  /FontMatrix get 0 get /Ts exch def /FontInfo get dup
  /UnderlinePosition get Ts mul /To exch def
  /UnderlineThickness get Ts mul /Tt exch def
  ux uy To add moveto  Tcx uy To add lineto
  Tt setlinewidth stroke
  grestore
} bd
/OLE {
  /Tcx currentpoint pop def
  gsave
  newpath
  cf findfont cs scalefont dup
  /FontMatrix get 0 get /Ts exch def /FontInfo get dup
  /UnderlinePosition get Ts mul /To exch def
  /UnderlineThickness get Ts mul /Tt exch def
  ux uy To add cs add moveto Tcx uy To add cs add lineto
  Tt setlinewidth stroke
  grestore
} bd
/SOE {
  /Tcx currentpoint pop def
  gsave
  newpath
  cf findfont cs scalefont dup
  /FontMatrix get 0 get /Ts exch def /FontInfo get dup
  /UnderlinePosition get Ts mul /To exch def
  /UnderlineThickness get Ts mul /Tt exch def
  ux uy To add cs 10 mul 26 idiv add moveto Tcx uy To add cs 10 mul 26 idiv add lineto
  Tt setlinewidth stroke
  grestore
} bd
/QT {
/Y22 exch store
/X22 exch store
/Y21 exch store
/X21 exch store
currentpoint
/Y21 load 2 mul add 3 div exch
/X21 load 2 mul add 3 div exch
/X21 load 2 mul /X22 load add 3 div
/Y21 load 2 mul /Y22 load add 3 div
/X22 load /Y22 load curveto
} bd
/SSPD {
dup length /d exch dict def
{
/v exch def
/k exch def
currentpagedevice k known {
/cpdv currentpagedevice k get def
v cpdv ne {
/upd false def
/nullv v type /nulltype eq def
/nullcpdv cpdv type /nulltype eq def
nullv nullcpdv or
{
/upd true def
} {
/sametype v type cpdv type eq def
sametype {
v type /arraytype eq {
/vlen v length def
/cpdvlen cpdv length def
vlen cpdvlen eq {
0 1 vlen 1 sub {
/i exch def
/obj v i get def
/cpdobj cpdv i get def
obj cpdobj ne {
/upd true def
exit
} if
} for
} {
/upd true def
} ifelse
} {
v type /dicttype eq {
v {
/dv exch def
/dk exch def
/cpddv cpdv dk get def
dv cpddv ne {
/upd true def
exit
} if
} forall
} {
/upd true def
} ifelse
} ifelse
} if
} ifelse
upd true eq {
d k v put
} if
} if
} if
} forall
d length 0 gt {
d setpagedevice
} if
} bd
/RE { % /NewFontName [NewEncodingArray] /FontName RE -
  findfont dup length dict begin
  {
    1 index /FID ne
    {def} {pop pop} ifelse
  } forall
  /Encoding exch def
  /FontName 1 index def
  currentdict definefont pop
  end
} bind def
%%EndResource
%%BeginResource: procset (Apache XML Graphics EPS ProcSet) 1.0 0
%%Version: 1.0 0
%%Copyright: (Copyright 2002-2003 The Apache Software Foundation. License terms: http://www.apache.org/licenses/LICENSE-2.0)
/BeginEPSF { %def
/b4_Inc_state save def         % Save state for cleanup
/dict_count countdictstack def % Count objects on dict stack
/op_count count 1 sub def      % Count objects on operand stack
userdict begin                 % Push userdict on dict stack
/showpage { } def              % Redefine showpage, { } = null proc
0 setgray 0 setlinecap         % Prepare graphics state
1 setlinewidth 0 setlinejoin
10 setmiterlimit [ ] 0 setdash newpath
/languagelevel where           % If level not equal to 1 then
{pop languagelevel             % set strokeadjust and
1 ne                           % overprint to their defaults.
{false setstrokeadjust false setoverprint
} if
} if
} bd
/EndEPSF { %def
count op_count sub {pop} repeat            % Clean up stacks
countdictstack dict_count sub {end} repeat
b4_Inc_state restore
} bd
%%EndResource
%FOPBeginFontDict
%%IncludeResource: font Courier-Oblique
%%IncludeResource: font Courier-BoldOblique
%%IncludeResource: font Courier-Bold
%%IncludeResource: font ZapfDingbats
%%IncludeResource: font Symbol
%%IncludeResource: font Helvetica
%%IncludeResource: font Helvetica-Oblique
%%IncludeResource: font Helvetica-Bold
%%IncludeResource: font Helvetica-BoldOblique
%%IncludeResource: font Times-Roman
%%IncludeResource: font Times-Italic
%%IncludeResource: font Times-Bold
%%IncludeResource: font Times-BoldItalic
%%IncludeResource: font Courier
%FOPEndFontDict
%%BeginResource: encoding WinAnsiEncoding
/WinAnsiEncoding [
/.notdef /.notdef /.notdef /.notdef /.notdef
/.notdef /.notdef /.notdef /.notdef /.notdef
/.notdef /.notdef /.notdef /.notdef /.notdef
/.notdef /.notdef /.notdef /.notdef /.notdef
/.notdef /.notdef /.notdef /.notdef /.notdef
/.notdef /.notdef /.notdef /.notdef /.notdef
/.notdef /.notdef /space /exclam /quotedbl
/numbersign /dollar /percent /ampersand /quotesingle
/parenleft /parenright /asterisk /plus /comma
/hyphen /period /slash /zero /one
/two /three /four /five /six
/seven /eight /nine /colon /semicolon
/less /equal /greater /question /at
/A /B /C /D /E
/F /G /H /I /J
/K /L /M /N /O
/P /Q /R /S /T
/U /V /W /X /Y
/Z /bracketleft /backslash /bracketright /asciicircum
/underscore /quoteleft /a /b /c
/d /e /f /g /h
/i /j /k /l /m
/n /o /p /q /r
/s /t /u /v /w
/x /y /z /braceleft /bar
/braceright /asciitilde /bullet /Euro /bullet
/quotesinglbase /florin /quotedblbase /ellipsis /dagger
/daggerdbl /circumflex /perthousand /Scaron /guilsinglleft
/OE /bullet /Zcaron /bullet /bullet
/quoteleft /quoteright /quotedblleft /quotedblright /bullet
/endash /emdash /asciitilde /trademark /scaron
/guilsinglright /oe /bullet /zcaron /Ydieresis
/space /exclamdown /cent /sterling /currency
/yen /brokenbar /section /dieresis /copyright
/ordfeminine /guillemotleft /logicalnot /sfthyphen /registered
/macron /degree /plusminus /twosuperior /threesuperior
/acute /mu /paragraph /middot /cedilla
/onesuperior /ordmasculine /guillemotright /onequarter /onehalf
/threequarters /questiondown /Agrave /Aacute /Acircumflex
/Atilde /Adieresis /Aring /AE /Ccedilla
/Egrave /Eacute /Ecircumflex /Edieresis /Igrave
/Iacute /Icircumflex /Idieresis /Eth /Ntilde
/Ograve /Oacute /Ocircumflex /Otilde /Odieresis
/multiply /Oslash /Ugrave /Uacute /Ucircumflex
/Udieresis /Yacute /Thorn /germandbls /agrave
/aacute /acircumflex /atilde /adieresis /aring
/ae /ccedilla /egrave /eacute /ecircumflex
/edieresis /igrave /iacute /icircumflex /idieresis
/eth /ntilde /ograve /oacute /ocircumflex
/otilde /odieresis /divide /oslash /ugrave
/uacute /ucircumflex /udieresis /yacute /thorn
/ydieresis
] def
%%EndResource
%FOPBeginFontReencode
/Courier-Oblique findfont
dup length dict begin
  {1 index /FID ne {def} {pop pop} ifelse} forall
  /Encoding WinAnsiEncoding def
  currentdict
end
/Courier-Oblique exch definefont pop
/Courier-BoldOblique findfont
dup length dict begin
  {1 index /FID ne {def} {pop pop} ifelse} forall
  /Encoding WinAnsiEncoding def
  currentdict
end
/Courier-BoldOblique exch definefont pop
/Courier-Bold findfont
dup length dict begin
  {1 index /FID ne {def} {pop pop} ifelse} forall
  /Encoding WinAnsiEncoding def
  currentdict
end
/Courier-Bold exch definefont pop
/Helvetica findfont
dup length dict begin
  {1 index /FID ne {def} {pop pop} ifelse} forall
  /Encoding WinAnsiEncoding def
  currentdict
end
/Helvetica exch definefont pop
/Helvetica-Oblique findfont
dup length dict begin
  {1 index /FID ne {def} {pop pop} ifelse} forall
  /Encoding WinAnsiEncoding def
  currentdict
end
/Helvetica-Oblique exch definefont pop
/Helvetica-Bold findfont
dup length dict begin
  {1 index /FID ne {def} {pop pop} ifelse} forall
  /Encoding WinAnsiEncoding def
  currentdict
end
/Helvetica-Bold exch definefont pop
/Helvetica-BoldOblique findfont
dup length dict begin
  {1 index /FID ne {def} {pop pop} ifelse} forall
  /Encoding WinAnsiEncoding def
  currentdict
end
/Helvetica-BoldOblique exch definefont pop
/Times-Roman findfont
dup length dict begin
  {1 index /FID ne {def} {pop pop} ifelse} forall
  /Encoding WinAnsiEncoding def
  currentdict
end
/Times-Roman exch definefont pop
/Times-Italic findfont
dup length dict begin
  {1 index /FID ne {def} {pop pop} ifelse} forall
  /Encoding WinAnsiEncoding def
  currentdict
end
/Times-Italic exch definefont pop
/Times-Bold findfont
dup length dict begin
  {1 index /FID ne {def} {pop pop} ifelse} forall
  /Encoding WinAnsiEncoding def
  currentdict
end
/Times-Bold exch definefont pop
/Times-BoldItalic findfont
dup length dict begin
  {1 index /FID ne {def} {pop pop} ifelse} forall
  /Encoding WinAnsiEncoding def
  currentdict
end
/Times-BoldItalic exch definefont pop
/Courier findfont
dup length dict begin
  {1 index /FID ne {def} {pop pop} ifelse} forall
  /Encoding WinAnsiEncoding def
  currentdict
end
/Courier exch definefont pop
%FOPEndFontReencode
%%EndProlog
%%Page: 1 1
%%PageBoundingBox: 0 0 420 315
%%BeginPageSetup
[1 0 0 -1 0 315] CT
%%EndPageSetup
GS
[0.5 0 0 0.5 0 0] CT
1 GC
N
0 0 840 630 re
f
GR
GS
[0.5 0 0 0.5 0 0] CT
1 GC
N
0 0 840 630 re
f
GR
GS
[0.5 0 0 0.5 0 0] CT
1 GC
N
109 561 M
760 561 L
760 47 L
109 47 L
cp
f
GR
GS
[0.5 0 0 0.5 0 0] CT
0.149 GC
2 setlinecap
1 LJ
N
109 561 M
760 561 L
S
GR
GS
[0.5 0 0 0.5 0 0] CT
0.149 GC
2 setlinecap
1 LJ
N
109 47 M
760 47 L
S
GR
GS
[0.5 0 0 0.5 0 0] CT
0.149 GC
2 setlinecap
1 LJ
N
123.416 561 M
123.416 554.49 L
S
GR
GS
[0.5 0 0 0.5 0 0] CT
0.149 GC
2 setlinecap
1 LJ
N
280.218 561 M
280.218 554.49 L
S
GR
GS
[0.5 0 0 0.5 0 0] CT
0.149 GC
2 setlinecap
1 LJ
N
437.02 561 M
437.02 554.49 L
S
GR
GS
[0.5 0 0 0.5 0 0] CT
0.149 GC
2 setlinecap
1 LJ
N
593.821 561 M
593.821 554.49 L
S
GR
GS
[0.5 0 0 0.5 0 0] CT
0.149 GC
2 setlinecap
1 LJ
N
750.623 561 M
750.623 554.49 L
S
GR
GS
[0.5 0 0 0.5 0 0] CT
0.149 GC
2 setlinecap
1 LJ
N
123.416 47 M
123.416 53.51 L
S
GR
GS
[0.5 0 0 0.5 0 0] CT
0.149 GC
2 setlinecap
1 LJ
N
280.218 47 M
280.218 53.51 L
S
GR
GS
[0.5 0 0 0.5 0 0] CT
0.149 GC
2 setlinecap
1 LJ
N
437.02 47 M
437.02 53.51 L
S
GR
GS
[0.5 0 0 0.5 0 0] CT
0.149 GC
2 setlinecap
1 LJ
N
593.821 47 M
593.821 53.51 L
S
GR
GS
[0.5 0 0 0.5 0 0] CT
0.149 GC
2 setlinecap
1 LJ
N
750.623 47 M
750.623 53.51 L
S
GR
GS
[0.5 0 0 0.5 61.70813 284.5] CT
0.149 GC
/Helvetica 20 F
GS
[1 0 0 1 0 0] CT
-14.5 21 moveto 
1 -1 scale
(-10) t 
GR
GR
GS
[0.5 0 0 0.5 140.10896 284.5] CT
0.149 GC
/Helvetica 20 F
GS
[1 0 0 1 0 0] CT
-9 21 moveto 
1 -1 scale
(-5) t 
GR
GR
GS
[0.5 0 0 0.5 218.50981 284.5] CT
0.149 GC
/Helvetica 20 F
GS
[1 0 0 1 0 0] CT
-6 21 moveto 
1 -1 scale
(0) t 
GR
GR
GS
[0.5 0 0 0.5 296.91064 284.5] CT
0.149 GC
/Helvetica 20 F
GS
[1 0 0 1 0 0] CT
-6 21 moveto 
1 -1 scale
(5) t 
GR
GR
GS
[0.5 0 0 0.5 375.31149 284.5] CT
0.149 GC
/Helvetica 20 F
GS
[1 0 0 1 0 0] CT
-11.5 21 moveto 
1 -1 scale
(10) t 
GR
GR
GS
[0.5 0 0 0.5 217.25015 298.5] CT
0.149 GC
/Helvetica 22 F
GS
[1 0 0 1 0 0] CT
-49.5 23 moveto 
1 -1 scale
(Time \(ms\)) t 
GR
GR
GS
[0.5 0 0 0.5 0 0] CT
0.149 GC
2 setlinecap
1 LJ
N
109 561 M
109 47 L
S
GR
GS
[0.5 0 0 0.5 0 0] CT
0.149 GC
2 setlinecap
1 LJ
N
760 561 M
760 47 L
S
GR
GS
[0.5 0 0 0.5 0 0] CT
0.149 GC
2 setlinecap
1 LJ
N
109 561 M
115.51 561 L
S
GR
GS
[0.5 0 0 0.5 0 0] CT
0.149 GC
2 setlinecap
1 LJ
N
109 509.298 M
115.51 509.298 L
S
GR
GS
[0.5 0 0 0.5 0 0] CT
0.149 GC
2 setlinecap
1 LJ
N
109 457.596 M
115.51 457.596 L
S
GR
GS
[0.5 0 0 0.5 0 0] CT
0.149 GC
2 setlinecap
1 LJ
N
109 405.894 M
115.51 405.894 L
S
GR
GS
[0.5 0 0 0.5 0 0] CT
0.149 GC
2 setlinecap
1 LJ
N
109 354.192 M
115.51 354.192 L
S
GR
GS
[0.5 0 0 0.5 0 0] CT
0.149 GC
2 setlinecap
1 LJ
N
109 302.489 M
115.51 302.489 L
S
GR
GS
[0.5 0 0 0.5 0 0] CT
0.149 GC
2 setlinecap
1 LJ
N
109 250.787 M
115.51 250.787 L
S
GR
GS
[0.5 0 0 0.5 0 0] CT
0.149 GC
2 setlinecap
1 LJ
N
109 199.085 M
115.51 199.085 L
S
GR
GS
[0.5 0 0 0.5 0 0] CT
0.149 GC
2 setlinecap
1 LJ
N
109 147.383 M
115.51 147.383 L
S
GR
GS
[0.5 0 0 0.5 0 0] CT
0.149 GC
2 setlinecap
1 LJ
N
109 95.681 M
115.51 95.681 L
S
GR
GS
[0.5 0 0 0.5 0 0] CT
0.149 GC
2 setlinecap
1 LJ
N
760 561 M
753.49 561 L
S
GR
GS
[0.5 0 0 0.5 0 0] CT
0.149 GC
2 setlinecap
1 LJ
N
760 509.298 M
753.49 509.298 L
S
GR
GS
[0.5 0 0 0.5 0 0] CT
0.149 GC
2 setlinecap
1 LJ
N
760 457.596 M
753.49 457.596 L
S
GR
GS
[0.5 0 0 0.5 0 0] CT
0.149 GC
2 setlinecap
1 LJ
N
760 405.894 M
753.49 405.894 L
S
GR
GS
[0.5 0 0 0.5 0 0] CT
0.149 GC
2 setlinecap
1 LJ
N
760 354.192 M
753.49 354.192 L
S
GR
GS
[0.5 0 0 0.5 0 0] CT
0.149 GC
2 setlinecap
1 LJ
N
760 302.489 M
753.49 302.489 L
S
GR
GS
[0.5 0 0 0.5 0 0] CT
0.149 GC
2 setlinecap
1 LJ
N
760 250.787 M
753.49 250.787 L
S
GR
GS
[0.5 0 0 0.5 0 0] CT
0.149 GC
2 setlinecap
1 LJ
N
760 199.085 M
753.49 199.085 L
S
GR
GS
[0.5 0 0 0.5 0 0] CT
0.149 GC
2 setlinecap
1 LJ
N
760 147.383 M
753.49 147.383 L
S
GR
GS
[0.5 0 0 0.5 0 0] CT
0.149 GC
2 setlinecap
1 LJ
N
760 95.681 M
753.49 95.681 L
S
GR
GS
[0.5 0 0 0.5 50.5 280.5] CT
0.149 GC
/Helvetica 20 F
GS
[1 0 0 1 0 0] CT
-12 8 moveto 
1 -1 scale
(3) t 
GR
GR
GS
[0.5 0 0 0.5 50.5 254.64894] CT
0.149 GC
/Helvetica 20 F
GS
[1 0 0 1 0 0] CT
-28 8 moveto 
1 -1 scale
(3.2) t 
GR
GR
GS
[0.5 0 0 0.5 50.5 228.79788] CT
0.149 GC
/Helvetica 20 F
GS
[1 0 0 1 0 0] CT
-28 8 moveto 
1 -1 scale
(3.4) t 
GR
GR
GS
[0.5 0 0 0.5 50.5 202.94685] CT
0.149 GC
/Helvetica 20 F
GS
[1 0 0 1 0 0] CT
-28 8 moveto 
1 -1 scale
(3.6) t 
GR
GR
GS
[0.5 0 0 0.5 50.5 177.09579] CT
0.149 GC
/Helvetica 20 F
GS
[1 0 0 1 0 0] CT
-28 8 moveto 
1 -1 scale
(3.8) t 
GR
GR
GS
[0.5 0 0 0.5 50.5 151.24474] CT
0.149 GC
/Helvetica 20 F
GS
[1 0 0 1 0 0] CT
-12 8 moveto 
1 -1 scale
(4) t 
GR
GR
GS
[0.5 0 0 0.5 50.5 125.39371] CT
0.149 GC
/Helvetica 20 F
GS
[1 0 0 1 0 0] CT
-28 8 moveto 
1 -1 scale
(4.2) t 
GR
GR
GS
[0.5 0 0 0.5 50.5 99.54262] CT
0.149 GC
/Helvetica 20 F
GS
[1 0 0 1 0 0] CT
-28 8 moveto 
1 -1 scale
(4.4) t 
GR
GR
GS
[0.5 0 0 0.5 50.5 73.69159] CT
0.149 GC
/Helvetica 20 F
GS
[1 0 0 1 0 0] CT
-28 8 moveto 
1 -1 scale
(4.6) t 
GR
GR
GS
[0.5 0 0 0.5 50.5 47.8405] CT
0.149 GC
/Helvetica 20 F
GS
[1 0 0 1 0 0] CT
-28 8 moveto 
1 -1 scale
(4.8) t 
GR
GR
GS
[0 -0.5 0.5 0 33.5 151.99988] CT
0.149 GC
/Helvetica 22 F
GS
[1 0 0 1 0 0] CT
-55.5 -5 moveto 
1 -1 scale
(Voltage \(V\)) t 
GR
GR
GS
[0.5 0 0 0.5 217.25021 22.125] CT
/Helvetica-Bold 22 F
GS
[1 0 0 1 0 0] CT
-122.5 -5 moveto 
1 -1 scale
(Shuttling between cells) t 
GR
GR
GS
[0.5 0 0 0.5 0 0] CT
0 0.447 0.741 RC
1 LJ
3 LW
N
108.922 395.553 M
108.99 395.553 L
109.618 395.553 L
110.245 395.553 L
110.872 395.553 L
111.499 395.553 L
112.127 395.553 L
112.754 395.553 L
113.381 395.553 L
114.008 395.553 L
114.635 354.192 L
115.263 323.17 L
115.89 302.489 L
116.517 292.149 L
117.144 281.809 L
117.771 230.106 L
118.399 230.106 L
119.026 230.106 L
119.653 240.447 L
120.28 240.447 L
120.907 240.447 L
121.535 240.447 L
122.162 230.106 L
122.789 240.447 L
123.416 240.447 L
124.043 240.447 L
124.671 230.106 L
125.298 240.447 L
125.925 230.106 L
126.552 240.447 L
127.179 230.106 L
127.807 240.447 L
128.434 240.447 L
129.061 240.447 L
129.688 240.447 L
130.316 240.447 L
130.943 240.447 L
131.57 240.447 L
132.197 230.106 L
132.824 230.106 L
133.452 240.447 L
134.079 240.447 L
134.706 240.447 L
135.333 230.106 L
135.96 240.447 L
136.588 240.447 L
137.215 240.447 L
137.842 240.447 L
138.469 240.447 L
139.096 240.447 L
139.724 240.447 L
140.351 240.447 L
140.978 230.106 L
141.605 240.447 L
142.232 240.447 L
142.86 240.447 L
143.487 240.447 L
144.114 240.447 L
144.741 230.106 L
145.368 240.447 L
145.996 240.447 L
146.623 240.447 L
147.25 240.447 L
147.877 240.447 L
148.505 240.447 L
149.132 240.447 L
149.759 240.447 L
150.386 240.447 L
151.013 240.447 L
151.641 240.447 L
152.268 230.106 L
152.895 240.447 L
153.522 240.447 L
154.149 240.447 L
154.777 240.447 L
155.404 240.447 L
156.031 240.447 L
156.658 240.447 L
157.285 240.447 L
157.913 240.447 L
158.54 188.745 L
159.167 271.468 L
159.794 302.489 L
160.421 312.83 L
161.049 333.511 L
161.676 343.851 L
162.303 354.192 L
162.93 364.532 L
163.557 364.532 L
164.185 364.532 L
164.812 374.872 L
165.439 374.872 L
166.066 416.234 L
166.694 405.894 L
167.321 395.553 L
167.948 395.553 L
168.575 405.894 L
169.202 405.894 L
169.83 395.553 L
170.457 395.553 L
171.084 395.553 L
171.711 395.553 L
172.338 395.553 L
172.966 395.553 L
173.593 395.553 L
174.22 395.553 L
174.847 395.553 L
175.474 395.553 L
176.102 395.553 L
176.729 395.553 L
177.356 395.553 L
177.983 385.213 L
178.61 395.553 L
179.238 395.553 L
179.865 395.553 L
180.492 395.553 L
181.119 395.553 L
181.746 395.553 L
182.374 395.553 L
183.001 385.213 L
183.628 395.553 L
184.255 395.553 L
184.883 395.553 L
185.51 395.553 L
186.137 395.553 L
186.764 395.553 L
187.391 395.553 L
188.019 395.553 L
188.646 395.553 L
189.273 395.553 L
189.9 395.553 L
190.527 395.553 L
191.155 395.553 L
191.782 395.553 L
192.409 395.553 L
193.036 395.553 L
193.663 395.553 L
194.291 385.213 L
194.918 395.553 L
195.545 395.553 L
196.172 395.553 L
196.799 395.553 L
197.427 395.553 L
198.054 385.213 L
198.681 395.553 L
199.308 395.553 L
199.935 395.553 L
200.563 395.553 L
201.19 395.553 L
201.817 395.553 L
202.444 395.553 L
203.072 540.319 L
203.699 374.872 L
204.326 343.851 L
204.953 312.83 L
205.58 302.489 L
206.208 292.149 L
206.835 281.809 L
207.462 230.106 L
208.089 219.766 L
208.716 230.106 L
209.344 240.447 L
209.971 230.106 L
210.598 230.106 L
211.225 230.106 L
211.852 240.447 L
212.48 240.447 L
213.107 240.447 L
213.734 240.447 L
214.361 230.106 L
214.988 240.447 L
215.616 230.106 L
216.243 240.447 L
216.87 230.106 L
217.497 240.447 L
218.124 240.447 L
218.752 230.106 L
219.379 240.447 L
220.006 230.106 L
220.633 240.447 L
221.26 240.447 L
221.888 240.447 L
222.515 230.106 L
223.142 240.447 L
223.769 230.106 L
224.397 230.106 L
225.024 240.447 L
225.651 240.447 L
226.278 240.447 L
226.905 240.447 L
227.533 240.447 L
228.16 230.106 L
228.787 240.447 L
229.414 240.447 L
230.041 240.447 L
230.669 240.447 L
231.296 240.447 L
231.923 240.447 L
232.55 230.106 L
233.177 240.447 L
233.805 230.106 L
234.432 240.447 L
235.059 240.447 L
235.686 230.106 L
236.313 230.106 L
236.941 240.447 L
237.568 240.447 L
238.195 240.447 L
238.822 240.447 L
239.449 240.447 L
240.077 240.447 L
240.704 240.447 L
241.331 230.106 L
241.958 240.447 L
242.586 240.447 L
243.213 240.447 L
243.84 240.447 L
244.467 230.106 L
245.094 240.447 L
245.722 240.447 L
246.349 230.106 L
246.976 230.106 L
247.603 240.447 L
248.23 178.404 L
248.858 271.468 L
249.485 292.149 L
250.112 312.83 L
250.739 333.511 L
251.366 343.851 L
251.994 354.192 L
252.621 354.192 L
253.248 364.532 L
253.875 364.532 L
254.502 364.532 L
255.13 374.872 L
255.757 416.234 L
256.384 395.553 L
257.011 395.553 L
257.638 395.553 L
258.266 395.553 L
258.893 405.894 L
259.52 405.894 L
260.147 395.553 L
260.775 395.553 L
261.402 395.553 L
262.029 395.553 L
262.656 395.553 L
263.283 395.553 L
263.911 395.553 L
264.538 395.553 L
265.165 405.894 L
265.792 395.553 L
266.419 395.553 L
267.047 395.553 L
267.674 395.553 L
268.301 395.553 L
268.928 385.213 L
269.555 395.553 L
270.183 385.213 L
270.81 395.553 L
271.437 395.553 L
272.064 395.553 L
272.691 395.553 L
273.319 395.553 L
273.946 395.553 L
274.573 395.553 L
275.2 385.213 L
275.827 395.553 L
276.455 395.553 L
277.082 395.553 L
277.709 395.553 L
278.336 395.553 L
278.964 395.553 L
279.591 395.553 L
280.218 395.553 L
280.845 395.553 L
281.472 395.553 L
282.1 395.553 L
282.727 395.553 L
283.354 395.553 L
283.981 395.553 L
284.608 395.553 L
285.236 395.553 L
285.863 395.553 L
286.49 395.553 L
287.117 395.553 L
287.744 385.213 L
288.372 395.553 L
288.999 395.553 L
289.626 395.553 L
290.253 395.553 L
290.88 395.553 L
291.508 395.553 L
292.135 395.553 L
292.762 550.66 L
293.389 385.213 L
294.016 343.851 L
294.644 323.17 L
295.271 302.489 L
295.898 292.149 L
296.525 302.489 L
297.153 240.447 L
297.78 209.426 L
298.407 240.447 L
299.034 240.447 L
299.661 240.447 L
300.289 240.447 L
300.916 240.447 L
301.543 240.447 L
302.17 230.106 L
302.797 240.447 L
303.425 240.447 L
304.052 240.447 L
304.679 240.447 L
305.306 240.447 L
305.933 230.106 L
306.561 240.447 L
307.188 240.447 L
307.815 230.106 L
308.442 240.447 L
309.069 240.447 L
309.697 240.447 L
310.324 240.447 L
310.951 240.447 L
311.578 240.447 L
312.205 240.447 L
312.833 240.447 L
313.46 240.447 L
314.087 240.447 L
314.714 240.447 L
315.342 240.447 L
315.969 240.447 L
316.596 240.447 L
317.223 240.447 L
317.85 240.447 L
318.478 240.447 L
319.105 240.447 L
319.732 240.447 L
320.359 240.447 L
320.986 240.447 L
321.614 240.447 L
322.241 230.106 L
322.868 240.447 L
323.495 240.447 L
324.122 240.447 L
324.75 240.447 L
325.377 240.447 L
326.004 240.447 L
326.631 240.447 L
327.258 240.447 L
327.886 240.447 L
328.513 240.447 L
329.14 240.447 L
329.767 240.447 L
330.394 240.447 L
331.022 240.447 L
331.649 240.447 L
332.276 240.447 L
332.903 240.447 L
333.531 240.447 L
334.158 240.447 L
334.785 230.106 L
335.412 240.447 L
336.039 240.447 L
336.667 240.447 L
337.294 240.447 L
337.921 240.447 L
338.548 281.809 L
339.175 312.83 L
339.803 323.17 L
340.43 343.851 L
341.057 343.851 L
341.684 354.192 L
342.311 364.532 L
342.939 364.532 L
343.566 374.872 L
344.193 374.872 L
344.82 457.596 L
345.447 405.894 L
346.075 405.894 L
346.702 395.553 L
347.329 395.553 L
347.956 405.894 L
348.583 405.894 L
349.211 395.553 L
349.838 395.553 L
350.465 395.553 L
351.092 395.553 L
351.72 395.553 L
352.347 395.553 L
352.974 395.553 L
353.601 395.553 L
354.228 395.553 L
354.856 395.553 L
355.483 395.553 L
356.11 385.213 L
356.737 395.553 L
357.364 395.553 L
357.992 395.553 L
358.619 395.553 L
359.246 385.213 L
359.873 395.553 L
360.5 395.553 L
361.128 395.553 L
361.755 395.553 L
362.382 395.553 L
363.009 395.553 L
363.636 395.553 L
364.264 385.213 L
364.891 395.553 L
365.518 395.553 L
366.145 395.553 L
366.772 395.553 L
367.4 385.213 L
368.027 395.553 L
368.654 395.553 L
369.281 395.553 L
369.909 395.553 L
370.536 395.553 L
371.163 395.553 L
371.79 395.553 L
372.417 395.553 L
373.045 395.553 L
373.672 395.553 L
374.299 395.553 L
374.926 395.553 L
375.553 395.553 L
376.181 395.553 L
376.808 395.553 L
377.435 395.553 L
378.062 395.553 L
378.689 395.553 L
379.317 395.553 L
379.944 385.213 L
380.571 395.553 L
381.198 395.553 L
381.825 385.213 L
382.453 426.575 L
383.08 364.532 L
383.707 343.851 L
384.334 312.83 L
384.961 292.149 L
385.589 281.809 L
386.216 250.787 L
386.843 219.766 L
387.47 219.766 L
388.098 240.447 L
388.725 240.447 L
389.352 240.447 L
389.979 230.106 L
390.606 240.447 L
391.234 230.106 L
391.861 230.106 L
392.488 230.106 L
393.115 230.106 L
393.742 240.447 L
394.37 230.106 L
394.997 240.447 L
395.624 230.106 L
396.251 230.106 L
396.878 230.106 L
397.506 240.447 L
398.133 230.106 L
398.76 230.106 L
399.387 230.106 L
400.014 230.106 L
400.642 240.447 L
401.269 240.447 L
401.896 230.106 L
402.523 240.447 L
403.15 240.447 L
403.778 240.447 L
404.405 240.447 L
405.032 240.447 L
405.659 230.106 L
406.286 230.106 L
406.914 230.106 L
407.541 240.447 L
408.168 230.106 L
408.795 240.447 L
409.423 240.447 L
410.05 230.106 L
410.677 230.106 L
411.304 230.106 L
411.931 240.447 L
412.559 240.447 L
413.186 230.106 L
413.813 240.447 L
414.44 240.447 L
415.067 240.447 L
415.695 240.447 L
416.322 240.447 L
416.949 240.447 L
417.576 240.447 L
418.203 240.447 L
418.831 230.106 L
419.458 240.447 L
420.085 240.447 L
420.712 240.447 L
421.339 240.447 L
421.967 240.447 L
422.594 240.447 L
423.221 230.106 L
423.848 240.447 L
424.475 240.447 L
425.103 240.447 L
425.73 240.447 L
426.357 240.447 L
426.984 240.447 L
427.612 147.383 L
428.239 261.128 L
428.866 292.149 L
429.493 312.83 L
430.12 323.17 L
430.748 343.851 L
431.375 343.851 L
432.002 354.192 L
432.629 364.532 L
433.256 364.532 L
433.884 374.872 L
434.511 374.872 L
435.138 405.894 L
435.765 395.553 L
436.392 405.894 L
437.02 395.553 L
437.647 395.553 L
438.274 395.553 L
438.901 395.553 L
439.528 395.553 L
440.156 395.553 L
440.783 395.553 L
441.41 395.553 L
442.037 395.553 L
442.664 405.894 L
443.292 395.553 L
443.919 395.553 L
444.546 395.553 L
445.173 395.553 L
445.801 395.553 L
446.428 395.553 L
447.055 395.553 L
447.682 395.553 L
448.309 395.553 L
448.937 385.213 L
449.564 395.553 L
450.191 395.553 L
450.818 395.553 L
451.445 395.553 L
452.073 395.553 L
452.7 395.553 L
453.327 395.553 L
453.954 385.213 L
454.581 395.553 L
455.209 395.553 L
455.836 395.553 L
456.463 395.553 L
457.09 395.553 L
457.717 395.553 L
458.345 395.553 L
458.972 395.553 L
459.599 395.553 L
460.226 395.553 L
460.853 395.553 L
461.481 395.553 L
462.108 395.553 L
462.735 395.553 L
463.362 395.553 L
463.99 395.553 L
464.617 395.553 L
465.244 385.213 L
465.871 395.553 L
466.498 395.553 L
467.126 395.553 L
467.753 395.553 L
468.38 395.553 L
469.007 395.553 L
469.634 395.553 L
470.262 385.213 L
470.889 395.553 L
471.516 395.553 L
472.143 447.255 L
472.77 374.872 L
473.398 333.511 L
474.025 312.83 L
474.652 292.149 L
475.279 292.149 L
475.906 240.447 L
476.534 219.766 L
477.161 230.106 L
477.788 240.447 L
478.415 240.447 L
479.042 240.447 L
479.67 240.447 L
480.297 240.447 L
480.924 240.447 L
481.551 240.447 L
482.179 240.447 L
482.806 230.106 L
483.433 240.447 L
484.06 240.447 L
484.687 240.447 L
485.315 240.447 L
485.942 240.447 L
486.569 240.447 L
487.196 240.447 L
487.823 240.447 L
488.451 240.447 L
489.078 240.447 L
489.705 240.447 L
490.332 240.447 L
490.959 240.447 L
491.587 240.447 L
492.214 240.447 L
492.841 240.447 L
493.468 240.447 L
494.095 240.447 L
494.723 240.447 L
495.35 240.447 L
495.977 240.447 L
496.604 240.447 L
497.231 240.447 L
497.859 240.447 L
498.486 240.447 L
499.113 240.447 L
499.74 240.447 L
500.367 240.447 L
500.995 240.447 L
501.622 240.447 L
502.249 250.787 L
502.876 240.447 L
503.504 240.447 L
504.131 240.447 L
504.758 240.447 L
505.385 240.447 L
506.012 240.447 L
506.64 240.447 L
507.267 240.447 L
507.894 240.447 L
508.521 240.447 L
509.148 240.447 L
509.776 240.447 L
510.403 240.447 L
511.03 240.447 L
511.657 240.447 L
512.284 240.447 L
512.912 240.447 L
513.539 240.447 L
514.166 240.447 L
514.793 240.447 L
515.42 240.447 L
516.048 240.447 L
516.675 240.447 L
517.302 281.809 L
517.929 312.83 L
518.557 323.17 L
519.184 333.511 L
519.811 343.851 L
520.438 354.192 L
521.065 364.532 L
521.693 364.532 L
522.32 374.872 L
522.947 374.872 L
523.574 436.915 L
524.201 405.894 L
524.829 395.553 L
525.456 405.894 L
526.083 405.894 L
526.71 405.894 L
527.337 405.894 L
527.965 395.553 L
528.592 395.553 L
529.219 405.894 L
529.846 405.894 L
530.473 395.553 L
531.101 395.553 L
531.728 395.553 L
532.355 395.553 L
532.982 395.553 L
533.609 405.894 L
534.237 395.553 L
534.864 395.553 L
535.491 395.553 L
536.118 395.553 L
536.745 395.553 L
537.373 385.213 L
538 395.553 L
538.627 385.213 L
539.254 395.553 L
539.882 395.553 L
540.509 395.553 L
541.136 395.553 L
541.763 395.553 L
542.39 395.553 L
543.018 395.553 L
543.645 395.553 L
544.272 395.553 L
544.899 395.553 L
545.526 395.553 L
546.154 395.553 L
546.781 385.213 L
547.408 395.553 L
548.035 395.553 L
548.662 395.553 L
549.29 395.553 L
549.917 395.553 L
550.544 395.553 L
551.171 395.553 L
551.798 385.213 L
552.426 395.553 L
553.053 405.894 L
553.68 395.553 L
554.307 395.553 L
554.935 395.553 L
555.562 395.553 L
556.189 395.553 L
556.816 395.553 L
557.443 395.553 L
558.07 395.553 L
558.698 395.553 L
559.325 395.553 L
559.952 395.553 L
560.579 529.979 L
561.207 374.872 L
561.834 343.851 L
562.461 333.511 L
563.088 302.489 L
563.715 292.149 L
564.343 261.128 L
564.97 230.106 L
565.597 219.766 L
566.224 240.447 L
566.851 240.447 L
567.479 250.787 L
568.106 240.447 L
568.733 230.106 L
569.36 240.447 L
569.987 240.447 L
570.615 240.447 L
571.242 240.447 L
571.869 230.106 L
572.496 230.106 L
573.123 240.447 L
573.751 240.447 L
574.378 230.106 L
575.005 240.447 L
575.632 240.447 L
576.26 240.447 L
576.887 240.447 L
577.514 240.447 L
578.141 240.447 L
578.768 240.447 L
579.396 240.447 L
580.023 240.447 L
580.65 240.447 L
581.277 240.447 L
581.904 240.447 L
582.532 240.447 L
583.159 240.447 L
583.786 240.447 L
584.413 240.447 L
585.04 240.447 L
585.668 240.447 L
586.295 240.447 L
586.922 240.447 L
587.549 240.447 L
588.176 240.447 L
588.804 240.447 L
589.431 240.447 L
590.058 240.447 L
590.685 240.447 L
591.313 240.447 L
591.94 240.447 L
592.567 240.447 L
593.194 240.447 L
593.821 240.447 L
594.449 230.106 L
595.076 240.447 L
595.703 250.787 L
596.33 240.447 L
596.957 240.447 L
597.585 240.447 L
598.212 240.447 L
598.839 250.787 L
599.466 250.787 L
600.093 240.447 L
600.721 240.447 L
601.348 250.787 L
601.975 240.447 L
602.602 240.447 L
603.229 240.447 L
603.857 240.447 L
604.484 240.447 L
605.111 126.702 L
605.738 250.787 L
606.365 292.149 L
606.993 312.83 L
607.62 323.17 L
608.247 343.851 L
608.874 343.851 L
609.501 354.192 L
610.129 364.532 L
610.756 364.532 L
611.383 374.872 L
612.01 374.872 L
612.638 416.234 L
613.265 405.894 L
613.892 405.894 L
614.519 405.894 L
615.146 395.553 L
615.774 405.894 L
616.401 395.553 L
617.028 395.553 L
617.655 395.553 L
618.282 395.553 L
618.91 395.553 L
619.537 395.553 L
620.164 395.553 L
620.791 395.553 L
621.418 395.553 L
622.046 395.553 L
622.673 395.553 L
623.3 395.553 L
623.927 395.553 L
624.554 395.553 L
625.182 395.553 L
625.809 395.553 L
626.436 395.553 L
627.063 395.553 L
627.69 395.553 L
628.318 385.213 L
628.945 395.553 L
629.572 395.553 L
630.199 395.553 L
630.826 395.553 L
631.454 395.553 L
632.081 395.553 L
632.708 395.553 L
633.335 395.553 L
633.963 395.553 L
634.59 395.553 L
635.217 395.553 L
635.844 395.553 L
636.471 395.553 L
637.099 395.553 L
637.726 395.553 L
638.353 395.553 L
638.98 395.553 L
639.607 395.553 L
640.235 395.553 L
640.862 395.553 L
641.489 395.553 L
642.116 395.553 L
642.743 395.553 L
643.371 395.553 L
643.998 385.213 L
644.625 395.553 L
645.252 385.213 L
645.879 385.213 L
646.507 385.213 L
647.134 395.553 L
647.761 395.553 L
648.388 395.553 L
649.016 395.553 L
649.643 436.915 L
650.27 364.532 L
650.897 333.511 L
651.524 312.83 L
652.152 302.489 L
652.779 281.809 L
653.406 230.106 L
654.033 230.106 L
654.66 230.106 L
655.288 240.447 L
655.915 230.106 L
656.542 240.447 L
657.169 240.447 L
657.796 240.447 L
658.424 240.447 L
659.051 250.787 L
659.678 240.447 L
660.305 240.447 L
660.932 240.447 L
661.56 230.106 L
662.187 240.447 L
662.814 240.447 L
663.441 230.106 L
664.068 240.447 L
664.696 240.447 L
665.323 240.447 L
665.95 240.447 L
666.577 240.447 L
667.205 250.787 L
667.832 240.447 L
668.459 230.106 L
669.086 240.447 L
669.713 240.447 L
670.341 240.447 L
670.968 240.447 L
671.595 250.787 L
672.222 240.447 L
672.849 240.447 L
673.477 250.787 L
674.104 240.447 L
674.731 240.447 L
675.358 240.447 L
675.985 240.447 L
676.613 240.447 L
677.24 240.447 L
677.867 240.447 L
678.494 240.447 L
679.121 240.447 L
679.749 240.447 L
680.376 240.447 L
681.003 240.447 L
681.63 250.787 L
682.257 240.447 L
682.885 240.447 L
683.512 240.447 L
684.139 240.447 L
684.766 240.447 L
685.393 240.447 L
686.021 240.447 L
686.648 240.447 L
687.275 240.447 L
687.902 240.447 L
688.53 240.447 L
689.157 240.447 L
689.784 240.447 L
690.411 240.447 L
691.038 250.787 L
691.666 240.447 L
692.293 240.447 L
692.92 240.447 L
693.547 240.447 L
694.174 250.787 L
694.802 281.809 L
695.429 312.83 L
696.056 333.511 L
696.683 343.851 L
697.31 354.192 L
697.938 354.192 L
698.565 354.192 L
699.192 364.532 L
699.819 364.532 L
700.446 374.872 L
701.074 426.575 L
701.701 405.894 L
702.328 405.894 L
702.955 395.553 L
703.583 395.553 L
704.21 395.553 L
704.837 395.553 L
705.464 395.553 L
706.091 395.553 L
706.719 395.553 L
707.346 395.553 L
707.973 395.553 L
708.6 395.553 L
709.227 395.553 L
709.855 395.553 L
710.482 395.553 L
711.109 395.553 L
711.736 395.553 L
712.363 395.553 L
712.991 395.553 L
713.618 395.553 L
714.245 405.894 L
714.872 395.553 L
715.499 395.553 L
716.127 395.553 L
716.754 385.213 L
717.381 395.553 L
718.008 395.553 L
718.635 395.553 L
719.263 395.553 L
719.89 395.553 L
720.517 395.553 L
721.144 385.213 L
721.771 395.553 L
722.399 395.553 L
723.026 395.553 L
723.653 395.553 L
724.28 385.213 L
724.908 395.553 L
725.535 405.894 L
726.162 395.553 L
726.789 395.553 L
727.416 385.213 L
728.044 385.213 L
728.671 395.553 L
729.298 395.553 L
729.925 395.553 L
730.552 385.213 L
731.18 395.553 L
731.807 395.553 L
732.434 395.553 L
733.061 395.553 L
733.688 395.553 L
734.316 385.213 L
734.943 395.553 L
735.57 395.553 L
736.197 395.553 L
736.824 395.553 L
737.452 395.553 L
738.079 395.553 L
738.706 385.213 L
739.333 354.192 L
739.961 323.17 L
740.588 302.489 L
741.215 292.149 L
741.842 302.489 L
742.469 230.106 L
743.096 219.766 L
743.724 240.447 L
744.351 240.447 L
744.978 240.447 L
745.605 240.447 L
746.233 240.447 L
746.86 240.447 L
747.487 240.447 L
748.114 240.447 L
748.741 240.447 L
749.369 240.447 L
749.996 240.447 L
750.623 240.447 L
751.25 240.447 L
751.877 240.447 L
752.505 230.106 L
753.132 240.447 L
753.759 240.447 L
754.386 240.447 L
755.013 230.106 L
755.641 230.106 L
756.268 240.447 L
756.895 240.447 L
757.522 230.106 L
758.149 240.447 L
758.777 240.447 L
759.404 240.447 L
760.031 240.447 L
760.078 239.68 L
S
GR
GS
[0.5 0 0 0.5 0 0] CT
0.851 0.325 0.098 RC
1 LJ
3 LW
N
108.922 230.106 M
760.078 230.106 L
S
GR
GS
[0.5 0 0 0.5 0 0] CT
0.929 0.694 0.125 RC
1 LJ
3 LW
N
108.922 400.724 M
760.078 400.724 L
S
GR
GS
[0.5 0 0 0.5 0 0] CT
1 GC
N
744 139 M
744 63 L
519 63 L
519 139 L
cp
f
GR
GS
[0.5 0 0 0.5 294.67184 38.70261] CT
/Helvetica 18 F
GS
[1 0 0 1 0 0] CT
0 7.5 moveto 
1 -1 scale
(Shuttling capacitor) t 
GR
GR
GS
[0.5 0 0 0.5 0 0] CT
0 0.447 0.741 RC
1 LJ
3 LW
N
524.987 77.405 M
584.854 77.405 L
S
GR
GS
[0.5 0 0 0.5 294.67184 50.5] CT
/Helvetica 18 F
GS
[1 0 0 1 0 0] CT
0 7.5 moveto 
1 -1 scale
(High cell) t 
GR
GR
GS
[0.5 0 0 0.5 0 0] CT
0.851 0.325 0.098 RC
1 LJ
3 LW
N
524.987 101 M
584.854 101 L
S
GR
GS
[0.5 0 0 0.5 294.67184 62.29739] CT
/Helvetica 18 F
GS
[1 0 0 1 0 0] CT
0 7.5 moveto 
1 -1 scale
(Low cell) t 
GR
GR
GS
[0.5 0 0 0.5 0 0] CT
0.929 0.694 0.125 RC
1 LJ
3 LW
N
524.987 124.595 M
584.854 124.595 L
S
GR
GS
[0.5 0 0 0.5 0 0] CT
0.149 GC
10.0 ML
N
519 139 M
519 63 L
744 63 L
744 139 L
cp
S
GR
%%Trailer
%%Pages: 1
%%EOF
