%!PS-Adobe-3.0 EPSF-3.0
%%Creator: (MATLAB, The Mathworks, Inc. Version 9.4.0.813654 \(R2018a\). Operating System: Windows 10)
%%Title: C:/Users/robbe/OneDrive/VUB/Thesis/OscMeasurements/BALCAP/ALL0004/shuttlingSmallerDifference.eps
%%CreationDate: 2019-05-14T18:37:37
%%Pages: (atend)
%%BoundingBox: 0 0 420 315
%%LanguageLevel: 3
%%EndComments
%%BeginProlog
%%BeginResource: procset (Apache XML Graphics Std ProcSet) 1.2 0
%%Version: 1.2 0
%%Copyright: (Copyright 2001-2003,2010 The Apache Software Foundation. License terms: http://www.apache.org/licenses/LICENSE-2.0)
/bd{bind def}bind def
/ld{load def}bd
/GR/grestore ld
/GS/gsave ld
/RM/rmoveto ld
/C/curveto ld
/t/show ld
/L/lineto ld
/ML/setmiterlimit ld
/CT/concat ld
/f/fill ld
/N/newpath ld
/S/stroke ld
/CC/setcmykcolor ld
/A/ashow ld
/cp/closepath ld
/RC/setrgbcolor ld
/LJ/setlinejoin ld
/GC/setgray ld
/LW/setlinewidth ld
/M/moveto ld
/re {4 2 roll M
1 index 0 rlineto
0 exch rlineto
neg 0 rlineto
cp } bd
/_ctm matrix def
/_tm matrix def
/BT { _ctm currentmatrix pop matrix _tm copy pop 0 0 moveto } bd
/ET { _ctm setmatrix } bd
/iTm { _ctm setmatrix _tm concat } bd
/Tm { _tm astore pop iTm 0 0 moveto } bd
/ux 0.0 def
/uy 0.0 def
/F {
  /Tp exch def
  /Tf exch def
  Tf findfont Tp scalefont setfont
  /cf Tf def  /cs Tp def
} bd
/ULS {currentpoint /uy exch def /ux exch def} bd
/ULE {
  /Tcx currentpoint pop def
  gsave
  newpath
  cf findfont cs scalefont dup
  /FontMatrix get 0 get /Ts exch def /FontInfo get dup
  /UnderlinePosition get Ts mul /To exch def
  /UnderlineThickness get Ts mul /Tt exch def
  ux uy To add moveto  Tcx uy To add lineto
  Tt setlinewidth stroke
  grestore
} bd
/OLE {
  /Tcx currentpoint pop def
  gsave
  newpath
  cf findfont cs scalefont dup
  /FontMatrix get 0 get /Ts exch def /FontInfo get dup
  /UnderlinePosition get Ts mul /To exch def
  /UnderlineThickness get Ts mul /Tt exch def
  ux uy To add cs add moveto Tcx uy To add cs add lineto
  Tt setlinewidth stroke
  grestore
} bd
/SOE {
  /Tcx currentpoint pop def
  gsave
  newpath
  cf findfont cs scalefont dup
  /FontMatrix get 0 get /Ts exch def /FontInfo get dup
  /UnderlinePosition get Ts mul /To exch def
  /UnderlineThickness get Ts mul /Tt exch def
  ux uy To add cs 10 mul 26 idiv add moveto Tcx uy To add cs 10 mul 26 idiv add lineto
  Tt setlinewidth stroke
  grestore
} bd
/QT {
/Y22 exch store
/X22 exch store
/Y21 exch store
/X21 exch store
currentpoint
/Y21 load 2 mul add 3 div exch
/X21 load 2 mul add 3 div exch
/X21 load 2 mul /X22 load add 3 div
/Y21 load 2 mul /Y22 load add 3 div
/X22 load /Y22 load curveto
} bd
/SSPD {
dup length /d exch dict def
{
/v exch def
/k exch def
currentpagedevice k known {
/cpdv currentpagedevice k get def
v cpdv ne {
/upd false def
/nullv v type /nulltype eq def
/nullcpdv cpdv type /nulltype eq def
nullv nullcpdv or
{
/upd true def
} {
/sametype v type cpdv type eq def
sametype {
v type /arraytype eq {
/vlen v length def
/cpdvlen cpdv length def
vlen cpdvlen eq {
0 1 vlen 1 sub {
/i exch def
/obj v i get def
/cpdobj cpdv i get def
obj cpdobj ne {
/upd true def
exit
} if
} for
} {
/upd true def
} ifelse
} {
v type /dicttype eq {
v {
/dv exch def
/dk exch def
/cpddv cpdv dk get def
dv cpddv ne {
/upd true def
exit
} if
} forall
} {
/upd true def
} ifelse
} ifelse
} if
} ifelse
upd true eq {
d k v put
} if
} if
} if
} forall
d length 0 gt {
d setpagedevice
} if
} bd
/RE { % /NewFontName [NewEncodingArray] /FontName RE -
  findfont dup length dict begin
  {
    1 index /FID ne
    {def} {pop pop} ifelse
  } forall
  /Encoding exch def
  /FontName 1 index def
  currentdict definefont pop
  end
} bind def
%%EndResource
%%BeginResource: procset (Apache XML Graphics EPS ProcSet) 1.0 0
%%Version: 1.0 0
%%Copyright: (Copyright 2002-2003 The Apache Software Foundation. License terms: http://www.apache.org/licenses/LICENSE-2.0)
/BeginEPSF { %def
/b4_Inc_state save def         % Save state for cleanup
/dict_count countdictstack def % Count objects on dict stack
/op_count count 1 sub def      % Count objects on operand stack
userdict begin                 % Push userdict on dict stack
/showpage { } def              % Redefine showpage, { } = null proc
0 setgray 0 setlinecap         % Prepare graphics state
1 setlinewidth 0 setlinejoin
10 setmiterlimit [ ] 0 setdash newpath
/languagelevel where           % If level not equal to 1 then
{pop languagelevel             % set strokeadjust and
1 ne                           % overprint to their defaults.
{false setstrokeadjust false setoverprint
} if
} if
} bd
/EndEPSF { %def
count op_count sub {pop} repeat            % Clean up stacks
countdictstack dict_count sub {end} repeat
b4_Inc_state restore
} bd
%%EndResource
%FOPBeginFontDict
%%IncludeResource: font Courier-Oblique
%%IncludeResource: font Courier-BoldOblique
%%IncludeResource: font Courier-Bold
%%IncludeResource: font ZapfDingbats
%%IncludeResource: font Symbol
%%IncludeResource: font Helvetica
%%IncludeResource: font Helvetica-Oblique
%%IncludeResource: font Helvetica-Bold
%%IncludeResource: font Helvetica-BoldOblique
%%IncludeResource: font Times-Roman
%%IncludeResource: font Times-Italic
%%IncludeResource: font Times-Bold
%%IncludeResource: font Times-BoldItalic
%%IncludeResource: font Courier
%FOPEndFontDict
%%BeginResource: encoding WinAnsiEncoding
/WinAnsiEncoding [
/.notdef /.notdef /.notdef /.notdef /.notdef
/.notdef /.notdef /.notdef /.notdef /.notdef
/.notdef /.notdef /.notdef /.notdef /.notdef
/.notdef /.notdef /.notdef /.notdef /.notdef
/.notdef /.notdef /.notdef /.notdef /.notdef
/.notdef /.notdef /.notdef /.notdef /.notdef
/.notdef /.notdef /space /exclam /quotedbl
/numbersign /dollar /percent /ampersand /quotesingle
/parenleft /parenright /asterisk /plus /comma
/hyphen /period /slash /zero /one
/two /three /four /five /six
/seven /eight /nine /colon /semicolon
/less /equal /greater /question /at
/A /B /C /D /E
/F /G /H /I /J
/K /L /M /N /O
/P /Q /R /S /T
/U /V /W /X /Y
/Z /bracketleft /backslash /bracketright /asciicircum
/underscore /quoteleft /a /b /c
/d /e /f /g /h
/i /j /k /l /m
/n /o /p /q /r
/s /t /u /v /w
/x /y /z /braceleft /bar
/braceright /asciitilde /bullet /Euro /bullet
/quotesinglbase /florin /quotedblbase /ellipsis /dagger
/daggerdbl /circumflex /perthousand /Scaron /guilsinglleft
/OE /bullet /Zcaron /bullet /bullet
/quoteleft /quoteright /quotedblleft /quotedblright /bullet
/endash /emdash /asciitilde /trademark /scaron
/guilsinglright /oe /bullet /zcaron /Ydieresis
/space /exclamdown /cent /sterling /currency
/yen /brokenbar /section /dieresis /copyright
/ordfeminine /guillemotleft /logicalnot /sfthyphen /registered
/macron /degree /plusminus /twosuperior /threesuperior
/acute /mu /paragraph /middot /cedilla
/onesuperior /ordmasculine /guillemotright /onequarter /onehalf
/threequarters /questiondown /Agrave /Aacute /Acircumflex
/Atilde /Adieresis /Aring /AE /Ccedilla
/Egrave /Eacute /Ecircumflex /Edieresis /Igrave
/Iacute /Icircumflex /Idieresis /Eth /Ntilde
/Ograve /Oacute /Ocircumflex /Otilde /Odieresis
/multiply /Oslash /Ugrave /Uacute /Ucircumflex
/Udieresis /Yacute /Thorn /germandbls /agrave
/aacute /acircumflex /atilde /adieresis /aring
/ae /ccedilla /egrave /eacute /ecircumflex
/edieresis /igrave /iacute /icircumflex /idieresis
/eth /ntilde /ograve /oacute /ocircumflex
/otilde /odieresis /divide /oslash /ugrave
/uacute /ucircumflex /udieresis /yacute /thorn
/ydieresis
] def
%%EndResource
%FOPBeginFontReencode
/Courier-Oblique findfont
dup length dict begin
  {1 index /FID ne {def} {pop pop} ifelse} forall
  /Encoding WinAnsiEncoding def
  currentdict
end
/Courier-Oblique exch definefont pop
/Courier-BoldOblique findfont
dup length dict begin
  {1 index /FID ne {def} {pop pop} ifelse} forall
  /Encoding WinAnsiEncoding def
  currentdict
end
/Courier-BoldOblique exch definefont pop
/Courier-Bold findfont
dup length dict begin
  {1 index /FID ne {def} {pop pop} ifelse} forall
  /Encoding WinAnsiEncoding def
  currentdict
end
/Courier-Bold exch definefont pop
/Helvetica findfont
dup length dict begin
  {1 index /FID ne {def} {pop pop} ifelse} forall
  /Encoding WinAnsiEncoding def
  currentdict
end
/Helvetica exch definefont pop
/Helvetica-Oblique findfont
dup length dict begin
  {1 index /FID ne {def} {pop pop} ifelse} forall
  /Encoding WinAnsiEncoding def
  currentdict
end
/Helvetica-Oblique exch definefont pop
/Helvetica-Bold findfont
dup length dict begin
  {1 index /FID ne {def} {pop pop} ifelse} forall
  /Encoding WinAnsiEncoding def
  currentdict
end
/Helvetica-Bold exch definefont pop
/Helvetica-BoldOblique findfont
dup length dict begin
  {1 index /FID ne {def} {pop pop} ifelse} forall
  /Encoding WinAnsiEncoding def
  currentdict
end
/Helvetica-BoldOblique exch definefont pop
/Times-Roman findfont
dup length dict begin
  {1 index /FID ne {def} {pop pop} ifelse} forall
  /Encoding WinAnsiEncoding def
  currentdict
end
/Times-Roman exch definefont pop
/Times-Italic findfont
dup length dict begin
  {1 index /FID ne {def} {pop pop} ifelse} forall
  /Encoding WinAnsiEncoding def
  currentdict
end
/Times-Italic exch definefont pop
/Times-Bold findfont
dup length dict begin
  {1 index /FID ne {def} {pop pop} ifelse} forall
  /Encoding WinAnsiEncoding def
  currentdict
end
/Times-Bold exch definefont pop
/Times-BoldItalic findfont
dup length dict begin
  {1 index /FID ne {def} {pop pop} ifelse} forall
  /Encoding WinAnsiEncoding def
  currentdict
end
/Times-BoldItalic exch definefont pop
/Courier findfont
dup length dict begin
  {1 index /FID ne {def} {pop pop} ifelse} forall
  /Encoding WinAnsiEncoding def
  currentdict
end
/Courier exch definefont pop
%FOPEndFontReencode
%%EndProlog
%%Page: 1 1
%%PageBoundingBox: 0 0 420 315
%%BeginPageSetup
[1 0 0 -1 0 315] CT
%%EndPageSetup
GS
[0.5 0 0 0.5 0 0] CT
1 GC
N
0 0 840 630 re
f
GR
GS
[0.5 0 0 0.5 0 0] CT
1 GC
N
0 0 840 630 re
f
GR
GS
[0.5 0 0 0.5 0 0] CT
1 GC
N
109 561 M
760 561 L
760 47 L
109 47 L
cp
f
GR
GS
[0.5 0 0 0.5 0 0] CT
0.149 GC
2 setlinecap
1 LJ
N
109 561 M
760 561 L
S
GR
GS
[0.5 0 0 0.5 0 0] CT
0.149 GC
2 setlinecap
1 LJ
N
109 47 M
760 47 L
S
GR
GS
[0.5 0 0 0.5 0 0] CT
0.149 GC
2 setlinecap
1 LJ
N
121.793 561 M
121.793 554.49 L
S
GR
GS
[0.5 0 0 0.5 0 0] CT
0.149 GC
2 setlinecap
1 LJ
N
276.014 561 M
276.014 554.49 L
S
GR
GS
[0.5 0 0 0.5 0 0] CT
0.149 GC
2 setlinecap
1 LJ
N
430.236 561 M
430.236 554.49 L
S
GR
GS
[0.5 0 0 0.5 0 0] CT
0.149 GC
2 setlinecap
1 LJ
N
584.457 561 M
584.457 554.49 L
S
GR
GS
[0.5 0 0 0.5 0 0] CT
0.149 GC
2 setlinecap
1 LJ
N
738.679 561 M
738.679 554.49 L
S
GR
GS
[0.5 0 0 0.5 0 0] CT
0.149 GC
2 setlinecap
1 LJ
N
121.793 47 M
121.793 53.51 L
S
GR
GS
[0.5 0 0 0.5 0 0] CT
0.149 GC
2 setlinecap
1 LJ
N
276.014 47 M
276.014 53.51 L
S
GR
GS
[0.5 0 0 0.5 0 0] CT
0.149 GC
2 setlinecap
1 LJ
N
430.236 47 M
430.236 53.51 L
S
GR
GS
[0.5 0 0 0.5 0 0] CT
0.149 GC
2 setlinecap
1 LJ
N
584.457 47 M
584.457 53.51 L
S
GR
GS
[0.5 0 0 0.5 0 0] CT
0.149 GC
2 setlinecap
1 LJ
N
738.679 47 M
738.679 53.51 L
S
GR
GS
[0.5 0 0 0.5 60.89629 284.50003] CT
0.149 GC
/Helvetica 20 F
GS
[1 0 0 1 0 0] CT
-14.5 21 moveto 
1 -1 scale
(-10) t 
GR
GR
GS
[0.5 0 0 0.5 138.0071 284.50003] CT
0.149 GC
/Helvetica 20 F
GS
[1 0 0 1 0 0] CT
-9 21 moveto 
1 -1 scale
(-5) t 
GR
GR
GS
[0.5 0 0 0.5 215.1179 284.50003] CT
0.149 GC
/Helvetica 20 F
GS
[1 0 0 1 0 0] CT
-6 21 moveto 
1 -1 scale
(0) t 
GR
GR
GS
[0.5 0 0 0.5 292.2287 284.50003] CT
0.149 GC
/Helvetica 20 F
GS
[1 0 0 1 0 0] CT
-6 21 moveto 
1 -1 scale
(5) t 
GR
GR
GS
[0.5 0 0 0.5 369.33951 284.50003] CT
0.149 GC
/Helvetica 20 F
GS
[1 0 0 1 0 0] CT
-11.5 21 moveto 
1 -1 scale
(10) t 
GR
GR
GS
[0.5 0 0 0.5 217.25015 298.5] CT
0.149 GC
/Helvetica 22 F
GS
[1 0 0 1 0 0] CT
-49.5 23 moveto 
1 -1 scale
(Time \(ms\)) t 
GR
GR
GS
[0.5 0 0 0.5 0 0] CT
0.149 GC
2 setlinecap
1 LJ
N
109 561 M
109 47 L
S
GR
GS
[0.5 0 0 0.5 0 0] CT
0.149 GC
2 setlinecap
1 LJ
N
760 561 M
760 47 L
S
GR
GS
[0.5 0 0 0.5 0 0] CT
0.149 GC
2 setlinecap
1 LJ
N
109 561 M
115.51 561 L
S
GR
GS
[0.5 0 0 0.5 0 0] CT
0.149 GC
2 setlinecap
1 LJ
N
109 399.59 M
115.51 399.59 L
S
GR
GS
[0.5 0 0 0.5 0 0] CT
0.149 GC
2 setlinecap
1 LJ
N
109 238.18 M
115.51 238.18 L
S
GR
GS
[0.5 0 0 0.5 0 0] CT
0.149 GC
2 setlinecap
1 LJ
N
109 76.77 M
115.51 76.77 L
S
GR
GS
[0.5 0 0 0.5 0 0] CT
0.149 GC
2 setlinecap
1 LJ
N
760 561 M
753.49 561 L
S
GR
GS
[0.5 0 0 0.5 0 0] CT
0.149 GC
2 setlinecap
1 LJ
N
760 399.59 M
753.49 399.59 L
S
GR
GS
[0.5 0 0 0.5 0 0] CT
0.149 GC
2 setlinecap
1 LJ
N
760 238.18 M
753.49 238.18 L
S
GR
GS
[0.5 0 0 0.5 0 0] CT
0.149 GC
2 setlinecap
1 LJ
N
760 76.77 M
753.49 76.77 L
S
GR
GS
[0.5 0 0 0.5 50.5 280.5] CT
0.149 GC
/Helvetica 20 F
GS
[1 0 0 1 0 0] CT
-12 8 moveto 
1 -1 scale
(3) t 
GR
GR
GS
[0.5 0 0 0.5 50.5 199.79497] CT
0.149 GC
/Helvetica 20 F
GS
[1 0 0 1 0 0] CT
-28 8 moveto 
1 -1 scale
(3.5) t 
GR
GR
GS
[0.5 0 0 0.5 50.5 119.08994] CT
0.149 GC
/Helvetica 20 F
GS
[1 0 0 1 0 0] CT
-12 8 moveto 
1 -1 scale
(4) t 
GR
GR
GS
[0.5 0 0 0.5 50.5 38.3849] CT
0.149 GC
/Helvetica 20 F
GS
[1 0 0 1 0 0] CT
-28 8 moveto 
1 -1 scale
(4.5) t 
GR
GR
GS
[0 -0.5 0.5 0 33.5 151.99988] CT
0.149 GC
/Helvetica 22 F
GS
[1 0 0 1 0 0] CT
-55.5 -5 moveto 
1 -1 scale
(Voltage \(V\)) t 
GR
GR
GS
[0.5 0 0 0.5 217.25021 22.12499] CT
/Helvetica-Bold 22 F
GS
[1 0 0 1 0 0] CT
-122.5 -5 moveto 
1 -1 scale
(Shuttling between cells) t 
GR
GR
GS
[0.5 0 0 0.5 0 0] CT
0 0.447 0.741 RC
1 LJ
3 LW
N
108.922 356.162 M
109.455 367.308 L
110.072 354.395 L
110.689 354.395 L
111.306 367.308 L
111.922 367.308 L
112.539 367.308 L
113.156 367.308 L
113.773 354.395 L
114.39 367.308 L
115.007 354.395 L
115.624 354.395 L
116.241 367.308 L
116.857 367.308 L
117.474 367.308 L
118.091 354.395 L
118.708 367.308 L
119.325 354.395 L
119.942 354.395 L
120.559 367.308 L
121.176 367.308 L
121.793 367.308 L
122.409 354.395 L
123.026 367.308 L
123.643 367.308 L
124.26 354.395 L
124.877 380.221 L
125.494 341.482 L
126.111 328.569 L
126.728 315.657 L
127.345 315.657 L
127.961 289.831 L
128.578 264.005 L
129.195 264.005 L
129.812 264.005 L
130.429 251.093 L
131.046 264.005 L
131.663 251.093 L
132.28 251.093 L
132.897 251.093 L
133.513 251.093 L
134.13 251.093 L
134.747 251.093 L
135.364 251.093 L
135.981 251.093 L
136.598 251.093 L
137.215 251.093 L
137.832 264.005 L
138.449 251.093 L
139.065 251.093 L
139.682 251.093 L
140.299 264.005 L
140.916 251.093 L
141.533 251.093 L
142.15 264.005 L
142.767 251.093 L
143.384 251.093 L
144.001 251.093 L
144.617 251.093 L
145.234 264.005 L
145.851 251.093 L
146.468 264.005 L
147.085 264.005 L
147.702 251.093 L
148.319 251.093 L
148.936 251.093 L
149.552 264.005 L
150.169 251.093 L
150.786 251.093 L
151.403 264.005 L
152.02 251.093 L
152.637 251.093 L
153.254 251.093 L
153.871 251.093 L
154.488 264.005 L
155.104 264.005 L
155.721 264.005 L
156.338 264.005 L
156.955 264.005 L
157.572 264.005 L
158.189 251.093 L
158.806 264.005 L
159.423 264.005 L
160.04 251.093 L
160.656 251.093 L
161.273 251.093 L
161.89 264.005 L
162.507 251.093 L
163.124 251.093 L
163.741 264.005 L
164.358 251.093 L
164.975 264.005 L
165.592 251.093 L
166.208 251.093 L
166.825 251.093 L
167.442 264.005 L
168.059 251.093 L
168.676 212.354 L
169.293 264.005 L
169.91 276.918 L
170.527 302.744 L
171.144 315.657 L
171.76 315.657 L
172.377 315.657 L
172.994 328.569 L
173.611 328.569 L
174.228 341.482 L
174.845 341.482 L
175.462 457.698 L
176.079 393.134 L
176.695 367.308 L
177.312 380.221 L
177.929 367.308 L
178.546 367.308 L
179.163 367.308 L
179.78 367.308 L
180.397 380.221 L
181.014 367.308 L
181.631 367.308 L
182.247 367.308 L
182.864 367.308 L
183.481 367.308 L
184.098 354.395 L
184.715 367.308 L
185.332 367.308 L
185.949 367.308 L
186.566 367.308 L
187.183 367.308 L
187.799 354.395 L
188.416 367.308 L
189.033 367.308 L
189.65 367.308 L
190.267 354.395 L
190.884 354.395 L
191.501 367.308 L
192.118 354.395 L
192.735 354.395 L
193.351 367.308 L
193.968 367.308 L
194.585 354.395 L
195.202 367.308 L
195.819 367.308 L
196.436 354.395 L
197.053 367.308 L
197.67 367.308 L
198.286 354.395 L
198.903 367.308 L
199.52 354.395 L
200.137 354.395 L
200.754 354.395 L
201.371 354.395 L
201.988 354.395 L
202.605 367.308 L
203.222 354.395 L
203.838 354.395 L
204.455 367.308 L
205.072 354.395 L
205.689 367.308 L
206.306 354.395 L
206.923 367.308 L
207.54 367.308 L
208.157 354.395 L
208.774 354.395 L
209.39 367.308 L
210.007 367.308 L
210.624 367.308 L
211.241 354.395 L
211.858 367.308 L
212.475 418.959 L
213.092 354.395 L
213.709 328.569 L
214.326 315.657 L
214.942 302.744 L
215.559 302.744 L
216.176 276.918 L
216.793 276.918 L
217.41 251.093 L
218.027 251.093 L
218.644 251.093 L
219.261 264.005 L
219.878 251.093 L
220.494 251.093 L
221.111 264.005 L
221.728 251.093 L
222.345 238.18 L
222.962 264.005 L
223.579 251.093 L
224.196 251.093 L
224.813 251.093 L
225.43 251.093 L
226.046 251.093 L
226.663 251.093 L
227.28 251.093 L
227.897 251.093 L
228.514 264.005 L
229.131 251.093 L
229.748 251.093 L
230.365 251.093 L
230.981 251.093 L
231.598 251.093 L
232.215 264.005 L
232.832 264.005 L
233.449 251.093 L
234.066 264.005 L
234.683 251.093 L
235.3 251.093 L
235.917 251.093 L
236.533 264.005 L
237.15 264.005 L
237.767 264.005 L
238.384 251.093 L
239.001 251.093 L
239.618 264.005 L
240.235 251.093 L
240.852 251.093 L
241.469 264.005 L
242.085 251.093 L
242.702 264.005 L
243.319 251.093 L
243.936 264.005 L
244.553 264.005 L
245.17 251.093 L
245.787 251.093 L
246.404 251.093 L
247.021 251.093 L
247.637 264.005 L
248.254 264.005 L
248.871 251.093 L
249.488 264.005 L
250.105 251.093 L
250.722 251.093 L
251.339 251.093 L
251.956 251.093 L
252.572 264.005 L
253.189 251.093 L
253.806 264.005 L
254.423 264.005 L
255.04 264.005 L
255.657 264.005 L
256.274 186.529 L
256.891 276.918 L
257.508 276.918 L
258.124 289.831 L
258.741 315.657 L
259.358 315.657 L
259.975 315.657 L
260.592 328.569 L
261.209 328.569 L
261.826 328.569 L
262.443 328.569 L
263.06 444.785 L
263.676 393.134 L
264.293 380.221 L
264.91 367.308 L
265.527 367.308 L
266.144 367.308 L
266.761 367.308 L
267.378 367.308 L
267.995 367.308 L
268.612 367.308 L
269.228 380.221 L
269.845 367.308 L
270.462 367.308 L
271.079 367.308 L
271.696 367.308 L
272.313 354.395 L
272.93 367.308 L
273.547 367.308 L
274.164 354.395 L
274.78 367.308 L
275.397 367.308 L
276.014 367.308 L
276.631 367.308 L
277.248 354.395 L
277.865 367.308 L
278.482 367.308 L
279.099 367.308 L
279.716 367.308 L
280.332 367.308 L
280.949 367.308 L
281.566 367.308 L
282.183 367.308 L
282.8 354.395 L
283.417 367.308 L
284.034 354.395 L
284.651 367.308 L
285.267 367.308 L
285.884 367.308 L
286.501 354.395 L
287.118 354.395 L
287.735 367.308 L
288.352 367.308 L
288.969 354.395 L
289.586 354.395 L
290.203 354.395 L
290.819 354.395 L
291.436 367.308 L
292.053 367.308 L
292.67 354.395 L
293.287 367.308 L
293.904 367.308 L
294.521 354.395 L
295.138 367.308 L
295.755 367.308 L
296.371 367.308 L
296.988 367.308 L
297.605 354.395 L
298.222 354.395 L
298.839 354.395 L
299.456 354.395 L
300.073 431.872 L
300.69 341.482 L
301.307 328.569 L
301.923 315.657 L
302.54 315.657 L
303.157 302.744 L
303.774 276.918 L
304.391 264.005 L
305.008 251.093 L
305.625 251.093 L
306.242 264.005 L
306.859 251.093 L
307.475 251.093 L
308.092 251.093 L
308.709 251.093 L
309.326 251.093 L
309.943 251.093 L
310.56 264.005 L
311.177 251.093 L
311.794 251.093 L
312.41 251.093 L
313.027 251.093 L
313.644 251.093 L
314.261 251.093 L
314.878 264.005 L
315.495 251.093 L
316.112 251.093 L
316.729 251.093 L
317.346 251.093 L
317.962 251.093 L
318.579 251.093 L
319.196 251.093 L
319.813 264.005 L
320.43 264.005 L
321.047 251.093 L
321.664 251.093 L
322.281 264.005 L
322.898 251.093 L
323.514 251.093 L
324.131 264.005 L
324.748 251.093 L
325.365 251.093 L
325.982 251.093 L
326.599 251.093 L
327.216 251.093 L
327.833 251.093 L
328.45 264.005 L
329.066 251.093 L
329.683 264.005 L
330.3 264.005 L
330.917 251.093 L
331.534 251.093 L
332.151 251.093 L
332.768 251.093 L
333.385 264.005 L
334.002 264.005 L
334.618 251.093 L
335.235 264.005 L
335.852 264.005 L
336.469 251.093 L
337.086 251.093 L
337.703 251.093 L
338.32 264.005 L
338.937 251.093 L
339.553 251.093 L
340.17 251.093 L
340.787 251.093 L
341.404 251.093 L
342.021 264.005 L
342.638 264.005 L
343.255 264.005 L
343.872 109.052 L
344.489 251.093 L
345.105 276.918 L
345.722 289.831 L
346.339 302.744 L
346.956 302.744 L
347.573 328.569 L
348.19 328.569 L
348.807 328.569 L
349.424 328.569 L
350.041 328.569 L
350.657 328.569 L
351.274 406.046 L
351.891 380.221 L
352.508 380.221 L
353.125 367.308 L
353.742 380.221 L
354.359 367.308 L
354.976 367.308 L
355.593 367.308 L
356.209 367.308 L
356.826 354.395 L
357.443 367.308 L
358.06 367.308 L
358.677 367.308 L
359.294 354.395 L
359.911 367.308 L
360.528 367.308 L
361.145 367.308 L
361.761 367.308 L
362.378 367.308 L
362.995 354.395 L
363.612 354.395 L
364.229 367.308 L
364.846 354.395 L
365.463 354.395 L
366.08 367.308 L
366.697 367.308 L
367.313 354.395 L
367.93 367.308 L
368.547 367.308 L
369.164 354.395 L
369.781 367.308 L
370.398 367.308 L
371.015 354.395 L
371.632 354.395 L
372.248 367.308 L
372.865 367.308 L
373.482 367.308 L
374.099 367.308 L
374.716 354.395 L
375.333 367.308 L
375.95 367.308 L
376.567 367.308 L
377.184 354.395 L
377.8 354.395 L
378.417 354.395 L
379.034 367.308 L
379.651 367.308 L
380.268 367.308 L
380.885 354.395 L
381.502 354.395 L
382.119 354.395 L
382.736 367.308 L
383.352 354.395 L
383.969 354.395 L
384.586 354.395 L
385.203 354.395 L
385.82 354.395 L
386.437 367.308 L
387.054 354.395 L
387.671 483.523 L
388.288 354.395 L
388.904 328.569 L
389.521 315.657 L
390.138 302.744 L
390.755 289.831 L
391.372 289.831 L
391.989 276.918 L
392.606 276.918 L
393.223 276.918 L
393.84 264.005 L
394.456 264.005 L
395.073 251.093 L
395.69 238.18 L
396.307 238.18 L
396.924 238.18 L
397.541 251.093 L
398.158 238.18 L
398.775 251.093 L
399.391 251.093 L
400.008 238.18 L
400.625 251.093 L
401.242 238.18 L
401.859 251.093 L
402.476 251.093 L
403.093 251.093 L
403.71 238.18 L
404.327 251.093 L
404.943 238.18 L
405.56 238.18 L
406.177 251.093 L
406.794 251.093 L
407.411 251.093 L
408.028 251.093 L
408.645 238.18 L
409.262 238.18 L
409.879 251.093 L
410.495 251.093 L
411.112 251.093 L
411.729 251.093 L
412.346 251.093 L
412.963 238.18 L
413.58 238.18 L
414.197 238.18 L
414.814 251.093 L
415.431 238.18 L
416.047 238.18 L
416.664 251.093 L
417.281 238.18 L
417.898 251.093 L
418.515 251.093 L
419.132 251.093 L
419.749 251.093 L
420.366 251.093 L
420.983 251.093 L
421.599 251.093 L
422.216 251.093 L
422.833 251.093 L
423.45 238.18 L
424.067 238.18 L
424.684 238.18 L
425.301 251.093 L
425.918 251.093 L
426.534 251.093 L
427.151 251.093 L
427.768 238.18 L
428.385 251.093 L
429.002 238.18 L
429.619 251.093 L
430.236 251.093 L
430.853 251.093 L
431.47 251.093 L
432.086 251.093 L
432.703 251.093 L
433.32 251.093 L
433.937 251.093 L
434.554 225.267 L
435.171 276.918 L
435.788 276.918 L
436.405 302.744 L
437.022 302.744 L
437.638 315.657 L
438.255 328.569 L
438.872 328.569 L
439.489 328.569 L
440.106 328.569 L
440.723 341.482 L
441.34 431.872 L
441.957 380.221 L
442.574 380.221 L
443.19 367.308 L
443.807 367.308 L
444.424 367.308 L
445.041 367.308 L
445.658 367.308 L
446.275 367.308 L
446.892 367.308 L
447.509 367.308 L
448.126 367.308 L
448.742 367.308 L
449.359 367.308 L
449.976 354.395 L
450.593 367.308 L
451.21 367.308 L
451.827 367.308 L
452.444 354.395 L
453.061 367.308 L
453.677 367.308 L
454.294 367.308 L
454.911 367.308 L
455.528 367.308 L
456.145 367.308 L
456.762 367.308 L
457.379 367.308 L
457.996 354.395 L
458.613 354.395 L
459.229 367.308 L
459.846 354.395 L
460.463 354.395 L
461.08 354.395 L
461.697 354.395 L
462.314 367.308 L
462.931 367.308 L
463.548 354.395 L
464.165 354.395 L
464.781 354.395 L
465.398 354.395 L
466.015 354.395 L
466.632 354.395 L
467.249 354.395 L
467.866 367.308 L
468.483 354.395 L
469.1 354.395 L
469.717 354.395 L
470.333 354.395 L
470.95 367.308 L
471.567 354.395 L
472.184 354.395 L
472.801 354.395 L
473.418 354.395 L
474.035 354.395 L
474.652 354.395 L
475.269 367.308 L
475.885 354.395 L
476.502 354.395 L
477.119 354.395 L
477.736 354.395 L
478.353 535.174 L
478.97 367.308 L
479.587 341.482 L
480.204 315.657 L
480.82 302.744 L
481.437 302.744 L
482.054 289.831 L
482.671 276.918 L
483.288 264.005 L
483.905 264.005 L
484.522 251.093 L
485.139 251.093 L
485.756 264.005 L
486.372 251.093 L
486.989 251.093 L
487.606 238.18 L
488.223 264.005 L
488.84 251.093 L
489.457 251.093 L
490.074 251.093 L
490.691 251.093 L
491.308 251.093 L
491.924 251.093 L
492.541 251.093 L
493.158 238.18 L
493.775 251.093 L
494.392 251.093 L
495.009 251.093 L
495.626 264.005 L
496.243 251.093 L
496.86 251.093 L
497.476 251.093 L
498.093 251.093 L
498.71 251.093 L
499.327 251.093 L
499.944 251.093 L
500.561 251.093 L
501.178 251.093 L
501.795 251.093 L
502.412 251.093 L
503.028 251.093 L
503.645 251.093 L
504.262 251.093 L
504.879 251.093 L
505.496 264.005 L
506.113 264.005 L
506.73 251.093 L
507.347 251.093 L
507.964 251.093 L
508.58 238.18 L
509.197 251.093 L
509.814 264.005 L
510.431 251.093 L
511.048 251.093 L
511.665 264.005 L
512.282 251.093 L
512.899 251.093 L
513.516 264.005 L
514.132 264.005 L
514.749 251.093 L
515.366 251.093 L
515.983 251.093 L
516.6 251.093 L
517.217 264.005 L
517.834 251.093 L
518.451 251.093 L
519.067 251.093 L
519.684 251.093 L
520.301 251.093 L
520.918 251.093 L
521.535 251.093 L
522.152 251.093 L
522.769 251.093 L
523.386 251.093 L
524.003 251.093 L
524.619 251.093 L
525.236 264.005 L
525.853 264.005 L
526.47 251.093 L
527.087 251.093 L
527.704 251.093 L
528.321 264.005 L
528.938 251.093 L
529.555 251.093 L
530.171 251.093 L
530.788 251.093 L
531.405 251.093 L
532.022 251.093 L
532.639 251.093 L
533.256 251.093 L
533.873 251.093 L
534.49 264.005 L
535.107 251.093 L
535.723 238.18 L
536.34 264.005 L
536.957 289.831 L
537.574 302.744 L
538.191 315.657 L
538.808 315.657 L
539.425 315.657 L
540.042 328.569 L
540.659 328.569 L
541.275 328.569 L
541.892 328.569 L
542.509 341.482 L
543.126 393.134 L
543.743 380.221 L
544.36 367.308 L
544.977 367.308 L
545.594 367.308 L
546.21 367.308 L
546.827 380.221 L
547.444 367.308 L
548.061 367.308 L
548.678 367.308 L
549.295 367.308 L
549.912 367.308 L
550.529 367.308 L
551.146 367.308 L
551.762 354.395 L
552.379 367.308 L
552.996 367.308 L
553.613 367.308 L
554.23 367.308 L
554.847 354.395 L
555.464 367.308 L
556.081 354.395 L
556.698 354.395 L
557.314 354.395 L
557.931 367.308 L
558.548 354.395 L
559.165 354.395 L
559.782 367.308 L
560.399 354.395 L
561.016 354.395 L
561.633 354.395 L
562.25 354.395 L
562.866 367.308 L
563.483 354.395 L
564.1 367.308 L
564.717 367.308 L
565.334 354.395 L
565.951 354.395 L
566.568 354.395 L
567.185 354.395 L
567.802 367.308 L
568.418 354.395 L
569.035 354.395 L
569.652 367.308 L
570.269 354.395 L
570.886 354.395 L
571.503 354.395 L
572.12 367.308 L
572.737 354.395 L
573.353 367.308 L
573.97 354.395 L
574.587 354.395 L
575.204 367.308 L
575.821 354.395 L
576.438 354.395 L
577.055 354.395 L
577.672 354.395 L
578.289 367.308 L
578.905 354.395 L
579.522 496.436 L
580.139 354.395 L
580.756 328.569 L
581.373 315.657 L
581.99 302.744 L
582.607 302.744 L
583.224 276.918 L
583.841 264.005 L
584.457 251.093 L
585.074 264.005 L
585.691 251.093 L
586.308 251.093 L
586.925 251.093 L
587.542 251.093 L
588.159 251.093 L
588.776 251.093 L
589.393 251.093 L
590.009 251.093 L
590.626 251.093 L
591.243 251.093 L
591.86 251.093 L
592.477 251.093 L
593.094 251.093 L
593.711 251.093 L
594.328 251.093 L
594.945 251.093 L
595.561 251.093 L
596.178 251.093 L
596.795 264.005 L
597.412 264.005 L
598.029 251.093 L
598.646 251.093 L
599.263 264.005 L
599.88 251.093 L
600.496 251.093 L
601.113 251.093 L
601.73 251.093 L
602.347 251.093 L
602.964 251.093 L
603.581 251.093 L
604.198 251.093 L
604.815 251.093 L
605.432 251.093 L
606.048 264.005 L
606.665 264.005 L
607.282 264.005 L
607.899 251.093 L
608.516 264.005 L
609.133 251.093 L
609.75 264.005 L
610.367 251.093 L
610.984 251.093 L
611.6 251.093 L
612.217 264.005 L
612.834 251.093 L
613.451 251.093 L
614.068 251.093 L
614.685 264.005 L
615.302 251.093 L
615.919 251.093 L
616.536 264.005 L
617.152 264.005 L
617.769 264.005 L
618.386 264.005 L
619.003 264.005 L
619.62 251.093 L
620.237 251.093 L
620.854 251.093 L
621.471 251.093 L
622.087 264.005 L
622.704 251.093 L
623.314 46.939 L
S
GR
GS
[0.5 0 0 0.5 0 0] CT
0 0.447 0.741 RC
1 LJ
3 LW
N
623.329 46.939 M
623.938 251.093 L
624.555 276.918 L
625.172 289.831 L
625.789 302.744 L
626.406 315.657 L
627.023 315.657 L
627.639 328.569 L
628.256 328.569 L
628.873 328.569 L
629.49 328.569 L
630.107 328.569 L
630.724 418.959 L
631.341 380.221 L
631.958 367.308 L
632.575 380.221 L
633.191 367.308 L
633.808 367.308 L
634.425 367.308 L
635.042 367.308 L
635.659 367.308 L
636.276 367.308 L
636.893 367.308 L
637.51 367.308 L
638.127 367.308 L
638.743 354.395 L
639.36 367.308 L
639.977 367.308 L
640.594 354.395 L
641.211 367.308 L
641.828 367.308 L
642.445 367.308 L
643.062 367.308 L
643.679 367.308 L
644.295 367.308 L
644.912 367.308 L
645.529 354.395 L
646.146 354.395 L
646.763 367.308 L
647.38 367.308 L
647.997 354.395 L
648.614 367.308 L
649.23 354.395 L
649.847 354.395 L
650.464 354.395 L
651.081 354.395 L
651.698 367.308 L
652.315 367.308 L
652.932 354.395 L
653.549 367.308 L
654.166 367.308 L
654.782 354.395 L
655.399 354.395 L
656.016 367.308 L
656.633 367.308 L
657.25 367.308 L
657.867 354.395 L
658.484 354.395 L
659.101 354.395 L
659.718 367.308 L
660.334 367.308 L
660.951 354.395 L
661.568 354.395 L
662.185 367.308 L
662.802 367.308 L
663.419 354.395 L
664.036 354.395 L
664.653 354.395 L
665.27 354.395 L
665.886 354.395 L
666.503 367.308 L
667.12 367.308 L
667.737 457.698 L
668.354 354.395 L
668.971 328.569 L
669.588 328.569 L
670.205 302.744 L
670.822 302.744 L
671.438 276.918 L
672.055 276.918 L
672.672 251.093 L
673.289 251.093 L
673.906 251.093 L
674.523 251.093 L
675.14 264.005 L
675.757 251.093 L
676.374 251.093 L
676.99 251.093 L
677.607 251.093 L
678.224 251.093 L
678.841 251.093 L
679.458 251.093 L
680.075 251.093 L
680.692 264.005 L
681.309 251.093 L
681.925 251.093 L
682.542 251.093 L
683.159 251.093 L
683.776 264.005 L
684.393 251.093 L
685.01 251.093 L
685.627 251.093 L
686.244 251.093 L
686.861 264.005 L
687.477 251.093 L
688.094 251.093 L
688.711 251.093 L
689.328 251.093 L
689.945 251.093 L
690.562 264.005 L
691.179 251.093 L
691.796 264.005 L
692.413 251.093 L
693.029 251.093 L
693.646 264.005 L
694.263 251.093 L
694.88 251.093 L
695.497 264.005 L
696.114 264.005 L
696.731 264.005 L
697.348 251.093 L
697.965 251.093 L
698.581 264.005 L
699.198 264.005 L
699.815 264.005 L
700.432 264.005 L
701.049 264.005 L
701.666 264.005 L
702.283 251.093 L
702.9 264.005 L
703.516 251.093 L
704.133 264.005 L
704.75 264.005 L
705.367 264.005 L
705.984 264.005 L
706.601 264.005 L
707.218 251.093 L
707.835 251.093 L
708.452 251.093 L
709.068 264.005 L
709.685 264.005 L
710.302 264.005 L
710.919 264.005 L
711.536 83.226 L
712.153 238.18 L
712.77 276.918 L
713.387 289.831 L
714.004 302.744 L
714.62 315.657 L
715.237 315.657 L
715.854 328.569 L
716.471 328.569 L
717.088 328.569 L
717.705 328.569 L
718.322 341.482 L
718.939 418.959 L
719.556 380.221 L
720.172 380.221 L
720.789 380.221 L
721.406 367.308 L
722.023 367.308 L
722.64 367.308 L
723.257 367.308 L
723.874 367.308 L
724.491 367.308 L
725.108 367.308 L
725.724 380.221 L
726.341 367.308 L
726.958 367.308 L
727.575 354.395 L
728.192 367.308 L
728.809 367.308 L
729.426 354.395 L
730.043 367.308 L
730.659 367.308 L
731.276 354.395 L
731.893 367.308 L
732.51 354.395 L
733.127 367.308 L
733.744 354.395 L
734.361 354.395 L
734.978 367.308 L
735.595 367.308 L
736.211 367.308 L
736.828 354.395 L
737.445 367.308 L
738.062 354.395 L
738.679 367.308 L
739.296 367.308 L
739.913 367.308 L
740.53 354.395 L
741.147 354.395 L
741.763 354.395 L
742.38 367.308 L
742.997 367.308 L
743.614 354.395 L
744.231 354.395 L
744.848 354.395 L
745.465 367.308 L
746.082 354.395 L
746.699 367.308 L
747.315 367.308 L
747.932 367.308 L
748.549 367.308 L
749.166 367.308 L
749.783 367.308 L
750.4 367.308 L
751.017 354.395 L
751.634 367.308 L
752.251 354.395 L
752.867 367.308 L
753.484 367.308 L
754.101 354.395 L
754.718 354.395 L
755.335 548.087 L
755.952 367.308 L
756.569 341.482 L
757.186 315.657 L
757.802 315.657 L
758.419 289.831 L
759.036 289.831 L
759.653 264.005 L
760.078 264.005 L
S
GR
GS
[0.5 0 0 0.5 0 0] CT
0.851 0.325 0.098 RC
1 LJ
3 LW
N
108.922 244.636 M
760.078 244.636 L
S
GR
GS
[0.5 0 0 0.5 0 0] CT
0.929 0.694 0.125 RC
1 LJ
3 LW
N
108.922 373.764 M
760.078 373.764 L
S
GR
GS
[0.5 0 0 0.5 0 0] CT
1 GC
N
744 139 M
744 63 L
518 63 L
518 139 L
cp
f
GR
GS
[0.5 0 0 0.5 294.32816 38.70261] CT
/Helvetica 18 F
GS
[1 0 0 1 0 0] CT
0 7.5 moveto 
1 -1 scale
(Shuttling capacitor) t 
GR
GR
GS
[0.5 0 0 0.5 0 0] CT
0 0.447 0.741 RC
1 LJ
3 LW
N
524.013 77.405 M
584.146 77.405 L
S
GR
GS
[0.5 0 0 0.5 294.32816 50.5] CT
/Helvetica 18 F
GS
[1 0 0 1 0 0] CT
0 7.5 moveto 
1 -1 scale
(High cell) t 
GR
GR
GS
[0.5 0 0 0.5 0 0] CT
0.851 0.325 0.098 RC
1 LJ
3 LW
N
524.013 101 M
584.146 101 L
S
GR
GS
[0.5 0 0 0.5 294.32816 62.29739] CT
/Helvetica 18 F
GS
[1 0 0 1 0 0] CT
0 7.5 moveto 
1 -1 scale
(Low cell) t 
GR
GR
GS
[0.5 0 0 0.5 0 0] CT
0.929 0.694 0.125 RC
1 LJ
3 LW
N
524.013 124.595 M
584.146 124.595 L
S
GR
GS
[0.5 0 0 0.5 0 0] CT
0.149 GC
10.0 ML
N
518 139 M
518 63 L
744 63 L
744 139 L
cp
S
GR
%%Trailer
%%Pages: 1
%%EOF
