%!PS-Adobe-3.0 EPSF-3.0
%%Creator: (MATLAB, The Mathworks, Inc. Version 9.4.0.813654 \(R2018a\). Operating System: Windows 10)
%%Title: C:/Users/robbe/OneDrive/VUB/Thesis/OscMeasurements/CURR_SINGLE/ALL0000/shuttlingCurrent.eps
%%CreationDate: 2019-05-14T19:02:15
%%Pages: (atend)
%%BoundingBox: 0 0 420 315
%%LanguageLevel: 3
%%EndComments
%%BeginProlog
%%BeginResource: procset (Apache XML Graphics Std ProcSet) 1.2 0
%%Version: 1.2 0
%%Copyright: (Copyright 2001-2003,2010 The Apache Software Foundation. License terms: http://www.apache.org/licenses/LICENSE-2.0)
/bd{bind def}bind def
/ld{load def}bd
/GR/grestore ld
/GS/gsave ld
/RM/rmoveto ld
/C/curveto ld
/t/show ld
/L/lineto ld
/ML/setmiterlimit ld
/CT/concat ld
/f/fill ld
/N/newpath ld
/S/stroke ld
/CC/setcmykcolor ld
/A/ashow ld
/cp/closepath ld
/RC/setrgbcolor ld
/LJ/setlinejoin ld
/GC/setgray ld
/LW/setlinewidth ld
/M/moveto ld
/re {4 2 roll M
1 index 0 rlineto
0 exch rlineto
neg 0 rlineto
cp } bd
/_ctm matrix def
/_tm matrix def
/BT { _ctm currentmatrix pop matrix _tm copy pop 0 0 moveto } bd
/ET { _ctm setmatrix } bd
/iTm { _ctm setmatrix _tm concat } bd
/Tm { _tm astore pop iTm 0 0 moveto } bd
/ux 0.0 def
/uy 0.0 def
/F {
  /Tp exch def
  /Tf exch def
  Tf findfont Tp scalefont setfont
  /cf Tf def  /cs Tp def
} bd
/ULS {currentpoint /uy exch def /ux exch def} bd
/ULE {
  /Tcx currentpoint pop def
  gsave
  newpath
  cf findfont cs scalefont dup
  /FontMatrix get 0 get /Ts exch def /FontInfo get dup
  /UnderlinePosition get Ts mul /To exch def
  /UnderlineThickness get Ts mul /Tt exch def
  ux uy To add moveto  Tcx uy To add lineto
  Tt setlinewidth stroke
  grestore
} bd
/OLE {
  /Tcx currentpoint pop def
  gsave
  newpath
  cf findfont cs scalefont dup
  /FontMatrix get 0 get /Ts exch def /FontInfo get dup
  /UnderlinePosition get Ts mul /To exch def
  /UnderlineThickness get Ts mul /Tt exch def
  ux uy To add cs add moveto Tcx uy To add cs add lineto
  Tt setlinewidth stroke
  grestore
} bd
/SOE {
  /Tcx currentpoint pop def
  gsave
  newpath
  cf findfont cs scalefont dup
  /FontMatrix get 0 get /Ts exch def /FontInfo get dup
  /UnderlinePosition get Ts mul /To exch def
  /UnderlineThickness get Ts mul /Tt exch def
  ux uy To add cs 10 mul 26 idiv add moveto Tcx uy To add cs 10 mul 26 idiv add lineto
  Tt setlinewidth stroke
  grestore
} bd
/QT {
/Y22 exch store
/X22 exch store
/Y21 exch store
/X21 exch store
currentpoint
/Y21 load 2 mul add 3 div exch
/X21 load 2 mul add 3 div exch
/X21 load 2 mul /X22 load add 3 div
/Y21 load 2 mul /Y22 load add 3 div
/X22 load /Y22 load curveto
} bd
/SSPD {
dup length /d exch dict def
{
/v exch def
/k exch def
currentpagedevice k known {
/cpdv currentpagedevice k get def
v cpdv ne {
/upd false def
/nullv v type /nulltype eq def
/nullcpdv cpdv type /nulltype eq def
nullv nullcpdv or
{
/upd true def
} {
/sametype v type cpdv type eq def
sametype {
v type /arraytype eq {
/vlen v length def
/cpdvlen cpdv length def
vlen cpdvlen eq {
0 1 vlen 1 sub {
/i exch def
/obj v i get def
/cpdobj cpdv i get def
obj cpdobj ne {
/upd true def
exit
} if
} for
} {
/upd true def
} ifelse
} {
v type /dicttype eq {
v {
/dv exch def
/dk exch def
/cpddv cpdv dk get def
dv cpddv ne {
/upd true def
exit
} if
} forall
} {
/upd true def
} ifelse
} ifelse
} if
} ifelse
upd true eq {
d k v put
} if
} if
} if
} forall
d length 0 gt {
d setpagedevice
} if
} bd
/RE { % /NewFontName [NewEncodingArray] /FontName RE -
  findfont dup length dict begin
  {
    1 index /FID ne
    {def} {pop pop} ifelse
  } forall
  /Encoding exch def
  /FontName 1 index def
  currentdict definefont pop
  end
} bind def
%%EndResource
%%BeginResource: procset (Apache XML Graphics EPS ProcSet) 1.0 0
%%Version: 1.0 0
%%Copyright: (Copyright 2002-2003 The Apache Software Foundation. License terms: http://www.apache.org/licenses/LICENSE-2.0)
/BeginEPSF { %def
/b4_Inc_state save def         % Save state for cleanup
/dict_count countdictstack def % Count objects on dict stack
/op_count count 1 sub def      % Count objects on operand stack
userdict begin                 % Push userdict on dict stack
/showpage { } def              % Redefine showpage, { } = null proc
0 setgray 0 setlinecap         % Prepare graphics state
1 setlinewidth 0 setlinejoin
10 setmiterlimit [ ] 0 setdash newpath
/languagelevel where           % If level not equal to 1 then
{pop languagelevel             % set strokeadjust and
1 ne                           % overprint to their defaults.
{false setstrokeadjust false setoverprint
} if
} if
} bd
/EndEPSF { %def
count op_count sub {pop} repeat            % Clean up stacks
countdictstack dict_count sub {end} repeat
b4_Inc_state restore
} bd
%%EndResource
%FOPBeginFontDict
%%IncludeResource: font Courier-Oblique
%%IncludeResource: font Courier-BoldOblique
%%IncludeResource: font Courier-Bold
%%IncludeResource: font ZapfDingbats
%%IncludeResource: font Symbol
%%IncludeResource: font Helvetica
%%IncludeResource: font Helvetica-Oblique
%%IncludeResource: font Helvetica-Bold
%%IncludeResource: font Helvetica-BoldOblique
%%IncludeResource: font Times-Roman
%%IncludeResource: font Times-Italic
%%IncludeResource: font Times-Bold
%%IncludeResource: font Times-BoldItalic
%%IncludeResource: font Courier
%FOPEndFontDict
%%BeginResource: encoding WinAnsiEncoding
/WinAnsiEncoding [
/.notdef /.notdef /.notdef /.notdef /.notdef
/.notdef /.notdef /.notdef /.notdef /.notdef
/.notdef /.notdef /.notdef /.notdef /.notdef
/.notdef /.notdef /.notdef /.notdef /.notdef
/.notdef /.notdef /.notdef /.notdef /.notdef
/.notdef /.notdef /.notdef /.notdef /.notdef
/.notdef /.notdef /space /exclam /quotedbl
/numbersign /dollar /percent /ampersand /quotesingle
/parenleft /parenright /asterisk /plus /comma
/hyphen /period /slash /zero /one
/two /three /four /five /six
/seven /eight /nine /colon /semicolon
/less /equal /greater /question /at
/A /B /C /D /E
/F /G /H /I /J
/K /L /M /N /O
/P /Q /R /S /T
/U /V /W /X /Y
/Z /bracketleft /backslash /bracketright /asciicircum
/underscore /quoteleft /a /b /c
/d /e /f /g /h
/i /j /k /l /m
/n /o /p /q /r
/s /t /u /v /w
/x /y /z /braceleft /bar
/braceright /asciitilde /bullet /Euro /bullet
/quotesinglbase /florin /quotedblbase /ellipsis /dagger
/daggerdbl /circumflex /perthousand /Scaron /guilsinglleft
/OE /bullet /Zcaron /bullet /bullet
/quoteleft /quoteright /quotedblleft /quotedblright /bullet
/endash /emdash /asciitilde /trademark /scaron
/guilsinglright /oe /bullet /zcaron /Ydieresis
/space /exclamdown /cent /sterling /currency
/yen /brokenbar /section /dieresis /copyright
/ordfeminine /guillemotleft /logicalnot /sfthyphen /registered
/macron /degree /plusminus /twosuperior /threesuperior
/acute /mu /paragraph /middot /cedilla
/onesuperior /ordmasculine /guillemotright /onequarter /onehalf
/threequarters /questiondown /Agrave /Aacute /Acircumflex
/Atilde /Adieresis /Aring /AE /Ccedilla
/Egrave /Eacute /Ecircumflex /Edieresis /Igrave
/Iacute /Icircumflex /Idieresis /Eth /Ntilde
/Ograve /Oacute /Ocircumflex /Otilde /Odieresis
/multiply /Oslash /Ugrave /Uacute /Ucircumflex
/Udieresis /Yacute /Thorn /germandbls /agrave
/aacute /acircumflex /atilde /adieresis /aring
/ae /ccedilla /egrave /eacute /ecircumflex
/edieresis /igrave /iacute /icircumflex /idieresis
/eth /ntilde /ograve /oacute /ocircumflex
/otilde /odieresis /divide /oslash /ugrave
/uacute /ucircumflex /udieresis /yacute /thorn
/ydieresis
] def
%%EndResource
%FOPBeginFontReencode
/Courier-Oblique findfont
dup length dict begin
  {1 index /FID ne {def} {pop pop} ifelse} forall
  /Encoding WinAnsiEncoding def
  currentdict
end
/Courier-Oblique exch definefont pop
/Courier-BoldOblique findfont
dup length dict begin
  {1 index /FID ne {def} {pop pop} ifelse} forall
  /Encoding WinAnsiEncoding def
  currentdict
end
/Courier-BoldOblique exch definefont pop
/Courier-Bold findfont
dup length dict begin
  {1 index /FID ne {def} {pop pop} ifelse} forall
  /Encoding WinAnsiEncoding def
  currentdict
end
/Courier-Bold exch definefont pop
/Helvetica findfont
dup length dict begin
  {1 index /FID ne {def} {pop pop} ifelse} forall
  /Encoding WinAnsiEncoding def
  currentdict
end
/Helvetica exch definefont pop
/Helvetica-Oblique findfont
dup length dict begin
  {1 index /FID ne {def} {pop pop} ifelse} forall
  /Encoding WinAnsiEncoding def
  currentdict
end
/Helvetica-Oblique exch definefont pop
/Helvetica-Bold findfont
dup length dict begin
  {1 index /FID ne {def} {pop pop} ifelse} forall
  /Encoding WinAnsiEncoding def
  currentdict
end
/Helvetica-Bold exch definefont pop
/Helvetica-BoldOblique findfont
dup length dict begin
  {1 index /FID ne {def} {pop pop} ifelse} forall
  /Encoding WinAnsiEncoding def
  currentdict
end
/Helvetica-BoldOblique exch definefont pop
/Times-Roman findfont
dup length dict begin
  {1 index /FID ne {def} {pop pop} ifelse} forall
  /Encoding WinAnsiEncoding def
  currentdict
end
/Times-Roman exch definefont pop
/Times-Italic findfont
dup length dict begin
  {1 index /FID ne {def} {pop pop} ifelse} forall
  /Encoding WinAnsiEncoding def
  currentdict
end
/Times-Italic exch definefont pop
/Times-Bold findfont
dup length dict begin
  {1 index /FID ne {def} {pop pop} ifelse} forall
  /Encoding WinAnsiEncoding def
  currentdict
end
/Times-Bold exch definefont pop
/Times-BoldItalic findfont
dup length dict begin
  {1 index /FID ne {def} {pop pop} ifelse} forall
  /Encoding WinAnsiEncoding def
  currentdict
end
/Times-BoldItalic exch definefont pop
/Courier findfont
dup length dict begin
  {1 index /FID ne {def} {pop pop} ifelse} forall
  /Encoding WinAnsiEncoding def
  currentdict
end
/Courier exch definefont pop
%FOPEndFontReencode
%%EndProlog
%%Page: 1 1
%%PageBoundingBox: 0 0 420 315
%%BeginPageSetup
[1 0 0 -1 0 315] CT
%%EndPageSetup
GS
[0.5 0 0 0.5 0 0] CT
1 GC
N
0 0 840 630 re
f
GR
GS
[0.5 0 0 0.5 0 0] CT
1 GC
N
0 0 840 630 re
f
GR
GS
[0.5 0 0 0.5 0 0] CT
1 GC
N
109 561 M
760 561 L
760 47 L
109 47 L
cp
f
GR
GS
[0.5 0 0 0.5 0 0] CT
0.149 GC
2 setlinecap
1 LJ
N
109 561 M
760 561 L
S
GR
GS
[0.5 0 0 0.5 0 0] CT
0.149 GC
2 setlinecap
1 LJ
N
109 47 M
760 47 L
S
GR
GS
[0.5 0 0 0.5 0 0] CT
0.149 GC
2 setlinecap
1 LJ
N
169.1 561 M
169.1 554.49 L
S
GR
GS
[0.5 0 0 0.5 0 0] CT
0.149 GC
2 setlinecap
1 LJ
N
234.2 561 M
234.2 554.49 L
S
GR
GS
[0.5 0 0 0.5 0 0] CT
0.149 GC
2 setlinecap
1 LJ
N
299.3 561 M
299.3 554.49 L
S
GR
GS
[0.5 0 0 0.5 0 0] CT
0.149 GC
2 setlinecap
1 LJ
N
364.4 561 M
364.4 554.49 L
S
GR
GS
[0.5 0 0 0.5 0 0] CT
0.149 GC
2 setlinecap
1 LJ
N
429.5 561 M
429.5 554.49 L
S
GR
GS
[0.5 0 0 0.5 0 0] CT
0.149 GC
2 setlinecap
1 LJ
N
494.6 561 M
494.6 554.49 L
S
GR
GS
[0.5 0 0 0.5 0 0] CT
0.149 GC
2 setlinecap
1 LJ
N
559.7 561 M
559.7 554.49 L
S
GR
GS
[0.5 0 0 0.5 0 0] CT
0.149 GC
2 setlinecap
1 LJ
N
624.8 561 M
624.8 554.49 L
S
GR
GS
[0.5 0 0 0.5 0 0] CT
0.149 GC
2 setlinecap
1 LJ
N
689.9 561 M
689.9 554.49 L
S
GR
GS
[0.5 0 0 0.5 0 0] CT
0.149 GC
2 setlinecap
1 LJ
N
755 561 M
755 554.49 L
S
GR
GS
[0.5 0 0 0.5 0 0] CT
0.149 GC
2 setlinecap
1 LJ
N
169.1 47 M
169.1 53.51 L
S
GR
GS
[0.5 0 0 0.5 0 0] CT
0.149 GC
2 setlinecap
1 LJ
N
234.2 47 M
234.2 53.51 L
S
GR
GS
[0.5 0 0 0.5 0 0] CT
0.149 GC
2 setlinecap
1 LJ
N
299.3 47 M
299.3 53.51 L
S
GR
GS
[0.5 0 0 0.5 0 0] CT
0.149 GC
2 setlinecap
1 LJ
N
364.4 47 M
364.4 53.51 L
S
GR
GS
[0.5 0 0 0.5 0 0] CT
0.149 GC
2 setlinecap
1 LJ
N
429.5 47 M
429.5 53.51 L
S
GR
GS
[0.5 0 0 0.5 0 0] CT
0.149 GC
2 setlinecap
1 LJ
N
494.6 47 M
494.6 53.51 L
S
GR
GS
[0.5 0 0 0.5 0 0] CT
0.149 GC
2 setlinecap
1 LJ
N
559.7 47 M
559.7 53.51 L
S
GR
GS
[0.5 0 0 0.5 0 0] CT
0.149 GC
2 setlinecap
1 LJ
N
624.8 47 M
624.8 53.51 L
S
GR
GS
[0.5 0 0 0.5 0 0] CT
0.149 GC
2 setlinecap
1 LJ
N
689.9 47 M
689.9 53.51 L
S
GR
GS
[0.5 0 0 0.5 0 0] CT
0.149 GC
2 setlinecap
1 LJ
N
755 47 M
755 53.51 L
S
GR
GS
[0.5 0 0 0.5 84.55 284.5] CT
0.149 GC
/Helvetica 20 F
GS
[1 0 0 1 0 0] CT
-9 21 moveto 
1 -1 scale
(-4) t 
GR
GR
GS
[0.5 0 0 0.5 117.1 284.5] CT
0.149 GC
/Helvetica 20 F
GS
[1 0 0 1 0 0] CT
-9 21 moveto 
1 -1 scale
(-3) t 
GR
GR
GS
[0.5 0 0 0.5 149.64999 284.5] CT
0.149 GC
/Helvetica 20 F
GS
[1 0 0 1 0 0] CT
-9 21 moveto 
1 -1 scale
(-2) t 
GR
GR
GS
[0.5 0 0 0.5 182.2 284.5] CT
0.149 GC
/Helvetica 20 F
GS
[1 0 0 1 0 0] CT
-9 21 moveto 
1 -1 scale
(-1) t 
GR
GR
GS
[0.5 0 0 0.5 214.75 284.5] CT
0.149 GC
/Helvetica 20 F
GS
[1 0 0 1 0 0] CT
-6 21 moveto 
1 -1 scale
(0) t 
GR
GR
GS
[0.5 0 0 0.5 247.3 284.5] CT
0.149 GC
/Helvetica 20 F
GS
[1 0 0 1 0 0] CT
-6 21 moveto 
1 -1 scale
(1) t 
GR
GR
GS
[0.5 0 0 0.5 279.85001 284.5] CT
0.149 GC
/Helvetica 20 F
GS
[1 0 0 1 0 0] CT
-6 21 moveto 
1 -1 scale
(2) t 
GR
GR
GS
[0.5 0 0 0.5 312.39999 284.5] CT
0.149 GC
/Helvetica 20 F
GS
[1 0 0 1 0 0] CT
-6 21 moveto 
1 -1 scale
(3) t 
GR
GR
GS
[0.5 0 0 0.5 344.95001 284.5] CT
0.149 GC
/Helvetica 20 F
GS
[1 0 0 1 0 0] CT
-6 21 moveto 
1 -1 scale
(4) t 
GR
GR
GS
[0.5 0 0 0.5 377.5 284.5] CT
0.149 GC
/Helvetica 20 F
GS
[1 0 0 1 0 0] CT
-6 21 moveto 
1 -1 scale
(5) t 
GR
GR
GS
[0.5 0 0 0.5 217.25017 298.5] CT
0.149 GC
/Helvetica 22 F
GS
[1 0 0 1 0 0] CT
-49.5 23 moveto 
1 -1 scale
(Time \(ms\)) t 
GR
GR
GS
[0.5 0 0 0.5 0 0] CT
0.149 GC
2 setlinecap
1 LJ
N
109 561 M
109 47 L
S
GR
GS
[0.5 0 0 0.5 0 0] CT
0.149 GC
2 setlinecap
1 LJ
N
760 561 M
760 47 L
S
GR
GS
[0.5 0 0 0.5 0 0] CT
0.149 GC
2 setlinecap
1 LJ
N
109 502.75 M
115.51 502.75 L
S
GR
GS
[0.5 0 0 0.5 0 0] CT
0.149 GC
2 setlinecap
1 LJ
N
109 438.5 M
115.51 438.5 L
S
GR
GS
[0.5 0 0 0.5 0 0] CT
0.149 GC
2 setlinecap
1 LJ
N
109 374.25 M
115.51 374.25 L
S
GR
GS
[0.5 0 0 0.5 0 0] CT
0.149 GC
2 setlinecap
1 LJ
N
109 310 M
115.51 310 L
S
GR
GS
[0.5 0 0 0.5 0 0] CT
0.149 GC
2 setlinecap
1 LJ
N
109 245.75 M
115.51 245.75 L
S
GR
GS
[0.5 0 0 0.5 0 0] CT
0.149 GC
2 setlinecap
1 LJ
N
109 181.5 M
115.51 181.5 L
S
GR
GS
[0.5 0 0 0.5 0 0] CT
0.149 GC
2 setlinecap
1 LJ
N
109 117.25 M
115.51 117.25 L
S
GR
GS
[0.5 0 0 0.5 0 0] CT
0.149 GC
2 setlinecap
1 LJ
N
109 53 M
115.51 53 L
S
GR
GS
[0.5 0 0 0.5 0 0] CT
0.149 GC
2 setlinecap
1 LJ
N
760 502.75 M
753.49 502.75 L
S
GR
GS
[0.5 0 0 0.5 0 0] CT
0.149 GC
2 setlinecap
1 LJ
N
760 438.5 M
753.49 438.5 L
S
GR
GS
[0.5 0 0 0.5 0 0] CT
0.149 GC
2 setlinecap
1 LJ
N
760 374.25 M
753.49 374.25 L
S
GR
GS
[0.5 0 0 0.5 0 0] CT
0.149 GC
2 setlinecap
1 LJ
N
760 310 M
753.49 310 L
S
GR
GS
[0.5 0 0 0.5 0 0] CT
0.149 GC
2 setlinecap
1 LJ
N
760 245.75 M
753.49 245.75 L
S
GR
GS
[0.5 0 0 0.5 0 0] CT
0.149 GC
2 setlinecap
1 LJ
N
760 181.5 M
753.49 181.5 L
S
GR
GS
[0.5 0 0 0.5 0 0] CT
0.149 GC
2 setlinecap
1 LJ
N
760 117.25 M
753.49 117.25 L
S
GR
GS
[0.5 0 0 0.5 0 0] CT
0.149 GC
2 setlinecap
1 LJ
N
760 53 M
753.49 53 L
S
GR
GS
[0.5 0 0 0.5 50.5 251.375] CT
0.149 GC
/Helvetica 20 F
GS
[1 0 0 1 0 0] CT
-35 8 moveto 
1 -1 scale
(-0.3) t 
GR
GR
GS
[0.5 0 0 0.5 50.5 219.25] CT
0.149 GC
/Helvetica 20 F
GS
[1 0 0 1 0 0] CT
-35 8 moveto 
1 -1 scale
(-0.2) t 
GR
GR
GS
[0.5 0 0 0.5 50.5 187.125] CT
0.149 GC
/Helvetica 20 F
GS
[1 0 0 1 0 0] CT
-35 8 moveto 
1 -1 scale
(-0.1) t 
GR
GR
GS
[0.5 0 0 0.5 50.5 155] CT
0.149 GC
/Helvetica 20 F
GS
[1 0 0 1 0 0] CT
-12 8 moveto 
1 -1 scale
(0) t 
GR
GR
GS
[0.5 0 0 0.5 50.5 122.875] CT
0.149 GC
/Helvetica 20 F
GS
[1 0 0 1 0 0] CT
-28 8 moveto 
1 -1 scale
(0.1) t 
GR
GR
GS
[0.5 0 0 0.5 50.5 90.75] CT
0.149 GC
/Helvetica 20 F
GS
[1 0 0 1 0 0] CT
-28 8 moveto 
1 -1 scale
(0.2) t 
GR
GR
GS
[0.5 0 0 0.5 50.5 58.625] CT
0.149 GC
/Helvetica 20 F
GS
[1 0 0 1 0 0] CT
-28 8 moveto 
1 -1 scale
(0.3) t 
GR
GR
GS
[0.5 0 0 0.5 50.5 26.5] CT
0.149 GC
/Helvetica 20 F
GS
[1 0 0 1 0 0] CT
-28 8 moveto 
1 -1 scale
(0.4) t 
GR
GR
GS
[0 -0.5 0.5 0 30 151.99988] CT
0.149 GC
/Helvetica 22 F
GS
[1 0 0 1 0 0] CT
-54.5 -5 moveto 
1 -1 scale
(Current \(A\)) t 
GR
GR
GS
[0.5 0 0 0.5 217.25021 22.125] CT
/Helvetica-Bold 22 F
GS
[1 0 0 1 0 0] CT
-122.5 -5 moveto 
1 -1 scale
(Shuttling between cells) t 
GR
GR
GS
[0.5 0 0 0.5 0 0] CT
0 0.447 0.741 RC
1 LJ
3 LW
N
108.922 306.29 M
108.948 306.788 L
109.208 311.927 L
109.468 306.788 L
109.729 311.927 L
109.989 311.927 L
110.25 309.358 L
110.51 306.788 L
110.77 311.927 L
111.031 311.927 L
111.291 311.927 L
111.552 311.927 L
111.812 311.927 L
112.072 309.358 L
112.333 311.927 L
112.593 309.358 L
112.854 311.927 L
113.114 309.358 L
113.374 309.358 L
113.635 304.217 L
113.895 304.217 L
114.156 309.358 L
114.416 299.077 L
114.676 306.788 L
114.937 309.358 L
115.197 309.358 L
115.458 309.358 L
115.718 311.927 L
115.978 311.927 L
116.239 311.927 L
116.499 311.927 L
116.76 311.927 L
117.02 309.358 L
117.28 311.927 L
117.541 309.358 L
117.801 309.358 L
118.062 309.358 L
118.322 309.358 L
118.582 309.358 L
118.843 309.358 L
119.103 306.788 L
119.364 306.788 L
119.624 311.927 L
119.884 304.217 L
120.145 309.358 L
120.405 311.927 L
120.666 309.358 L
120.926 311.927 L
121.186 309.358 L
121.447 309.358 L
121.707 314.497 L
121.968 309.358 L
122.228 306.788 L
122.488 311.927 L
122.749 309.358 L
123.009 309.358 L
123.27 309.358 L
123.53 311.927 L
123.79 311.927 L
124.051 311.927 L
124.311 306.788 L
124.572 306.788 L
124.832 306.788 L
125.092 309.358 L
125.353 306.788 L
125.613 306.788 L
125.874 301.647 L
126.134 309.358 L
126.394 301.647 L
126.655 311.927 L
126.915 306.788 L
127.176 309.358 L
127.436 309.358 L
127.696 306.788 L
127.957 309.358 L
128.217 309.358 L
128.478 309.358 L
128.738 306.788 L
128.998 311.927 L
129.259 304.217 L
129.519 304.217 L
129.78 309.358 L
130.04 311.927 L
130.3 309.358 L
130.561 306.788 L
130.821 314.497 L
131.082 311.927 L
131.342 309.358 L
131.602 317.068 L
131.863 311.927 L
132.123 311.927 L
132.384 309.358 L
132.644 301.647 L
132.904 309.358 L
133.165 309.358 L
133.425 309.358 L
133.686 309.358 L
133.946 311.927 L
134.206 311.927 L
134.467 306.788 L
134.727 309.358 L
134.988 311.927 L
135.248 317.068 L
135.508 306.788 L
135.769 311.927 L
136.029 311.927 L
136.29 309.358 L
136.55 309.358 L
136.81 306.788 L
137.071 306.788 L
137.331 309.358 L
137.592 299.077 L
137.852 306.788 L
138.112 309.358 L
138.373 309.358 L
138.633 314.497 L
138.894 311.927 L
139.154 311.927 L
139.414 299.077 L
139.675 311.927 L
139.935 311.927 L
140.196 319.638 L
140.456 309.358 L
140.716 311.927 L
140.977 311.927 L
141.237 317.068 L
141.498 314.497 L
141.758 311.927 L
142.018 311.927 L
142.279 309.358 L
142.539 309.358 L
142.8 311.927 L
143.06 314.497 L
143.32 309.358 L
143.581 311.927 L
143.841 311.927 L
144.102 309.358 L
144.362 309.358 L
144.622 311.927 L
144.883 311.927 L
145.143 311.927 L
145.404 319.638 L
145.664 306.788 L
145.924 309.358 L
146.185 311.927 L
146.445 311.927 L
146.706 306.788 L
146.966 309.358 L
147.226 309.358 L
147.487 311.927 L
147.747 304.217 L
148.008 311.927 L
148.268 306.788 L
148.528 309.358 L
148.789 306.788 L
149.049 311.927 L
149.31 306.788 L
149.57 314.497 L
149.83 311.927 L
150.091 311.927 L
150.351 311.927 L
150.612 314.497 L
150.872 314.497 L
151.132 309.358 L
151.393 304.217 L
151.653 311.927 L
151.914 311.927 L
152.174 309.358 L
152.434 311.927 L
152.695 314.497 L
152.955 309.358 L
153.216 311.927 L
153.476 309.358 L
153.736 309.358 L
153.997 309.358 L
154.257 306.788 L
154.518 311.927 L
154.778 311.927 L
155.038 311.927 L
155.299 306.788 L
155.559 311.927 L
155.82 309.358 L
156.08 309.358 L
156.34 309.358 L
156.601 314.497 L
156.861 314.497 L
157.122 309.358 L
157.382 311.927 L
157.642 314.497 L
157.903 311.927 L
158.163 306.788 L
158.424 309.358 L
158.684 309.358 L
158.944 309.358 L
159.205 309.358 L
159.465 311.927 L
159.726 311.927 L
159.986 311.927 L
160.246 309.358 L
160.507 306.788 L
160.767 309.358 L
161.028 311.927 L
161.288 309.358 L
161.548 311.927 L
161.809 309.358 L
162.069 311.927 L
162.33 311.927 L
162.59 311.927 L
162.85 309.358 L
163.111 314.497 L
163.371 311.927 L
163.632 306.788 L
163.892 311.927 L
164.152 304.217 L
164.413 311.927 L
164.673 309.358 L
164.934 309.358 L
165.194 309.358 L
165.454 309.358 L
165.715 311.927 L
165.975 309.358 L
166.236 311.927 L
166.496 314.497 L
166.756 309.358 L
167.017 311.927 L
167.277 309.358 L
167.538 314.497 L
167.798 311.927 L
168.058 304.217 L
168.319 306.788 L
168.579 314.497 L
168.84 309.358 L
169.1 311.927 L
169.36 309.358 L
169.621 311.927 L
169.881 311.927 L
170.142 296.508 L
170.402 311.927 L
170.662 306.788 L
170.923 311.927 L
171.183 309.358 L
171.444 304.217 L
171.704 306.788 L
171.964 311.927 L
172.225 311.927 L
172.485 304.217 L
172.746 306.788 L
173.006 309.358 L
173.266 304.217 L
173.527 311.927 L
173.787 306.788 L
174.048 309.358 L
174.308 304.217 L
174.568 306.788 L
174.829 309.358 L
175.089 311.927 L
175.35 306.788 L
175.61 304.217 L
175.87 309.358 L
176.131 314.497 L
176.391 309.358 L
176.652 304.217 L
176.912 304.217 L
177.172 304.217 L
177.433 309.358 L
177.693 309.358 L
177.954 306.788 L
178.214 306.788 L
178.474 296.508 L
178.735 309.358 L
178.995 309.358 L
179.256 306.788 L
179.516 309.358 L
179.776 306.788 L
180.037 545.797 L
180.297 360.758 L
180.558 335.057 L
180.818 319.638 L
181.078 327.348 L
181.339 311.927 L
181.599 311.927 L
181.86 314.497 L
182.12 311.927 L
182.38 311.927 L
182.641 317.068 L
182.901 306.788 L
183.162 311.927 L
183.422 306.788 L
183.682 309.358 L
183.943 311.927 L
184.203 319.638 L
184.464 314.497 L
184.724 306.788 L
184.984 311.927 L
185.245 309.358 L
185.505 309.358 L
185.766 317.068 L
186.026 306.788 L
186.286 311.927 L
186.547 309.358 L
186.807 306.788 L
187.068 314.497 L
187.328 304.217 L
187.588 309.358 L
187.849 309.358 L
188.109 311.927 L
188.37 309.358 L
188.63 301.647 L
188.89 311.927 L
189.151 304.217 L
189.411 304.217 L
189.672 311.927 L
189.932 306.788 L
190.192 299.077 L
190.453 304.217 L
190.713 306.788 L
190.974 304.217 L
191.234 309.358 L
191.494 309.358 L
191.755 299.077 L
192.015 309.358 L
192.276 304.217 L
192.536 309.358 L
192.796 304.217 L
193.057 306.788 L
193.317 309.358 L
193.578 309.358 L
193.838 311.927 L
194.098 306.788 L
194.359 309.358 L
194.619 324.777 L
194.88 306.788 L
195.14 309.358 L
195.4 304.217 L
195.661 306.788 L
195.921 311.927 L
196.182 309.358 L
196.442 311.927 L
196.702 299.077 L
196.963 309.358 L
197.223 304.217 L
197.484 306.788 L
197.744 306.788 L
198.004 301.647 L
198.265 306.788 L
198.525 311.927 L
198.786 309.358 L
199.046 304.217 L
199.306 299.077 L
199.567 311.927 L
199.827 306.788 L
200.088 309.358 L
200.348 309.358 L
200.608 296.508 L
200.869 306.788 L
201.129 306.788 L
201.39 306.788 L
201.65 306.788 L
201.91 301.647 L
202.171 299.077 L
202.431 309.358 L
202.692 306.788 L
202.952 306.788 L
203.212 306.788 L
203.473 299.077 L
203.733 309.358 L
203.994 309.358 L
204.254 306.788 L
204.514 306.788 L
204.775 306.788 L
205.035 288.797 L
205.296 306.788 L
205.556 311.927 L
205.816 304.217 L
206.077 304.217 L
206.337 306.788 L
206.598 304.217 L
206.858 309.358 L
207.118 309.358 L
207.379 322.207 L
207.639 304.217 L
207.9 304.217 L
208.16 309.358 L
208.42 306.788 L
208.681 306.788 L
208.941 306.788 L
209.202 299.077 L
209.462 306.788 L
209.722 306.788 L
209.983 311.927 L
210.243 304.217 L
210.504 309.358 L
210.764 304.217 L
211.024 306.788 L
211.285 306.788 L
211.545 301.647 L
211.806 309.358 L
212.066 311.927 L
212.326 309.358 L
212.587 317.068 L
212.847 299.077 L
213.108 311.927 L
213.368 304.217 L
213.628 306.788 L
213.889 309.358 L
214.149 301.647 L
214.41 311.927 L
214.67 309.358 L
214.93 309.358 L
215.191 299.077 L
215.451 301.647 L
215.712 311.927 L
215.972 311.927 L
216.232 309.358 L
216.493 309.358 L
216.753 304.217 L
217.014 314.497 L
217.274 306.788 L
217.534 309.358 L
217.795 314.497 L
218.055 306.788 L
218.316 306.788 L
218.576 311.927 L
218.836 309.358 L
219.097 306.788 L
219.357 306.788 L
219.618 309.358 L
219.878 311.927 L
220.138 309.358 L
220.399 309.358 L
220.659 306.788 L
220.92 311.927 L
221.18 314.497 L
221.44 311.927 L
221.701 309.358 L
221.961 319.638 L
222.222 309.358 L
222.482 304.217 L
222.742 309.358 L
223.003 309.358 L
223.263 306.788 L
223.524 309.358 L
223.784 304.217 L
224.044 304.217 L
224.305 311.927 L
224.565 309.358 L
224.826 309.358 L
225.086 311.927 L
225.346 309.358 L
225.607 306.788 L
225.867 311.927 L
226.128 304.217 L
226.388 304.217 L
226.648 309.358 L
226.909 309.358 L
227.169 304.217 L
227.43 309.358 L
227.69 309.358 L
227.95 306.788 L
228.211 309.358 L
228.471 309.358 L
228.732 309.358 L
228.992 311.927 L
229.252 306.788 L
229.513 311.927 L
229.773 309.358 L
230.034 309.358 L
230.294 301.647 L
230.554 309.358 L
230.815 311.927 L
231.075 306.788 L
231.336 309.358 L
231.596 311.927 L
231.856 311.927 L
232.117 309.358 L
232.377 304.217 L
232.638 309.358 L
232.898 306.788 L
233.158 309.358 L
233.419 311.927 L
233.679 306.788 L
233.94 306.788 L
234.2 304.217 L
234.46 306.788 L
234.721 309.358 L
234.981 306.788 L
235.242 306.788 L
235.502 309.358 L
235.762 309.358 L
236.023 309.358 L
236.283 309.358 L
236.544 304.217 L
236.804 306.788 L
237.064 304.217 L
237.325 309.358 L
237.585 314.497 L
237.846 309.358 L
238.106 306.788 L
238.366 309.358 L
238.627 309.358 L
238.887 309.358 L
239.148 309.358 L
239.408 304.217 L
239.668 306.788 L
239.929 304.217 L
240.189 309.358 L
240.45 311.927 L
240.71 306.788 L
240.97 306.788 L
241.231 304.217 L
241.491 304.217 L
241.752 309.358 L
242.012 306.788 L
242.272 311.927 L
242.533 306.788 L
242.793 306.788 L
243.054 309.358 L
243.314 327.348 L
243.574 309.358 L
243.835 309.358 L
244.095 311.927 L
244.356 304.217 L
244.616 306.788 L
244.876 311.927 L
245.137 311.927 L
245.397 311.927 L
245.658 309.358 L
245.918 296.508 L
246.178 306.788 L
246.439 309.358 L
246.699 306.788 L
246.96 309.358 L
247.22 311.927 L
247.48 311.927 L
247.741 311.927 L
248.001 311.927 L
248.262 309.358 L
248.522 309.358 L
248.782 306.788 L
249.043 304.217 L
249.303 306.788 L
249.564 309.358 L
249.824 309.358 L
250.084 309.358 L
250.345 311.927 L
250.605 309.358 L
250.866 311.927 L
251.126 306.788 L
251.386 309.358 L
251.647 304.217 L
251.907 319.638 L
252.168 311.927 L
252.428 311.927 L
252.688 314.497 L
252.949 309.358 L
253.209 309.358 L
253.47 311.927 L
253.73 306.788 L
253.99 306.788 L
254.251 296.508 L
254.511 309.358 L
254.772 309.358 L
255.032 309.358 L
255.292 311.927 L
255.553 306.788 L
255.813 311.927 L
256.074 301.647 L
256.334 311.927 L
256.594 311.927 L
256.855 322.207 L
257.115 309.358 L
257.376 309.358 L
257.636 306.788 L
257.896 309.358 L
258.157 306.788 L
258.417 309.358 L
258.678 309.358 L
258.938 304.217 L
259.198 304.217 L
259.459 309.358 L
259.719 309.358 L
259.98 324.777 L
260.24 306.788 L
260.5 309.358 L
260.761 309.358 L
261.021 306.788 L
261.282 311.927 L
261.542 309.358 L
261.802 309.358 L
262.063 311.927 L
262.323 306.788 L
262.584 309.358 L
262.844 304.217 L
263.104 306.788 L
263.365 309.358 L
263.625 306.788 L
263.886 309.358 L
264.146 304.217 L
264.406 311.927 L
264.667 306.788 L
264.927 306.788 L
265.188 304.217 L
265.448 306.788 L
265.708 309.358 L
265.969 301.647 L
266.229 306.788 L
266.49 311.927 L
266.75 309.358 L
267.01 311.927 L
267.271 309.358 L
267.531 309.358 L
267.792 311.927 L
268.052 296.508 L
268.312 311.927 L
268.573 309.358 L
268.833 309.358 L
269.094 306.788 L
269.354 311.927 L
269.614 309.358 L
269.875 309.358 L
270.135 306.788 L
270.396 306.788 L
270.656 309.358 L
270.916 309.358 L
271.177 301.647 L
271.437 306.788 L
271.698 306.788 L
271.958 309.358 L
272.218 314.497 L
272.479 309.358 L
272.739 309.358 L
273 306.788 L
273.26 309.358 L
273.52 306.788 L
273.781 306.788 L
274.041 311.927 L
274.302 311.927 L
274.562 306.788 L
274.822 306.788 L
275.083 309.358 L
275.343 311.927 L
275.604 309.358 L
275.864 309.358 L
276.124 293.938 L
276.385 311.927 L
276.645 309.358 L
276.906 309.358 L
277.166 311.927 L
277.426 309.358 L
277.687 309.358 L
277.947 306.788 L
278.208 309.358 L
278.468 306.788 L
278.728 311.927 L
278.989 309.358 L
279.249 309.358 L
279.51 306.788 L
279.77 309.358 L
280.03 306.788 L
280.291 309.358 L
280.551 309.358 L
280.812 301.647 L
281.072 309.358 L
281.332 309.358 L
281.593 311.927 L
281.853 309.358 L
282.114 309.358 L
282.374 306.788 L
282.634 311.927 L
282.895 314.497 L
283.155 314.497 L
283.416 309.358 L
283.676 309.358 L
283.936 306.788 L
284.197 306.788 L
284.457 311.927 L
284.718 311.927 L
284.978 306.788 L
285.238 309.358 L
285.499 311.927 L
285.759 309.358 L
286.02 309.358 L
286.28 311.927 L
286.54 311.927 L
286.801 304.217 L
287.061 311.927 L
287.322 311.927 L
287.582 309.358 L
287.842 311.927 L
288.103 309.358 L
288.363 311.927 L
288.624 311.927 L
288.884 314.497 L
289.144 314.497 L
289.405 311.927 L
289.665 314.497 L
289.926 311.927 L
290.186 311.927 L
290.446 311.927 L
290.707 309.358 L
290.967 306.788 L
291.228 299.077 L
291.488 293.938 L
291.748 314.497 L
292.009 311.927 L
292.269 311.927 L
292.53 311.927 L
292.79 319.638 L
293.05 309.358 L
293.311 314.497 L
293.571 314.497 L
293.832 306.788 L
294.092 314.497 L
294.352 309.358 L
294.613 309.358 L
294.873 306.788 L
295.134 311.927 L
295.394 311.927 L
295.654 309.358 L
295.915 314.497 L
296.175 309.358 L
296.436 314.497 L
296.696 309.358 L
296.956 311.927 L
297.217 309.358 L
297.477 306.788 L
297.738 319.638 L
297.998 309.358 L
298.258 311.927 L
298.519 306.788 L
298.779 311.927 L
299.04 306.788 L
299.3 311.927 L
299.56 311.927 L
299.821 309.358 L
300.081 311.927 L
300.342 314.497 L
300.602 309.358 L
300.862 311.927 L
301.123 311.927 L
301.383 301.647 L
301.644 54.927 L
301.904 124.317 L
302.164 162.867 L
302.425 183.428 L
302.685 196.277 L
302.946 203.988 L
303.206 211.697 L
303.466 216.838 L
303.727 224.548 L
303.987 234.827 L
304.248 242.538 L
304.508 245.107 L
304.768 245.107 L
305.029 257.957 L
305.289 257.957 L
305.55 263.098 L
305.81 268.237 L
306.07 270.807 L
306.331 278.517 L
306.591 273.378 L
306.852 268.237 L
307.112 281.087 L
307.372 281.087 L
307.633 293.938 L
307.893 283.658 L
308.154 288.797 L
308.414 288.797 L
308.674 288.797 L
308.935 299.077 L
309.195 296.508 L
309.456 293.938 L
309.716 293.938 L
309.976 296.508 L
310.237 293.938 L
310.497 299.077 L
310.758 299.077 L
311.018 301.647 L
311.278 299.077 L
311.539 301.647 L
311.799 299.077 L
312.06 296.508 L
312.32 301.647 L
312.58 301.647 L
312.841 306.788 L
313.101 265.668 L
313.362 306.788 L
313.622 306.788 L
313.882 309.358 L
314.143 306.788 L
314.403 296.508 L
314.664 306.788 L
314.924 304.217 L
315.184 311.927 L
315.445 306.788 L
315.705 299.077 L
315.966 309.358 L
316.226 309.358 L
316.486 309.358 L
316.747 304.217 L
317.007 301.647 L
317.268 309.358 L
317.528 306.788 L
317.788 311.927 L
318.049 311.927 L
318.309 311.927 L
318.57 311.927 L
318.83 309.358 L
319.09 293.938 L
319.351 306.788 L
319.611 309.358 L
319.872 314.497 L
320.132 304.217 L
320.392 309.358 L
320.653 311.927 L
320.913 311.927 L
321.174 314.497 L
321.434 309.358 L
321.694 296.508 L
321.955 304.217 L
322.215 311.927 L
322.476 314.497 L
322.736 311.927 L
322.996 309.358 L
323.257 314.497 L
323.517 309.358 L
323.778 311.927 L
324.038 327.348 L
324.298 314.497 L
324.559 311.927 L
324.819 311.927 L
325.08 306.788 L
325.34 309.358 L
325.6 314.497 L
325.861 306.788 L
326.121 299.077 L
326.382 314.497 L
326.642 317.068 L
326.902 306.788 L
327.163 309.358 L
327.423 301.647 L
327.684 324.777 L
327.944 311.927 L
328.204 311.927 L
328.465 311.927 L
328.725 317.068 L
328.986 306.788 L
329.246 311.927 L
329.506 311.927 L
329.767 311.927 L
330.027 322.207 L
330.288 309.358 L
330.548 311.927 L
330.808 309.358 L
331.069 319.638 L
331.329 309.358 L
331.59 306.788 L
331.85 299.077 L
332.11 301.647 L
332.371 314.497 L
332.631 314.497 L
332.892 311.927 L
333.152 311.927 L
333.412 311.927 L
333.673 304.217 L
333.933 309.358 L
334.194 311.927 L
334.454 309.358 L
334.714 311.927 L
334.975 309.358 L
335.235 311.927 L
335.496 311.927 L
335.756 306.788 L
336.016 311.927 L
336.277 306.788 L
336.537 309.358 L
336.798 311.927 L
337.058 314.497 L
337.318 311.927 L
337.579 309.358 L
337.839 319.638 L
338.1 311.927 L
338.36 311.927 L
338.62 314.497 L
338.881 306.788 L
339.141 306.788 L
339.402 309.358 L
339.662 311.927 L
339.922 311.927 L
340.183 309.358 L
340.443 311.927 L
340.704 309.358 L
340.964 311.927 L
341.224 317.068 L
341.485 306.788 L
341.745 309.358 L
342.006 306.788 L
342.266 309.358 L
342.526 309.358 L
342.787 306.788 L
343.047 311.927 L
343.308 306.788 L
343.568 309.358 L
343.828 304.217 L
344.089 311.927 L
344.349 306.788 L
344.61 306.788 L
344.87 311.927 L
345.13 309.358 L
345.391 309.358 L
345.651 314.497 L
345.912 306.788 L
346.172 309.358 L
346.432 309.358 L
346.693 311.927 L
346.953 299.077 L
347.214 304.217 L
347.474 306.788 L
347.734 306.788 L
347.995 306.788 L
348.255 309.358 L
348.516 311.927 L
348.776 306.788 L
349.036 309.358 L
349.297 306.788 L
349.557 304.217 L
349.818 309.358 L
350.078 311.927 L
350.338 306.788 L
350.599 304.217 L
350.859 309.358 L
351.12 311.927 L
351.38 309.358 L
351.64 309.358 L
351.901 306.788 L
352.161 304.217 L
352.422 311.927 L
352.682 309.358 L
352.942 306.788 L
353.203 309.358 L
353.463 309.358 L
353.724 301.647 L
353.984 309.358 L
354.244 304.217 L
354.505 306.788 L
354.765 311.927 L
355.026 309.358 L
355.286 309.358 L
355.546 306.788 L
355.807 304.217 L
356.067 309.358 L
356.328 309.358 L
356.588 301.647 L
356.848 309.358 L
357.109 309.358 L
357.369 309.358 L
357.63 306.788 L
357.89 306.788 L
358.15 306.788 L
358.411 309.358 L
358.671 311.927 L
358.932 309.358 L
359.192 306.788 L
359.452 306.788 L
359.713 306.788 L
359.973 309.358 L
360.234 306.788 L
360.494 309.358 L
360.754 309.358 L
361.015 304.217 L
361.275 309.358 L
361.536 309.358 L
361.796 311.927 L
362.056 332.487 L
362.317 311.927 L
362.577 304.217 L
362.838 304.217 L
363.098 311.927 L
363.358 309.358 L
363.619 306.788 L
363.879 304.217 L
364.14 311.927 L
364.4 304.217 L
364.66 311.927 L
364.921 306.788 L
365.181 309.358 L
365.442 309.358 L
365.702 304.217 L
365.962 306.788 L
366.223 306.788 L
366.483 306.788 L
366.744 309.358 L
367.004 309.358 L
367.264 309.358 L
367.525 314.497 L
367.785 304.217 L
368.046 301.647 L
368.306 306.788 L
368.566 314.497 L
368.827 304.217 L
369.087 309.358 L
369.348 309.358 L
369.608 309.358 L
369.868 306.788 L
370.129 309.358 L
370.389 306.788 L
370.65 301.647 L
370.91 311.927 L
371.17 311.927 L
371.431 309.358 L
371.691 309.358 L
371.952 309.358 L
372.212 314.497 L
372.472 311.927 L
372.733 309.358 L
372.993 301.647 L
373.254 311.927 L
373.514 322.207 L
373.774 311.927 L
374.035 311.927 L
374.295 309.358 L
374.556 311.927 L
374.816 304.217 L
375.076 311.927 L
375.337 309.358 L
375.597 309.358 L
375.858 309.358 L
376.118 304.217 L
376.378 314.497 L
376.639 314.497 L
376.899 311.927 L
377.16 306.788 L
377.42 301.647 L
377.68 311.927 L
377.941 306.788 L
378.201 311.927 L
378.462 306.788 L
378.722 304.217 L
378.982 309.358 L
379.243 306.788 L
379.503 309.358 L
379.764 309.358 L
380.024 309.358 L
380.284 309.358 L
380.545 309.358 L
380.805 309.358 L
381.066 309.358 L
381.326 311.927 L
381.586 306.788 L
381.847 301.647 L
382.107 309.358 L
382.368 311.927 L
382.628 304.217 L
382.888 311.927 L
383.149 309.358 L
383.409 311.927 L
383.67 311.927 L
383.93 309.358 L
384.19 304.217 L
384.451 309.358 L
384.711 309.358 L
384.972 311.927 L
385.232 309.358 L
385.492 309.358 L
385.753 306.788 L
386.013 311.927 L
386.274 309.358 L
386.534 309.358 L
386.794 314.497 L
387.055 311.927 L
387.315 311.927 L
387.576 311.927 L
387.836 306.788 L
388.096 311.927 L
388.357 311.927 L
388.617 314.497 L
388.878 306.788 L
389.138 317.068 L
389.398 309.358 L
389.659 309.358 L
389.919 299.077 L
390.18 309.358 L
390.44 311.927 L
390.7 309.358 L
390.961 309.358 L
391.221 301.647 L
391.482 304.217 L
391.742 309.358 L
392.002 306.788 L
392.263 309.358 L
392.523 309.358 L
392.784 309.358 L
393.044 309.358 L
393.304 311.927 L
393.565 311.927 L
393.825 311.927 L
394.086 304.217 L
394.346 311.927 L
394.606 311.927 L
394.867 309.358 L
395.127 311.927 L
395.388 311.927 L
395.648 311.927 L
395.908 311.927 L
396.169 309.358 L
396.429 309.358 L
396.69 311.927 L
396.95 314.497 L
397.21 311.927 L
397.471 296.508 L
397.731 311.927 L
397.992 319.638 L
398.252 314.497 L
398.512 311.927 L
398.773 309.358 L
399.033 309.358 L
399.294 311.927 L
399.554 309.358 L
399.814 314.497 L
400.075 314.497 L
400.335 311.927 L
400.596 311.927 L
400.856 306.788 L
401.116 309.358 L
401.377 311.927 L
401.637 311.927 L
401.898 311.927 L
402.158 317.068 L
402.418 309.358 L
402.679 309.358 L
402.939 311.927 L
403.2 311.927 L
403.46 317.068 L
403.72 311.927 L
403.981 311.927 L
404.241 311.927 L
404.502 306.788 L
404.762 283.658 L
405.022 309.358 L
405.283 309.358 L
405.543 309.358 L
405.804 309.358 L
406.064 311.927 L
406.324 309.358 L
406.585 309.358 L
406.845 306.788 L
407.106 311.927 L
407.366 309.358 L
407.626 299.077 L
407.887 293.938 L
408.147 311.927 L
408.408 314.497 L
408.668 309.358 L
408.928 309.358 L
409.189 311.927 L
409.449 309.358 L
409.71 311.927 L
409.97 311.927 L
410.23 309.358 L
410.491 317.068 L
410.751 309.358 L
411.012 311.927 L
411.272 314.497 L
411.532 314.497 L
411.793 309.358 L
412.053 309.358 L
412.314 309.358 L
412.574 311.927 L
412.834 311.927 L
413.095 309.358 L
413.355 311.927 L
413.616 317.068 L
413.876 311.927 L
414.136 311.927 L
414.397 311.927 L
414.657 311.927 L
414.918 296.508 L
415.178 306.788 L
415.438 314.497 L
415.699 311.927 L
415.959 309.358 L
416.22 306.788 L
416.48 306.788 L
416.74 311.927 L
417.001 309.358 L
417.261 311.927 L
417.522 311.927 L
417.782 306.788 L
418.042 311.927 L
418.303 311.927 L
418.563 309.358 L
418.824 314.497 L
419.084 311.927 L
419.344 311.927 L
419.605 306.788 L
419.865 322.207 L
420.126 309.358 L
420.386 311.927 L
420.646 309.358 L
420.907 309.358 L
421.167 311.927 L
421.428 306.788 L
421.688 309.358 L
421.948 299.077 L
422.209 309.358 L
422.469 309.358 L
422.73 299.077 L
422.99 304.217 L
423.25 309.358 L
423.511 301.647 L
423.771 309.358 L
424.032 311.927 L
424.292 309.358 L
424.552 306.788 L
424.813 309.358 L
425.073 309.358 L
425.334 311.927 L
425.594 311.927 L
425.854 311.927 L
426.115 306.788 L
426.375 309.358 L
426.636 311.927 L
426.896 324.777 L
427.156 309.358 L
427.417 304.217 L
427.677 309.358 L
427.938 309.358 L
428.198 314.497 L
428.458 311.927 L
428.719 309.358 L
428.979 314.497 L
429.24 309.358 L
429.5 545.797 L
429.76 365.897 L
430.021 337.628 L
430.281 324.777 L
430.542 319.638 L
430.802 317.068 L
431.062 317.068 L
431.323 319.638 L
431.583 311.927 L
431.844 319.638 L
432.104 311.927 L
432.364 309.358 L
432.625 314.497 L
432.885 319.638 L
433.146 311.927 L
433.406 311.927 L
433.666 311.927 L
433.927 314.497 L
434.187 304.217 L
434.448 311.927 L
434.708 314.497 L
434.968 309.358 L
435.229 309.358 L
435.489 309.358 L
435.75 296.508 L
436.01 309.358 L
436.27 309.358 L
436.531 311.927 L
436.791 309.358 L
437.052 309.358 L
437.312 306.788 L
437.572 309.358 L
437.833 306.788 L
438.093 309.358 L
438.354 301.647 L
438.614 309.358 L
438.874 311.927 L
439.135 309.358 L
439.395 306.788 L
439.656 309.358 L
439.916 317.068 L
440.176 309.358 L
440.437 314.497 L
440.697 322.207 L
440.958 306.788 L
441.218 311.927 L
441.478 311.927 L
441.739 309.358 L
441.999 304.217 L
442.26 314.497 L
442.52 304.217 L
442.78 296.508 L
443.041 286.228 L
443.301 309.358 L
443.562 311.927 L
443.822 301.647 L
444.082 311.927 L
444.343 322.207 L
444.603 311.927 L
444.864 311.927 L
445.124 311.927 L
445.384 309.358 L
445.645 309.358 L
445.905 314.497 L
446.166 306.788 L
446.426 311.927 L
446.686 311.927 L
446.947 306.788 L
447.207 311.927 L
447.468 311.927 L
447.728 322.207 L
447.988 306.788 L
448.249 311.927 L
448.509 301.647 L
448.77 306.788 L
449.03 306.788 L
449.29 306.788 L
449.551 309.358 L
449.811 293.938 L
450.072 309.358 L
450.332 304.217 L
450.592 309.358 L
450.853 306.788 L
451.113 306.788 L
451.374 306.788 L
451.634 306.788 L
451.894 311.927 L
452.155 306.788 L
452.415 311.927 L
452.676 309.358 L
452.936 306.788 L
453.196 306.788 L
453.457 288.797 L
453.717 319.638 L
453.978 309.358 L
454.238 306.788 L
454.498 311.927 L
454.759 319.638 L
455.019 311.927 L
455.28 306.788 L
455.54 309.358 L
455.8 301.647 L
456.061 304.217 L
456.321 309.358 L
456.582 309.358 L
456.842 299.077 L
457.102 306.788 L
457.363 304.217 L
457.623 306.788 L
457.884 306.788 L
458.144 311.927 L
458.404 296.508 L
458.665 299.077 L
458.925 309.358 L
459.186 309.358 L
459.446 311.927 L
459.706 314.497 L
459.967 309.358 L
460.227 306.788 L
460.488 309.358 L
460.748 311.927 L
461.008 309.358 L
461.269 306.788 L
461.529 311.927 L
461.79 309.358 L
462.05 314.497 L
462.31 309.358 L
462.571 309.358 L
462.831 309.358 L
463.092 306.788 L
463.352 311.927 L
463.612 309.358 L
463.873 311.927 L
464.133 311.927 L
464.394 311.927 L
464.654 309.358 L
464.914 309.358 L
465.175 314.497 L
465.435 309.358 L
465.696 309.358 L
465.956 309.358 L
466.216 296.508 L
466.477 317.068 L
466.737 309.358 L
466.998 311.927 L
467.258 306.788 L
467.518 304.217 L
467.779 311.927 L
468.039 309.358 L
468.3 306.788 L
468.56 306.788 L
468.82 309.358 L
469.081 311.927 L
469.341 311.927 L
469.602 309.358 L
469.862 306.788 L
470.122 309.358 L
470.383 304.217 L
470.643 314.497 L
470.904 314.497 L
471.164 309.358 L
471.424 304.217 L
471.685 311.927 L
471.945 306.788 L
472.206 311.927 L
472.466 314.497 L
472.726 311.927 L
472.987 306.788 L
473.247 296.508 L
473.508 304.217 L
473.768 306.788 L
474.028 309.358 L
474.289 311.927 L
474.549 301.647 L
474.81 311.927 L
475.07 306.788 L
475.33 309.358 L
475.591 306.788 L
475.851 306.788 L
476.112 306.788 L
476.372 309.358 L
476.632 317.068 L
476.893 306.788 L
477.153 311.927 L
477.414 309.358 L
477.674 304.217 L
477.934 306.788 L
478.195 311.927 L
478.455 311.927 L
478.716 309.358 L
478.976 311.927 L
479.236 311.927 L
479.497 311.927 L
479.757 311.927 L
480.018 306.788 L
480.278 306.788 L
480.538 309.358 L
480.799 311.927 L
481.059 309.358 L
481.32 309.358 L
481.58 311.927 L
481.84 311.927 L
482.101 309.358 L
482.361 309.358 L
482.622 309.358 L
482.882 306.788 L
483.142 306.788 L
483.403 306.788 L
483.663 309.358 L
483.924 309.358 L
484.184 309.358 L
484.444 309.358 L
484.705 306.788 L
484.965 306.788 L
485.226 309.358 L
485.486 311.927 L
485.746 309.358 L
486.007 306.788 L
486.267 309.358 L
486.528 306.788 L
486.788 301.647 L
487.048 306.788 L
487.309 304.217 L
487.569 309.358 L
487.83 306.788 L
488.09 309.358 L
488.35 309.358 L
488.611 304.217 L
488.871 306.788 L
489.132 309.358 L
489.392 309.358 L
489.652 309.358 L
489.913 304.217 L
490.173 309.358 L
490.434 314.497 L
490.694 311.927 L
490.954 306.788 L
491.215 311.927 L
491.475 309.358 L
491.736 306.788 L
491.996 309.358 L
492.256 306.788 L
492.517 306.788 L
492.777 329.918 L
493.038 306.788 L
493.298 317.068 L
493.558 306.788 L
493.819 309.358 L
494.079 309.358 L
494.34 309.358 L
494.6 311.927 L
494.86 311.927 L
495.121 306.788 L
495.381 309.358 L
495.642 311.927 L
495.902 309.358 L
496.162 306.788 L
496.423 309.358 L
496.683 309.358 L
496.944 309.358 L
497.204 309.358 L
497.464 309.358 L
497.725 309.358 L
497.985 309.358 L
498.246 309.358 L
498.506 306.788 L
498.766 299.077 L
499.027 306.788 L
499.287 299.077 L
499.548 309.358 L
499.808 309.358 L
500.068 306.788 L
500.329 311.927 L
500.589 309.358 L
500.85 309.358 L
501.11 311.927 L
501.37 327.348 L
501.631 314.497 L
501.891 311.927 L
502.152 311.927 L
502.412 309.358 L
502.672 311.927 L
502.933 309.358 L
503.193 311.927 L
503.454 311.927 L
503.714 314.497 L
503.974 309.358 L
504.235 319.638 L
504.495 311.927 L
504.756 311.927 L
505.016 311.927 L
505.276 311.927 L
505.537 311.927 L
505.797 309.358 L
506.058 306.788 L
506.318 309.358 L
506.578 314.497 L
506.839 301.647 L
507.099 311.927 L
507.36 309.358 L
507.62 311.927 L
507.88 309.358 L
508.141 309.358 L
508.401 311.927 L
508.662 311.927 L
508.922 311.927 L
509.182 311.927 L
509.443 306.788 L
509.703 309.358 L
509.964 311.927 L
510.224 309.358 L
510.484 309.358 L
510.745 309.358 L
511.005 309.358 L
511.266 304.217 L
511.526 311.927 L
511.786 311.927 L
512.047 296.508 L
512.307 311.927 L
512.568 309.358 L
512.828 311.927 L
513.088 309.358 L
513.349 311.927 L
513.609 309.358 L
513.87 311.927 L
514.13 311.927 L
514.39 309.358 L
514.651 309.358 L
514.911 309.358 L
515.172 309.358 L
515.432 311.927 L
515.692 304.217 L
515.953 309.358 L
516.213 306.788 L
516.474 309.358 L
516.734 304.217 L
516.994 306.788 L
517.255 306.788 L
517.515 306.788 L
517.776 309.358 L
518.036 306.788 L
518.296 306.788 L
518.557 309.358 L
518.817 306.788 L
519.078 309.358 L
519.338 304.217 L
519.598 309.358 L
519.859 304.217 L
520.119 306.788 L
520.38 309.358 L
520.64 306.788 L
520.9 309.358 L
521.161 309.358 L
521.421 309.358 L
521.682 309.358 L
521.942 306.788 L
522.202 306.788 L
522.463 306.788 L
522.723 309.358 L
522.984 306.788 L
523.244 309.358 L
523.504 309.358 L
523.765 311.927 L
524.025 306.788 L
524.286 299.077 L
524.546 311.927 L
524.806 309.358 L
525.067 309.358 L
525.327 311.927 L
525.588 306.788 L
525.848 311.927 L
526.108 311.927 L
526.369 309.358 L
526.629 309.358 L
526.89 311.927 L
527.15 311.927 L
527.41 309.358 L
527.671 309.358 L
527.931 306.788 L
528.192 296.508 L
528.452 309.358 L
528.712 309.358 L
528.973 311.927 L
529.233 306.788 L
529.494 309.358 L
529.754 309.358 L
530.014 309.358 L
530.275 314.497 L
530.535 306.788 L
530.796 296.508 L
531.056 311.927 L
531.316 306.788 L
531.577 340.198 L
531.837 311.927 L
532.098 309.358 L
532.358 311.927 L
532.618 309.358 L
532.879 309.358 L
533.139 306.788 L
533.4 324.777 L
533.66 311.927 L
533.92 311.927 L
534.181 306.788 L
534.441 306.788 L
534.702 306.788 L
534.962 309.358 L
535.222 309.358 L
535.483 309.358 L
535.743 306.788 L
536.004 309.358 L
536.264 304.217 L
536.524 309.358 L
536.785 309.358 L
537.045 306.788 L
537.306 306.788 L
537.566 306.788 L
537.826 309.358 L
538.087 306.788 L
538.347 304.217 L
538.608 309.358 L
538.868 309.358 L
539.128 306.788 L
539.389 306.788 L
539.649 306.788 L
539.91 306.788 L
540.17 309.358 L
540.43 309.358 L
540.691 306.788 L
540.951 309.358 L
541.212 306.788 L
541.472 306.788 L
541.732 306.788 L
541.993 309.358 L
542.253 311.927 L
542.514 306.788 L
542.774 309.358 L
543.034 306.788 L
543.295 306.788 L
543.555 306.788 L
543.816 309.358 L
544.076 304.217 L
544.336 309.358 L
544.597 306.788 L
544.857 309.358 L
545.118 309.358 L
545.378 306.788 L
545.638 309.358 L
545.899 304.217 L
546.159 309.358 L
546.42 309.358 L
546.68 311.927 L
546.94 309.358 L
547.201 306.788 L
547.461 306.788 L
547.722 309.358 L
547.982 309.358 L
548.242 309.358 L
548.503 306.788 L
548.763 311.927 L
549.024 309.358 L
549.284 309.358 L
549.544 309.358 L
549.805 311.927 L
550.065 311.927 L
550.326 311.927 L
550.586 309.358 L
550.846 309.358 L
551.107 314.497 L
551.367 309.358 L
551.628 311.927 L
551.888 314.497 L
552.148 311.927 L
552.409 311.927 L
552.669 309.358 L
552.93 309.358 L
553.19 311.927 L
553.45 311.927 L
553.711 309.358 L
553.971 311.927 L
554.232 311.927 L
554.492 309.358 L
554.752 309.358 L
555.013 311.927 L
555.273 311.927 L
555.534 311.927 L
555.794 309.358 L
556.054 314.497 L
556.315 306.788 L
556.575 311.927 L
556.836 311.927 L
557.096 309.358 L
557.356 60.068 L
557.617 121.747 L
557.877 165.438 L
558.138 183.428 L
558.398 193.708 L
558.658 209.128 L
558.919 214.268 L
559.179 216.838 L
559.44 229.688 L
559.7 237.398 L
559.96 237.398 L
560.221 242.538 L
560.481 252.818 L
560.742 255.387 L
561.002 263.098 L
561.262 265.668 L
561.523 268.237 L
561.783 268.237 L
562.044 270.807 L
562.304 283.658 L
562.564 275.948 L
562.825 281.087 L
563.085 281.087 L
563.346 281.087 L
563.606 286.228 L
563.866 283.658 L
564.127 288.797 L
564.387 286.228 L
564.648 288.797 L
564.908 291.367 L
565.168 291.367 L
565.429 293.938 L
565.689 291.367 L
565.95 299.077 L
566.21 296.508 L
566.47 296.508 L
566.731 301.647 L
566.991 296.508 L
567.252 301.647 L
567.512 301.647 L
567.772 301.647 L
568.033 304.217 L
568.293 299.077 L
568.554 304.217 L
568.814 301.647 L
569.074 311.927 L
569.335 306.788 L
569.595 304.217 L
569.856 304.217 L
570.116 311.927 L
570.376 301.647 L
570.637 324.777 L
570.897 304.217 L
571.158 309.358 L
571.418 306.788 L
571.678 304.217 L
571.939 306.788 L
572.199 306.788 L
572.46 306.788 L
572.72 306.788 L
572.98 306.788 L
573.241 306.788 L
573.501 309.358 L
573.762 309.358 L
574.022 309.358 L
574.282 309.358 L
574.543 311.927 L
574.803 309.358 L
575.064 304.217 L
575.324 306.788 L
575.584 306.788 L
575.845 311.927 L
576.105 309.358 L
576.366 311.927 L
576.626 309.358 L
576.886 309.358 L
577.147 311.927 L
577.407 309.358 L
577.668 311.927 L
577.928 306.788 L
578.188 306.788 L
578.449 311.927 L
578.709 309.358 L
578.97 311.927 L
579.23 311.927 L
579.49 311.927 L
579.751 309.358 L
580.011 311.927 L
580.272 311.927 L
580.532 311.927 L
580.792 311.927 L
581.053 314.497 L
581.313 311.927 L
581.574 311.927 L
581.834 311.927 L
582.094 314.497 L
582.355 311.927 L
582.615 311.927 L
582.876 311.927 L
583.136 311.927 L
583.396 317.068 L
583.657 309.358 L
583.917 311.927 L
584.178 311.927 L
584.438 309.358 L
584.698 314.497 L
584.959 314.497 L
585.219 314.497 L
585.48 309.358 L
585.74 306.788 L
586 309.358 L
586.261 314.497 L
586.521 314.497 L
586.782 311.927 L
587.042 304.217 L
587.302 301.647 L
587.563 311.927 L
587.823 304.217 L
588.084 309.358 L
588.344 309.358 L
588.604 311.927 L
588.865 311.927 L
589.125 311.927 L
589.386 309.358 L
589.646 311.927 L
589.906 311.927 L
590.167 317.068 L
590.427 309.358 L
590.688 314.497 L
590.948 309.358 L
591.208 309.358 L
591.469 311.927 L
591.729 309.358 L
591.99 311.927 L
592.25 309.358 L
592.51 306.788 L
592.771 309.358 L
593.031 309.358 L
593.292 311.927 L
593.552 311.927 L
593.812 309.358 L
594.073 317.068 L
594.333 304.217 L
594.594 309.358 L
594.854 309.358 L
595.114 304.217 L
595.375 311.927 L
595.635 309.358 L
595.896 311.927 L
596.156 309.358 L
596.416 309.358 L
596.677 306.788 L
596.937 311.927 L
597.198 293.938 L
597.458 306.788 L
597.718 306.788 L
597.979 296.508 L
598.239 311.927 L
598.5 311.927 L
598.76 304.217 L
599.02 309.358 L
599.281 299.077 L
599.541 309.358 L
599.802 306.788 L
600.062 304.217 L
600.322 306.788 L
600.583 309.358 L
600.843 311.927 L
601.104 306.788 L
601.364 309.358 L
601.624 306.788 L
601.885 306.788 L
602.145 306.788 L
602.406 306.788 L
602.666 301.647 L
602.926 309.358 L
603.187 309.358 L
603.447 306.788 L
603.708 306.788 L
603.968 306.788 L
604.228 306.788 L
604.489 311.927 L
604.749 306.788 L
605.01 306.788 L
605.27 311.927 L
605.53 301.647 L
605.791 309.358 L
606.051 311.927 L
606.312 304.217 L
606.572 311.927 L
606.832 309.358 L
607.093 306.788 L
607.353 311.927 L
607.614 309.358 L
607.874 309.358 L
608.134 306.788 L
608.395 311.927 L
608.655 311.927 L
608.916 322.207 L
609.176 299.077 L
609.436 309.358 L
609.697 309.358 L
609.957 319.638 L
610.218 319.638 L
610.478 306.788 L
610.738 309.358 L
610.999 304.217 L
611.259 311.927 L
611.52 311.927 L
611.78 311.927 L
612.04 311.927 L
612.301 311.927 L
612.561 311.927 L
612.822 314.497 L
613.082 309.358 L
613.342 309.358 L
613.603 311.927 L
613.863 309.358 L
614.124 304.217 L
614.384 311.927 L
614.644 314.497 L
614.905 311.927 L
615.165 317.068 L
615.426 311.927 L
615.686 304.217 L
615.946 304.217 L
616.207 311.927 L
616.467 314.497 L
616.728 309.358 L
616.988 311.927 L
617.248 301.647 L
617.509 311.927 L
617.769 309.358 L
618.03 311.927 L
618.29 309.358 L
618.55 309.358 L
618.811 311.927 L
619.071 306.788 L
619.332 309.358 L
619.592 309.358 L
619.852 309.358 L
620.113 311.927 L
620.373 304.217 L
620.634 306.788 L
620.894 309.358 L
621.154 311.927 L
621.415 309.358 L
621.675 309.358 L
621.936 311.927 L
622.196 306.788 L
622.456 311.927 L
622.717 311.927 L
622.977 309.358 L
623.238 317.068 L
623.498 301.647 L
623.758 314.497 L
624.019 311.927 L
624.279 314.497 L
624.54 309.358 L
624.8 311.927 L
625.06 309.358 L
625.321 309.358 L
625.581 311.927 L
625.842 311.927 L
626.102 309.358 L
626.362 317.068 L
626.623 311.927 L
626.883 299.077 L
627.144 314.497 L
627.404 311.927 L
627.664 311.927 L
627.925 314.497 L
628.185 309.358 L
628.446 311.927 L
628.706 317.068 L
628.966 311.927 L
629.227 309.358 L
629.487 311.927 L
629.748 309.358 L
630.008 311.927 L
630.268 317.068 L
630.529 311.927 L
630.789 309.358 L
631.05 311.927 L
631.31 309.358 L
631.57 311.927 L
631.831 309.358 L
632.091 311.927 L
632.352 311.927 L
632.612 311.927 L
632.872 306.788 L
633.133 311.927 L
633.393 311.927 L
633.654 311.927 L
633.914 311.927 L
634.174 311.927 L
634.435 314.497 L
634.695 309.358 L
634.956 311.927 L
635.216 311.927 L
635.476 311.927 L
635.737 314.497 L
635.997 309.358 L
636.258 311.927 L
636.518 311.927 L
636.778 309.358 L
637.039 311.927 L
637.299 309.358 L
637.56 314.497 L
637.82 309.358 L
638.08 311.927 L
638.341 311.927 L
638.601 311.927 L
638.862 304.217 L
639.122 314.497 L
639.382 314.497 L
639.643 309.358 L
639.903 311.927 L
640.164 324.777 L
640.424 306.788 L
640.684 309.358 L
640.945 304.217 L
641.205 319.638 L
641.466 311.927 L
641.726 311.927 L
641.986 311.927 L
642.247 301.647 L
642.507 309.358 L
642.768 309.358 L
643.028 309.358 L
643.288 306.788 L
643.549 311.927 L
643.809 311.927 L
644.07 309.358 L
644.33 311.927 L
644.59 306.788 L
644.851 317.068 L
645.111 311.927 L
645.372 309.358 L
645.632 311.927 L
645.892 309.358 L
646.153 311.927 L
646.413 309.358 L
646.674 306.788 L
646.934 314.497 L
647.194 319.638 L
647.455 322.207 L
647.715 309.358 L
647.976 306.788 L
648.236 301.647 L
648.496 304.217 L
648.757 309.358 L
649.017 311.927 L
649.278 309.358 L
649.538 309.358 L
649.798 317.068 L
650.059 306.788 L
650.319 309.358 L
650.58 311.927 L
650.84 304.217 L
651.1 306.788 L
651.361 311.927 L
651.621 306.788 L
651.882 309.358 L
652.142 311.927 L
652.402 311.927 L
652.663 309.358 L
652.923 306.788 L
653.184 314.497 L
653.444 306.788 L
653.704 309.358 L
653.965 314.497 L
654.225 309.358 L
654.486 299.077 L
654.746 311.927 L
655.006 309.358 L
655.267 301.647 L
655.527 311.927 L
655.788 311.927 L
656.048 306.788 L
656.308 304.217 L
656.569 309.358 L
656.829 306.788 L
657.09 304.217 L
657.35 311.927 L
657.61 309.358 L
657.871 309.358 L
658.131 309.358 L
658.392 311.927 L
658.652 309.358 L
658.912 306.788 L
659.173 317.068 L
659.433 311.927 L
659.694 309.358 L
659.954 309.358 L
660.214 309.358 L
660.475 314.497 L
660.735 311.927 L
660.996 309.358 L
661.256 309.358 L
661.516 324.777 L
661.777 311.927 L
662.037 311.927 L
662.298 317.068 L
662.558 311.927 L
662.818 309.358 L
663.079 293.938 L
663.339 309.358 L
663.6 309.358 L
663.86 309.358 L
664.12 309.358 L
664.381 311.927 L
664.641 306.788 L
664.902 309.358 L
665.162 311.927 L
665.422 311.927 L
665.683 311.927 L
665.943 309.358 L
666.204 311.927 L
666.464 306.788 L
666.724 311.927 L
666.985 306.788 L
667.245 309.358 L
667.506 306.788 L
667.766 304.217 L
668.026 314.497 L
668.287 309.358 L
668.547 311.927 L
668.808 309.358 L
669.068 306.788 L
669.328 309.358 L
669.589 311.927 L
669.849 309.358 L
670.11 309.358 L
670.37 309.358 L
670.63 306.788 L
670.891 306.788 L
671.151 306.788 L
671.412 309.358 L
671.672 309.358 L
671.932 309.358 L
672.193 306.788 L
672.453 309.358 L
672.714 306.788 L
672.974 304.217 L
673.234 304.217 L
673.495 306.788 L
673.755 304.217 L
674.016 306.788 L
674.276 309.358 L
674.536 309.358 L
674.797 304.217 L
675.057 309.358 L
675.318 304.217 L
675.578 306.788 L
675.838 301.647 L
676.099 309.358 L
676.359 309.358 L
676.62 309.358 L
676.88 309.358 L
677.14 309.358 L
677.401 311.927 L
677.661 309.358 L
677.922 309.358 L
678.182 309.358 L
678.442 309.358 L
678.703 306.788 L
678.963 306.788 L
679.224 311.927 L
679.484 306.788 L
679.744 309.358 L
680.005 304.217 L
680.265 309.358 L
680.526 311.927 L
680.786 309.358 L
681.046 311.927 L
681.307 311.927 L
681.567 309.358 L
681.828 311.927 L
682.088 309.358 L
682.348 309.358 L
682.609 314.497 L
682.869 311.927 L
683.13 311.927 L
683.39 311.927 L
683.65 311.927 L
683.911 311.927 L
684.171 311.927 L
684.432 311.927 L
684.692 322.207 L
684.952 309.358 L
685.213 311.927 L
685.473 311.927 L
685.734 314.497 L
685.994 309.358 L
686.254 309.358 L
686.515 314.497 L
686.775 311.927 L
687.036 311.927 L
687.296 309.358 L
687.556 311.927 L
687.817 545.797 L
688.077 419.867 L
688.338 355.617 L
688.598 332.487 L
688.858 324.777 L
689.119 317.068 L
689.379 314.497 L
689.64 319.638 L
689.9 314.497 L
690.16 306.788 L
690.421 311.927 L
690.681 314.497 L
690.942 311.927 L
691.202 311.927 L
691.462 309.358 L
691.723 301.647 L
691.983 314.497 L
692.244 309.358 L
692.504 314.497 L
692.764 311.927 L
693.025 311.927 L
693.285 309.358 L
693.546 311.927 L
693.806 311.927 L
694.066 309.358 L
694.327 306.788 L
694.587 309.358 L
694.848 309.358 L
695.108 306.788 L
695.368 314.497 L
695.629 309.358 L
695.889 304.217 L
696.15 311.927 L
696.41 309.358 L
696.67 314.497 L
696.931 306.788 L
697.191 306.788 L
697.452 304.217 L
697.712 309.358 L
697.972 306.788 L
698.233 306.788 L
698.493 306.788 L
698.754 309.358 L
699.014 306.788 L
699.274 306.788 L
699.535 311.927 L
699.795 306.788 L
700.056 309.358 L
700.316 309.358 L
700.576 301.647 L
700.837 306.788 L
701.097 306.788 L
701.358 311.927 L
701.618 306.788 L
701.878 306.788 L
702.139 306.788 L
702.399 306.788 L
702.66 309.358 L
702.92 304.217 L
703.18 304.217 L
703.441 306.788 L
703.701 306.788 L
703.962 314.497 L
704.222 304.217 L
704.482 306.788 L
704.743 306.788 L
705.003 306.788 L
705.264 309.358 L
705.524 309.358 L
705.784 309.358 L
706.045 309.358 L
706.305 304.217 L
706.566 304.217 L
706.826 306.788 L
707.086 306.788 L
707.347 311.927 L
707.607 306.788 L
707.868 306.788 L
708.128 296.508 L
708.388 309.358 L
708.649 306.788 L
708.909 306.788 L
709.17 306.788 L
709.43 306.788 L
709.69 304.217 L
709.951 306.788 L
710.211 309.358 L
710.472 306.788 L
710.732 304.217 L
710.992 306.788 L
711.253 309.358 L
711.513 309.358 L
711.774 306.788 L
712.034 311.927 L
712.294 306.788 L
712.555 306.788 L
712.815 304.217 L
713.076 309.358 L
713.336 309.358 L
713.596 309.358 L
713.857 306.788 L
714.117 306.788 L
714.378 309.358 L
714.638 306.788 L
714.898 293.938 L
715.159 309.358 L
715.419 309.358 L
715.68 309.358 L
715.94 309.358 L
716.2 309.358 L
716.461 309.358 L
716.721 299.077 L
716.982 306.788 L
717.242 306.788 L
717.502 314.497 L
717.763 309.358 L
718.023 309.358 L
718.284 309.358 L
718.544 304.217 L
718.804 309.358 L
719.065 309.358 L
719.325 311.927 L
719.586 299.077 L
719.846 306.788 L
720.106 309.358 L
720.367 309.358 L
720.627 306.788 L
720.888 309.358 L
721.148 304.217 L
721.408 306.788 L
721.669 306.788 L
721.929 309.358 L
722.19 309.358 L
722.45 304.217 L
722.71 314.497 L
722.971 309.358 L
723.231 306.788 L
723.492 311.927 L
723.752 306.788 L
724.012 309.358 L
724.273 309.358 L
724.533 306.788 L
724.794 309.358 L
725.054 311.927 L
725.314 311.927 L
725.575 314.497 L
725.835 306.788 L
726.096 304.217 L
726.356 306.788 L
726.616 311.927 L
726.877 304.217 L
727.137 306.788 L
727.398 309.358 L
727.658 306.788 L
727.918 301.647 L
728.179 311.927 L
728.439 309.358 L
728.7 306.788 L
728.96 304.217 L
729.22 309.358 L
729.481 304.217 L
729.741 304.217 L
730.002 309.358 L
730.262 304.217 L
730.522 306.788 L
730.783 301.647 L
731.043 304.217 L
731.304 306.788 L
731.564 304.217 L
731.824 306.788 L
732.085 301.647 L
732.345 311.927 L
732.606 301.647 L
732.866 304.217 L
733.126 309.358 L
733.387 304.217 L
733.647 306.788 L
733.908 306.788 L
734.168 309.358 L
734.428 311.927 L
734.689 314.497 L
734.949 306.788 L
735.21 309.358 L
735.47 306.788 L
735.73 304.217 L
735.991 309.358 L
736.251 309.358 L
736.512 306.788 L
736.772 306.788 L
737.032 309.358 L
737.293 309.358 L
737.553 311.927 L
737.814 309.358 L
738.074 314.497 L
738.334 301.647 L
738.595 304.217 L
738.855 311.927 L
739.116 306.788 L
739.376 306.788 L
739.636 306.788 L
739.897 306.788 L
740.157 306.788 L
740.418 309.358 L
740.678 299.077 L
740.938 309.358 L
741.199 306.788 L
741.459 304.217 L
741.72 306.788 L
741.98 311.927 L
742.24 309.358 L
742.501 309.358 L
742.761 309.358 L
743.022 309.358 L
743.282 309.358 L
743.542 311.927 L
743.803 311.927 L
744.063 309.358 L
744.324 311.927 L
744.584 309.358 L
744.844 311.927 L
745.105 306.788 L
745.365 309.358 L
745.626 306.788 L
745.886 309.358 L
746.146 309.358 L
746.407 311.927 L
746.667 309.358 L
746.928 309.358 L
747.188 309.358 L
747.448 304.217 L
747.709 309.358 L
747.969 309.358 L
748.23 306.788 L
748.49 309.358 L
748.75 309.358 L
749.011 309.358 L
749.271 306.788 L
749.532 309.358 L
749.792 317.068 L
750.052 309.358 L
750.313 309.358 L
750.573 306.788 L
750.834 306.788 L
751.094 311.927 L
751.354 306.788 L
751.615 306.788 L
751.875 304.217 L
752.136 301.647 L
752.396 309.358 L
752.656 309.358 L
752.917 304.217 L
753.177 309.358 L
753.438 306.788 L
753.698 304.217 L
753.958 306.788 L
754.219 309.358 L
754.479 301.647 L
754.74 311.927 L
S
GR
%%Trailer
%%Pages: 1
%%EOF
