%!PS-Adobe-3.0 EPSF-3.0
%%Creator: (MATLAB, The Mathworks, Inc. Version 9.4.0.813654 \(R2018a\). Operating System: Windows 10)
%%Title: C:/Users/robbe/OneDrive/VUB/Thesis/OscMeasurements/BALCAP/ALL0005/shuttlingSmallDifferenceDetail.eps
%%CreationDate: 2019-05-14T18:38:49
%%Pages: (atend)
%%BoundingBox: 0 0 420 315
%%LanguageLevel: 3
%%EndComments
%%BeginProlog
%%BeginResource: procset (Apache XML Graphics Std ProcSet) 1.2 0
%%Version: 1.2 0
%%Copyright: (Copyright 2001-2003,2010 The Apache Software Foundation. License terms: http://www.apache.org/licenses/LICENSE-2.0)
/bd{bind def}bind def
/ld{load def}bd
/GR/grestore ld
/GS/gsave ld
/RM/rmoveto ld
/C/curveto ld
/t/show ld
/L/lineto ld
/ML/setmiterlimit ld
/CT/concat ld
/f/fill ld
/N/newpath ld
/S/stroke ld
/CC/setcmykcolor ld
/A/ashow ld
/cp/closepath ld
/RC/setrgbcolor ld
/LJ/setlinejoin ld
/GC/setgray ld
/LW/setlinewidth ld
/M/moveto ld
/re {4 2 roll M
1 index 0 rlineto
0 exch rlineto
neg 0 rlineto
cp } bd
/_ctm matrix def
/_tm matrix def
/BT { _ctm currentmatrix pop matrix _tm copy pop 0 0 moveto } bd
/ET { _ctm setmatrix } bd
/iTm { _ctm setmatrix _tm concat } bd
/Tm { _tm astore pop iTm 0 0 moveto } bd
/ux 0.0 def
/uy 0.0 def
/F {
  /Tp exch def
  /Tf exch def
  Tf findfont Tp scalefont setfont
  /cf Tf def  /cs Tp def
} bd
/ULS {currentpoint /uy exch def /ux exch def} bd
/ULE {
  /Tcx currentpoint pop def
  gsave
  newpath
  cf findfont cs scalefont dup
  /FontMatrix get 0 get /Ts exch def /FontInfo get dup
  /UnderlinePosition get Ts mul /To exch def
  /UnderlineThickness get Ts mul /Tt exch def
  ux uy To add moveto  Tcx uy To add lineto
  Tt setlinewidth stroke
  grestore
} bd
/OLE {
  /Tcx currentpoint pop def
  gsave
  newpath
  cf findfont cs scalefont dup
  /FontMatrix get 0 get /Ts exch def /FontInfo get dup
  /UnderlinePosition get Ts mul /To exch def
  /UnderlineThickness get Ts mul /Tt exch def
  ux uy To add cs add moveto Tcx uy To add cs add lineto
  Tt setlinewidth stroke
  grestore
} bd
/SOE {
  /Tcx currentpoint pop def
  gsave
  newpath
  cf findfont cs scalefont dup
  /FontMatrix get 0 get /Ts exch def /FontInfo get dup
  /UnderlinePosition get Ts mul /To exch def
  /UnderlineThickness get Ts mul /Tt exch def
  ux uy To add cs 10 mul 26 idiv add moveto Tcx uy To add cs 10 mul 26 idiv add lineto
  Tt setlinewidth stroke
  grestore
} bd
/QT {
/Y22 exch store
/X22 exch store
/Y21 exch store
/X21 exch store
currentpoint
/Y21 load 2 mul add 3 div exch
/X21 load 2 mul add 3 div exch
/X21 load 2 mul /X22 load add 3 div
/Y21 load 2 mul /Y22 load add 3 div
/X22 load /Y22 load curveto
} bd
/SSPD {
dup length /d exch dict def
{
/v exch def
/k exch def
currentpagedevice k known {
/cpdv currentpagedevice k get def
v cpdv ne {
/upd false def
/nullv v type /nulltype eq def
/nullcpdv cpdv type /nulltype eq def
nullv nullcpdv or
{
/upd true def
} {
/sametype v type cpdv type eq def
sametype {
v type /arraytype eq {
/vlen v length def
/cpdvlen cpdv length def
vlen cpdvlen eq {
0 1 vlen 1 sub {
/i exch def
/obj v i get def
/cpdobj cpdv i get def
obj cpdobj ne {
/upd true def
exit
} if
} for
} {
/upd true def
} ifelse
} {
v type /dicttype eq {
v {
/dv exch def
/dk exch def
/cpddv cpdv dk get def
dv cpddv ne {
/upd true def
exit
} if
} forall
} {
/upd true def
} ifelse
} ifelse
} if
} ifelse
upd true eq {
d k v put
} if
} if
} if
} forall
d length 0 gt {
d setpagedevice
} if
} bd
/RE { % /NewFontName [NewEncodingArray] /FontName RE -
  findfont dup length dict begin
  {
    1 index /FID ne
    {def} {pop pop} ifelse
  } forall
  /Encoding exch def
  /FontName 1 index def
  currentdict definefont pop
  end
} bind def
%%EndResource
%%BeginResource: procset (Apache XML Graphics EPS ProcSet) 1.0 0
%%Version: 1.0 0
%%Copyright: (Copyright 2002-2003 The Apache Software Foundation. License terms: http://www.apache.org/licenses/LICENSE-2.0)
/BeginEPSF { %def
/b4_Inc_state save def         % Save state for cleanup
/dict_count countdictstack def % Count objects on dict stack
/op_count count 1 sub def      % Count objects on operand stack
userdict begin                 % Push userdict on dict stack
/showpage { } def              % Redefine showpage, { } = null proc
0 setgray 0 setlinecap         % Prepare graphics state
1 setlinewidth 0 setlinejoin
10 setmiterlimit [ ] 0 setdash newpath
/languagelevel where           % If level not equal to 1 then
{pop languagelevel             % set strokeadjust and
1 ne                           % overprint to their defaults.
{false setstrokeadjust false setoverprint
} if
} if
} bd
/EndEPSF { %def
count op_count sub {pop} repeat            % Clean up stacks
countdictstack dict_count sub {end} repeat
b4_Inc_state restore
} bd
%%EndResource
%FOPBeginFontDict
%%IncludeResource: font Courier-Oblique
%%IncludeResource: font Courier-BoldOblique
%%IncludeResource: font Courier-Bold
%%IncludeResource: font ZapfDingbats
%%IncludeResource: font Symbol
%%IncludeResource: font Helvetica
%%IncludeResource: font Helvetica-Oblique
%%IncludeResource: font Helvetica-Bold
%%IncludeResource: font Helvetica-BoldOblique
%%IncludeResource: font Times-Roman
%%IncludeResource: font Times-Italic
%%IncludeResource: font Times-Bold
%%IncludeResource: font Times-BoldItalic
%%IncludeResource: font Courier
%FOPEndFontDict
%%BeginResource: encoding WinAnsiEncoding
/WinAnsiEncoding [
/.notdef /.notdef /.notdef /.notdef /.notdef
/.notdef /.notdef /.notdef /.notdef /.notdef
/.notdef /.notdef /.notdef /.notdef /.notdef
/.notdef /.notdef /.notdef /.notdef /.notdef
/.notdef /.notdef /.notdef /.notdef /.notdef
/.notdef /.notdef /.notdef /.notdef /.notdef
/.notdef /.notdef /space /exclam /quotedbl
/numbersign /dollar /percent /ampersand /quotesingle
/parenleft /parenright /asterisk /plus /comma
/hyphen /period /slash /zero /one
/two /three /four /five /six
/seven /eight /nine /colon /semicolon
/less /equal /greater /question /at
/A /B /C /D /E
/F /G /H /I /J
/K /L /M /N /O
/P /Q /R /S /T
/U /V /W /X /Y
/Z /bracketleft /backslash /bracketright /asciicircum
/underscore /quoteleft /a /b /c
/d /e /f /g /h
/i /j /k /l /m
/n /o /p /q /r
/s /t /u /v /w
/x /y /z /braceleft /bar
/braceright /asciitilde /bullet /Euro /bullet
/quotesinglbase /florin /quotedblbase /ellipsis /dagger
/daggerdbl /circumflex /perthousand /Scaron /guilsinglleft
/OE /bullet /Zcaron /bullet /bullet
/quoteleft /quoteright /quotedblleft /quotedblright /bullet
/endash /emdash /asciitilde /trademark /scaron
/guilsinglright /oe /bullet /zcaron /Ydieresis
/space /exclamdown /cent /sterling /currency
/yen /brokenbar /section /dieresis /copyright
/ordfeminine /guillemotleft /logicalnot /sfthyphen /registered
/macron /degree /plusminus /twosuperior /threesuperior
/acute /mu /paragraph /middot /cedilla
/onesuperior /ordmasculine /guillemotright /onequarter /onehalf
/threequarters /questiondown /Agrave /Aacute /Acircumflex
/Atilde /Adieresis /Aring /AE /Ccedilla
/Egrave /Eacute /Ecircumflex /Edieresis /Igrave
/Iacute /Icircumflex /Idieresis /Eth /Ntilde
/Ograve /Oacute /Ocircumflex /Otilde /Odieresis
/multiply /Oslash /Ugrave /Uacute /Ucircumflex
/Udieresis /Yacute /Thorn /germandbls /agrave
/aacute /acircumflex /atilde /adieresis /aring
/ae /ccedilla /egrave /eacute /ecircumflex
/edieresis /igrave /iacute /icircumflex /idieresis
/eth /ntilde /ograve /oacute /ocircumflex
/otilde /odieresis /divide /oslash /ugrave
/uacute /ucircumflex /udieresis /yacute /thorn
/ydieresis
] def
%%EndResource
%FOPBeginFontReencode
/Courier-Oblique findfont
dup length dict begin
  {1 index /FID ne {def} {pop pop} ifelse} forall
  /Encoding WinAnsiEncoding def
  currentdict
end
/Courier-Oblique exch definefont pop
/Courier-BoldOblique findfont
dup length dict begin
  {1 index /FID ne {def} {pop pop} ifelse} forall
  /Encoding WinAnsiEncoding def
  currentdict
end
/Courier-BoldOblique exch definefont pop
/Courier-Bold findfont
dup length dict begin
  {1 index /FID ne {def} {pop pop} ifelse} forall
  /Encoding WinAnsiEncoding def
  currentdict
end
/Courier-Bold exch definefont pop
/Helvetica findfont
dup length dict begin
  {1 index /FID ne {def} {pop pop} ifelse} forall
  /Encoding WinAnsiEncoding def
  currentdict
end
/Helvetica exch definefont pop
/Helvetica-Oblique findfont
dup length dict begin
  {1 index /FID ne {def} {pop pop} ifelse} forall
  /Encoding WinAnsiEncoding def
  currentdict
end
/Helvetica-Oblique exch definefont pop
/Helvetica-Bold findfont
dup length dict begin
  {1 index /FID ne {def} {pop pop} ifelse} forall
  /Encoding WinAnsiEncoding def
  currentdict
end
/Helvetica-Bold exch definefont pop
/Helvetica-BoldOblique findfont
dup length dict begin
  {1 index /FID ne {def} {pop pop} ifelse} forall
  /Encoding WinAnsiEncoding def
  currentdict
end
/Helvetica-BoldOblique exch definefont pop
/Times-Roman findfont
dup length dict begin
  {1 index /FID ne {def} {pop pop} ifelse} forall
  /Encoding WinAnsiEncoding def
  currentdict
end
/Times-Roman exch definefont pop
/Times-Italic findfont
dup length dict begin
  {1 index /FID ne {def} {pop pop} ifelse} forall
  /Encoding WinAnsiEncoding def
  currentdict
end
/Times-Italic exch definefont pop
/Times-Bold findfont
dup length dict begin
  {1 index /FID ne {def} {pop pop} ifelse} forall
  /Encoding WinAnsiEncoding def
  currentdict
end
/Times-Bold exch definefont pop
/Times-BoldItalic findfont
dup length dict begin
  {1 index /FID ne {def} {pop pop} ifelse} forall
  /Encoding WinAnsiEncoding def
  currentdict
end
/Times-BoldItalic exch definefont pop
/Courier findfont
dup length dict begin
  {1 index /FID ne {def} {pop pop} ifelse} forall
  /Encoding WinAnsiEncoding def
  currentdict
end
/Courier exch definefont pop
%FOPEndFontReencode
%%EndProlog
%%Page: 1 1
%%PageBoundingBox: 0 0 420 315
%%BeginPageSetup
[1 0 0 -1 0 315] CT
%%EndPageSetup
GS
[0.5 0 0 0.5 0 0] CT
1 GC
N
0 0 840 630 re
f
GR
GS
[0.5 0 0 0.5 0 0] CT
1 GC
N
0 0 840 630 re
f
GR
GS
[0.5 0 0 0.5 0 0] CT
1 GC
N
109 561 M
760 561 L
760 47 L
109 47 L
cp
f
GR
GS
[0.5 0 0 0.5 0 0] CT
0.149 GC
2 setlinecap
1 LJ
N
109 561 M
760 561 L
S
GR
GS
[0.5 0 0 0.5 0 0] CT
0.149 GC
2 setlinecap
1 LJ
N
109 47 M
760 47 L
S
GR
GS
[0.5 0 0 0.5 0 0] CT
0.149 GC
2 setlinecap
1 LJ
N
190.894 561 M
190.894 554.49 L
S
GR
GS
[0.5 0 0 0.5 0 0] CT
0.149 GC
2 setlinecap
1 LJ
N
287.903 561 M
287.903 554.49 L
S
GR
GS
[0.5 0 0 0.5 0 0] CT
0.149 GC
2 setlinecap
1 LJ
N
384.912 561 M
384.912 554.49 L
S
GR
GS
[0.5 0 0 0.5 0 0] CT
0.149 GC
2 setlinecap
1 LJ
N
481.922 561 M
481.922 554.49 L
S
GR
GS
[0.5 0 0 0.5 0 0] CT
0.149 GC
2 setlinecap
1 LJ
N
578.931 561 M
578.931 554.49 L
S
GR
GS
[0.5 0 0 0.5 0 0] CT
0.149 GC
2 setlinecap
1 LJ
N
675.94 561 M
675.94 554.49 L
S
GR
GS
[0.5 0 0 0.5 0 0] CT
0.149 GC
2 setlinecap
1 LJ
N
190.894 47 M
190.894 53.51 L
S
GR
GS
[0.5 0 0 0.5 0 0] CT
0.149 GC
2 setlinecap
1 LJ
N
287.903 47 M
287.903 53.51 L
S
GR
GS
[0.5 0 0 0.5 0 0] CT
0.149 GC
2 setlinecap
1 LJ
N
384.912 47 M
384.912 53.51 L
S
GR
GS
[0.5 0 0 0.5 0 0] CT
0.149 GC
2 setlinecap
1 LJ
N
481.922 47 M
481.922 53.51 L
S
GR
GS
[0.5 0 0 0.5 0 0] CT
0.149 GC
2 setlinecap
1 LJ
N
578.931 47 M
578.931 53.51 L
S
GR
GS
[0.5 0 0 0.5 0 0] CT
0.149 GC
2 setlinecap
1 LJ
N
675.94 47 M
675.94 53.51 L
S
GR
GS
[0.5 0 0 0.5 95.44688 284.50003] CT
0.149 GC
/Helvetica 20 F
GS
[1 0 0 1 0 0] CT
-6 21 moveto 
1 -1 scale
(0) t 
GR
GR
GS
[0.5 0 0 0.5 143.95152 284.50003] CT
0.149 GC
/Helvetica 20 F
GS
[1 0 0 1 0 0] CT
-14 21 moveto 
1 -1 scale
(0.5) t 
GR
GR
GS
[0.5 0 0 0.5 192.45618 284.50003] CT
0.149 GC
/Helvetica 20 F
GS
[1 0 0 1 0 0] CT
-6 21 moveto 
1 -1 scale
(1) t 
GR
GR
GS
[0.5 0 0 0.5 240.96083 284.50003] CT
0.149 GC
/Helvetica 20 F
GS
[1 0 0 1 0 0] CT
-14 21 moveto 
1 -1 scale
(1.5) t 
GR
GR
GS
[0.5 0 0 0.5 289.46548 284.50003] CT
0.149 GC
/Helvetica 20 F
GS
[1 0 0 1 0 0] CT
-6 21 moveto 
1 -1 scale
(2) t 
GR
GR
GS
[0.5 0 0 0.5 337.97012 284.50003] CT
0.149 GC
/Helvetica 20 F
GS
[1 0 0 1 0 0] CT
-14 21 moveto 
1 -1 scale
(2.5) t 
GR
GR
GS
[0.5 0 0 0.5 217.25015 298.5] CT
0.149 GC
/Helvetica 22 F
GS
[1 0 0 1 0 0] CT
-49.5 23 moveto 
1 -1 scale
(Time \(ms\)) t 
GR
GR
GS
[0.5 0 0 0.5 0 0] CT
0.149 GC
2 setlinecap
1 LJ
N
109 561 M
109 47 L
S
GR
GS
[0.5 0 0 0.5 0 0] CT
0.149 GC
2 setlinecap
1 LJ
N
760 561 M
760 47 L
S
GR
GS
[0.5 0 0 0.5 0 0] CT
0.149 GC
2 setlinecap
1 LJ
N
109 520.677 M
115.51 520.677 L
S
GR
GS
[0.5 0 0 0.5 0 0] CT
0.149 GC
2 setlinecap
1 LJ
N
109 463.897 M
115.51 463.897 L
S
GR
GS
[0.5 0 0 0.5 0 0] CT
0.149 GC
2 setlinecap
1 LJ
N
109 407.117 M
115.51 407.117 L
S
GR
GS
[0.5 0 0 0.5 0 0] CT
0.149 GC
2 setlinecap
1 LJ
N
109 350.338 M
115.51 350.338 L
S
GR
GS
[0.5 0 0 0.5 0 0] CT
0.149 GC
2 setlinecap
1 LJ
N
109 293.558 M
115.51 293.558 L
S
GR
GS
[0.5 0 0 0.5 0 0] CT
0.149 GC
2 setlinecap
1 LJ
N
109 236.778 M
115.51 236.778 L
S
GR
GS
[0.5 0 0 0.5 0 0] CT
0.149 GC
2 setlinecap
1 LJ
N
109 179.998 M
115.51 179.998 L
S
GR
GS
[0.5 0 0 0.5 0 0] CT
0.149 GC
2 setlinecap
1 LJ
N
109 123.219 M
115.51 123.219 L
S
GR
GS
[0.5 0 0 0.5 0 0] CT
0.149 GC
2 setlinecap
1 LJ
N
109 66.439 M
115.51 66.439 L
S
GR
GS
[0.5 0 0 0.5 0 0] CT
0.149 GC
2 setlinecap
1 LJ
N
760 520.677 M
753.49 520.677 L
S
GR
GS
[0.5 0 0 0.5 0 0] CT
0.149 GC
2 setlinecap
1 LJ
N
760 463.897 M
753.49 463.897 L
S
GR
GS
[0.5 0 0 0.5 0 0] CT
0.149 GC
2 setlinecap
1 LJ
N
760 407.117 M
753.49 407.117 L
S
GR
GS
[0.5 0 0 0.5 0 0] CT
0.149 GC
2 setlinecap
1 LJ
N
760 350.338 M
753.49 350.338 L
S
GR
GS
[0.5 0 0 0.5 0 0] CT
0.149 GC
2 setlinecap
1 LJ
N
760 293.558 M
753.49 293.558 L
S
GR
GS
[0.5 0 0 0.5 0 0] CT
0.149 GC
2 setlinecap
1 LJ
N
760 236.778 M
753.49 236.778 L
S
GR
GS
[0.5 0 0 0.5 0 0] CT
0.149 GC
2 setlinecap
1 LJ
N
760 179.998 M
753.49 179.998 L
S
GR
GS
[0.5 0 0 0.5 0 0] CT
0.149 GC
2 setlinecap
1 LJ
N
760 123.219 M
753.49 123.219 L
S
GR
GS
[0.5 0 0 0.5 0 0] CT
0.149 GC
2 setlinecap
1 LJ
N
760 66.439 M
753.49 66.439 L
S
GR
GS
[0.5 0 0 0.5 50.5 260.33838] CT
0.149 GC
/Helvetica 20 F
GS
[1 0 0 1 0 0] CT
-28 8 moveto 
1 -1 scale
(3.2) t 
GR
GR
GS
[0.5 0 0 0.5 50.5 231.94852] CT
0.149 GC
/Helvetica 20 F
GS
[1 0 0 1 0 0] CT
-28 8 moveto 
1 -1 scale
(3.4) t 
GR
GR
GS
[0.5 0 0 0.5 50.5 203.55869] CT
0.149 GC
/Helvetica 20 F
GS
[1 0 0 1 0 0] CT
-28 8 moveto 
1 -1 scale
(3.6) t 
GR
GR
GS
[0.5 0 0 0.5 50.5 175.16882] CT
0.149 GC
/Helvetica 20 F
GS
[1 0 0 1 0 0] CT
-28 8 moveto 
1 -1 scale
(3.8) t 
GR
GR
GS
[0.5 0 0 0.5 50.5 146.77896] CT
0.149 GC
/Helvetica 20 F
GS
[1 0 0 1 0 0] CT
-12 8 moveto 
1 -1 scale
(4) t 
GR
GR
GS
[0.5 0 0 0.5 50.5 118.38913] CT
0.149 GC
/Helvetica 20 F
GS
[1 0 0 1 0 0] CT
-28 8 moveto 
1 -1 scale
(4.2) t 
GR
GR
GS
[0.5 0 0 0.5 50.5 89.99924] CT
0.149 GC
/Helvetica 20 F
GS
[1 0 0 1 0 0] CT
-28 8 moveto 
1 -1 scale
(4.4) t 
GR
GR
GS
[0.5 0 0 0.5 50.5 61.60941] CT
0.149 GC
/Helvetica 20 F
GS
[1 0 0 1 0 0] CT
-28 8 moveto 
1 -1 scale
(4.6) t 
GR
GR
GS
[0.5 0 0 0.5 50.5 33.21951] CT
0.149 GC
/Helvetica 20 F
GS
[1 0 0 1 0 0] CT
-28 8 moveto 
1 -1 scale
(4.8) t 
GR
GR
GS
[0 -0.5 0.5 0 33.5 151.99988] CT
0.149 GC
/Helvetica 22 F
GS
[1 0 0 1 0 0] CT
-55.5 -5 moveto 
1 -1 scale
(Voltage \(V\)) t 
GR
GR
GS
[0.5 0 0 0.5 217.25021 22.12498] CT
/Helvetica-Bold 22 F
GS
[1 0 0 1 0 0] CT
-122.5 -5 moveto 
1 -1 scale
(Shuttling between cells) t 
GR
GR
GS
[0.5 0 0 0.5 0 0] CT
0 0.447 0.741 RC
1 LJ
3 LW
N
108.922 404.287 M
109.406 407.117 L
110.182 404.846 L
110.958 402.575 L
111.734 404.846 L
112.51 404.846 L
113.286 404.846 L
114.062 407.117 L
114.838 402.575 L
115.615 404.846 L
116.391 404.846 L
117.167 402.575 L
117.943 404.846 L
118.719 409.389 L
119.495 409.389 L
120.271 411.66 L
121.047 411.66 L
121.823 407.117 L
122.599 404.846 L
123.375 404.846 L
124.151 404.846 L
124.927 404.846 L
125.703 407.117 L
126.48 400.304 L
127.256 400.304 L
128.032 404.846 L
128.808 400.304 L
129.584 402.575 L
130.36 407.117 L
131.136 407.117 L
131.912 400.304 L
132.688 402.575 L
133.464 402.575 L
134.24 402.575 L
135.016 402.575 L
135.792 404.846 L
136.569 404.846 L
137.345 402.575 L
138.121 404.846 L
138.897 404.846 L
139.673 402.575 L
140.449 402.575 L
141.225 402.575 L
142.001 402.575 L
142.777 402.575 L
143.553 402.575 L
144.329 402.575 L
145.105 400.304 L
145.881 404.846 L
146.658 400.304 L
147.434 400.304 L
148.21 404.846 L
148.986 407.117 L
149.762 407.117 L
150.538 407.117 L
151.314 407.117 L
152.09 402.575 L
152.866 402.575 L
153.642 404.846 L
154.418 404.846 L
155.194 404.846 L
155.97 400.304 L
156.746 404.846 L
157.523 404.846 L
158.299 404.846 L
159.075 404.846 L
159.851 404.846 L
160.627 402.575 L
161.403 402.575 L
162.179 404.846 L
162.955 404.846 L
163.731 407.117 L
164.507 402.575 L
165.283 411.66 L
166.059 502.507 L
166.835 447.999 L
167.612 423.016 L
168.388 409.389 L
169.164 400.304 L
169.94 393.49 L
170.716 388.948 L
171.492 388.948 L
172.268 377.592 L
173.044 373.049 L
173.82 368.507 L
174.596 368.507 L
175.372 363.965 L
176.148 361.694 L
176.924 359.422 L
177.7 361.694 L
178.477 357.151 L
179.253 348.066 L
180.029 350.338 L
180.805 350.338 L
181.581 350.338 L
182.357 348.066 L
183.133 348.066 L
183.909 348.066 L
184.685 343.524 L
185.461 345.795 L
186.237 345.795 L
187.013 341.253 L
187.789 341.253 L
188.566 338.982 L
189.342 334.439 L
190.118 336.71 L
190.894 334.439 L
191.67 332.168 L
192.446 336.71 L
193.222 332.168 L
193.998 327.626 L
194.774 327.626 L
195.55 332.168 L
196.326 329.897 L
197.102 325.355 L
197.878 325.355 L
198.654 332.168 L
199.431 327.626 L
200.207 329.897 L
200.983 329.897 L
201.759 320.812 L
202.535 325.355 L
203.311 325.355 L
204.087 327.626 L
204.863 325.355 L
205.639 318.541 L
206.415 307.185 L
207.191 307.185 L
207.967 313.999 L
208.743 309.456 L
209.52 309.456 L
210.296 311.727 L
211.072 309.456 L
211.848 304.914 L
212.624 307.185 L
213.4 304.914 L
214.176 302.643 L
214.952 302.643 L
215.728 304.914 L
216.504 304.914 L
217.28 302.643 L
218.056 307.185 L
218.832 307.185 L
219.609 304.914 L
220.385 298.1 L
221.161 300.371 L
221.937 300.371 L
222.713 304.914 L
223.489 300.371 L
224.265 300.371 L
225.041 302.643 L
225.817 302.643 L
226.593 298.1 L
227.369 304.914 L
228.145 302.643 L
228.921 302.643 L
229.697 298.1 L
230.474 304.914 L
231.25 298.1 L
232.026 302.643 L
232.802 304.914 L
233.578 304.914 L
234.354 304.914 L
235.13 302.643 L
235.906 300.371 L
236.682 304.914 L
237.458 302.643 L
238.234 300.371 L
239.01 302.643 L
239.786 300.371 L
240.563 302.643 L
241.339 298.1 L
242.115 302.643 L
242.891 298.1 L
243.667 298.1 L
244.443 300.371 L
245.219 298.1 L
245.995 300.371 L
246.771 302.643 L
247.547 300.371 L
248.323 302.643 L
249.099 300.371 L
249.875 302.643 L
250.651 300.371 L
251.428 302.643 L
252.204 302.643 L
252.98 302.643 L
253.756 298.1 L
254.532 302.643 L
255.308 302.643 L
256.084 300.371 L
256.86 304.914 L
257.636 302.643 L
258.412 302.643 L
259.188 302.643 L
259.964 300.371 L
260.74 304.914 L
261.517 300.371 L
262.293 298.1 L
263.069 300.371 L
263.845 300.371 L
264.621 298.1 L
265.397 298.1 L
266.173 300.371 L
266.949 298.1 L
267.725 302.643 L
268.501 298.1 L
269.277 298.1 L
270.053 298.1 L
270.829 300.371 L
271.605 302.643 L
272.382 302.643 L
273.158 300.371 L
273.934 298.1 L
274.71 300.371 L
275.486 304.914 L
276.262 302.643 L
277.038 304.914 L
277.814 300.371 L
278.59 302.643 L
279.366 302.643 L
280.142 302.643 L
280.918 302.643 L
281.694 300.371 L
282.471 300.371 L
283.247 300.371 L
284.023 300.371 L
284.799 302.643 L
285.575 300.371 L
286.351 300.371 L
287.127 304.914 L
287.903 304.914 L
288.679 298.1 L
289.455 300.371 L
290.231 298.1 L
291.007 298.1 L
291.783 295.829 L
292.559 298.1 L
293.336 302.643 L
294.112 300.371 L
294.888 300.371 L
295.664 302.643 L
296.44 300.371 L
297.216 302.643 L
297.992 302.643 L
298.768 302.643 L
299.544 300.371 L
300.32 302.643 L
301.096 307.185 L
301.872 302.643 L
302.648 304.914 L
303.425 300.371 L
304.201 298.1 L
304.977 302.643 L
305.753 304.914 L
306.529 302.643 L
307.305 298.1 L
308.081 300.371 L
308.857 300.371 L
309.633 295.829 L
310.409 298.1 L
311.185 298.1 L
311.961 300.371 L
312.737 298.1 L
313.514 300.371 L
314.29 302.643 L
315.066 304.914 L
315.842 300.371 L
316.618 300.371 L
317.394 304.914 L
318.17 304.914 L
318.946 300.371 L
319.722 302.643 L
320.498 304.914 L
321.274 298.1 L
322.05 300.371 L
322.826 302.643 L
323.602 300.371 L
324.379 302.643 L
325.155 304.914 L
325.931 302.643 L
326.707 302.643 L
327.483 300.371 L
328.259 302.643 L
329.035 300.371 L
329.811 298.1 L
330.587 295.829 L
331.363 295.829 L
332.139 298.1 L
332.915 302.643 L
333.691 300.371 L
334.468 300.371 L
335.244 300.371 L
336.02 300.371 L
336.796 302.643 L
337.572 302.643 L
338.348 304.914 L
339.124 307.185 L
339.9 304.914 L
340.676 300.371 L
341.452 300.371 L
342.228 302.643 L
343.004 298.1 L
343.78 304.914 L
344.556 304.914 L
345.333 300.371 L
346.109 302.643 L
346.885 302.643 L
347.661 304.914 L
348.437 304.914 L
349.213 304.914 L
349.989 302.643 L
350.765 302.643 L
351.541 298.1 L
352.317 302.643 L
353.093 302.643 L
353.869 304.914 L
354.645 304.914 L
355.422 300.371 L
356.198 302.643 L
356.974 304.914 L
357.75 300.371 L
358.526 300.371 L
359.302 302.643 L
360.078 302.643 L
360.854 302.643 L
361.63 300.371 L
362.406 307.185 L
363.182 302.643 L
363.958 300.371 L
364.734 302.643 L
365.51 304.914 L
366.287 302.643 L
367.063 304.914 L
367.839 302.643 L
368.615 302.643 L
369.391 293.558 L
370.167 298.1 L
370.943 298.1 L
371.719 304.914 L
372.495 302.643 L
373.271 300.371 L
374.047 302.643 L
374.823 304.914 L
375.599 302.643 L
376.376 304.914 L
377.152 302.643 L
377.928 298.1 L
378.704 302.643 L
379.48 304.914 L
380.256 298.1 L
381.032 300.371 L
381.808 300.371 L
382.584 307.185 L
383.36 304.914 L
384.136 304.914 L
384.912 300.371 L
385.688 307.185 L
386.465 304.914 L
387.241 302.643 L
388.017 304.914 L
388.793 302.643 L
389.569 300.371 L
390.345 302.643 L
391.121 302.643 L
391.897 302.643 L
392.673 302.643 L
393.449 300.371 L
394.225 300.371 L
395.001 304.914 L
395.777 304.914 L
396.553 302.643 L
397.33 307.185 L
398.106 304.914 L
398.882 302.643 L
399.658 300.371 L
400.434 304.914 L
401.21 302.643 L
401.986 300.371 L
402.762 300.371 L
403.538 304.914 L
404.314 302.643 L
405.09 302.643 L
405.866 304.914 L
406.642 302.643 L
407.419 302.643 L
408.195 302.643 L
408.971 304.914 L
409.747 300.371 L
410.523 300.371 L
411.299 300.371 L
412.075 304.914 L
412.851 300.371 L
413.627 300.371 L
414.403 298.1 L
415.179 298.1 L
415.955 302.643 L
416.731 302.643 L
417.507 300.371 L
418.284 300.371 L
419.06 302.643 L
419.836 302.643 L
420.612 302.643 L
421.388 298.1 L
422.164 307.185 L
422.94 302.643 L
423.716 300.371 L
424.492 302.643 L
425.268 300.371 L
426.044 304.914 L
426.82 304.914 L
427.596 304.914 L
428.372 300.371 L
429.149 300.371 L
429.925 300.371 L
430.701 298.1 L
431.477 295.829 L
432.253 298.1 L
433.029 302.643 L
433.805 300.371 L
434.581 300.371 L
435.357 300.371 L
436.133 300.371 L
436.909 302.643 L
437.685 300.371 L
438.461 302.643 L
439.238 302.643 L
440.014 302.643 L
440.79 300.371 L
441.566 302.643 L
442.342 304.914 L
443.118 302.643 L
443.894 300.371 L
444.67 302.643 L
445.446 298.1 L
446.222 302.643 L
446.998 302.643 L
447.774 302.643 L
448.55 307.185 L
449.327 300.371 L
450.103 300.371 L
450.879 302.643 L
451.655 300.371 L
452.431 300.371 L
453.207 298.1 L
453.983 302.643 L
454.759 298.1 L
455.535 304.914 L
456.311 300.371 L
457.087 302.643 L
457.863 304.914 L
458.639 300.371 L
459.415 302.643 L
460.192 304.914 L
460.968 304.914 L
461.744 302.643 L
462.52 300.371 L
463.296 307.185 L
464.072 298.1 L
464.848 302.643 L
465.624 302.643 L
466.4 304.914 L
467.176 302.643 L
467.952 302.643 L
468.728 304.914 L
469.504 300.371 L
470.281 298.1 L
471.057 298.1 L
471.833 302.643 L
472.609 300.371 L
473.385 298.1 L
474.161 304.914 L
474.937 302.643 L
475.713 302.643 L
476.489 302.643 L
477.265 302.643 L
478.041 300.371 L
478.817 298.1 L
479.593 304.914 L
480.37 311.727 L
481.146 302.643 L
481.922 300.371 L
482.698 302.643 L
483.474 304.914 L
484.25 304.914 L
485.026 302.643 L
485.802 302.643 L
486.578 300.371 L
487.354 302.643 L
488.13 298.1 L
488.906 302.643 L
489.682 302.643 L
490.458 304.914 L
491.235 302.643 L
492.011 304.914 L
492.787 311.727 L
493.563 302.643 L
494.339 304.914 L
495.115 302.643 L
495.891 302.643 L
496.667 300.371 L
497.443 95.964 L
498.219 166.371 L
498.995 223.151 L
499.771 254.948 L
500.547 282.202 L
501.324 293.558 L
502.1 307.185 L
502.876 311.727 L
503.652 316.27 L
504.428 320.812 L
505.204 323.083 L
505.98 325.355 L
506.756 332.168 L
507.532 332.168 L
508.308 334.439 L
509.084 338.982 L
509.86 338.982 L
510.636 345.795 L
511.412 345.795 L
512.189 345.795 L
512.965 350.338 L
513.741 350.338 L
514.517 352.609 L
515.293 352.609 L
516.069 354.88 L
516.845 361.694 L
517.621 354.88 L
518.397 361.694 L
519.173 361.694 L
519.949 363.965 L
520.725 361.694 L
521.501 363.965 L
522.278 368.507 L
523.054 366.236 L
523.83 366.236 L
524.606 368.507 L
525.382 368.507 L
526.158 370.778 L
526.934 368.507 L
527.71 370.778 L
528.486 370.778 L
529.262 373.049 L
530.038 370.778 L
530.814 375.321 L
531.59 379.863 L
532.366 377.592 L
533.143 375.321 L
533.919 377.592 L
534.695 375.321 L
535.471 379.863 L
536.247 379.863 L
537.023 379.863 L
537.799 379.863 L
538.575 377.592 L
539.351 379.863 L
540.127 382.134 L
540.903 386.677 L
541.679 379.863 L
542.455 382.134 L
543.232 382.134 L
544.008 384.405 L
544.784 386.677 L
545.56 382.134 L
546.336 382.134 L
547.112 386.677 L
547.888 382.134 L
548.664 384.405 L
549.44 388.948 L
550.216 382.134 L
550.992 386.677 L
551.768 386.677 L
552.544 386.677 L
553.32 384.405 L
554.097 386.677 L
554.873 386.677 L
555.649 386.677 L
556.425 386.677 L
557.201 391.219 L
557.977 391.219 L
558.753 388.948 L
559.529 386.677 L
560.305 386.677 L
561.081 391.219 L
561.857 388.948 L
562.633 391.219 L
563.409 391.219 L
564.186 391.219 L
564.962 391.219 L
565.738 391.219 L
566.514 388.948 L
567.29 391.219 L
568.066 386.677 L
568.842 393.49 L
569.618 388.948 L
570.394 391.219 L
571.17 391.219 L
571.946 388.948 L
572.722 393.49 L
573.498 391.219 L
574.274 525.219 L
575.051 500.236 L
575.827 472.982 L
576.603 450.27 L
577.379 436.643 L
578.155 427.558 L
578.931 425.287 L
579.707 420.744 L
580.483 420.744 L
581.259 420.744 L
582.035 418.473 L
582.811 418.473 L
583.587 416.202 L
584.364 416.202 L
585.14 420.744 L
585.916 416.202 L
586.692 418.473 L
587.468 420.744 L
588.244 418.473 L
589.02 416.202 L
589.796 416.202 L
590.572 413.931 L
591.348 413.931 L
592.124 416.202 L
592.9 413.931 L
593.676 413.931 L
594.452 413.931 L
595.229 418.473 L
596.005 409.389 L
596.781 411.66 L
597.557 418.473 L
598.333 413.931 L
599.109 413.931 L
599.885 409.389 L
600.661 411.66 L
601.437 413.931 L
602.213 413.931 L
602.989 409.389 L
603.765 411.66 L
604.541 409.389 L
605.317 409.389 L
606.094 409.389 L
606.87 411.66 L
607.646 409.389 L
608.422 409.389 L
609.198 407.117 L
609.974 409.389 L
610.75 409.389 L
611.526 411.66 L
612.302 407.117 L
613.078 409.389 L
613.854 409.389 L
614.63 407.117 L
615.406 411.66 L
616.182 404.846 L
616.959 407.117 L
617.735 411.66 L
618.511 407.117 L
619.287 407.117 L
620.063 409.389 L
620.839 411.66 L
621.615 407.117 L
622.391 404.846 L
623.167 404.846 L
623.943 404.846 L
624.719 404.846 L
625.495 407.117 L
626.271 407.117 L
627.048 404.846 L
627.824 402.575 L
628.6 404.846 L
629.376 407.117 L
630.152 409.389 L
630.928 404.846 L
631.704 407.117 L
632.48 407.117 L
633.256 411.66 L
634.032 411.66 L
634.808 413.931 L
635.584 409.389 L
636.36 409.389 L
637.137 407.117 L
637.913 409.389 L
638.689 407.117 L
639.465 409.389 L
640.241 404.846 L
641.017 407.117 L
641.793 407.117 L
642.569 404.846 L
643.345 409.389 L
644.121 407.117 L
644.897 409.389 L
645.673 407.117 L
646.449 407.117 L
647.226 407.117 L
648.002 409.389 L
648.778 407.117 L
649.554 409.389 L
650.33 404.846 L
651.106 409.389 L
651.882 402.575 L
652.658 411.66 L
653.434 411.66 L
654.21 407.117 L
654.986 407.117 L
655.762 407.117 L
656.538 411.66 L
657.314 407.117 L
658.091 404.846 L
658.867 404.846 L
659.643 407.117 L
660.419 404.846 L
661.195 404.846 L
661.971 404.846 L
662.747 407.117 L
663.523 402.575 L
664.299 400.304 L
665.075 402.575 L
665.851 404.846 L
666.627 404.846 L
667.403 407.117 L
668.18 409.389 L
668.956 407.117 L
669.732 404.846 L
670.508 411.66 L
671.284 407.117 L
672.06 407.117 L
672.836 404.846 L
673.612 400.304 L
674.388 400.304 L
675.164 402.575 L
675.94 404.846 L
676.716 404.846 L
677.492 409.389 L
678.268 404.846 L
679.045 402.575 L
679.821 407.117 L
680.597 407.117 L
681.373 404.846 L
682.149 404.846 L
682.925 402.575 L
683.701 404.846 L
684.477 398.033 L
685.253 404.846 L
686.029 404.846 L
686.805 407.117 L
687.581 404.846 L
688.357 404.846 L
689.134 402.575 L
689.91 402.575 L
690.686 404.846 L
691.462 402.575 L
692.238 407.117 L
693.014 402.575 L
693.79 404.846 L
694.566 404.846 L
695.342 402.575 L
696.118 404.846 L
696.894 407.117 L
697.67 409.389 L
698.446 404.846 L
699.222 402.575 L
699.999 404.846 L
700.775 407.117 L
701.551 411.66 L
702.327 402.575 L
703.103 407.117 L
703.879 404.846 L
704.655 402.575 L
705.431 407.117 L
706.207 404.846 L
706.983 402.575 L
707.759 404.846 L
708.535 402.575 L
709.311 402.575 L
710.088 407.117 L
710.864 404.846 L
711.64 404.846 L
712.416 407.117 L
713.192 404.846 L
713.968 404.846 L
714.744 404.846 L
715.52 402.575 L
716.296 404.846 L
717.072 404.846 L
717.848 400.304 L
718.624 404.846 L
719.4 404.846 L
720.176 407.117 L
720.953 404.846 L
721.729 404.846 L
722.505 404.846 L
723.281 402.575 L
724.057 407.117 L
724.833 400.304 L
725.609 400.304 L
726.385 404.846 L
727.161 404.846 L
727.937 404.846 L
728.713 407.117 L
729.489 402.575 L
730.265 407.117 L
731.042 404.846 L
731.818 404.846 L
732.594 404.846 L
733.37 400.304 L
734.146 404.846 L
734.922 400.304 L
735.698 402.575 L
736.474 404.846 L
737.25 404.846 L
738.026 404.846 L
738.802 404.846 L
739.578 402.575 L
740.354 402.575 L
741.13 404.846 L
741.907 404.846 L
742.683 404.846 L
743.459 402.575 L
744.235 407.117 L
745.011 404.846 L
745.787 409.389 L
746.563 404.846 L
747.339 404.846 L
748.115 404.846 L
748.891 402.575 L
749.667 404.846 L
750.443 404.846 L
751.219 404.846 L
751.996 404.846 L
752.772 400.304 L
753.548 402.575 L
754.324 404.846 L
755.1 402.575 L
755.876 402.575 L
756.652 404.846 L
757.428 407.117 L
758.204 407.117 L
758.98 404.846 L
759.756 404.846 L
760.078 404.846 L
S
GR
GS
[0.5 0 0 0.5 0 0] CT
0.851 0.325 0.098 RC
1 LJ
3 LW
N
108.922 299.236 M
760.078 299.236 L
S
GR
GS
[0.5 0 0 0.5 0 0] CT
0.929 0.694 0.125 RC
1 LJ
3 LW
N
108.922 412.795 M
760.078 412.795 L
S
GR
GS
[0.5 0 0 0.5 0 0] CT
1 GC
N
744 139 M
744 63 L
519 63 L
519 139 L
cp
f
GR
GS
[0.5 0 0 0.5 294.67184 38.70261] CT
/Helvetica 18 F
GS
[1 0 0 1 0 0] CT
0 7.5 moveto 
1 -1 scale
(Shuttling capacitor) t 
GR
GR
GS
[0.5 0 0 0.5 0 0] CT
0 0.447 0.741 RC
1 LJ
3 LW
N
524.987 77.405 M
584.854 77.405 L
S
GR
GS
[0.5 0 0 0.5 294.67184 50.5] CT
/Helvetica 18 F
GS
[1 0 0 1 0 0] CT
0 7.5 moveto 
1 -1 scale
(High cell) t 
GR
GR
GS
[0.5 0 0 0.5 0 0] CT
0.851 0.325 0.098 RC
1 LJ
3 LW
N
524.987 101 M
584.854 101 L
S
GR
GS
[0.5 0 0 0.5 294.67184 62.29739] CT
/Helvetica 18 F
GS
[1 0 0 1 0 0] CT
0 7.5 moveto 
1 -1 scale
(Low cell) t 
GR
GR
GS
[0.5 0 0 0.5 0 0] CT
0.929 0.694 0.125 RC
1 LJ
3 LW
N
524.987 124.595 M
584.854 124.595 L
S
GR
GS
[0.5 0 0 0.5 0 0] CT
0.149 GC
10.0 ML
N
519 139 M
519 63 L
744 63 L
744 139 L
cp
S
GR
%%Trailer
%%Pages: 1
%%EOF
