%!PS-Adobe-3.0 EPSF-3.0
%%Creator: (MATLAB, The Mathworks, Inc. Version 9.4.0.813654 \(R2018a\). Operating System: Windows 10)
%%Title: C:/Users/robbe/OneDrive/VUB/Thesis/OscMeasurements/BALCAP/ALL0001/shuttleSelfDischarge.eps
%%CreationDate: 2019-05-14T18:25:01
%%Pages: (atend)
%%BoundingBox: 0 0 420 315
%%LanguageLevel: 3
%%EndComments
%%BeginProlog
%%BeginResource: procset (Apache XML Graphics Std ProcSet) 1.2 0
%%Version: 1.2 0
%%Copyright: (Copyright 2001-2003,2010 The Apache Software Foundation. License terms: http://www.apache.org/licenses/LICENSE-2.0)
/bd{bind def}bind def
/ld{load def}bd
/GR/grestore ld
/GS/gsave ld
/RM/rmoveto ld
/C/curveto ld
/t/show ld
/L/lineto ld
/ML/setmiterlimit ld
/CT/concat ld
/f/fill ld
/N/newpath ld
/S/stroke ld
/CC/setcmykcolor ld
/A/ashow ld
/cp/closepath ld
/RC/setrgbcolor ld
/LJ/setlinejoin ld
/GC/setgray ld
/LW/setlinewidth ld
/M/moveto ld
/re {4 2 roll M
1 index 0 rlineto
0 exch rlineto
neg 0 rlineto
cp } bd
/_ctm matrix def
/_tm matrix def
/BT { _ctm currentmatrix pop matrix _tm copy pop 0 0 moveto } bd
/ET { _ctm setmatrix } bd
/iTm { _ctm setmatrix _tm concat } bd
/Tm { _tm astore pop iTm 0 0 moveto } bd
/ux 0.0 def
/uy 0.0 def
/F {
  /Tp exch def
  /Tf exch def
  Tf findfont Tp scalefont setfont
  /cf Tf def  /cs Tp def
} bd
/ULS {currentpoint /uy exch def /ux exch def} bd
/ULE {
  /Tcx currentpoint pop def
  gsave
  newpath
  cf findfont cs scalefont dup
  /FontMatrix get 0 get /Ts exch def /FontInfo get dup
  /UnderlinePosition get Ts mul /To exch def
  /UnderlineThickness get Ts mul /Tt exch def
  ux uy To add moveto  Tcx uy To add lineto
  Tt setlinewidth stroke
  grestore
} bd
/OLE {
  /Tcx currentpoint pop def
  gsave
  newpath
  cf findfont cs scalefont dup
  /FontMatrix get 0 get /Ts exch def /FontInfo get dup
  /UnderlinePosition get Ts mul /To exch def
  /UnderlineThickness get Ts mul /Tt exch def
  ux uy To add cs add moveto Tcx uy To add cs add lineto
  Tt setlinewidth stroke
  grestore
} bd
/SOE {
  /Tcx currentpoint pop def
  gsave
  newpath
  cf findfont cs scalefont dup
  /FontMatrix get 0 get /Ts exch def /FontInfo get dup
  /UnderlinePosition get Ts mul /To exch def
  /UnderlineThickness get Ts mul /Tt exch def
  ux uy To add cs 10 mul 26 idiv add moveto Tcx uy To add cs 10 mul 26 idiv add lineto
  Tt setlinewidth stroke
  grestore
} bd
/QT {
/Y22 exch store
/X22 exch store
/Y21 exch store
/X21 exch store
currentpoint
/Y21 load 2 mul add 3 div exch
/X21 load 2 mul add 3 div exch
/X21 load 2 mul /X22 load add 3 div
/Y21 load 2 mul /Y22 load add 3 div
/X22 load /Y22 load curveto
} bd
/SSPD {
dup length /d exch dict def
{
/v exch def
/k exch def
currentpagedevice k known {
/cpdv currentpagedevice k get def
v cpdv ne {
/upd false def
/nullv v type /nulltype eq def
/nullcpdv cpdv type /nulltype eq def
nullv nullcpdv or
{
/upd true def
} {
/sametype v type cpdv type eq def
sametype {
v type /arraytype eq {
/vlen v length def
/cpdvlen cpdv length def
vlen cpdvlen eq {
0 1 vlen 1 sub {
/i exch def
/obj v i get def
/cpdobj cpdv i get def
obj cpdobj ne {
/upd true def
exit
} if
} for
} {
/upd true def
} ifelse
} {
v type /dicttype eq {
v {
/dv exch def
/dk exch def
/cpddv cpdv dk get def
dv cpddv ne {
/upd true def
exit
} if
} forall
} {
/upd true def
} ifelse
} ifelse
} if
} ifelse
upd true eq {
d k v put
} if
} if
} if
} forall
d length 0 gt {
d setpagedevice
} if
} bd
/RE { % /NewFontName [NewEncodingArray] /FontName RE -
  findfont dup length dict begin
  {
    1 index /FID ne
    {def} {pop pop} ifelse
  } forall
  /Encoding exch def
  /FontName 1 index def
  currentdict definefont pop
  end
} bind def
%%EndResource
%%BeginResource: procset (Apache XML Graphics EPS ProcSet) 1.0 0
%%Version: 1.0 0
%%Copyright: (Copyright 2002-2003 The Apache Software Foundation. License terms: http://www.apache.org/licenses/LICENSE-2.0)
/BeginEPSF { %def
/b4_Inc_state save def         % Save state for cleanup
/dict_count countdictstack def % Count objects on dict stack
/op_count count 1 sub def      % Count objects on operand stack
userdict begin                 % Push userdict on dict stack
/showpage { } def              % Redefine showpage, { } = null proc
0 setgray 0 setlinecap         % Prepare graphics state
1 setlinewidth 0 setlinejoin
10 setmiterlimit [ ] 0 setdash newpath
/languagelevel where           % If level not equal to 1 then
{pop languagelevel             % set strokeadjust and
1 ne                           % overprint to their defaults.
{false setstrokeadjust false setoverprint
} if
} if
} bd
/EndEPSF { %def
count op_count sub {pop} repeat            % Clean up stacks
countdictstack dict_count sub {end} repeat
b4_Inc_state restore
} bd
%%EndResource
%FOPBeginFontDict
%%IncludeResource: font Courier-Oblique
%%IncludeResource: font Courier-BoldOblique
%%IncludeResource: font Courier-Bold
%%IncludeResource: font ZapfDingbats
%%IncludeResource: font Symbol
%%IncludeResource: font Helvetica
%%IncludeResource: font Helvetica-Oblique
%%IncludeResource: font Helvetica-Bold
%%IncludeResource: font Helvetica-BoldOblique
%%IncludeResource: font Times-Roman
%%IncludeResource: font Times-Italic
%%IncludeResource: font Times-Bold
%%IncludeResource: font Times-BoldItalic
%%IncludeResource: font Courier
%FOPEndFontDict
%%BeginResource: encoding WinAnsiEncoding
/WinAnsiEncoding [
/.notdef /.notdef /.notdef /.notdef /.notdef
/.notdef /.notdef /.notdef /.notdef /.notdef
/.notdef /.notdef /.notdef /.notdef /.notdef
/.notdef /.notdef /.notdef /.notdef /.notdef
/.notdef /.notdef /.notdef /.notdef /.notdef
/.notdef /.notdef /.notdef /.notdef /.notdef
/.notdef /.notdef /space /exclam /quotedbl
/numbersign /dollar /percent /ampersand /quotesingle
/parenleft /parenright /asterisk /plus /comma
/hyphen /period /slash /zero /one
/two /three /four /five /six
/seven /eight /nine /colon /semicolon
/less /equal /greater /question /at
/A /B /C /D /E
/F /G /H /I /J
/K /L /M /N /O
/P /Q /R /S /T
/U /V /W /X /Y
/Z /bracketleft /backslash /bracketright /asciicircum
/underscore /quoteleft /a /b /c
/d /e /f /g /h
/i /j /k /l /m
/n /o /p /q /r
/s /t /u /v /w
/x /y /z /braceleft /bar
/braceright /asciitilde /bullet /Euro /bullet
/quotesinglbase /florin /quotedblbase /ellipsis /dagger
/daggerdbl /circumflex /perthousand /Scaron /guilsinglleft
/OE /bullet /Zcaron /bullet /bullet
/quoteleft /quoteright /quotedblleft /quotedblright /bullet
/endash /emdash /asciitilde /trademark /scaron
/guilsinglright /oe /bullet /zcaron /Ydieresis
/space /exclamdown /cent /sterling /currency
/yen /brokenbar /section /dieresis /copyright
/ordfeminine /guillemotleft /logicalnot /sfthyphen /registered
/macron /degree /plusminus /twosuperior /threesuperior
/acute /mu /paragraph /middot /cedilla
/onesuperior /ordmasculine /guillemotright /onequarter /onehalf
/threequarters /questiondown /Agrave /Aacute /Acircumflex
/Atilde /Adieresis /Aring /AE /Ccedilla
/Egrave /Eacute /Ecircumflex /Edieresis /Igrave
/Iacute /Icircumflex /Idieresis /Eth /Ntilde
/Ograve /Oacute /Ocircumflex /Otilde /Odieresis
/multiply /Oslash /Ugrave /Uacute /Ucircumflex
/Udieresis /Yacute /Thorn /germandbls /agrave
/aacute /acircumflex /atilde /adieresis /aring
/ae /ccedilla /egrave /eacute /ecircumflex
/edieresis /igrave /iacute /icircumflex /idieresis
/eth /ntilde /ograve /oacute /ocircumflex
/otilde /odieresis /divide /oslash /ugrave
/uacute /ucircumflex /udieresis /yacute /thorn
/ydieresis
] def
%%EndResource
%FOPBeginFontReencode
/Courier-Oblique findfont
dup length dict begin
  {1 index /FID ne {def} {pop pop} ifelse} forall
  /Encoding WinAnsiEncoding def
  currentdict
end
/Courier-Oblique exch definefont pop
/Courier-BoldOblique findfont
dup length dict begin
  {1 index /FID ne {def} {pop pop} ifelse} forall
  /Encoding WinAnsiEncoding def
  currentdict
end
/Courier-BoldOblique exch definefont pop
/Courier-Bold findfont
dup length dict begin
  {1 index /FID ne {def} {pop pop} ifelse} forall
  /Encoding WinAnsiEncoding def
  currentdict
end
/Courier-Bold exch definefont pop
/Helvetica findfont
dup length dict begin
  {1 index /FID ne {def} {pop pop} ifelse} forall
  /Encoding WinAnsiEncoding def
  currentdict
end
/Helvetica exch definefont pop
/Helvetica-Oblique findfont
dup length dict begin
  {1 index /FID ne {def} {pop pop} ifelse} forall
  /Encoding WinAnsiEncoding def
  currentdict
end
/Helvetica-Oblique exch definefont pop
/Helvetica-Bold findfont
dup length dict begin
  {1 index /FID ne {def} {pop pop} ifelse} forall
  /Encoding WinAnsiEncoding def
  currentdict
end
/Helvetica-Bold exch definefont pop
/Helvetica-BoldOblique findfont
dup length dict begin
  {1 index /FID ne {def} {pop pop} ifelse} forall
  /Encoding WinAnsiEncoding def
  currentdict
end
/Helvetica-BoldOblique exch definefont pop
/Times-Roman findfont
dup length dict begin
  {1 index /FID ne {def} {pop pop} ifelse} forall
  /Encoding WinAnsiEncoding def
  currentdict
end
/Times-Roman exch definefont pop
/Times-Italic findfont
dup length dict begin
  {1 index /FID ne {def} {pop pop} ifelse} forall
  /Encoding WinAnsiEncoding def
  currentdict
end
/Times-Italic exch definefont pop
/Times-Bold findfont
dup length dict begin
  {1 index /FID ne {def} {pop pop} ifelse} forall
  /Encoding WinAnsiEncoding def
  currentdict
end
/Times-Bold exch definefont pop
/Times-BoldItalic findfont
dup length dict begin
  {1 index /FID ne {def} {pop pop} ifelse} forall
  /Encoding WinAnsiEncoding def
  currentdict
end
/Times-BoldItalic exch definefont pop
/Courier findfont
dup length dict begin
  {1 index /FID ne {def} {pop pop} ifelse} forall
  /Encoding WinAnsiEncoding def
  currentdict
end
/Courier exch definefont pop
%FOPEndFontReencode
%%EndProlog
%%Page: 1 1
%%PageBoundingBox: 0 0 420 315
%%BeginPageSetup
[1 0 0 -1 0 315] CT
%%EndPageSetup
GS
[0.5 0 0 0.5 0 0] CT
1 GC
N
0 0 840 630 re
f
GR
GS
[0.5 0 0 0.5 0 0] CT
1 GC
N
0 0 840 630 re
f
GR
GS
[0.5 0 0 0.5 0 0] CT
1 GC
N
109 561 M
760 561 L
760 47 L
109 47 L
cp
f
GR
GS
[0.5 0 0 0.5 0 0] CT
0.149 GC
2 setlinecap
1 LJ
N
109 561 M
760 561 L
S
GR
GS
[0.5 0 0 0.5 0 0] CT
0.149 GC
2 setlinecap
1 LJ
N
109 47 M
760 47 L
S
GR
GS
[0.5 0 0 0.5 0 0] CT
0.149 GC
2 setlinecap
1 LJ
N
145.063 561 M
145.063 554.49 L
S
GR
GS
[0.5 0 0 0.5 0 0] CT
0.149 GC
2 setlinecap
1 LJ
N
234.515 561 M
234.515 554.49 L
S
GR
GS
[0.5 0 0 0.5 0 0] CT
0.149 GC
2 setlinecap
1 LJ
N
323.967 561 M
323.967 554.49 L
S
GR
GS
[0.5 0 0 0.5 0 0] CT
0.149 GC
2 setlinecap
1 LJ
N
413.42 561 M
413.42 554.49 L
S
GR
GS
[0.5 0 0 0.5 0 0] CT
0.149 GC
2 setlinecap
1 LJ
N
502.872 561 M
502.872 554.49 L
S
GR
GS
[0.5 0 0 0.5 0 0] CT
0.149 GC
2 setlinecap
1 LJ
N
592.324 561 M
592.324 554.49 L
S
GR
GS
[0.5 0 0 0.5 0 0] CT
0.149 GC
2 setlinecap
1 LJ
N
681.776 561 M
681.776 554.49 L
S
GR
GS
[0.5 0 0 0.5 0 0] CT
0.149 GC
2 setlinecap
1 LJ
N
145.063 47 M
145.063 53.51 L
S
GR
GS
[0.5 0 0 0.5 0 0] CT
0.149 GC
2 setlinecap
1 LJ
N
234.515 47 M
234.515 53.51 L
S
GR
GS
[0.5 0 0 0.5 0 0] CT
0.149 GC
2 setlinecap
1 LJ
N
323.967 47 M
323.967 53.51 L
S
GR
GS
[0.5 0 0 0.5 0 0] CT
0.149 GC
2 setlinecap
1 LJ
N
413.42 47 M
413.42 53.51 L
S
GR
GS
[0.5 0 0 0.5 0 0] CT
0.149 GC
2 setlinecap
1 LJ
N
502.872 47 M
502.872 53.51 L
S
GR
GS
[0.5 0 0 0.5 0 0] CT
0.149 GC
2 setlinecap
1 LJ
N
592.324 47 M
592.324 53.51 L
S
GR
GS
[0.5 0 0 0.5 0 0] CT
0.149 GC
2 setlinecap
1 LJ
N
681.776 47 M
681.776 53.51 L
S
GR
GS
[0.5 0 0 0.5 72.53141 284.5] CT
0.149 GC
/Helvetica 20 F
GS
[1 0 0 1 0 0] CT
-6 21 moveto 
1 -1 scale
(0) t 
GR
GR
GS
[0.5 0 0 0.5 117.25755 284.5] CT
0.149 GC
/Helvetica 20 F
GS
[1 0 0 1 0 0] CT
-14 21 moveto 
1 -1 scale
(0.5) t 
GR
GR
GS
[0.5 0 0 0.5 161.98369 284.5] CT
0.149 GC
/Helvetica 20 F
GS
[1 0 0 1 0 0] CT
-6 21 moveto 
1 -1 scale
(1) t 
GR
GR
GS
[0.5 0 0 0.5 206.70984 284.5] CT
0.149 GC
/Helvetica 20 F
GS
[1 0 0 1 0 0] CT
-14 21 moveto 
1 -1 scale
(1.5) t 
GR
GR
GS
[0.5 0 0 0.5 251.43597 284.5] CT
0.149 GC
/Helvetica 20 F
GS
[1 0 0 1 0 0] CT
-6 21 moveto 
1 -1 scale
(2) t 
GR
GR
GS
[0.5 0 0 0.5 296.16211 284.5] CT
0.149 GC
/Helvetica 20 F
GS
[1 0 0 1 0 0] CT
-14 21 moveto 
1 -1 scale
(2.5) t 
GR
GR
GS
[0.5 0 0 0.5 340.88824 284.5] CT
0.149 GC
/Helvetica 20 F
GS
[1 0 0 1 0 0] CT
-6 21 moveto 
1 -1 scale
(3) t 
GR
GR
GS
[0.5 0 0 0.5 217.25015 298.5] CT
0.149 GC
/Helvetica 22 F
GS
[1 0 0 1 0 0] CT
-40.5 23 moveto 
1 -1 scale
(Time \(s\)) t 
GR
GR
GS
[0.5 0 0 0.5 0 0] CT
0.149 GC
2 setlinecap
1 LJ
N
109 561 M
109 47 L
S
GR
GS
[0.5 0 0 0.5 0 0] CT
0.149 GC
2 setlinecap
1 LJ
N
760 561 M
760 47 L
S
GR
GS
[0.5 0 0 0.5 0 0] CT
0.149 GC
2 setlinecap
1 LJ
N
109 555.98 M
115.51 555.98 L
S
GR
GS
[0.5 0 0 0.5 0 0] CT
0.149 GC
2 setlinecap
1 LJ
N
109 496.562 M
115.51 496.562 L
S
GR
GS
[0.5 0 0 0.5 0 0] CT
0.149 GC
2 setlinecap
1 LJ
N
109 437.143 M
115.51 437.143 L
S
GR
GS
[0.5 0 0 0.5 0 0] CT
0.149 GC
2 setlinecap
1 LJ
N
109 377.725 M
115.51 377.725 L
S
GR
GS
[0.5 0 0 0.5 0 0] CT
0.149 GC
2 setlinecap
1 LJ
N
109 318.306 M
115.51 318.306 L
S
GR
GS
[0.5 0 0 0.5 0 0] CT
0.149 GC
2 setlinecap
1 LJ
N
109 258.887 M
115.51 258.887 L
S
GR
GS
[0.5 0 0 0.5 0 0] CT
0.149 GC
2 setlinecap
1 LJ
N
109 199.469 M
115.51 199.469 L
S
GR
GS
[0.5 0 0 0.5 0 0] CT
0.149 GC
2 setlinecap
1 LJ
N
109 140.05 M
115.51 140.05 L
S
GR
GS
[0.5 0 0 0.5 0 0] CT
0.149 GC
2 setlinecap
1 LJ
N
109 80.631 M
115.51 80.631 L
S
GR
GS
[0.5 0 0 0.5 0 0] CT
0.149 GC
2 setlinecap
1 LJ
N
760 555.98 M
753.49 555.98 L
S
GR
GS
[0.5 0 0 0.5 0 0] CT
0.149 GC
2 setlinecap
1 LJ
N
760 496.562 M
753.49 496.562 L
S
GR
GS
[0.5 0 0 0.5 0 0] CT
0.149 GC
2 setlinecap
1 LJ
N
760 437.143 M
753.49 437.143 L
S
GR
GS
[0.5 0 0 0.5 0 0] CT
0.149 GC
2 setlinecap
1 LJ
N
760 377.725 M
753.49 377.725 L
S
GR
GS
[0.5 0 0 0.5 0 0] CT
0.149 GC
2 setlinecap
1 LJ
N
760 318.306 M
753.49 318.306 L
S
GR
GS
[0.5 0 0 0.5 0 0] CT
0.149 GC
2 setlinecap
1 LJ
N
760 258.887 M
753.49 258.887 L
S
GR
GS
[0.5 0 0 0.5 0 0] CT
0.149 GC
2 setlinecap
1 LJ
N
760 199.469 M
753.49 199.469 L
S
GR
GS
[0.5 0 0 0.5 0 0] CT
0.149 GC
2 setlinecap
1 LJ
N
760 140.05 M
753.49 140.05 L
S
GR
GS
[0.5 0 0 0.5 0 0] CT
0.149 GC
2 setlinecap
1 LJ
N
760 80.631 M
753.49 80.631 L
S
GR
GS
[0.5 0 0 0.5 50.5 277.9902] CT
0.149 GC
/Helvetica 20 F
GS
[1 0 0 1 0 0] CT
-12 8 moveto 
1 -1 scale
(0) t 
GR
GR
GS
[0.5 0 0 0.5 50.5 248.28088] CT
0.149 GC
/Helvetica 20 F
GS
[1 0 0 1 0 0] CT
-28 8 moveto 
1 -1 scale
(0.5) t 
GR
GR
GS
[0.5 0 0 0.5 50.5 218.57156] CT
0.149 GC
/Helvetica 20 F
GS
[1 0 0 1 0 0] CT
-12 8 moveto 
1 -1 scale
(1) t 
GR
GR
GS
[0.5 0 0 0.5 50.5 188.86226] CT
0.149 GC
/Helvetica 20 F
GS
[1 0 0 1 0 0] CT
-28 8 moveto 
1 -1 scale
(1.5) t 
GR
GR
GS
[0.5 0 0 0.5 50.5 159.15294] CT
0.149 GC
/Helvetica 20 F
GS
[1 0 0 1 0 0] CT
-12 8 moveto 
1 -1 scale
(2) t 
GR
GR
GS
[0.5 0 0 0.5 50.5 129.44363] CT
0.149 GC
/Helvetica 20 F
GS
[1 0 0 1 0 0] CT
-28 8 moveto 
1 -1 scale
(2.5) t 
GR
GR
GS
[0.5 0 0 0.5 50.5 99.73432] CT
0.149 GC
/Helvetica 20 F
GS
[1 0 0 1 0 0] CT
-12 8 moveto 
1 -1 scale
(3) t 
GR
GR
GS
[0.5 0 0 0.5 50.5 70.02501] CT
0.149 GC
/Helvetica 20 F
GS
[1 0 0 1 0 0] CT
-28 8 moveto 
1 -1 scale
(3.5) t 
GR
GR
GS
[0.5 0 0 0.5 50.5 40.3157] CT
0.149 GC
/Helvetica 20 F
GS
[1 0 0 1 0 0] CT
-12 8 moveto 
1 -1 scale
(4) t 
GR
GR
GS
[0 -0.5 0.5 0 33.5 151.99988] CT
0.149 GC
/Helvetica 22 F
GS
[1 0 0 1 0 0] CT
-55.5 -5 moveto 
1 -1 scale
(Voltage \(V\)) t 
GR
GR
GS
[0.5 0 0 0.5 217.25021 22.12501] CT
/Helvetica-Bold 22 F
GS
[1 0 0 1 0 0] CT
-191 -5 moveto 
1 -1 scale
(Self-discharge of shuttling capacitor) t 
GR
GR
GS
[0.5 0 0 0.5 0 0] CT
0 0.447 0.741 RC
1 LJ
3 LW
N
108.922 546.473 M
109.282 546.473 L
109.998 541.72 L
110.713 546.473 L
111.429 546.473 L
112.144 546.473 L
112.86 546.473 L
113.576 546.473 L
114.291 541.72 L
115.007 546.473 L
115.722 546.473 L
116.438 546.473 L
117.154 546.473 L
117.869 546.473 L
118.585 546.473 L
119.301 541.72 L
120.016 546.473 L
120.732 546.473 L
121.447 541.72 L
122.163 541.72 L
122.879 546.473 L
123.594 546.473 L
124.31 541.72 L
125.026 546.473 L
125.741 546.473 L
126.457 546.473 L
127.172 546.473 L
127.888 546.473 L
128.604 546.473 L
129.319 541.72 L
130.035 546.473 L
130.75 546.473 L
131.466 546.473 L
132.182 546.473 L
132.897 541.72 L
133.613 546.473 L
134.329 546.473 L
135.044 546.473 L
135.76 546.473 L
136.475 546.473 L
137.191 541.72 L
137.907 546.473 L
138.622 546.473 L
139.338 541.72 L
140.053 546.473 L
140.769 546.473 L
141.485 541.72 L
142.2 541.72 L
142.916 541.72 L
143.632 546.473 L
144.347 546.473 L
145.063 546.473 L
145.778 71.124 L
146.494 85.385 L
147.21 94.892 L
147.925 104.399 L
148.641 113.906 L
149.357 123.413 L
150.072 132.92 L
150.788 137.673 L
151.503 147.18 L
152.219 161.441 L
152.935 161.441 L
153.65 166.194 L
154.366 175.701 L
155.081 185.208 L
155.797 189.962 L
156.513 194.715 L
157.228 199.469 L
157.944 204.222 L
158.66 208.976 L
159.375 213.729 L
160.091 218.483 L
160.806 223.236 L
161.522 227.99 L
162.238 232.743 L
162.953 232.743 L
163.669 242.25 L
164.385 242.25 L
165.1 247.004 L
165.816 251.757 L
166.531 251.757 L
167.247 256.511 L
167.963 261.264 L
168.678 266.017 L
169.394 266.017 L
170.109 270.771 L
170.825 275.525 L
171.541 275.525 L
172.256 280.278 L
172.972 285.031 L
173.688 285.031 L
174.403 289.785 L
175.119 289.785 L
175.834 294.538 L
176.55 294.538 L
177.266 299.292 L
177.981 299.292 L
178.697 299.292 L
179.412 304.045 L
180.128 308.799 L
180.844 304.045 L
181.559 313.552 L
182.275 313.552 L
182.991 313.552 L
183.706 313.552 L
184.422 318.306 L
185.137 318.306 L
185.853 323.059 L
186.569 323.059 L
187.284 327.813 L
188 327.813 L
188.716 327.813 L
189.431 327.813 L
190.147 327.813 L
190.862 332.566 L
191.578 332.566 L
192.294 332.566 L
193.009 337.32 L
193.725 332.566 L
194.44 337.32 L
195.156 342.073 L
195.872 342.073 L
196.587 346.827 L
197.303 346.827 L
198.019 346.827 L
198.734 346.827 L
199.45 346.827 L
200.165 346.827 L
200.881 346.827 L
201.597 351.58 L
202.312 351.58 L
203.028 351.58 L
203.744 356.334 L
204.459 356.334 L
205.175 351.58 L
205.89 356.334 L
206.606 356.334 L
207.322 361.087 L
208.037 361.087 L
208.753 361.087 L
209.468 361.087 L
210.184 365.841 L
210.9 361.087 L
211.615 365.841 L
212.331 365.841 L
213.047 365.841 L
213.762 365.841 L
214.478 365.841 L
215.193 365.841 L
215.909 370.594 L
216.625 370.594 L
217.34 375.348 L
218.056 370.594 L
218.771 370.594 L
219.487 370.594 L
220.203 375.348 L
220.918 375.348 L
221.634 375.348 L
222.35 380.101 L
223.065 380.101 L
223.781 380.101 L
224.496 380.101 L
225.212 380.101 L
225.928 380.101 L
226.643 384.855 L
227.359 380.101 L
228.075 380.101 L
228.79 384.855 L
229.506 380.101 L
230.221 384.855 L
230.937 384.855 L
231.653 384.855 L
232.368 384.855 L
233.084 384.855 L
233.799 384.855 L
234.515 389.608 L
235.231 389.608 L
235.946 389.608 L
236.662 389.608 L
237.378 389.608 L
238.093 389.608 L
238.809 389.608 L
239.524 389.608 L
240.24 389.608 L
240.956 389.608 L
241.671 389.608 L
242.387 394.362 L
243.103 389.608 L
243.818 394.362 L
244.534 389.608 L
245.249 394.362 L
245.965 394.362 L
246.681 394.362 L
247.396 394.362 L
248.112 399.115 L
248.827 399.115 L
249.543 399.115 L
250.259 399.115 L
250.974 394.362 L
251.69 399.115 L
252.406 399.115 L
253.121 403.869 L
253.837 399.115 L
254.552 399.115 L
255.268 403.869 L
255.984 399.115 L
256.699 403.869 L
257.415 403.869 L
258.13 408.622 L
258.846 403.869 L
259.562 403.869 L
260.277 408.622 L
260.993 408.622 L
261.709 403.869 L
262.424 408.622 L
263.14 408.622 L
263.855 408.622 L
264.571 403.869 L
265.287 408.622 L
266.002 408.622 L
266.718 408.622 L
267.434 408.622 L
268.149 408.622 L
268.865 408.622 L
269.58 413.376 L
270.296 408.622 L
271.012 413.376 L
271.727 408.622 L
272.443 413.376 L
273.158 413.376 L
273.874 413.376 L
274.59 413.376 L
275.305 413.376 L
276.021 418.129 L
276.737 413.376 L
277.452 413.376 L
278.168 418.129 L
278.883 418.129 L
279.599 418.129 L
280.315 418.129 L
281.03 418.129 L
281.746 418.129 L
282.462 418.129 L
283.177 418.129 L
283.893 422.883 L
284.608 422.883 L
285.324 422.883 L
286.04 418.129 L
286.755 422.883 L
287.471 422.883 L
288.186 422.883 L
288.902 422.883 L
289.618 422.883 L
290.333 422.883 L
291.049 422.883 L
291.765 422.883 L
292.48 422.883 L
293.196 422.883 L
293.911 427.636 L
294.627 427.636 L
295.343 427.636 L
296.058 427.636 L
296.774 427.636 L
297.49 427.636 L
298.205 432.39 L
298.921 427.636 L
299.636 427.636 L
300.352 427.636 L
301.068 427.636 L
301.783 432.39 L
302.499 427.636 L
303.214 432.39 L
303.93 427.636 L
304.646 432.39 L
305.361 432.39 L
306.077 432.39 L
306.793 432.39 L
307.508 432.39 L
308.224 432.39 L
308.939 432.39 L
309.655 432.39 L
310.371 432.39 L
311.086 432.39 L
311.802 437.143 L
312.517 432.39 L
313.233 437.143 L
313.949 432.39 L
314.664 437.143 L
315.38 437.143 L
316.096 437.143 L
316.811 437.143 L
317.527 437.143 L
318.242 437.143 L
318.958 437.143 L
319.674 437.143 L
320.389 437.143 L
321.105 437.143 L
321.821 437.143 L
322.536 441.897 L
323.252 437.143 L
323.967 437.143 L
324.683 441.897 L
325.399 441.897 L
326.114 441.897 L
326.83 441.897 L
327.545 441.897 L
328.261 446.65 L
328.977 441.897 L
329.692 441.897 L
330.408 441.897 L
331.124 446.65 L
331.839 446.65 L
332.555 446.65 L
333.27 446.65 L
333.986 441.897 L
334.702 446.65 L
335.417 446.65 L
336.133 446.65 L
336.849 446.65 L
337.564 446.65 L
338.28 441.897 L
338.995 446.65 L
339.711 446.65 L
340.427 446.65 L
341.142 451.404 L
341.858 451.404 L
342.573 451.404 L
343.289 451.404 L
344.005 451.404 L
344.72 451.404 L
345.436 451.404 L
346.152 451.404 L
346.867 451.404 L
347.583 451.404 L
348.298 451.404 L
349.014 456.157 L
349.73 451.404 L
350.445 456.157 L
351.161 456.157 L
351.876 451.404 L
352.592 456.157 L
353.308 456.157 L
354.023 456.157 L
354.739 456.157 L
355.455 456.157 L
356.17 456.157 L
356.886 456.157 L
357.601 456.157 L
358.317 456.157 L
359.033 460.911 L
359.748 456.157 L
360.464 460.911 L
361.18 460.911 L
361.895 460.911 L
362.611 460.911 L
363.326 460.911 L
364.042 456.157 L
364.758 460.911 L
365.473 460.911 L
366.189 460.911 L
366.904 460.911 L
367.62 460.911 L
368.336 460.911 L
369.051 460.911 L
369.767 460.911 L
370.483 465.664 L
371.198 460.911 L
371.914 465.664 L
372.629 465.664 L
373.345 465.664 L
374.061 465.664 L
374.776 470.418 L
375.492 470.418 L
376.208 465.664 L
376.923 470.418 L
377.639 465.664 L
378.354 465.664 L
379.07 470.418 L
379.786 470.418 L
380.501 465.664 L
381.217 470.418 L
381.932 465.664 L
382.648 465.664 L
383.364 475.171 L
384.079 470.418 L
384.795 470.418 L
385.511 470.418 L
386.226 470.418 L
386.942 470.418 L
387.657 475.171 L
388.373 470.418 L
389.089 470.418 L
389.804 470.418 L
390.52 470.418 L
391.236 475.171 L
391.951 470.418 L
392.667 475.171 L
393.382 470.418 L
394.098 475.171 L
394.814 475.171 L
395.529 475.171 L
396.245 475.171 L
396.96 479.925 L
397.676 475.171 L
398.392 475.171 L
399.107 479.925 L
399.823 475.171 L
400.539 479.925 L
401.254 479.925 L
401.97 479.925 L
402.685 479.925 L
403.401 479.925 L
404.117 475.171 L
404.832 479.925 L
405.548 479.925 L
406.263 479.925 L
406.979 479.925 L
407.695 479.925 L
408.41 479.925 L
409.126 484.678 L
409.842 479.925 L
410.557 484.678 L
411.273 484.678 L
411.988 484.678 L
412.704 484.678 L
413.42 479.925 L
414.135 479.925 L
414.851 484.678 L
415.566 484.678 L
416.282 479.925 L
416.998 484.678 L
417.713 484.678 L
418.429 484.678 L
419.145 484.678 L
419.86 484.678 L
420.576 484.678 L
421.291 484.678 L
422.007 484.678 L
422.723 484.678 L
423.438 484.678 L
424.154 484.678 L
424.87 484.678 L
425.585 489.432 L
426.301 484.678 L
427.016 489.432 L
427.732 489.432 L
428.448 484.678 L
429.163 489.432 L
429.879 489.432 L
430.594 489.432 L
431.31 489.432 L
432.026 489.432 L
432.741 489.432 L
433.457 489.432 L
434.173 489.432 L
434.888 489.432 L
435.604 494.185 L
436.319 489.432 L
437.035 494.185 L
437.751 489.432 L
438.466 494.185 L
439.182 494.185 L
439.898 494.185 L
440.613 494.185 L
441.329 494.185 L
442.044 494.185 L
442.76 494.185 L
443.476 494.185 L
444.191 494.185 L
444.907 494.185 L
445.622 498.939 L
446.338 494.185 L
447.054 494.185 L
447.769 494.185 L
448.485 494.185 L
449.201 498.939 L
449.916 498.939 L
450.632 494.185 L
451.347 498.939 L
452.063 498.939 L
452.779 494.185 L
453.494 498.939 L
454.21 498.939 L
454.926 498.939 L
455.641 498.939 L
456.357 498.939 L
457.072 498.939 L
457.788 498.939 L
458.504 498.939 L
459.219 498.939 L
459.935 503.692 L
460.65 498.939 L
461.366 498.939 L
462.082 503.692 L
462.797 503.692 L
463.513 503.692 L
464.229 503.692 L
464.944 503.692 L
465.66 503.692 L
466.375 503.692 L
467.091 503.692 L
467.807 503.692 L
468.522 503.692 L
469.238 503.692 L
469.953 503.692 L
470.669 503.692 L
471.385 508.445 L
472.1 508.445 L
472.816 508.445 L
473.532 508.445 L
474.247 503.692 L
474.963 508.445 L
475.678 503.692 L
476.394 503.692 L
477.11 508.445 L
477.825 508.445 L
478.541 508.445 L
479.257 508.445 L
479.972 508.445 L
480.688 508.445 L
481.403 508.445 L
482.119 513.199 L
482.835 508.445 L
483.55 508.445 L
484.266 513.199 L
484.981 508.445 L
485.697 513.199 L
486.413 513.199 L
487.128 513.199 L
487.844 513.199 L
488.56 513.199 L
489.275 513.199 L
489.991 513.199 L
490.706 513.199 L
491.422 513.199 L
492.138 513.199 L
492.853 513.199 L
493.569 513.199 L
494.285 513.199 L
495 513.199 L
495.716 513.199 L
496.431 517.952 L
497.147 513.199 L
497.863 513.199 L
498.578 513.199 L
499.294 513.199 L
500.009 517.952 L
500.725 517.952 L
501.441 517.952 L
502.156 513.199 L
502.872 517.952 L
503.588 517.952 L
504.303 517.952 L
505.019 517.952 L
505.734 517.952 L
506.45 517.952 L
507.166 517.952 L
507.881 517.952 L
508.597 522.706 L
509.313 517.952 L
510.028 517.952 L
510.744 517.952 L
511.459 517.952 L
512.175 517.952 L
512.891 522.706 L
513.606 522.706 L
514.322 517.952 L
515.037 517.952 L
515.753 522.706 L
516.469 522.706 L
517.184 522.706 L
517.9 522.706 L
518.616 522.706 L
519.331 522.706 L
520.047 522.706 L
520.762 522.706 L
521.478 522.706 L
522.194 522.706 L
522.909 522.706 L
523.625 522.706 L
524.34 527.459 L
525.056 522.706 L
525.772 522.706 L
526.487 527.459 L
527.203 522.706 L
527.919 522.706 L
528.634 527.459 L
529.35 527.459 L
530.065 527.459 L
530.781 527.459 L
531.497 527.459 L
532.212 527.459 L
532.928 527.459 L
533.643 527.459 L
534.359 527.459 L
535.075 527.459 L
535.79 527.459 L
536.506 527.459 L
537.222 527.459 L
537.937 527.459 L
538.653 527.459 L
539.368 527.459 L
540.084 527.459 L
540.8 527.459 L
541.515 527.459 L
542.231 527.459 L
542.947 527.459 L
543.662 532.213 L
544.378 527.459 L
545.093 532.213 L
545.809 527.459 L
546.525 527.459 L
547.24 532.213 L
547.956 527.459 L
548.672 532.213 L
549.387 532.213 L
550.103 532.213 L
550.818 532.213 L
551.534 532.213 L
552.25 532.213 L
552.965 532.213 L
553.681 532.213 L
554.396 532.213 L
555.112 536.966 L
555.828 532.213 L
556.543 532.213 L
557.259 532.213 L
557.975 532.213 L
558.69 532.213 L
559.406 532.213 L
560.121 532.213 L
560.837 532.213 L
561.553 532.213 L
562.268 532.213 L
562.984 532.213 L
563.699 536.966 L
564.415 536.966 L
565.131 532.213 L
565.846 532.213 L
566.562 532.213 L
567.278 536.966 L
567.993 536.966 L
568.709 532.213 L
569.424 536.966 L
570.14 532.213 L
570.856 532.213 L
571.571 536.966 L
572.287 536.966 L
573.003 536.966 L
573.718 536.966 L
574.434 536.966 L
575.149 532.213 L
575.865 536.966 L
576.581 536.966 L
577.296 536.966 L
578.012 536.966 L
578.727 536.966 L
579.443 536.966 L
580.159 536.966 L
580.874 536.966 L
581.59 536.966 L
582.306 536.966 L
583.021 536.966 L
583.737 536.966 L
584.452 536.966 L
585.168 536.966 L
585.884 536.966 L
586.599 536.966 L
587.315 536.966 L
588.031 536.966 L
588.746 536.966 L
589.462 536.966 L
590.177 536.966 L
590.893 536.966 L
591.609 536.966 L
592.324 536.966 L
593.04 536.966 L
593.755 536.966 L
594.471 536.966 L
595.187 536.966 L
595.902 541.72 L
596.618 536.966 L
597.334 536.966 L
598.049 541.72 L
598.765 541.72 L
599.48 541.72 L
600.196 536.966 L
600.912 536.966 L
601.627 536.966 L
602.343 536.966 L
603.058 541.72 L
603.774 541.72 L
604.49 541.72 L
605.205 536.966 L
605.921 541.72 L
606.637 541.72 L
607.352 536.966 L
608.068 541.72 L
608.783 536.966 L
609.499 536.966 L
610.215 541.72 L
610.93 536.966 L
611.646 541.72 L
612.362 541.72 L
613.077 536.966 L
613.793 541.72 L
614.508 541.72 L
615.224 541.72 L
615.94 541.72 L
616.655 541.72 L
617.371 541.72 L
618.086 541.72 L
618.802 536.966 L
619.518 541.72 L
620.233 541.72 L
620.949 541.72 L
621.665 541.72 L
622.38 541.72 L
623.096 541.72 L
623.811 541.72 L
624.527 541.72 L
625.243 541.72 L
625.958 541.72 L
626.674 541.72 L
627.39 541.72 L
628.105 541.72 L
628.821 541.72 L
629.536 541.72 L
630.252 541.72 L
630.968 541.72 L
631.683 546.473 L
632.399 536.966 L
633.114 541.72 L
633.83 541.72 L
634.546 546.473 L
635.261 536.966 L
635.977 541.72 L
636.693 541.72 L
637.408 541.72 L
638.124 541.72 L
638.839 541.72 L
639.555 541.72 L
640.271 536.966 L
640.986 541.72 L
641.702 546.473 L
642.417 541.72 L
643.133 541.72 L
643.849 541.72 L
644.564 541.72 L
645.28 541.72 L
645.996 541.72 L
646.711 541.72 L
647.427 541.72 L
648.142 541.72 L
648.858 541.72 L
649.574 546.473 L
650.289 541.72 L
651.005 541.72 L
651.721 546.473 L
652.436 541.72 L
653.152 541.72 L
653.867 541.72 L
654.583 541.72 L
655.299 541.72 L
656.014 541.72 L
656.73 546.473 L
657.445 541.72 L
658.161 541.72 L
658.877 541.72 L
659.592 541.72 L
660.308 541.72 L
661.024 546.473 L
661.739 541.72 L
662.455 541.72 L
663.17 541.72 L
663.886 541.72 L
664.602 541.72 L
665.317 546.473 L
666.033 541.72 L
666.748 546.473 L
667.464 546.473 L
668.18 541.72 L
668.895 546.473 L
669.611 546.473 L
670.327 541.72 L
671.042 541.72 L
671.758 541.72 L
672.473 541.72 L
673.189 541.72 L
673.905 541.72 L
674.62 541.72 L
675.336 541.72 L
676.052 541.72 L
676.767 546.473 L
677.483 546.473 L
678.198 541.72 L
678.914 541.72 L
679.63 541.72 L
680.345 541.72 L
681.061 541.72 L
681.776 541.72 L
682.492 546.473 L
683.208 546.473 L
683.923 546.473 L
684.639 541.72 L
685.355 541.72 L
686.07 541.72 L
686.786 546.473 L
687.501 546.473 L
688.217 541.72 L
688.933 546.473 L
689.648 541.72 L
690.364 541.72 L
691.08 546.473 L
691.795 546.473 L
692.511 541.72 L
693.226 541.72 L
693.942 546.473 L
694.658 546.473 L
695.373 546.473 L
696.089 541.72 L
696.805 541.72 L
697.52 546.473 L
698.236 546.473 L
698.951 541.72 L
699.667 546.473 L
700.383 541.72 L
701.098 541.72 L
701.814 541.72 L
702.529 541.72 L
703.245 541.72 L
703.961 546.473 L
704.676 541.72 L
705.392 541.72 L
706.107 546.473 L
706.823 541.72 L
707.539 541.72 L
708.254 546.473 L
708.97 546.473 L
709.686 546.473 L
710.401 541.72 L
711.117 541.72 L
711.832 546.473 L
712.548 546.473 L
713.264 541.72 L
713.979 541.72 L
714.695 541.72 L
715.411 546.473 L
716.126 546.473 L
716.842 546.473 L
717.557 546.473 L
718.273 546.473 L
718.989 546.473 L
719.704 546.473 L
720.42 546.473 L
721.135 541.72 L
721.851 546.473 L
722.567 541.72 L
723.282 541.72 L
723.998 541.72 L
724.714 541.72 L
725.429 541.72 L
726.145 546.473 L
726.86 546.473 L
727.576 546.473 L
728.292 546.473 L
729.007 546.473 L
729.723 541.72 L
730.439 541.72 L
731.154 546.473 L
731.87 546.473 L
732.585 541.72 L
733.301 541.72 L
734.017 541.72 L
734.732 541.72 L
735.448 546.473 L
736.163 541.72 L
736.879 541.72 L
737.595 541.72 L
738.31 541.72 L
739.026 546.473 L
739.742 541.72 L
740.457 546.473 L
741.173 546.473 L
741.888 546.473 L
742.604 546.473 L
743.32 546.473 L
744.035 541.72 L
744.751 546.473 L
745.466 546.473 L
746.182 541.72 L
746.898 546.473 L
747.613 546.473 L
748.329 546.473 L
749.045 541.72 L
749.76 546.473 L
750.476 541.72 L
751.191 541.72 L
751.907 541.72 L
752.623 546.473 L
753.338 546.473 L
754.054 541.72 L
754.77 541.72 L
755.485 546.473 L
756.201 546.473 L
756.916 541.72 L
757.632 541.72 L
758.348 546.473 L
759.063 541.72 L
759.779 546.473 L
760.078 544.489 L
S
GR
%%Trailer
%%Pages: 1
%%EOF
