%!PS-Adobe-3.0 EPSF-3.0
%%Creator: (MATLAB, The Mathworks, Inc. Version 9.4.0.813654 \(R2018a\). Operating System: Windows 10)
%%Title: C:/Users/robbe/OneDrive/VUB/Thesis/Thesis/StepIdentificationExampleEOC.eps
%%CreationDate: 2019-06-02T03:52:53
%%Pages: (atend)
%%BoundingBox: 0 0 420 315
%%LanguageLevel: 3
%%EndComments
%%BeginProlog
%%BeginResource: procset (Apache XML Graphics Std ProcSet) 1.2 0
%%Version: 1.2 0
%%Copyright: (Copyright 2001-2003,2010 The Apache Software Foundation. License terms: http://www.apache.org/licenses/LICENSE-2.0)
/bd{bind def}bind def
/ld{load def}bd
/GR/grestore ld
/GS/gsave ld
/RM/rmoveto ld
/C/curveto ld
/t/show ld
/L/lineto ld
/ML/setmiterlimit ld
/CT/concat ld
/f/fill ld
/N/newpath ld
/S/stroke ld
/CC/setcmykcolor ld
/A/ashow ld
/cp/closepath ld
/RC/setrgbcolor ld
/LJ/setlinejoin ld
/GC/setgray ld
/LW/setlinewidth ld
/M/moveto ld
/re {4 2 roll M
1 index 0 rlineto
0 exch rlineto
neg 0 rlineto
cp } bd
/_ctm matrix def
/_tm matrix def
/BT { _ctm currentmatrix pop matrix _tm copy pop 0 0 moveto } bd
/ET { _ctm setmatrix } bd
/iTm { _ctm setmatrix _tm concat } bd
/Tm { _tm astore pop iTm 0 0 moveto } bd
/ux 0.0 def
/uy 0.0 def
/F {
  /Tp exch def
  /Tf exch def
  Tf findfont Tp scalefont setfont
  /cf Tf def  /cs Tp def
} bd
/ULS {currentpoint /uy exch def /ux exch def} bd
/ULE {
  /Tcx currentpoint pop def
  gsave
  newpath
  cf findfont cs scalefont dup
  /FontMatrix get 0 get /Ts exch def /FontInfo get dup
  /UnderlinePosition get Ts mul /To exch def
  /UnderlineThickness get Ts mul /Tt exch def
  ux uy To add moveto  Tcx uy To add lineto
  Tt setlinewidth stroke
  grestore
} bd
/OLE {
  /Tcx currentpoint pop def
  gsave
  newpath
  cf findfont cs scalefont dup
  /FontMatrix get 0 get /Ts exch def /FontInfo get dup
  /UnderlinePosition get Ts mul /To exch def
  /UnderlineThickness get Ts mul /Tt exch def
  ux uy To add cs add moveto Tcx uy To add cs add lineto
  Tt setlinewidth stroke
  grestore
} bd
/SOE {
  /Tcx currentpoint pop def
  gsave
  newpath
  cf findfont cs scalefont dup
  /FontMatrix get 0 get /Ts exch def /FontInfo get dup
  /UnderlinePosition get Ts mul /To exch def
  /UnderlineThickness get Ts mul /Tt exch def
  ux uy To add cs 10 mul 26 idiv add moveto Tcx uy To add cs 10 mul 26 idiv add lineto
  Tt setlinewidth stroke
  grestore
} bd
/QT {
/Y22 exch store
/X22 exch store
/Y21 exch store
/X21 exch store
currentpoint
/Y21 load 2 mul add 3 div exch
/X21 load 2 mul add 3 div exch
/X21 load 2 mul /X22 load add 3 div
/Y21 load 2 mul /Y22 load add 3 div
/X22 load /Y22 load curveto
} bd
/SSPD {
dup length /d exch dict def
{
/v exch def
/k exch def
currentpagedevice k known {
/cpdv currentpagedevice k get def
v cpdv ne {
/upd false def
/nullv v type /nulltype eq def
/nullcpdv cpdv type /nulltype eq def
nullv nullcpdv or
{
/upd true def
} {
/sametype v type cpdv type eq def
sametype {
v type /arraytype eq {
/vlen v length def
/cpdvlen cpdv length def
vlen cpdvlen eq {
0 1 vlen 1 sub {
/i exch def
/obj v i get def
/cpdobj cpdv i get def
obj cpdobj ne {
/upd true def
exit
} if
} for
} {
/upd true def
} ifelse
} {
v type /dicttype eq {
v {
/dv exch def
/dk exch def
/cpddv cpdv dk get def
dv cpddv ne {
/upd true def
exit
} if
} forall
} {
/upd true def
} ifelse
} ifelse
} if
} ifelse
upd true eq {
d k v put
} if
} if
} if
} forall
d length 0 gt {
d setpagedevice
} if
} bd
/RE { % /NewFontName [NewEncodingArray] /FontName RE -
  findfont dup length dict begin
  {
    1 index /FID ne
    {def} {pop pop} ifelse
  } forall
  /Encoding exch def
  /FontName 1 index def
  currentdict definefont pop
  end
} bind def
%%EndResource
%%BeginResource: procset (Apache XML Graphics EPS ProcSet) 1.0 0
%%Version: 1.0 0
%%Copyright: (Copyright 2002-2003 The Apache Software Foundation. License terms: http://www.apache.org/licenses/LICENSE-2.0)
/BeginEPSF { %def
/b4_Inc_state save def         % Save state for cleanup
/dict_count countdictstack def % Count objects on dict stack
/op_count count 1 sub def      % Count objects on operand stack
userdict begin                 % Push userdict on dict stack
/showpage { } def              % Redefine showpage, { } = null proc
0 setgray 0 setlinecap         % Prepare graphics state
1 setlinewidth 0 setlinejoin
10 setmiterlimit [ ] 0 setdash newpath
/languagelevel where           % If level not equal to 1 then
{pop languagelevel             % set strokeadjust and
1 ne                           % overprint to their defaults.
{false setstrokeadjust false setoverprint
} if
} if
} bd
/EndEPSF { %def
count op_count sub {pop} repeat            % Clean up stacks
countdictstack dict_count sub {end} repeat
b4_Inc_state restore
} bd
%%EndResource
%FOPBeginFontDict
%%IncludeResource: font Courier-Oblique
%%IncludeResource: font Courier-BoldOblique
%%IncludeResource: font Courier-Bold
%%IncludeResource: font ZapfDingbats
%%IncludeResource: font Symbol
%%IncludeResource: font Helvetica
%%IncludeResource: font Helvetica-Oblique
%%IncludeResource: font Helvetica-Bold
%%IncludeResource: font Helvetica-BoldOblique
%%IncludeResource: font Times-Roman
%%IncludeResource: font Times-Italic
%%IncludeResource: font Times-Bold
%%IncludeResource: font Times-BoldItalic
%%IncludeResource: font Courier
%FOPEndFontDict
%%BeginResource: encoding WinAnsiEncoding
/WinAnsiEncoding [
/.notdef /.notdef /.notdef /.notdef /.notdef
/.notdef /.notdef /.notdef /.notdef /.notdef
/.notdef /.notdef /.notdef /.notdef /.notdef
/.notdef /.notdef /.notdef /.notdef /.notdef
/.notdef /.notdef /.notdef /.notdef /.notdef
/.notdef /.notdef /.notdef /.notdef /.notdef
/.notdef /.notdef /space /exclam /quotedbl
/numbersign /dollar /percent /ampersand /quotesingle
/parenleft /parenright /asterisk /plus /comma
/hyphen /period /slash /zero /one
/two /three /four /five /six
/seven /eight /nine /colon /semicolon
/less /equal /greater /question /at
/A /B /C /D /E
/F /G /H /I /J
/K /L /M /N /O
/P /Q /R /S /T
/U /V /W /X /Y
/Z /bracketleft /backslash /bracketright /asciicircum
/underscore /quoteleft /a /b /c
/d /e /f /g /h
/i /j /k /l /m
/n /o /p /q /r
/s /t /u /v /w
/x /y /z /braceleft /bar
/braceright /asciitilde /bullet /Euro /bullet
/quotesinglbase /florin /quotedblbase /ellipsis /dagger
/daggerdbl /circumflex /perthousand /Scaron /guilsinglleft
/OE /bullet /Zcaron /bullet /bullet
/quoteleft /quoteright /quotedblleft /quotedblright /bullet
/endash /emdash /asciitilde /trademark /scaron
/guilsinglright /oe /bullet /zcaron /Ydieresis
/space /exclamdown /cent /sterling /currency
/yen /brokenbar /section /dieresis /copyright
/ordfeminine /guillemotleft /logicalnot /sfthyphen /registered
/macron /degree /plusminus /twosuperior /threesuperior
/acute /mu /paragraph /middot /cedilla
/onesuperior /ordmasculine /guillemotright /onequarter /onehalf
/threequarters /questiondown /Agrave /Aacute /Acircumflex
/Atilde /Adieresis /Aring /AE /Ccedilla
/Egrave /Eacute /Ecircumflex /Edieresis /Igrave
/Iacute /Icircumflex /Idieresis /Eth /Ntilde
/Ograve /Oacute /Ocircumflex /Otilde /Odieresis
/multiply /Oslash /Ugrave /Uacute /Ucircumflex
/Udieresis /Yacute /Thorn /germandbls /agrave
/aacute /acircumflex /atilde /adieresis /aring
/ae /ccedilla /egrave /eacute /ecircumflex
/edieresis /igrave /iacute /icircumflex /idieresis
/eth /ntilde /ograve /oacute /ocircumflex
/otilde /odieresis /divide /oslash /ugrave
/uacute /ucircumflex /udieresis /yacute /thorn
/ydieresis
] def
%%EndResource
%FOPBeginFontReencode
/Courier-Oblique findfont
dup length dict begin
  {1 index /FID ne {def} {pop pop} ifelse} forall
  /Encoding WinAnsiEncoding def
  currentdict
end
/Courier-Oblique exch definefont pop
/Courier-BoldOblique findfont
dup length dict begin
  {1 index /FID ne {def} {pop pop} ifelse} forall
  /Encoding WinAnsiEncoding def
  currentdict
end
/Courier-BoldOblique exch definefont pop
/Courier-Bold findfont
dup length dict begin
  {1 index /FID ne {def} {pop pop} ifelse} forall
  /Encoding WinAnsiEncoding def
  currentdict
end
/Courier-Bold exch definefont pop
/Helvetica findfont
dup length dict begin
  {1 index /FID ne {def} {pop pop} ifelse} forall
  /Encoding WinAnsiEncoding def
  currentdict
end
/Helvetica exch definefont pop
/Helvetica-Oblique findfont
dup length dict begin
  {1 index /FID ne {def} {pop pop} ifelse} forall
  /Encoding WinAnsiEncoding def
  currentdict
end
/Helvetica-Oblique exch definefont pop
/Helvetica-Bold findfont
dup length dict begin
  {1 index /FID ne {def} {pop pop} ifelse} forall
  /Encoding WinAnsiEncoding def
  currentdict
end
/Helvetica-Bold exch definefont pop
/Helvetica-BoldOblique findfont
dup length dict begin
  {1 index /FID ne {def} {pop pop} ifelse} forall
  /Encoding WinAnsiEncoding def
  currentdict
end
/Helvetica-BoldOblique exch definefont pop
/Times-Roman findfont
dup length dict begin
  {1 index /FID ne {def} {pop pop} ifelse} forall
  /Encoding WinAnsiEncoding def
  currentdict
end
/Times-Roman exch definefont pop
/Times-Italic findfont
dup length dict begin
  {1 index /FID ne {def} {pop pop} ifelse} forall
  /Encoding WinAnsiEncoding def
  currentdict
end
/Times-Italic exch definefont pop
/Times-Bold findfont
dup length dict begin
  {1 index /FID ne {def} {pop pop} ifelse} forall
  /Encoding WinAnsiEncoding def
  currentdict
end
/Times-Bold exch definefont pop
/Times-BoldItalic findfont
dup length dict begin
  {1 index /FID ne {def} {pop pop} ifelse} forall
  /Encoding WinAnsiEncoding def
  currentdict
end
/Times-BoldItalic exch definefont pop
/Courier findfont
dup length dict begin
  {1 index /FID ne {def} {pop pop} ifelse} forall
  /Encoding WinAnsiEncoding def
  currentdict
end
/Courier exch definefont pop
%FOPEndFontReencode
%%EndProlog
%%Page: 1 1
%%PageBoundingBox: 0 0 420 315
%%BeginPageSetup
[1 0 0 -1 0 315] CT
%%EndPageSetup
GS
[0.5 0 0 0.5 0 0] CT
1 GC
N
0 0 840 630 re
f
GR
GS
[0.5 0 0 0.5 0 0] CT
1 GC
N
0 0 840 630 re
f
GR
GS
[0.5 0 0 0.5 0 0] CT
1 GC
N
109 561 M
760 561 L
760 47 L
109 47 L
cp
f
GR
GS
[0.5 0 0 0.5 0 0] CT
0.149 GC
2 setlinecap
1 LJ
N
109 560.997 M
760 560.997 L
S
GR
GS
[0.5 0 0 0.5 0 0] CT
0.149 GC
2 setlinecap
1 LJ
N
109 46.996 M
760 46.996 L
S
GR
GS
[0.5 0 0 0.5 0 0] CT
0.149 GC
2 setlinecap
1 LJ
N
176.425 560.997 M
176.425 554.481 L
S
GR
GS
[0.5 0 0 0.5 0 0] CT
0.149 GC
2 setlinecap
1 LJ
N
256.087 560.997 M
256.087 554.481 L
S
GR
GS
[0.5 0 0 0.5 0 0] CT
0.149 GC
2 setlinecap
1 LJ
N
335.749 560.997 M
335.749 554.481 L
S
GR
GS
[0.5 0 0 0.5 0 0] CT
0.149 GC
2 setlinecap
1 LJ
N
415.411 560.997 M
415.411 554.481 L
S
GR
GS
[0.5 0 0 0.5 0 0] CT
0.149 GC
2 setlinecap
1 LJ
N
495.072 560.997 M
495.072 554.481 L
S
GR
GS
[0.5 0 0 0.5 0 0] CT
0.149 GC
2 setlinecap
1 LJ
N
574.734 560.997 M
574.734 554.481 L
S
GR
GS
[0.5 0 0 0.5 0 0] CT
0.149 GC
2 setlinecap
1 LJ
N
654.396 560.997 M
654.396 554.481 L
S
GR
GS
[0.5 0 0 0.5 0 0] CT
0.149 GC
2 setlinecap
1 LJ
N
734.058 560.997 M
734.058 554.481 L
S
GR
GS
[0.5 0 0 0.5 0 0] CT
0.149 GC
2 setlinecap
1 LJ
N
176.425 46.996 M
176.425 53.511 L
S
GR
GS
[0.5 0 0 0.5 0 0] CT
0.149 GC
2 setlinecap
1 LJ
N
256.087 46.996 M
256.087 53.511 L
S
GR
GS
[0.5 0 0 0.5 0 0] CT
0.149 GC
2 setlinecap
1 LJ
N
335.749 46.996 M
335.749 53.511 L
S
GR
GS
[0.5 0 0 0.5 0 0] CT
0.149 GC
2 setlinecap
1 LJ
N
415.411 46.996 M
415.411 53.511 L
S
GR
GS
[0.5 0 0 0.5 0 0] CT
0.149 GC
2 setlinecap
1 LJ
N
495.072 46.996 M
495.072 53.511 L
S
GR
GS
[0.5 0 0 0.5 0 0] CT
0.149 GC
2 setlinecap
1 LJ
N
574.734 46.996 M
574.734 53.511 L
S
GR
GS
[0.5 0 0 0.5 0 0] CT
0.149 GC
2 setlinecap
1 LJ
N
654.396 46.996 M
654.396 53.511 L
S
GR
GS
[0.5 0 0 0.5 0 0] CT
0.149 GC
2 setlinecap
1 LJ
N
734.058 46.996 M
734.058 53.511 L
S
GR
GS
[0.5 0 0 0.5 88.2125 284.49734] CT
0.149 GC
/Helvetica 20 F
GS
[1 0 0 1 0 0] CT
-22.5 21 moveto 
1 -1 scale
(9200) t 
GR
GR
GS
[0.5 0 0 0.5 128.04343 284.49734] CT
0.149 GC
/Helvetica 20 F
GS
[1 0 0 1 0 0] CT
-22.5 21 moveto 
1 -1 scale
(9400) t 
GR
GR
GS
[0.5 0 0 0.5 167.87434 284.49734] CT
0.149 GC
/Helvetica 20 F
GS
[1 0 0 1 0 0] CT
-22.5 21 moveto 
1 -1 scale
(9600) t 
GR
GR
GS
[0.5 0 0 0.5 207.70526 284.49734] CT
0.149 GC
/Helvetica 20 F
GS
[1 0 0 1 0 0] CT
-22.5 21 moveto 
1 -1 scale
(9800) t 
GR
GR
GS
[0.5 0 0 0.5 247.53618 284.49734] CT
0.149 GC
/Helvetica 20 F
GS
[1 0 0 1 0 0] CT
-28 21 moveto 
1 -1 scale
(10000) t 
GR
GR
GS
[0.5 0 0 0.5 287.3671 284.49734] CT
0.149 GC
/Helvetica 20 F
GS
[1 0 0 1 0 0] CT
-28 21 moveto 
1 -1 scale
(10200) t 
GR
GR
GS
[0.5 0 0 0.5 327.19803 284.49734] CT
0.149 GC
/Helvetica 20 F
GS
[1 0 0 1 0 0] CT
-28 21 moveto 
1 -1 scale
(10400) t 
GR
GR
GS
[0.5 0 0 0.5 367.02896 284.49734] CT
0.149 GC
/Helvetica 20 F
GS
[1 0 0 1 0 0] CT
-28 21 moveto 
1 -1 scale
(10600) t 
GR
GR
GS
[0.5 0 0 0.5 217.25009 298.49677] CT
0.149 GC
/Helvetica 22 F
GS
[1 0 0 1 0 0] CT
-40.5 23 moveto 
1 -1 scale
(Time \(s\)) t 
GR
GR
GS
[0.5 0 0 0.5 0 0] CT
0.149 GC
2 setlinecap
1 LJ
N
109 560.997 M
109 46.996 L
S
GR
GS
[0.5 0 0 0.5 0 0] CT
0.149 GC
2 setlinecap
1 LJ
N
760 560.997 M
760 46.996 L
S
GR
GS
[0.5 0 0 0.5 0 0] CT
0.149 GC
2 setlinecap
1 LJ
N
109 534.286 M
115.51 534.286 L
S
GR
GS
[0.5 0 0 0.5 0 0] CT
0.149 GC
2 setlinecap
1 LJ
N
109 488.894 M
115.51 488.894 L
S
GR
GS
[0.5 0 0 0.5 0 0] CT
0.149 GC
2 setlinecap
1 LJ
N
109 443.492 M
115.51 443.492 L
S
GR
GS
[0.5 0 0 0.5 0 0] CT
0.149 GC
2 setlinecap
1 LJ
N
109 398.101 M
115.51 398.101 L
S
GR
GS
[0.5 0 0 0.5 0 0] CT
0.149 GC
2 setlinecap
1 LJ
N
109 352.71 M
115.51 352.71 L
S
GR
GS
[0.5 0 0 0.5 0 0] CT
0.149 GC
2 setlinecap
1 LJ
N
109 307.308 M
115.51 307.308 L
S
GR
GS
[0.5 0 0 0.5 0 0] CT
0.149 GC
2 setlinecap
1 LJ
N
109 261.917 M
115.51 261.917 L
S
GR
GS
[0.5 0 0 0.5 0 0] CT
0.149 GC
2 setlinecap
1 LJ
N
109 216.526 M
115.51 216.526 L
S
GR
GS
[0.5 0 0 0.5 0 0] CT
0.149 GC
2 setlinecap
1 LJ
N
109 171.124 M
115.51 171.124 L
S
GR
GS
[0.5 0 0 0.5 0 0] CT
0.149 GC
2 setlinecap
1 LJ
N
109 125.732 M
115.51 125.732 L
S
GR
GS
[0.5 0 0 0.5 0 0] CT
0.149 GC
2 setlinecap
1 LJ
N
109 80.341 M
115.51 80.341 L
S
GR
GS
[0.5 0 0 0.5 0 0] CT
0.149 GC
2 setlinecap
1 LJ
N
760 534.286 M
753.49 534.286 L
S
GR
GS
[0.5 0 0 0.5 0 0] CT
0.149 GC
2 setlinecap
1 LJ
N
760 488.894 M
753.49 488.894 L
S
GR
GS
[0.5 0 0 0.5 0 0] CT
0.149 GC
2 setlinecap
1 LJ
N
760 443.492 M
753.49 443.492 L
S
GR
GS
[0.5 0 0 0.5 0 0] CT
0.149 GC
2 setlinecap
1 LJ
N
760 398.101 M
753.49 398.101 L
S
GR
GS
[0.5 0 0 0.5 0 0] CT
0.149 GC
2 setlinecap
1 LJ
N
760 352.71 M
753.49 352.71 L
S
GR
GS
[0.5 0 0 0.5 0 0] CT
0.149 GC
2 setlinecap
1 LJ
N
760 307.308 M
753.49 307.308 L
S
GR
GS
[0.5 0 0 0.5 0 0] CT
0.149 GC
2 setlinecap
1 LJ
N
760 261.917 M
753.49 261.917 L
S
GR
GS
[0.5 0 0 0.5 0 0] CT
0.149 GC
2 setlinecap
1 LJ
N
760 216.526 M
753.49 216.526 L
S
GR
GS
[0.5 0 0 0.5 0 0] CT
0.149 GC
2 setlinecap
1 LJ
N
760 171.124 M
753.49 171.124 L
S
GR
GS
[0.5 0 0 0.5 0 0] CT
0.149 GC
2 setlinecap
1 LJ
N
760 125.732 M
753.49 125.732 L
S
GR
GS
[0.5 0 0 0.5 0 0] CT
0.149 GC
2 setlinecap
1 LJ
N
760 80.341 M
753.49 80.341 L
S
GR
GS
[0.5 0 0 0.5 50.49993 267.14282] CT
0.149 GC
/Helvetica 20 F
GS
[1 0 0 1 0 0] CT
-39 8 moveto 
1 -1 scale
(4.06) t 
GR
GR
GS
[0.5 0 0 0.5 50.49993 244.44722] CT
0.149 GC
/Helvetica 20 F
GS
[1 0 0 1 0 0] CT
-51 8 moveto 
1 -1 scale
(4.062) t 
GR
GR
GS
[0.5 0 0 0.5 50.49993 221.74622] CT
0.149 GC
/Helvetica 20 F
GS
[1 0 0 1 0 0] CT
-51 8 moveto 
1 -1 scale
(4.064) t 
GR
GR
GS
[0.5 0 0 0.5 50.49993 199.0506] CT
0.149 GC
/Helvetica 20 F
GS
[1 0 0 1 0 0] CT
-51 8 moveto 
1 -1 scale
(4.066) t 
GR
GR
GS
[0.5 0 0 0.5 50.49993 176.355] CT
0.149 GC
/Helvetica 20 F
GS
[1 0 0 1 0 0] CT
-51 8 moveto 
1 -1 scale
(4.068) t 
GR
GR
GS
[0.5 0 0 0.5 50.49993 153.65398] CT
0.149 GC
/Helvetica 20 F
GS
[1 0 0 1 0 0] CT
-39 8 moveto 
1 -1 scale
(4.07) t 
GR
GR
GS
[0.5 0 0 0.5 50.49993 130.95837] CT
0.149 GC
/Helvetica 20 F
GS
[1 0 0 1 0 0] CT
-51 8 moveto 
1 -1 scale
(4.072) t 
GR
GR
GS
[0.5 0 0 0.5 50.49993 108.26277] CT
0.149 GC
/Helvetica 20 F
GS
[1 0 0 1 0 0] CT
-51 8 moveto 
1 -1 scale
(4.074) t 
GR
GR
GS
[0.5 0 0 0.5 50.49993 85.56175] CT
0.149 GC
/Helvetica 20 F
GS
[1 0 0 1 0 0] CT
-51 8 moveto 
1 -1 scale
(4.076) t 
GR
GR
GS
[0.5 0 0 0.5 50.49993 62.86615] CT
0.149 GC
/Helvetica 20 F
GS
[1 0 0 1 0 0] CT
-51 8 moveto 
1 -1 scale
(4.078) t 
GR
GR
GS
[0.5 0 0 0.5 50.49993 40.17054] CT
0.149 GC
/Helvetica 20 F
GS
[1 0 0 1 0 0] CT
-39 8 moveto 
1 -1 scale
(4.08) t 
GR
GR
GS
[0 -0.5 0.5 0 22.00001 151.99808] CT
0.149 GC
/Helvetica 22 F
GS
[1 0 0 1 0 0] CT
-55.5 -5 moveto 
1 -1 scale
(Voltage \(V\)) t 
GR
GR
GS
[0.5 0 0 0.5 217.25029 22.12337] CT
/Helvetica-Bold 22 F
GS
[1 0 0 1 0 0] CT
-73.5 -5 moveto 
1 -1 scale
(End of charge) t 
GR
GR
GS
[0.5 0 0 0.5 0 0] CT
0 0.447 0.741 RC
1 LJ
3 LW
N
120.662 80.341 M
121.06 80.341 L
121.458 80.341 L
121.857 80.341 L
122.255 80.341 L
122.653 80.341 L
123.052 171.124 L
123.45 171.124 L
123.848 171.124 L
124.246 171.124 L
124.645 171.124 L
125.043 171.124 L
125.441 171.124 L
125.84 171.124 L
126.238 171.124 L
126.636 171.124 L
127.035 261.917 L
127.433 261.917 L
127.831 261.917 L
128.23 261.917 L
128.628 261.917 L
129.026 261.917 L
129.425 261.917 L
129.823 261.917 L
130.221 261.917 L
130.619 261.917 L
131.018 261.917 L
131.416 261.917 L
131.814 261.917 L
132.213 261.917 L
132.611 261.917 L
133.009 261.917 L
133.408 261.917 L
133.806 261.917 L
134.204 261.917 L
134.603 261.917 L
135.001 261.917 L
135.399 261.917 L
135.797 261.917 L
136.196 352.71 L
136.594 352.71 L
136.992 352.71 L
137.391 352.71 L
137.789 352.71 L
138.187 352.71 L
138.586 352.71 L
138.984 352.71 L
139.382 352.71 L
139.781 352.71 L
140.179 352.71 L
140.577 352.71 L
140.975 352.71 L
141.374 352.71 L
141.772 352.71 L
142.17 352.71 L
142.569 352.71 L
142.967 352.71 L
143.365 352.71 L
143.764 352.71 L
144.162 352.71 L
144.56 352.71 L
144.959 352.71 L
145.357 352.71 L
145.755 352.71 L
146.154 352.71 L
146.552 352.71 L
146.95 352.71 L
147.348 352.71 L
147.747 352.71 L
148.145 352.71 L
148.543 352.71 L
148.942 352.71 L
149.34 352.71 L
149.738 352.71 L
150.137 352.71 L
150.535 352.71 L
150.933 352.71 L
151.332 352.71 L
151.73 352.71 L
152.128 352.71 L
152.526 352.71 L
152.925 352.71 L
153.323 352.71 L
153.721 352.71 L
154.12 352.71 L
154.518 443.492 L
154.916 443.492 L
155.315 443.492 L
155.713 443.492 L
156.111 443.492 L
156.51 443.492 L
156.908 443.492 L
157.306 443.492 L
157.704 443.492 L
158.103 443.492 L
158.501 443.492 L
158.899 443.492 L
159.298 443.492 L
159.696 443.492 L
160.094 443.492 L
160.493 443.492 L
160.891 443.492 L
161.289 443.492 L
161.688 443.492 L
162.086 443.492 L
162.484 443.492 L
162.882 443.492 L
163.281 443.492 L
163.679 443.492 L
164.077 443.492 L
164.476 443.492 L
164.874 443.492 L
165.272 443.492 L
165.671 443.492 L
166.069 443.492 L
166.467 443.492 L
166.866 443.492 L
167.264 443.492 L
167.662 443.492 L
168.061 443.492 L
168.459 443.492 L
168.857 443.492 L
169.255 443.492 L
169.654 443.492 L
170.052 443.492 L
170.45 443.492 L
170.849 443.492 L
171.247 443.492 L
171.645 443.492 L
172.044 443.492 L
172.442 443.492 L
172.84 443.492 L
173.239 443.492 L
173.637 443.492 L
174.035 443.492 L
174.433 443.492 L
174.832 443.492 L
175.23 443.492 L
175.628 443.492 L
176.027 443.492 L
176.425 443.492 L
176.823 443.492 L
177.222 443.492 L
177.62 443.492 L
178.018 443.492 L
178.417 443.492 L
178.815 443.492 L
179.213 443.492 L
179.611 443.492 L
180.01 443.492 L
180.408 443.492 L
180.806 443.492 L
181.205 443.492 L
181.603 443.492 L
182.001 443.492 L
182.4 443.492 L
182.798 443.492 L
183.196 443.492 L
183.595 443.492 L
183.993 443.492 L
184.391 443.492 L
184.789 443.492 L
185.188 443.492 L
185.586 443.492 L
185.984 443.492 L
186.383 443.492 L
186.781 443.492 L
187.179 443.492 L
187.578 443.492 L
187.976 443.492 L
188.374 443.492 L
188.773 443.492 L
189.171 443.492 L
189.569 443.492 L
189.968 443.492 L
190.366 443.492 L
190.764 443.492 L
191.162 443.492 L
191.561 443.492 L
191.959 443.492 L
192.357 443.492 L
192.756 443.492 L
193.154 443.492 L
193.552 443.492 L
193.951 443.492 L
194.349 443.492 L
194.747 443.492 L
195.146 443.492 L
195.544 443.492 L
195.942 443.492 L
196.34 443.492 L
196.739 443.492 L
197.137 443.492 L
197.535 443.492 L
197.934 443.492 L
198.332 443.492 L
198.73 443.492 L
199.129 443.492 L
199.527 443.492 L
199.925 443.492 L
200.324 443.492 L
200.722 443.492 L
201.12 443.492 L
201.518 443.492 L
201.917 443.492 L
202.315 443.492 L
202.713 443.492 L
203.112 443.492 L
203.51 443.492 L
203.908 443.492 L
204.307 443.492 L
204.705 443.492 L
205.103 443.492 L
205.502 443.492 L
205.9 443.492 L
206.298 443.492 L
206.697 443.492 L
207.095 443.492 L
207.493 443.492 L
207.891 443.492 L
208.29 443.492 L
208.688 443.492 L
209.086 443.492 L
209.485 443.492 L
209.883 443.492 L
210.281 443.492 L
210.68 443.492 L
211.078 443.492 L
211.476 443.492 L
211.875 443.492 L
212.273 443.492 L
212.671 443.492 L
213.069 443.492 L
213.468 443.492 L
213.866 443.492 L
214.264 443.492 L
214.663 443.492 L
215.061 443.492 L
215.459 443.492 L
215.858 443.492 L
216.256 443.492 L
216.654 443.492 L
217.053 443.492 L
217.451 443.492 L
217.849 443.492 L
218.247 443.492 L
218.646 443.492 L
219.044 443.492 L
219.442 443.492 L
219.841 443.492 L
220.239 443.492 L
220.637 443.492 L
221.036 443.492 L
221.434 443.492 L
221.832 443.492 L
222.231 443.492 L
222.629 443.492 L
223.027 443.492 L
223.425 443.492 L
223.824 443.492 L
224.222 443.492 L
224.62 443.492 L
225.019 443.492 L
225.417 443.492 L
225.815 443.492 L
226.214 443.492 L
226.612 443.492 L
227.01 443.492 L
227.409 443.492 L
227.807 443.492 L
228.205 443.492 L
228.604 443.492 L
229.002 443.492 L
229.4 443.492 L
229.798 443.492 L
230.197 443.492 L
230.595 443.492 L
230.993 443.492 L
231.392 443.492 L
231.79 443.492 L
232.188 443.492 L
232.587 443.492 L
232.985 443.492 L
233.383 443.492 L
233.782 443.492 L
234.18 443.492 L
234.578 443.492 L
234.976 443.492 L
235.375 443.492 L
235.773 443.492 L
236.171 443.492 L
236.57 443.492 L
236.968 443.492 L
237.366 443.492 L
237.765 443.492 L
238.163 443.492 L
238.561 443.492 L
238.96 443.492 L
239.358 443.492 L
239.756 443.492 L
240.154 443.492 L
240.553 443.492 L
240.951 443.492 L
241.349 443.492 L
241.748 443.492 L
242.146 443.492 L
242.544 443.492 L
242.943 443.492 L
243.341 443.492 L
243.739 443.492 L
244.138 443.492 L
244.536 443.492 L
244.934 443.492 L
245.332 443.492 L
245.731 443.492 L
246.129 443.492 L
246.527 443.492 L
246.926 443.492 L
247.324 443.492 L
247.722 443.492 L
248.121 443.492 L
248.519 443.492 L
248.917 443.492 L
249.316 443.492 L
249.714 443.492 L
250.112 443.492 L
250.511 534.286 L
250.909 443.492 L
251.307 443.492 L
251.705 443.492 L
252.104 443.492 L
252.502 443.492 L
252.9 443.492 L
253.299 443.492 L
253.697 443.492 L
254.095 443.492 L
254.494 443.492 L
254.892 443.492 L
255.29 443.492 L
255.689 443.492 L
256.087 443.492 L
256.485 443.492 L
256.883 443.492 L
257.282 443.492 L
257.68 443.492 L
258.078 443.492 L
258.477 443.492 L
258.875 443.492 L
259.273 443.492 L
259.672 443.492 L
260.07 443.492 L
260.468 443.492 L
260.867 443.492 L
261.265 443.492 L
261.663 443.492 L
262.061 443.492 L
262.46 443.492 L
262.858 443.492 L
263.256 443.492 L
263.655 443.492 L
264.053 443.492 L
264.451 443.492 L
264.85 443.492 L
265.248 443.492 L
265.646 534.286 L
266.045 443.492 L
266.443 534.286 L
266.841 443.492 L
267.24 443.492 L
267.638 443.492 L
268.036 443.492 L
268.434 443.492 L
268.833 443.492 L
269.231 443.492 L
269.629 534.286 L
270.028 443.492 L
270.426 443.492 L
270.824 443.492 L
271.223 534.286 L
271.621 443.492 L
272.019 534.286 L
272.418 443.492 L
272.816 534.286 L
273.214 443.492 L
273.612 443.492 L
274.011 534.286 L
274.409 443.492 L
274.807 443.492 L
275.206 443.492 L
275.604 443.492 L
276.002 534.286 L
276.401 443.492 L
276.799 443.492 L
277.197 443.492 L
277.596 443.492 L
277.994 443.492 L
278.392 443.492 L
278.79 443.492 L
279.189 534.286 L
279.587 443.492 L
279.985 443.492 L
280.384 534.286 L
280.782 443.492 L
281.18 534.286 L
281.579 443.492 L
281.977 534.286 L
282.375 534.286 L
282.774 534.286 L
283.172 534.286 L
283.57 534.286 L
283.968 534.286 L
284.367 534.286 L
284.765 443.492 L
285.163 443.492 L
285.562 534.286 L
285.96 534.286 L
286.358 534.286 L
286.757 443.492 L
287.155 534.286 L
287.553 534.286 L
287.952 534.286 L
288.35 534.286 L
288.748 534.286 L
289.147 534.286 L
289.545 443.492 L
289.943 443.492 L
290.341 534.286 L
290.74 534.286 L
291.138 534.286 L
291.536 534.286 L
291.935 534.286 L
292.333 443.492 L
292.731 534.286 L
293.13 534.286 L
293.528 443.492 L
293.926 534.286 L
294.325 534.286 L
294.723 443.492 L
295.121 443.492 L
295.519 534.286 L
295.918 534.286 L
296.316 534.286 L
296.714 534.286 L
297.113 534.286 L
297.511 534.286 L
297.909 443.492 L
298.308 534.286 L
298.706 534.286 L
299.104 443.492 L
299.503 443.492 L
299.901 534.286 L
300.299 534.286 L
300.697 534.286 L
301.096 534.286 L
301.494 534.286 L
301.892 534.286 L
302.291 534.286 L
302.689 534.286 L
303.087 534.286 L
303.486 534.286 L
303.884 534.286 L
304.282 534.286 L
304.681 443.492 L
305.079 534.286 L
305.477 534.286 L
305.875 534.286 L
306.274 534.286 L
306.672 534.286 L
307.07 534.286 L
307.469 534.286 L
307.867 534.286 L
308.265 534.286 L
308.664 443.492 L
309.062 534.286 L
309.46 534.286 L
309.859 534.286 L
310.257 443.492 L
310.655 534.286 L
311.054 534.286 L
311.452 534.286 L
311.85 534.286 L
312.248 534.286 L
312.647 534.286 L
313.045 534.286 L
313.443 534.286 L
313.842 534.286 L
314.24 534.286 L
314.638 534.286 L
315.037 534.286 L
315.435 443.492 L
315.833 534.286 L
316.232 534.286 L
316.63 534.286 L
317.028 534.286 L
317.426 534.286 L
317.825 534.286 L
318.223 534.286 L
318.621 534.286 L
319.02 534.286 L
319.418 534.286 L
319.816 534.286 L
320.215 534.286 L
320.613 534.286 L
321.011 534.286 L
321.41 534.286 L
321.808 534.286 L
322.206 534.286 L
322.604 534.286 L
323.003 534.286 L
323.401 534.286 L
323.799 534.286 L
324.198 534.286 L
324.596 534.286 L
324.994 534.286 L
325.393 534.286 L
325.791 534.286 L
326.189 534.286 L
326.588 534.286 L
326.986 534.286 L
327.384 443.492 L
327.783 534.286 L
328.181 534.286 L
328.579 534.286 L
328.977 534.286 L
329.376 534.286 L
329.774 534.286 L
330.172 534.286 L
330.571 534.286 L
330.969 534.286 L
331.367 534.286 L
331.766 534.286 L
332.164 534.286 L
332.562 534.286 L
332.961 534.286 L
333.359 534.286 L
333.757 534.286 L
334.155 534.286 L
334.554 534.286 L
334.952 534.286 L
335.35 534.286 L
335.749 534.286 L
336.147 534.286 L
336.545 534.286 L
336.944 534.286 L
337.342 534.286 L
337.74 534.286 L
338.139 534.286 L
338.537 534.286 L
338.935 534.286 L
339.333 534.286 L
339.732 534.286 L
340.13 534.286 L
340.528 534.286 L
340.927 534.286 L
341.325 534.286 L
341.723 534.286 L
342.122 534.286 L
342.52 534.286 L
342.918 534.286 L
343.317 534.286 L
343.715 534.286 L
344.113 534.286 L
344.511 534.286 L
344.91 534.286 L
345.308 534.286 L
345.706 534.286 L
346.105 534.286 L
346.503 534.286 L
346.901 534.286 L
347.3 534.286 L
347.698 534.286 L
348.096 534.286 L
348.495 534.286 L
348.893 534.286 L
349.291 534.286 L
349.69 534.286 L
350.088 534.286 L
350.486 534.286 L
350.884 534.286 L
351.283 534.286 L
351.681 534.286 L
352.079 534.286 L
352.478 534.286 L
352.876 534.286 L
353.274 534.286 L
353.673 534.286 L
354.071 534.286 L
354.469 534.286 L
354.868 534.286 L
355.266 534.286 L
355.664 534.286 L
356.062 534.286 L
356.461 534.286 L
356.859 534.286 L
357.257 534.286 L
357.656 534.286 L
358.054 534.286 L
358.452 534.286 L
358.851 534.286 L
359.249 534.286 L
359.647 534.286 L
360.046 534.286 L
360.444 534.286 L
360.842 534.286 L
361.24 534.286 L
361.639 534.286 L
362.037 534.286 L
362.435 534.286 L
362.834 534.286 L
363.232 534.286 L
363.63 534.286 L
364.029 534.286 L
364.427 534.286 L
364.825 534.286 L
365.224 534.286 L
365.622 534.286 L
366.02 534.286 L
366.418 534.286 L
366.817 534.286 L
367.215 534.286 L
367.613 534.286 L
368.012 534.286 L
368.41 534.286 L
368.808 534.286 L
369.207 534.286 L
369.605 534.286 L
370.003 534.286 L
370.402 534.286 L
370.8 534.286 L
371.198 534.286 L
371.597 534.286 L
371.995 534.286 L
372.393 534.286 L
372.791 534.286 L
373.19 534.286 L
373.588 534.286 L
373.986 534.286 L
374.385 534.286 L
374.783 534.286 L
375.181 534.286 L
375.58 534.286 L
375.978 534.286 L
376.376 534.286 L
376.775 534.286 L
377.173 534.286 L
377.571 534.286 L
377.969 534.286 L
378.368 534.286 L
378.766 534.286 L
379.164 534.286 L
379.563 534.286 L
379.961 534.286 L
380.359 534.286 L
380.758 534.286 L
381.156 534.286 L
381.554 534.286 L
381.953 534.286 L
382.351 534.286 L
382.749 534.286 L
383.147 534.286 L
383.546 534.286 L
383.944 534.286 L
384.342 534.286 L
384.741 534.286 L
385.139 534.286 L
385.537 534.286 L
385.936 534.286 L
386.334 534.286 L
386.732 534.286 L
387.131 534.286 L
387.529 534.286 L
387.927 534.286 L
388.326 534.286 L
388.724 534.286 L
389.122 534.286 L
389.52 534.286 L
389.919 534.286 L
390.317 534.286 L
390.715 534.286 L
391.114 534.286 L
391.512 534.286 L
391.91 534.286 L
392.309 534.286 L
392.707 534.286 L
393.105 534.286 L
393.504 534.286 L
393.902 534.286 L
394.3 534.286 L
394.698 534.286 L
395.097 534.286 L
395.495 534.286 L
395.893 534.286 L
396.292 534.286 L
396.69 534.286 L
397.088 534.286 L
397.487 534.286 L
397.885 534.286 L
398.283 534.286 L
398.682 534.286 L
399.08 534.286 L
399.478 534.286 L
399.876 534.286 L
400.275 534.286 L
400.673 534.286 L
401.071 534.286 L
401.47 534.286 L
401.868 534.286 L
402.266 534.286 L
402.665 534.286 L
403.063 534.286 L
403.461 534.286 L
403.86 534.286 L
404.258 534.286 L
404.656 534.286 L
405.054 534.286 L
405.453 534.286 L
405.851 534.286 L
406.249 534.286 L
406.648 534.286 L
407.046 534.286 L
407.444 534.286 L
407.843 534.286 L
408.241 534.286 L
408.639 534.286 L
409.038 534.286 L
409.436 534.286 L
409.834 534.286 L
410.233 534.286 L
410.631 534.286 L
411.029 534.286 L
411.427 534.286 L
411.826 534.286 L
412.224 534.286 L
412.622 534.286 L
413.021 534.286 L
413.419 534.286 L
413.817 534.286 L
414.216 534.286 L
414.614 534.286 L
415.012 534.286 L
415.411 534.286 L
415.809 534.286 L
416.207 534.286 L
416.605 534.286 L
417.004 534.286 L
417.402 534.286 L
417.8 534.286 L
418.199 534.286 L
418.597 534.286 L
418.995 534.286 L
419.394 534.286 L
419.792 534.286 L
420.19 534.286 L
420.589 534.286 L
420.987 534.286 L
421.385 534.286 L
421.783 534.286 L
422.182 534.286 L
422.58 534.286 L
422.978 534.286 L
423.377 534.286 L
423.775 534.286 L
424.173 534.286 L
424.572 534.286 L
424.97 534.286 L
425.368 534.286 L
425.767 534.286 L
426.165 534.286 L
426.563 534.286 L
426.961 534.286 L
427.36 534.286 L
427.758 534.286 L
428.156 534.286 L
428.555 534.286 L
428.953 534.286 L
429.351 534.286 L
429.75 534.286 L
430.148 534.286 L
430.546 534.286 L
430.945 534.286 L
431.343 534.286 L
431.741 534.286 L
432.14 534.286 L
432.538 534.286 L
432.936 534.286 L
433.334 534.286 L
433.733 534.286 L
434.131 534.286 L
434.529 534.286 L
434.928 534.286 L
435.326 534.286 L
435.724 534.286 L
436.123 534.286 L
436.521 534.286 L
436.919 534.286 L
437.318 534.286 L
437.716 534.286 L
438.114 534.286 L
438.512 534.286 L
438.911 534.286 L
439.309 534.286 L
439.707 534.286 L
440.106 534.286 L
440.504 534.286 L
440.902 534.286 L
441.301 534.286 L
441.699 534.286 L
442.097 534.286 L
442.496 534.286 L
442.894 534.286 L
443.292 534.286 L
443.69 534.286 L
444.089 534.286 L
444.487 534.286 L
444.885 534.286 L
445.284 534.286 L
445.682 534.286 L
446.08 534.286 L
446.479 534.286 L
446.877 534.286 L
447.275 534.286 L
447.674 534.286 L
448.072 534.286 L
448.47 534.286 L
448.868 534.286 L
449.267 534.286 L
449.665 534.286 L
450.063 534.286 L
450.462 534.286 L
450.86 534.286 L
451.258 534.286 L
451.657 534.286 L
452.055 534.286 L
452.453 534.286 L
452.852 534.286 L
453.25 534.286 L
453.648 534.286 L
454.047 534.286 L
454.445 534.286 L
454.843 534.286 L
455.241 534.286 L
455.64 534.286 L
456.038 534.286 L
456.436 534.286 L
456.835 534.286 L
457.233 534.286 L
457.631 534.286 L
458.03 534.286 L
458.428 534.286 L
458.826 534.286 L
459.225 534.286 L
459.623 534.286 L
460.021 534.286 L
460.419 534.286 L
460.818 534.286 L
461.216 534.286 L
461.614 534.286 L
462.013 534.286 L
462.411 534.286 L
462.809 534.286 L
463.208 534.286 L
463.606 534.286 L
464.004 534.286 L
464.403 534.286 L
464.801 534.286 L
465.199 534.286 L
465.597 534.286 L
465.996 534.286 L
466.394 534.286 L
466.792 534.286 L
467.191 534.286 L
467.589 534.286 L
467.987 534.286 L
468.386 534.286 L
468.784 534.286 L
469.182 534.286 L
469.581 534.286 L
469.979 534.286 L
470.377 534.286 L
470.776 534.286 L
471.174 534.286 L
471.572 534.286 L
471.97 534.286 L
472.369 534.286 L
472.767 534.286 L
473.165 534.286 L
473.564 534.286 L
473.962 534.286 L
474.36 534.286 L
474.759 534.286 L
475.157 534.286 L
475.555 534.286 L
475.954 534.286 L
476.352 534.286 L
476.75 534.286 L
477.148 534.286 L
477.547 534.286 L
477.945 534.286 L
478.343 534.286 L
478.742 534.286 L
479.14 534.286 L
479.538 534.286 L
479.937 534.286 L
480.335 534.286 L
480.733 534.286 L
481.132 534.286 L
481.53 534.286 L
481.928 534.286 L
482.326 534.286 L
482.725 534.286 L
483.123 534.286 L
483.521 534.286 L
483.92 534.286 L
484.318 534.286 L
484.716 534.286 L
485.115 534.286 L
485.513 534.286 L
485.911 534.286 L
486.31 534.286 L
486.708 534.286 L
487.106 534.286 L
487.504 534.286 L
487.903 534.286 L
488.301 534.286 L
488.699 534.286 L
489.098 534.286 L
489.496 534.286 L
489.894 534.286 L
490.293 534.286 L
490.691 534.286 L
491.089 534.286 L
491.488 534.286 L
491.886 534.286 L
492.284 534.286 L
492.683 534.286 L
493.081 534.286 L
493.479 534.286 L
493.877 534.286 L
494.276 534.286 L
494.674 534.286 L
495.072 534.286 L
495.471 534.286 L
495.869 534.286 L
496.267 534.286 L
496.666 534.286 L
497.064 534.286 L
497.462 534.286 L
497.861 534.286 L
498.259 534.286 L
498.657 534.286 L
499.055 534.286 L
499.454 534.286 L
499.852 534.286 L
500.25 534.286 L
500.649 534.286 L
501.047 534.286 L
501.445 534.286 L
501.844 534.286 L
502.242 534.286 L
502.64 534.286 L
503.039 534.286 L
503.437 534.286 L
503.835 534.286 L
504.233 534.286 L
504.632 534.286 L
505.03 534.286 L
505.428 534.286 L
505.827 534.286 L
506.225 534.286 L
506.623 534.286 L
507.022 534.286 L
507.42 534.286 L
507.818 534.286 L
508.217 534.286 L
508.615 534.286 L
509.013 534.286 L
509.411 534.286 L
509.81 534.286 L
510.208 534.286 L
510.606 534.286 L
511.005 534.286 L
511.403 534.286 L
511.801 534.286 L
512.2 534.286 L
512.598 534.286 L
512.996 534.286 L
513.395 534.286 L
513.793 534.286 L
514.191 534.286 L
514.59 534.286 L
514.988 534.286 L
515.386 534.286 L
515.784 534.286 L
516.183 534.286 L
516.581 534.286 L
516.979 534.286 L
517.378 534.286 L
517.776 534.286 L
518.174 534.286 L
518.573 534.286 L
518.971 534.286 L
519.369 534.286 L
519.768 534.286 L
520.166 534.286 L
520.564 534.286 L
520.962 534.286 L
521.361 534.286 L
521.759 534.286 L
522.157 534.286 L
522.556 534.286 L
522.954 534.286 L
523.352 534.286 L
523.751 534.286 L
524.149 534.286 L
524.547 534.286 L
524.946 534.286 L
525.344 534.286 L
525.742 534.286 L
526.141 534.286 L
526.539 534.286 L
526.937 534.286 L
527.335 534.286 L
527.734 534.286 L
528.132 534.286 L
528.53 534.286 L
528.929 534.286 L
529.327 534.286 L
529.725 534.286 L
530.124 534.286 L
530.522 534.286 L
530.92 534.286 L
531.318 534.286 L
531.717 534.286 L
532.115 534.286 L
532.513 534.286 L
532.912 534.286 L
533.31 534.286 L
533.708 534.286 L
534.107 534.286 L
534.505 534.286 L
534.903 534.286 L
535.302 534.286 L
535.7 534.286 L
536.098 534.286 L
536.497 534.286 L
536.895 534.286 L
537.293 534.286 L
537.691 534.286 L
538.09 534.286 L
538.488 534.286 L
538.886 534.286 L
539.285 534.286 L
539.683 534.286 L
540.081 534.286 L
540.48 534.286 L
540.878 534.286 L
541.276 534.286 L
541.675 534.286 L
542.073 534.286 L
542.471 534.286 L
542.869 534.286 L
543.268 534.286 L
543.666 534.286 L
544.064 534.286 L
544.463 534.286 L
544.861 534.286 L
545.259 534.286 L
545.658 534.286 L
546.056 534.286 L
546.454 534.286 L
546.853 534.286 L
547.251 534.286 L
547.649 534.286 L
548.047 534.286 L
548.446 534.286 L
548.844 534.286 L
549.242 534.286 L
549.641 534.286 L
550.039 534.286 L
550.437 534.286 L
550.836 534.286 L
551.234 534.286 L
551.632 534.286 L
552.031 534.286 L
552.429 534.286 L
552.827 534.286 L
553.226 534.286 L
553.624 534.286 L
554.022 534.286 L
554.42 534.286 L
554.819 534.286 L
555.217 534.286 L
555.615 534.286 L
556.014 534.286 L
556.412 534.286 L
556.81 534.286 L
557.209 534.286 L
557.607 534.286 L
558.005 534.286 L
558.404 534.286 L
558.802 534.286 L
559.2 534.286 L
559.598 534.286 L
559.997 534.286 L
560.395 534.286 L
560.793 534.286 L
561.192 534.286 L
561.59 534.286 L
561.988 534.286 L
562.387 534.286 L
562.785 534.286 L
563.183 534.286 L
563.582 534.286 L
563.98 534.286 L
564.378 534.286 L
564.776 534.286 L
565.175 534.286 L
565.573 534.286 L
565.971 534.286 L
566.37 534.286 L
566.768 534.286 L
567.166 534.286 L
567.565 534.286 L
567.963 534.286 L
568.361 534.286 L
568.76 534.286 L
569.158 534.286 L
569.556 534.286 L
569.955 534.286 L
570.353 534.286 L
570.751 534.286 L
571.149 534.286 L
571.548 534.286 L
571.946 534.286 L
572.344 534.286 L
572.743 534.286 L
573.141 534.286 L
573.539 534.286 L
573.938 534.286 L
574.336 534.286 L
574.734 534.286 L
575.133 534.286 L
575.531 534.286 L
575.929 534.286 L
576.327 534.286 L
576.726 534.286 L
577.124 534.286 L
577.522 534.286 L
577.921 534.286 L
578.319 534.286 L
578.717 534.286 L
579.116 534.286 L
579.514 534.286 L
579.912 534.286 L
580.311 534.286 L
580.709 534.286 L
581.107 534.286 L
581.505 534.286 L
581.904 534.286 L
582.302 534.286 L
582.7 534.286 L
583.099 534.286 L
583.497 534.286 L
583.895 534.286 L
584.294 534.286 L
584.692 534.286 L
585.09 534.286 L
585.489 534.286 L
585.887 534.286 L
586.285 534.286 L
586.683 534.286 L
587.082 534.286 L
587.48 534.286 L
587.878 534.286 L
588.277 534.286 L
588.675 534.286 L
589.073 534.286 L
589.472 534.286 L
589.87 534.286 L
590.268 534.286 L
590.667 534.286 L
591.065 534.286 L
591.463 534.286 L
591.862 534.286 L
592.26 534.286 L
592.658 534.286 L
593.056 534.286 L
593.455 534.286 L
593.853 534.286 L
594.251 534.286 L
594.65 534.286 L
595.048 534.286 L
595.446 534.286 L
595.845 534.286 L
596.243 534.286 L
596.641 534.286 L
597.04 534.286 L
597.438 534.286 L
597.836 534.286 L
598.234 534.286 L
598.633 534.286 L
599.031 534.286 L
599.429 534.286 L
599.828 534.286 L
600.226 534.286 L
600.624 534.286 L
601.023 534.286 L
601.421 534.286 L
601.819 534.286 L
602.218 534.286 L
602.616 534.286 L
603.014 534.286 L
603.412 534.286 L
603.811 534.286 L
604.209 534.286 L
604.607 534.286 L
605.006 534.286 L
605.404 534.286 L
605.802 534.286 L
606.201 534.286 L
606.599 534.286 L
606.997 534.286 L
607.396 534.286 L
607.794 534.286 L
608.192 534.286 L
608.591 534.286 L
608.989 534.286 L
609.387 534.286 L
609.785 534.286 L
610.184 534.286 L
610.582 534.286 L
610.98 534.286 L
611.379 534.286 L
611.777 534.286 L
612.175 534.286 L
612.574 534.286 L
612.972 534.286 L
613.37 534.286 L
613.768 534.286 L
614.167 534.286 L
614.565 534.286 L
614.963 534.286 L
615.362 534.286 L
615.76 534.286 L
616.158 534.286 L
616.557 534.286 L
616.955 534.286 L
617.353 534.286 L
617.752 534.286 L
618.15 534.286 L
618.548 534.286 L
618.947 534.286 L
619.345 534.286 L
619.743 534.286 L
620.141 534.286 L
620.54 534.286 L
620.938 534.286 L
621.336 534.286 L
621.735 534.286 L
622.133 534.286 L
622.531 534.286 L
622.93 534.286 L
623.328 534.286 L
623.726 534.286 L
624.125 534.286 L
624.523 534.286 L
624.921 534.286 L
625.319 534.286 L
625.718 534.286 L
626.116 534.286 L
626.514 534.286 L
626.913 534.286 L
627.311 534.286 L
627.709 534.286 L
628.108 534.286 L
628.506 534.286 L
628.904 534.286 L
629.303 534.286 L
629.701 534.286 L
630.099 534.286 L
630.497 534.286 L
630.896 534.286 L
631.294 534.286 L
631.692 534.286 L
632.091 534.286 L
632.489 534.286 L
632.887 534.286 L
633.286 534.286 L
633.684 534.286 L
634.082 534.286 L
634.481 534.286 L
634.879 534.286 L
635.277 534.286 L
635.676 534.286 L
636.074 534.286 L
636.472 534.286 L
636.87 534.286 L
637.269 534.286 L
637.667 534.286 L
638.065 534.286 L
638.464 534.286 L
638.862 534.286 L
639.26 534.286 L
639.659 534.286 L
640.057 534.286 L
640.455 534.286 L
640.854 534.286 L
641.252 534.286 L
641.65 534.286 L
642.048 534.286 L
642.447 534.286 L
642.845 534.286 L
643.243 534.286 L
643.642 534.286 L
644.04 534.286 L
644.438 534.286 L
644.837 534.286 L
645.235 534.286 L
645.633 534.286 L
646.032 534.286 L
646.43 534.286 L
646.828 534.286 L
647.227 534.286 L
647.625 534.286 L
648.023 534.286 L
648.421 534.286 L
648.82 534.286 L
649.218 534.286 L
649.616 534.286 L
650.015 534.286 L
650.413 534.286 L
650.811 534.286 L
651.21 534.286 L
651.608 534.286 L
652.006 534.286 L
652.404 534.286 L
652.803 534.286 L
653.201 534.286 L
653.599 534.286 L
653.998 534.286 L
654.396 534.286 L
654.794 534.286 L
655.193 534.286 L
655.591 534.286 L
655.989 534.286 L
656.388 534.286 L
656.786 534.286 L
657.184 534.286 L
657.583 534.286 L
657.981 534.286 L
658.379 534.286 L
658.777 534.286 L
659.176 534.286 L
659.574 534.286 L
659.972 534.286 L
660.371 534.286 L
660.769 534.286 L
661.167 534.286 L
661.566 534.286 L
661.964 534.286 L
662.362 534.286 L
662.761 534.286 L
663.159 534.286 L
663.557 534.286 L
663.955 534.286 L
664.354 534.286 L
664.752 534.286 L
665.15 534.286 L
665.549 534.286 L
665.947 534.286 L
666.345 534.286 L
666.744 534.286 L
667.142 534.286 L
667.54 534.286 L
667.939 534.286 L
668.337 534.286 L
668.735 534.286 L
669.133 534.286 L
669.532 534.286 L
669.93 534.286 L
670.328 534.286 L
670.727 534.286 L
671.125 534.286 L
671.523 534.286 L
671.922 534.286 L
672.32 534.286 L
672.718 534.286 L
673.117 534.286 L
673.515 534.286 L
673.913 534.286 L
674.312 534.286 L
674.71 534.286 L
675.108 534.286 L
675.506 534.286 L
675.905 534.286 L
676.303 534.286 L
676.701 534.286 L
677.1 534.286 L
677.498 534.286 L
677.896 534.286 L
678.295 534.286 L
678.693 534.286 L
679.091 534.286 L
679.49 534.286 L
679.888 534.286 L
680.286 534.286 L
680.684 534.286 L
681.083 534.286 L
681.481 534.286 L
681.879 534.286 L
682.278 534.286 L
682.676 534.286 L
683.074 534.286 L
683.473 534.286 L
683.871 534.286 L
684.269 534.286 L
684.668 534.286 L
685.066 534.286 L
685.464 534.286 L
685.862 534.286 L
686.261 534.286 L
686.659 534.286 L
687.057 534.286 L
687.456 534.286 L
687.854 534.286 L
688.252 534.286 L
688.651 534.286 L
689.049 534.286 L
689.447 534.286 L
689.846 534.286 L
690.244 534.286 L
690.642 534.286 L
691.041 534.286 L
691.439 534.286 L
691.837 534.286 L
692.235 534.286 L
692.634 534.286 L
693.032 534.286 L
693.43 534.286 L
693.829 534.286 L
694.227 534.286 L
694.625 534.286 L
695.024 534.286 L
695.422 534.286 L
695.82 534.286 L
696.219 534.286 L
696.617 534.286 L
697.015 534.286 L
697.413 534.286 L
697.812 534.286 L
698.21 534.286 L
698.608 534.286 L
699.007 534.286 L
699.405 534.286 L
699.803 534.286 L
700.202 534.286 L
700.6 534.286 L
700.998 534.286 L
701.397 534.286 L
701.795 534.286 L
702.193 534.286 L
702.591 534.286 L
702.99 534.286 L
703.388 534.286 L
703.786 534.286 L
704.185 534.286 L
704.583 534.286 L
704.981 534.286 L
705.38 534.286 L
705.778 534.286 L
706.176 534.286 L
706.575 534.286 L
706.973 534.286 L
707.371 534.286 L
707.769 534.286 L
708.168 534.286 L
708.566 534.286 L
708.964 534.286 L
709.363 534.286 L
709.761 534.286 L
710.159 534.286 L
710.558 534.286 L
710.956 534.286 L
711.354 534.286 L
711.753 534.286 L
712.151 534.286 L
712.549 534.286 L
712.948 534.286 L
713.346 534.286 L
713.744 534.286 L
714.142 534.286 L
714.541 534.286 L
714.939 534.286 L
715.337 534.286 L
715.736 534.286 L
716.134 534.286 L
716.532 534.286 L
716.931 534.286 L
717.329 534.286 L
717.727 534.286 L
718.126 534.286 L
718.524 534.286 L
718.922 534.286 L
719.32 534.286 L
719.719 534.286 L
720.117 534.286 L
720.515 534.286 L
720.914 534.286 L
721.312 534.286 L
721.71 534.286 L
722.109 534.286 L
722.507 534.286 L
722.905 534.286 L
723.304 534.286 L
723.702 534.286 L
724.1 534.286 L
724.498 534.286 L
724.897 534.286 L
725.295 534.286 L
725.693 534.286 L
726.092 534.286 L
726.49 534.286 L
726.888 534.286 L
727.287 534.286 L
727.685 534.286 L
728.083 534.286 L
728.482 534.286 L
728.88 534.286 L
729.278 534.286 L
729.677 534.286 L
730.075 534.286 L
730.473 534.286 L
730.871 534.286 L
731.27 534.286 L
731.668 534.286 L
732.066 534.286 L
732.465 534.286 L
732.863 534.286 L
733.261 534.286 L
733.66 534.286 L
734.058 534.286 L
734.456 534.286 L
734.854 534.286 L
735.253 534.286 L
735.651 534.286 L
736.049 534.286 L
736.448 534.286 L
736.846 534.286 L
737.244 534.286 L
737.643 534.286 L
738.041 534.286 L
738.439 534.286 L
738.838 534.286 L
739.236 534.286 L
739.634 534.286 L
740.033 534.286 L
740.431 534.286 L
740.829 534.286 L
741.227 534.286 L
741.626 534.286 L
742.024 534.286 L
742.422 534.286 L
742.821 534.286 L
743.219 534.286 L
743.617 534.286 L
744.016 534.286 L
744.414 534.286 L
744.812 534.286 L
745.211 534.286 L
745.609 534.286 L
746.007 534.286 L
746.405 534.286 L
746.804 534.286 L
747.202 534.286 L
747.6 534.286 L
747.999 534.286 L
748.397 534.286 L
748.795 534.286 L
749.194 534.286 L
749.592 534.286 L
749.99 534.286 L
750.389 534.286 L
750.787 534.286 L
751.185 534.286 L
751.583 534.286 L
751.982 534.286 L
752.38 534.286 L
752.778 534.286 L
753.177 534.286 L
753.575 534.286 L
753.973 534.286 L
754.372 534.286 L
754.77 534.286 L
755.168 534.286 L
755.567 534.286 L
755.965 534.286 L
756.363 534.286 L
756.762 534.286 L
757.16 534.286 L
757.558 534.286 L
757.956 534.286 L
758.355 534.286 L
758.753 534.286 L
759.151 534.286 L
759.55 534.286 L
759.948 534.286 L
760.078 534.286 L
S
GR
GS
[0.5 0 0 0.5 0 0] CT
1 0 0 RC
1 LJ
3 LW
N
120.662 62.527 M
121.06 75.06 L
121.458 87.084 L
121.857 98.643 L
122.255 109.736 L
122.653 120.407 L
123.052 130.646 L
123.45 140.484 L
123.848 149.943 L
124.246 159.034 L
124.645 167.768 L
125.043 176.156 L
125.441 184.23 L
125.84 191.99 L
126.238 199.458 L
126.636 206.633 L
127.035 213.538 L
127.433 220.173 L
127.831 226.569 L
128.23 232.717 L
128.628 238.626 L
129.026 244.33 L
129.425 249.817 L
129.823 255.088 L
130.221 260.174 L
130.619 265.077 L
131.018 269.796 L
131.416 274.352 L
131.814 278.736 L
132.213 282.956 L
132.611 287.037 L
133.009 290.965 L
133.408 294.753 L
133.806 298.412 L
134.204 301.94 L
134.603 305.349 L
135.001 308.639 L
135.399 311.821 L
135.797 314.884 L
136.196 317.849 L
136.594 320.718 L
136.992 323.488 L
137.391 326.172 L
137.789 328.759 L
138.187 331.27 L
138.586 333.694 L
138.984 336.043 L
139.382 338.326 L
139.781 340.523 L
140.179 342.666 L
140.577 344.734 L
140.975 346.747 L
141.374 348.695 L
141.772 350.578 L
142.17 352.418 L
142.569 354.204 L
142.967 355.924 L
143.365 357.613 L
143.764 359.247 L
144.162 360.838 L
144.56 362.375 L
144.959 363.879 L
145.357 365.351 L
145.755 366.769 L
146.154 368.154 L
146.552 369.507 L
146.95 370.828 L
147.348 372.115 L
147.747 373.371 L
148.145 374.594 L
148.543 375.795 L
148.942 376.953 L
149.34 378.1 L
149.738 379.215 L
150.137 380.298 L
150.535 381.369 L
150.933 382.408 L
151.332 383.436 L
151.73 384.432 L
152.128 385.417 L
152.526 386.369 L
152.925 387.311 L
153.323 388.231 L
153.721 389.14 L
154.12 390.027 L
154.518 390.904 L
154.916 391.759 L
155.315 392.592 L
155.713 393.426 L
156.111 394.237 L
156.51 395.038 L
156.908 395.818 L
157.306 396.597 L
157.704 397.354 L
158.103 398.112 L
158.501 398.848 L
158.899 399.573 L
159.298 400.287 L
159.696 401.002 L
160.094 401.694 L
160.493 402.387 L
160.891 403.058 L
161.289 403.729 L
161.688 404.389 L
162.086 405.049 L
162.484 405.688 L
162.882 406.327 L
163.281 406.954 L
163.679 407.582 L
164.077 408.199 L
164.476 408.805 L
164.874 409.4 L
165.272 409.996 L
165.671 410.591 L
166.069 411.175 L
166.467 411.749 L
166.866 412.322 L
167.264 412.885 L
167.662 413.448 L
168.061 414 L
168.459 414.552 L
168.857 415.104 L
169.255 415.645 L
169.654 416.175 L
170.052 416.706 L
170.45 417.236 L
170.849 417.756 L
171.247 418.275 L
171.645 418.795 L
172.044 419.303 L
172.442 419.812 L
172.84 420.31 L
173.239 420.808 L
173.637 421.305 L
174.035 421.803 L
174.433 422.29 L
174.832 422.777 L
175.23 423.254 L
175.628 423.73 L
176.027 424.206 L
176.425 424.682 L
176.823 425.148 L
177.222 425.613 L
177.62 426.078 L
178.018 426.544 L
178.417 426.998 L
178.815 427.453 L
179.213 427.907 L
179.611 428.351 L
180.01 428.806 L
180.408 429.249 L
180.806 429.693 L
181.205 430.126 L
181.603 430.559 L
182.001 431.003 L
182.4 431.436 L
182.798 431.858 L
183.196 432.291 L
183.595 432.713 L
183.993 433.135 L
184.391 433.557 L
184.789 433.979 L
185.188 434.39 L
185.586 434.802 L
185.984 435.213 L
186.383 435.624 L
186.781 436.035 L
187.179 436.436 L
187.578 436.847 L
187.976 437.248 L
188.374 437.648 L
188.773 438.038 L
189.171 438.438 L
189.569 438.839 L
189.968 439.228 L
190.366 439.618 L
190.764 440.007 L
191.162 440.386 L
191.561 440.776 L
191.959 441.155 L
192.357 441.544 L
192.756 441.923 L
193.154 442.302 L
193.552 442.67 L
193.951 443.049 L
194.349 443.427 L
194.747 443.795 L
195.146 444.163 L
195.544 444.531 L
195.942 444.899 L
196.34 445.257 L
196.739 445.625 L
197.137 445.982 L
197.535 446.35 L
197.934 446.707 L
198.332 447.064 L
198.73 447.421 L
199.129 447.767 L
199.527 448.125 L
199.925 448.471 L
200.324 448.817 L
200.722 449.164 L
201.12 449.51 L
201.518 449.856 L
201.917 450.203 L
202.315 450.549 L
202.713 450.884 L
203.112 451.22 L
203.51 451.555 L
203.908 451.891 L
204.307 452.227 L
204.705 452.562 L
205.103 452.898 L
205.502 453.222 L
205.9 453.558 L
206.298 453.882 L
206.697 454.207 L
207.095 454.532 L
207.493 454.856 L
207.891 455.181 L
208.29 455.495 L
208.688 455.82 L
209.086 456.134 L
209.485 456.458 L
209.883 456.772 L
210.281 457.086 L
210.68 457.4 L
211.078 457.703 L
211.476 458.017 L
211.875 458.331 L
212.273 458.634 L
212.671 458.937 L
213.069 459.251 L
213.468 459.554 L
213.866 459.857 L
214.264 460.149 L
214.663 460.452 L
215.061 460.755 L
215.459 461.047 L
215.858 461.35 L
216.256 461.642 L
216.654 461.935 L
217.053 462.227 L
217.451 462.519 L
217.849 462.811 L
218.247 463.103 L
218.646 463.385 L
219.044 463.677 L
219.442 463.958 L
219.841 464.251 L
220.239 464.532 L
220.637 464.814 L
221.036 465.095 L
221.434 465.376 L
221.832 465.647 L
222.231 465.928 L
222.629 466.21 L
223.027 466.48 L
223.425 466.751 L
223.824 467.032 L
224.222 467.303 L
224.62 467.573 L
225.019 467.844 L
225.417 468.115 L
225.815 468.374 L
226.214 468.645 L
226.612 468.915 L
227.01 469.175 L
227.409 469.435 L
227.807 469.705 L
228.205 469.965 L
228.604 470.225 L
229.002 470.485 L
229.4 470.744 L
229.798 470.993 L
230.197 471.253 L
230.595 471.513 L
230.993 471.762 L
231.392 472.011 L
231.79 472.27 L
232.188 472.519 L
232.587 472.768 L
232.985 473.017 L
233.383 473.266 L
233.782 473.515 L
234.18 473.753 L
234.578 474.002 L
234.976 474.24 L
235.375 474.489 L
235.773 474.727 L
236.171 474.965 L
236.57 475.214 L
236.968 475.452 L
237.366 475.691 L
237.765 475.929 L
238.163 476.156 L
238.561 476.394 L
238.96 476.632 L
239.358 476.859 L
239.756 477.098 L
240.154 477.325 L
240.553 477.552 L
240.951 477.79 L
241.349 478.017 L
241.748 478.245 L
242.146 478.472 L
242.544 478.688 L
242.943 478.916 L
243.341 479.143 L
243.739 479.37 L
244.138 479.587 L
244.536 479.803 L
244.934 480.031 L
245.332 480.247 L
245.731 480.463 L
246.129 480.68 L
246.527 480.896 L
246.926 481.113 L
247.324 481.329 L
247.722 481.546 L
248.121 481.762 L
248.519 481.968 L
248.917 482.184 L
249.316 482.39 L
249.714 482.606 L
250.112 482.812 L
250.511 483.018 L
250.909 483.223 L
251.307 483.44 L
251.705 483.645 L
252.104 483.84 L
252.502 484.046 L
252.9 484.251 L
253.299 484.457 L
253.697 484.652 L
254.095 484.858 L
254.494 485.052 L
254.892 485.258 L
255.29 485.453 L
255.689 485.648 L
256.087 485.842 L
256.485 486.048 L
256.883 486.243 L
257.282 486.438 L
257.68 486.622 L
258.078 486.816 L
258.477 487.011 L
258.875 487.206 L
259.273 487.39 L
259.672 487.585 L
260.07 487.769 L
260.468 487.964 L
260.867 488.148 L
261.265 488.332 L
261.663 488.516 L
262.061 488.7 L
262.46 488.884 L
262.858 489.068 L
263.256 489.252 L
263.655 489.436 L
264.053 489.62 L
264.451 489.804 L
264.85 489.977 L
265.248 490.161 L
265.646 490.334 L
266.045 490.518 L
266.443 490.691 L
266.841 490.864 L
267.24 491.037 L
267.638 491.221 L
268.036 491.395 L
268.434 491.568 L
268.833 491.741 L
269.231 491.914 L
269.629 492.076 L
270.028 492.25 L
270.426 492.423 L
270.824 492.596 L
271.223 492.758 L
271.621 492.931 L
272.019 493.094 L
272.418 493.256 L
272.816 493.429 L
273.214 493.592 L
273.612 493.754 L
274.011 493.916 L
274.409 494.079 L
274.807 494.241 L
275.206 494.403 L
275.604 494.566 L
276.002 494.728 L
276.401 494.89 L
276.799 495.053 L
277.197 495.204 L
277.596 495.367 L
277.994 495.518 L
278.392 495.68 L
278.79 495.832 L
279.189 495.994 L
279.587 496.146 L
279.985 496.297 L
280.384 496.449 L
280.782 496.611 L
281.18 496.763 L
281.579 496.914 L
281.977 497.066 L
282.375 497.217 L
282.774 497.358 L
283.172 497.509 L
283.57 497.661 L
283.968 497.813 L
284.367 497.953 L
284.765 498.105 L
285.163 498.245 L
285.562 498.397 L
285.96 498.538 L
286.358 498.689 L
286.757 498.83 L
287.155 498.971 L
287.553 499.111 L
287.952 499.252 L
288.35 499.403 L
288.748 499.544 L
289.147 499.685 L
289.545 499.826 L
289.943 499.955 L
290.341 500.096 L
290.74 500.237 L
291.138 500.378 L
291.536 500.507 L
291.935 500.648 L
292.333 500.789 L
292.731 500.919 L
293.13 501.059 L
293.528 501.189 L
293.926 501.319 L
294.325 501.46 L
294.723 501.59 L
295.121 501.72 L
295.519 501.849 L
295.918 501.979 L
296.316 502.109 L
296.714 502.239 L
297.113 502.369 L
297.511 502.499 L
297.909 502.629 L
298.308 502.759 L
298.706 502.888 L
299.104 503.018 L
299.503 503.137 L
299.901 503.267 L
300.299 503.386 L
300.697 503.516 L
301.096 503.646 L
301.494 503.765 L
301.892 503.884 L
302.291 504.014 L
302.689 504.133 L
303.087 504.252 L
303.486 504.382 L
303.884 504.501 L
304.282 504.62 L
304.681 504.739 L
305.079 504.858 L
305.477 504.977 L
305.875 505.096 L
306.274 505.215 L
306.672 505.334 L
307.07 505.443 L
307.469 505.562 L
307.867 505.681 L
308.265 505.8 L
308.664 505.908 L
309.062 506.027 L
309.46 506.135 L
309.859 506.254 L
310.257 506.363 L
310.655 506.482 L
311.054 506.59 L
311.452 506.709 L
311.85 506.817 L
312.248 506.925 L
312.647 507.034 L
313.045 507.153 L
313.443 507.261 L
313.842 507.369 L
314.24 507.477 L
314.638 507.586 L
315.037 507.694 L
315.435 507.802 L
315.833 507.91 L
316.232 508.018 L
316.63 508.116 L
317.028 508.224 L
317.426 508.332 L
317.825 508.441 L
318.223 508.538 L
318.621 508.646 L
319.02 508.744 L
319.418 508.852 L
319.816 508.949 L
320.215 509.057 L
320.613 509.155 L
321.011 509.263 L
321.41 509.361 L
321.808 509.458 L
322.206 509.566 L
322.604 509.664 L
323.003 509.761 L
323.401 509.858 L
323.799 509.956 L
324.198 510.053 L
324.596 510.161 L
324.994 510.259 L
325.393 510.356 L
325.791 510.443 L
326.189 510.54 L
326.588 510.638 L
326.986 510.735 L
327.384 510.832 L
327.783 510.93 L
328.181 511.016 L
328.579 511.114 L
328.977 511.211 L
329.376 511.298 L
329.774 511.395 L
330.172 511.482 L
330.571 511.579 L
330.969 511.666 L
331.367 511.763 L
331.766 511.85 L
332.164 511.947 L
332.562 512.034 L
332.961 512.12 L
333.359 512.218 L
333.757 512.304 L
334.155 512.391 L
334.554 512.478 L
334.952 512.564 L
335.35 512.661 L
335.749 512.748 L
336.147 512.835 L
336.545 512.921 L
336.944 513.008 L
337.342 513.094 L
337.74 513.181 L
338.139 513.257 L
338.537 513.343 L
338.935 513.43 L
339.333 513.517 L
339.732 513.603 L
340.13 513.679 L
340.528 513.765 L
340.927 513.852 L
341.325 513.928 L
341.723 514.014 L
342.122 514.101 L
342.52 514.177 L
342.918 514.263 L
343.317 514.339 L
343.715 514.426 L
344.113 514.501 L
344.511 514.577 L
344.91 514.664 L
345.308 514.74 L
345.706 514.815 L
346.105 514.902 L
346.503 514.978 L
346.901 515.053 L
347.3 515.129 L
347.698 515.205 L
348.096 515.292 L
348.495 515.367 L
348.893 515.443 L
349.291 515.519 L
349.69 515.595 L
350.088 515.67 L
350.486 515.746 L
350.884 515.822 L
351.283 515.898 L
351.681 515.963 L
352.079 516.038 L
352.478 516.114 L
352.876 516.19 L
353.274 516.266 L
353.673 516.331 L
354.071 516.406 L
354.469 516.482 L
354.868 516.547 L
355.266 516.623 L
355.664 516.698 L
356.062 516.763 L
356.461 516.839 L
356.859 516.904 L
357.257 516.98 L
357.656 517.045 L
358.054 517.121 L
358.452 517.185 L
358.851 517.25 L
359.249 517.326 L
359.647 517.391 L
360.046 517.456 L
360.444 517.532 L
360.842 517.597 L
361.24 517.662 L
361.639 517.727 L
362.037 517.802 L
362.435 517.867 L
362.834 517.932 L
363.232 517.997 L
363.63 518.062 L
364.029 518.127 L
364.427 518.192 L
364.825 518.257 L
365.224 518.322 L
365.622 518.387 L
366.02 518.452 L
366.418 518.517 L
366.817 518.582 L
367.215 518.647 L
367.613 518.712 L
368.012 518.766 L
368.41 518.831 L
368.808 518.896 L
369.207 518.96 L
369.605 519.015 L
370.003 519.08 L
370.402 519.144 L
370.8 519.199 L
371.198 519.263 L
371.597 519.328 L
371.995 519.383 L
372.393 519.447 L
372.791 519.502 L
373.19 519.567 L
373.588 519.621 L
373.986 519.686 L
374.385 519.74 L
374.783 519.805 L
375.181 519.859 L
375.58 519.924 L
375.978 519.978 L
376.376 520.032 L
376.775 520.097 L
377.173 520.151 L
377.571 520.205 L
377.969 520.259 L
378.368 520.324 L
378.766 520.378 L
379.164 520.432 L
379.563 520.486 L
379.961 520.541 L
380.359 520.606 L
380.758 520.66 L
381.156 520.714 L
381.554 520.768 L
381.953 520.822 L
382.351 520.876 L
382.749 520.93 L
383.147 520.984 L
383.546 521.038 L
383.944 521.093 L
384.342 521.147 L
384.741 521.201 L
385.139 521.255 L
385.537 521.298 L
385.936 521.352 L
386.334 521.406 L
386.732 521.461 L
387.131 521.515 L
387.529 521.569 L
387.927 521.612 L
388.326 521.666 L
388.724 521.72 L
389.122 521.764 L
389.52 521.818 L
389.919 521.872 L
390.317 521.915 L
390.715 521.969 L
391.114 522.023 L
391.512 522.067 L
391.91 522.121 L
392.309 522.164 L
392.707 522.218 L
393.105 522.261 L
393.504 522.316 L
393.902 522.359 L
394.3 522.413 L
394.698 522.456 L
395.097 522.51 L
395.495 522.554 L
395.893 522.597 L
396.292 522.651 L
396.69 522.694 L
397.088 522.738 L
397.487 522.792 L
397.885 522.835 L
398.283 522.878 L
398.682 522.932 L
399.08 522.976 L
399.478 523.019 L
399.876 523.062 L
400.275 523.106 L
400.673 523.16 L
401.071 523.203 L
401.47 523.246 L
401.868 523.29 L
402.266 523.333 L
402.665 523.376 L
403.063 523.419 L
403.461 523.463 L
403.86 523.506 L
404.258 523.549 L
404.656 523.593 L
405.054 523.636 L
405.453 523.679 L
405.851 523.723 L
406.249 523.766 L
406.648 523.809 L
407.046 523.852 L
407.444 523.896 L
407.843 523.939 L
408.241 523.982 L
408.639 524.026 L
409.038 524.058 L
409.436 524.101 L
409.834 524.145 L
410.233 524.188 L
410.631 524.231 L
411.029 524.264 L
411.427 524.307 L
411.826 524.35 L
412.224 524.394 L
412.622 524.426 L
413.021 524.469 L
413.419 524.513 L
413.817 524.545 L
414.216 524.588 L
414.614 524.632 L
415.012 524.664 L
415.411 524.707 L
415.809 524.74 L
416.207 524.783 L
416.605 524.816 L
417.004 524.859 L
417.402 524.902 L
417.8 524.935 L
418.199 524.978 L
418.597 525.01 L
418.995 525.043 L
419.394 525.086 L
419.792 525.119 L
420.19 525.162 L
420.589 525.194 L
420.987 525.238 L
421.385 525.27 L
421.783 525.303 L
422.182 525.346 L
422.58 525.378 L
422.978 525.411 L
423.377 525.454 L
423.775 525.487 L
424.173 525.519 L
424.572 525.562 L
424.97 525.595 L
425.368 525.627 L
425.767 525.66 L
426.165 525.692 L
426.563 525.736 L
426.961 525.768 L
427.36 525.801 L
427.758 525.833 L
428.156 525.865 L
428.555 525.909 L
428.953 525.941 L
429.351 525.974 L
429.75 526.006 L
430.148 526.039 L
430.546 526.071 L
430.945 526.104 L
431.343 526.136 L
431.741 526.169 L
432.14 526.201 L
432.538 526.233 L
432.936 526.266 L
433.334 526.298 L
433.733 526.331 L
434.131 526.363 L
434.529 526.396 L
434.928 526.428 L
435.326 526.461 L
435.724 526.493 L
436.123 526.526 L
436.521 526.558 L
436.919 526.591 L
437.318 526.623 L
437.716 526.645 L
438.114 526.677 L
438.512 526.71 L
438.911 526.742 L
439.309 526.775 L
439.707 526.807 L
440.106 526.829 L
440.504 526.861 L
440.902 526.894 L
441.301 526.926 L
441.699 526.948 L
442.097 526.98 L
442.496 527.013 L
442.894 527.045 L
443.292 527.067 L
443.69 527.099 L
444.089 527.132 L
444.487 527.153 L
444.885 527.186 L
445.284 527.218 L
445.682 527.24 L
446.08 527.272 L
446.479 527.305 L
446.877 527.327 L
447.275 527.359 L
447.674 527.381 L
448.072 527.413 L
448.47 527.446 L
448.868 527.467 L
449.267 527.5 L
449.665 527.521 L
450.063 527.554 L
450.462 527.575 L
450.86 527.608 L
451.258 527.63 L
451.657 527.662 L
452.055 527.684 L
452.453 527.716 L
452.852 527.738 L
453.25 527.77 L
453.648 527.792 L
454.047 527.814 L
454.445 527.846 L
454.843 527.868 L
455.241 527.9 L
455.64 527.922 L
456.038 527.943 L
456.436 527.976 L
456.835 527.998 L
457.233 528.019 L
457.631 528.052 L
458.03 528.073 L
458.428 528.095 L
458.826 528.127 L
459.225 528.149 L
459.623 528.171 L
460.021 528.203 L
460.419 528.225 L
460.818 528.246 L
461.216 528.268 L
461.614 528.301 L
462.013 528.322 L
462.411 528.344 L
462.809 528.366 L
463.208 528.398 L
463.606 528.42 L
464.004 528.441 L
464.403 528.463 L
464.801 528.485 L
465.199 528.506 L
465.597 528.539 L
465.996 528.56 L
466.394 528.582 L
466.792 528.604 L
467.191 528.625 L
467.589 528.647 L
467.987 528.669 L
468.386 528.69 L
468.784 528.723 L
469.182 528.744 L
469.581 528.766 L
469.979 528.788 L
470.377 528.809 L
470.776 528.831 L
471.174 528.853 L
471.572 528.874 L
471.97 528.896 L
472.369 528.917 L
472.767 528.939 L
473.165 528.961 L
473.564 528.982 L
473.962 529.004 L
474.36 529.026 L
474.759 529.047 L
475.157 529.069 L
475.555 529.091 L
475.954 529.112 L
476.352 529.134 L
476.75 529.156 L
477.148 529.177 L
477.547 529.188 L
477.945 529.21 L
478.343 529.231 L
478.742 529.253 L
479.14 529.275 L
479.538 529.296 L
479.937 529.318 L
480.335 529.34 L
480.733 529.35 L
481.132 529.372 L
481.53 529.394 L
481.928 529.415 L
482.326 529.437 L
482.725 529.459 L
483.123 529.469 L
483.521 529.491 L
483.92 529.513 L
484.318 529.534 L
484.716 529.556 L
485.115 529.567 L
485.513 529.589 L
485.911 529.61 L
486.31 529.632 L
486.708 529.643 L
487.106 529.664 L
487.504 529.686 L
487.903 529.697 L
488.301 529.718 L
488.699 529.74 L
489.098 529.762 L
489.496 529.773 L
489.894 529.794 L
490.293 529.816 L
490.691 529.827 L
491.089 529.848 L
491.488 529.87 L
491.886 529.881 L
492.284 529.902 L
492.683 529.924 L
493.081 529.935 L
493.479 529.956 L
493.877 529.967 L
494.276 529.989 L
494.674 530.011 L
495.072 530.021 L
495.471 530.043 L
495.869 530.054 L
496.267 530.076 L
496.666 530.097 L
497.064 530.108 L
497.462 530.13 L
497.861 530.141 L
498.259 530.162 L
498.657 530.173 L
499.055 530.195 L
499.454 530.205 L
499.852 530.227 L
500.25 530.238 L
500.649 530.26 L
501.047 530.27 L
501.445 530.292 L
501.844 530.303 L
502.242 530.324 L
502.64 530.335 L
503.039 530.357 L
503.437 530.368 L
503.835 530.389 L
504.233 530.4 L
504.632 530.422 L
505.03 530.433 L
505.428 530.454 L
505.827 530.465 L
506.225 530.476 L
506.623 530.498 L
507.022 530.508 L
507.42 530.53 L
507.818 530.541 L
508.217 530.563 L
508.615 530.573 L
509.013 530.584 L
509.411 530.606 L
509.81 530.617 L
510.208 530.628 L
510.606 530.649 L
511.005 530.66 L
511.403 530.682 L
511.801 530.692 L
512.2 530.703 L
512.598 530.725 L
512.996 530.736 L
513.395 530.747 L
513.793 530.768 L
514.191 530.779 L
514.59 530.79 L
514.988 530.801 L
515.386 530.822 L
515.784 530.833 L
516.183 530.844 L
516.581 530.866 L
516.979 530.876 L
517.378 530.887 L
517.776 530.898 L
518.174 530.92 L
518.573 530.931 L
518.971 530.941 L
519.369 530.952 L
519.768 530.974 L
520.166 530.985 L
520.564 530.995 L
520.962 531.006 L
521.361 531.028 L
521.759 531.039 L
522.157 531.05 L
522.556 531.06 L
522.954 531.071 L
523.352 531.093 L
523.751 531.104 L
524.149 531.115 L
524.547 531.125 L
524.946 531.136 L
525.344 531.158 L
525.742 531.169 L
526.141 531.18 L
526.539 531.19 L
526.937 531.201 L
527.335 531.212 L
527.734 531.234 L
528.132 531.244 L
528.53 531.255 L
528.929 531.266 L
529.327 531.277 L
529.725 531.288 L
530.124 531.299 L
530.522 531.309 L
530.92 531.331 L
531.318 531.342 L
531.717 531.353 L
532.115 531.363 L
532.513 531.374 L
532.912 531.385 L
533.31 531.396 L
533.708 531.407 L
534.107 531.418 L
534.505 531.428 L
534.903 531.439 L
535.302 531.45 L
535.7 531.472 L
536.098 531.483 L
536.497 531.493 L
536.895 531.504 L
537.293 531.515 L
537.691 531.526 L
538.09 531.537 L
538.488 531.547 L
538.886 531.558 L
539.285 531.569 L
539.683 531.58 L
540.081 531.591 L
540.48 531.602 L
540.878 531.612 L
541.276 531.623 L
541.675 531.634 L
542.073 531.645 L
542.471 531.656 L
542.869 531.667 L
543.268 531.677 L
543.666 531.688 L
544.064 531.699 L
544.463 531.71 L
544.861 531.721 L
545.259 531.731 L
545.658 531.742 L
546.056 531.753 L
546.454 531.753 L
546.853 531.764 L
547.251 531.775 L
547.649 531.786 L
548.047 531.796 L
548.446 531.807 L
548.844 531.818 L
549.242 531.829 L
549.641 531.84 L
550.039 531.851 L
550.437 531.861 L
550.836 531.872 L
551.234 531.883 L
551.632 531.883 L
552.031 531.894 L
552.429 531.905 L
552.827 531.915 L
553.226 531.926 L
553.624 531.937 L
554.022 531.948 L
554.42 531.959 L
554.819 531.97 L
555.217 531.97 L
555.615 531.98 L
556.014 531.991 L
556.412 532.002 L
556.81 532.013 L
557.209 532.024 L
557.607 532.034 L
558.005 532.034 L
558.404 532.045 L
558.802 532.056 L
559.2 532.067 L
559.598 532.078 L
559.997 532.089 L
560.395 532.089 L
560.793 532.099 L
561.192 532.11 L
561.59 532.121 L
561.988 532.132 L
562.387 532.132 L
562.785 532.143 L
563.183 532.154 L
563.582 532.164 L
563.98 532.175 L
564.378 532.175 L
564.776 532.186 L
565.175 532.197 L
565.573 532.208 L
565.971 532.219 L
566.37 532.219 L
566.768 532.229 L
567.166 532.24 L
567.565 532.251 L
567.963 532.251 L
568.361 532.262 L
568.76 532.273 L
569.158 532.283 L
569.556 532.283 L
569.955 532.294 L
570.353 532.305 L
570.751 532.316 L
571.149 532.316 L
571.548 532.327 L
571.946 532.338 L
572.344 532.348 L
572.743 532.348 L
573.141 532.359 L
573.539 532.37 L
573.938 532.37 L
574.336 532.381 L
574.734 532.392 L
575.133 532.402 L
575.531 532.402 L
575.929 532.413 L
576.327 532.424 L
576.726 532.424 L
577.124 532.435 L
577.522 532.446 L
577.921 532.446 L
578.319 532.457 L
578.717 532.467 L
579.116 532.467 L
579.514 532.478 L
579.912 532.489 L
580.311 532.489 L
580.709 532.5 L
581.107 532.511 L
581.505 532.511 L
581.904 532.522 L
582.302 532.532 L
582.7 532.532 L
583.099 532.543 L
583.497 532.554 L
583.895 532.554 L
584.294 532.565 L
584.692 532.576 L
585.09 532.576 L
585.489 532.586 L
585.887 532.597 L
586.285 532.597 L
586.683 532.608 L
587.082 532.608 L
587.48 532.619 L
587.878 532.63 L
588.277 532.63 L
588.675 532.641 L
589.073 532.651 L
589.472 532.651 L
589.87 532.662 L
590.268 532.662 L
590.667 532.673 L
591.065 532.684 L
591.463 532.684 L
591.862 532.695 L
592.26 532.695 L
592.658 532.706 L
593.056 532.716 L
593.455 532.716 L
593.853 532.727 L
594.251 532.727 L
594.65 532.738 L
595.048 532.749 L
595.446 532.749 L
595.845 532.76 L
596.243 532.76 L
596.641 532.77 L
597.04 532.77 L
597.438 532.781 L
597.836 532.781 L
598.234 532.792 L
598.633 532.803 L
599.031 532.803 L
599.429 532.814 L
599.828 532.814 L
600.226 532.825 L
600.624 532.825 L
601.023 532.835 L
601.421 532.835 L
601.819 532.846 L
602.218 532.857 L
602.616 532.857 L
603.014 532.868 L
603.412 532.868 L
603.811 532.879 L
604.209 532.879 L
604.607 532.89 L
605.006 532.89 L
605.404 532.9 L
605.802 532.9 L
606.201 532.911 L
606.599 532.911 L
606.997 532.922 L
607.396 532.922 L
607.794 532.933 L
608.192 532.933 L
608.591 532.944 L
608.989 532.944 L
609.387 532.954 L
609.785 532.954 L
610.184 532.965 L
610.582 532.965 L
610.98 532.976 L
611.379 532.976 L
611.777 532.987 L
612.175 532.987 L
612.574 532.998 L
612.972 532.998 L
613.37 533.009 L
613.768 533.009 L
614.167 533.019 L
614.565 533.019 L
614.963 533.03 L
615.362 533.03 L
615.76 533.041 L
616.158 533.041 L
616.557 533.041 L
616.955 533.052 L
617.353 533.052 L
617.752 533.063 L
618.15 533.063 L
618.548 533.073 L
618.947 533.073 L
619.345 533.084 L
619.743 533.084 L
620.141 533.095 L
620.54 533.095 L
620.938 533.095 L
621.336 533.106 L
621.735 533.106 L
622.133 533.117 L
622.531 533.117 L
622.93 533.128 L
623.328 533.128 L
623.726 533.138 L
624.125 533.138 L
624.523 533.138 L
624.921 533.149 L
625.319 533.149 L
625.718 533.16 L
626.116 533.16 L
626.514 533.171 L
626.913 533.171 L
627.311 533.171 L
627.709 533.182 L
628.108 533.182 L
628.506 533.193 L
628.904 533.193 L
629.303 533.193 L
629.701 533.203 L
630.099 533.203 L
630.497 533.214 L
630.896 533.214 L
631.294 533.214 L
631.692 533.225 L
632.091 533.225 L
632.489 533.236 L
632.887 533.236 L
633.286 533.236 L
633.684 533.247 L
634.082 533.247 L
634.481 533.258 L
634.879 533.258 L
635.277 533.258 L
635.676 533.268 L
636.074 533.268 L
636.472 533.268 L
636.87 533.279 L
637.269 533.279 L
637.667 533.29 L
638.065 533.29 L
638.464 533.29 L
638.862 533.301 L
639.26 533.301 L
639.659 533.301 L
640.057 533.312 L
640.455 533.312 L
640.854 533.322 L
641.252 533.322 L
641.65 533.322 L
642.048 533.333 L
642.447 533.333 L
642.845 533.333 L
643.243 533.344 L
643.642 533.344 L
644.04 533.344 L
644.438 533.355 L
644.837 533.355 L
645.235 533.355 L
645.633 533.366 L
646.032 533.366 L
646.43 533.366 L
646.828 533.377 L
647.227 533.377 L
647.625 533.377 L
648.023 533.387 L
648.421 533.387 L
648.82 533.387 L
649.218 533.398 L
649.616 533.398 L
650.015 533.398 L
650.413 533.409 L
650.811 533.409 L
651.21 533.409 L
651.608 533.42 L
652.006 533.42 L
652.404 533.42 L
652.803 533.431 L
653.201 533.431 L
653.599 533.431 L
653.998 533.441 L
654.396 533.441 L
654.794 533.441 L
655.193 533.452 L
655.591 533.452 L
655.989 533.452 L
656.388 533.463 L
656.786 533.463 L
657.184 533.463 L
657.583 533.474 L
657.981 533.474 L
658.379 533.474 L
658.777 533.474 L
659.176 533.485 L
659.574 533.485 L
659.972 533.485 L
660.371 533.496 L
660.769 533.496 L
661.167 533.496 L
661.566 533.506 L
661.964 533.506 L
662.362 533.506 L
662.761 533.506 L
663.159 533.517 L
663.557 533.517 L
663.955 533.517 L
664.354 533.528 L
664.752 533.528 L
665.15 533.528 L
665.549 533.528 L
665.947 533.539 L
666.345 533.539 L
666.744 533.539 L
667.142 533.539 L
667.54 533.55 L
667.939 533.55 L
668.337 533.55 L
668.735 533.561 L
669.133 533.561 L
669.532 533.561 L
669.93 533.561 L
670.328 533.571 L
670.727 533.571 L
671.125 533.571 L
671.523 533.571 L
671.922 533.582 L
672.32 533.582 L
672.718 533.582 L
673.117 533.593 L
673.515 533.593 L
673.913 533.593 L
674.312 533.593 L
674.71 533.604 L
675.108 533.604 L
675.506 533.604 L
675.905 533.604 L
676.303 533.615 L
676.701 533.615 L
677.1 533.615 L
677.498 533.615 L
677.896 533.625 L
678.295 533.625 L
678.693 533.625 L
679.091 533.625 L
679.49 533.636 L
679.888 533.636 L
680.286 533.636 L
680.684 533.636 L
681.083 533.647 L
681.481 533.647 L
681.879 533.647 L
682.278 533.647 L
682.676 533.647 L
683.074 533.658 L
683.473 533.658 L
683.871 533.658 L
684.269 533.658 L
684.668 533.669 L
685.066 533.669 L
685.464 533.669 L
685.862 533.669 L
686.261 533.68 L
686.659 533.68 L
687.057 533.68 L
687.456 533.68 L
687.854 533.68 L
688.252 533.69 L
688.651 533.69 L
689.049 533.69 L
689.447 533.69 L
689.846 533.701 L
690.244 533.701 L
690.642 533.701 L
691.041 533.701 L
691.439 533.701 L
691.837 533.712 L
692.235 533.712 L
692.634 533.712 L
693.032 533.712 L
693.43 533.723 L
693.829 533.723 L
694.227 533.723 L
694.625 533.723 L
695.024 533.723 L
695.422 533.734 L
695.82 533.734 L
696.219 533.734 L
696.617 533.734 L
697.015 533.734 L
697.413 533.745 L
697.812 533.745 L
698.21 533.745 L
698.608 533.745 L
699.007 533.745 L
699.405 533.755 L
699.803 533.755 L
700.202 533.755 L
700.6 533.755 L
700.998 533.755 L
701.397 533.766 L
701.795 533.766 L
702.193 533.766 L
702.591 533.766 L
702.99 533.766 L
703.388 533.777 L
703.786 533.777 L
704.185 533.777 L
704.583 533.777 L
704.981 533.777 L
705.38 533.788 L
705.778 533.788 L
706.176 533.788 L
706.575 533.788 L
706.973 533.788 L
707.371 533.788 L
707.769 533.799 L
708.168 533.799 L
708.566 533.799 L
708.964 533.799 L
709.363 533.799 L
709.761 533.809 L
710.159 533.809 L
710.558 533.809 L
710.956 533.809 L
711.354 533.809 L
711.753 533.809 L
712.151 533.82 L
712.549 533.82 L
712.948 533.82 L
713.346 533.82 L
713.744 533.82 L
714.142 533.82 L
714.541 533.831 L
714.939 533.831 L
715.337 533.831 L
715.736 533.831 L
716.134 533.831 L
716.532 533.842 L
716.931 533.842 L
717.329 533.842 L
717.727 533.842 L
718.126 533.842 L
718.524 533.842 L
718.922 533.842 L
719.32 533.853 L
719.719 533.853 L
720.117 533.853 L
720.515 533.853 L
720.914 533.853 L
721.312 533.853 L
721.71 533.864 L
722.109 533.864 L
722.507 533.864 L
722.905 533.864 L
723.304 533.864 L
723.702 533.864 L
724.1 533.874 L
724.498 533.874 L
724.897 533.874 L
725.295 533.874 L
725.693 533.874 L
726.092 533.874 L
726.49 533.874 L
726.888 533.885 L
727.287 533.885 L
727.685 533.885 L
728.083 533.885 L
728.482 533.885 L
728.88 533.885 L
729.278 533.896 L
729.677 533.896 L
730.075 533.896 L
730.473 533.896 L
730.871 533.896 L
731.27 533.896 L
731.668 533.896 L
732.066 533.907 L
732.465 533.907 L
732.863 533.907 L
733.261 533.907 L
733.66 533.907 L
734.058 533.907 L
734.456 533.907 L
734.854 533.918 L
735.253 533.918 L
735.651 533.918 L
736.049 533.918 L
736.448 533.918 L
736.846 533.918 L
737.244 533.918 L
737.643 533.918 L
738.041 533.929 L
738.439 533.929 L
738.838 533.929 L
739.236 533.929 L
739.634 533.929 L
740.033 533.929 L
740.431 533.929 L
740.829 533.939 L
741.227 533.939 L
741.626 533.939 L
742.024 533.939 L
742.422 533.939 L
742.821 533.939 L
743.219 533.939 L
743.617 533.939 L
744.016 533.95 L
744.414 533.95 L
744.812 533.95 L
745.211 533.95 L
745.609 533.95 L
746.007 533.95 L
746.405 533.95 L
746.804 533.95 L
747.202 533.961 L
747.6 533.961 L
747.999 533.961 L
748.397 533.961 L
748.795 533.961 L
749.194 533.961 L
749.592 533.961 L
749.99 533.961 L
750.389 533.972 L
750.787 533.972 L
751.185 533.972 L
751.583 533.972 L
751.982 533.972 L
752.38 533.972 L
752.778 533.972 L
753.177 533.972 L
753.575 533.972 L
753.973 533.983 L
754.372 533.983 L
754.77 533.983 L
755.168 533.983 L
755.567 533.983 L
755.965 533.983 L
756.363 533.983 L
756.762 533.983 L
757.16 533.993 L
757.558 533.993 L
757.956 533.993 L
758.355 533.993 L
758.753 533.993 L
759.151 533.993 L
759.55 533.993 L
759.948 533.993 L
760.078 533.993 L
S
GR
GS
[0.5 0 0 0.5 0 0] CT
1 GC
N
744 130 M
744 63 L
505 63 L
505 130 L
cp
f
GR
GS
[0.5 0 0 0.5 287.67642 38.77715] CT
/Helvetica 18 F
GS
[1 0 0 1 0 0] CT
0 7.5 moveto 
1 -1 scale
(Measurement) t 
GR
GR
GS
[0.5 0 0 0.5 0 0] CT
0 0.447 0.741 RC
1 LJ
3 LW
N
510.987 77.554 M
570.862 77.554 L
S
GR
GS
[0.5 0 0 0.5 287.5 57] CT
/Helvetica 18 F
GS
[1 0 0 1 0 0] CT
0 0 moveto 
1 -1 scale
(V) t 
GR
GR
GS
[0.5 0 0 0.5 294 61.5] CT
/Helvetica 14.4 F
GS
[1 0 0 1 0 0] CT
0 0 moveto 
1 -1 scale
(oc) t 
GR
GR
GS
[0.5 0 0 0.5 302 57] CT
/Helvetica 18 F
GS
[1 0 0 1 0 0] CT
0 0 moveto 
1 -1 scale
(+) t 
GR
GR
GS
[0.5 0 0 0.5 307.5 57] CT
N
0.484 3.484 M
0.438 3.484 0.391 3.422 QT
0.344 3.359 0.344 3.313 QT
3.109 -7.813 L
3.344 -8.703 3.805 -9.547 QT
4.266 -10.391 4.953 -11.117 QT
5.641 -11.844 6.469 -12.266 QT
7.297 -12.688 8.234 -12.688 QT
8.891 -12.688 9.43 -12.398 QT
9.969 -12.109 10.281 -11.578 QT
10.594 -11.047 10.594 -10.375 QT
10.594 -9.734 10.352 -9.148 QT
10.109 -8.563 9.672 -8.055 QT
9.234 -7.547 8.734 -7.234 QT
9.016 -7.047 9.242 -6.766 QT
9.469 -6.484 9.609 -6.172 QT
9.75 -5.859 9.836 -5.477 QT
9.922 -5.094 9.922 -4.75 QT
9.922 -3.828 9.523 -2.938 QT
9.125 -2.047 8.445 -1.313 QT
7.766 -0.578 6.883 -0.156 QT
6 0.266 5.078 0.266 QT
4.063 0.266 3.258 -0.281 QT
2.453 -0.828 2.141 -1.781 QT
0.844 3.391 L
0.844 3.484 0.703 3.484 QT
0.484 3.484 L
cp
5.109 -0.219 M
5.922 -0.219 6.578 -0.75 QT
7.234 -1.281 7.664 -2.086 QT
8.094 -2.891 8.313 -3.789 QT
8.531 -4.688 8.531 -5.438 QT
8.531 -6.344 8 -6.875 QT
7.391 -6.641 6.797 -6.641 QT
5.375 -6.641 5.375 -7.125 QT
5.375 -7.766 7 -7.766 QT
7.578 -7.766 8.063 -7.578 QT
8.453 -7.875 8.773 -8.453 QT
9.094 -9.031 9.25 -9.664 QT
9.406 -10.297 9.406 -10.859 QT
9.406 -11.438 9.102 -11.828 QT
8.797 -12.219 8.188 -12.219 QT
7.094 -12.219 6.148 -11.547 QT
5.203 -10.875 4.555 -9.844 QT
3.906 -8.813 3.625 -7.703 QT
2.625 -3.734 L
2.531 -3.313 2.5 -2.797 QT
2.5 -1.672 3.242 -0.945 QT
3.984 -0.219 5.109 -0.219 QT
cp
5.922 -7.188 M
6.203 -7.109 6.828 -7.109 QT
7.125 -7.109 7.438 -7.219 QT
7.422 -7.234 7.359 -7.234 QT
7.172 -7.281 6.953 -7.281 QT
6.141 -7.281 5.922 -7.188 QT
cp
f
GR
GS
[0.5 0 0 0.5 313 61.5] CT
/Helvetica 14.4 F
GS
[1 0 0 1 0 0] CT
0 0 moveto 
1 -1 scale
(1) t 
GR
GR
GS
[0.5 0 0 0.5 317 57] CT
/Helvetica 18 F
GS
[1 0 0 1 0 0] CT
0 0 moveto 
1 -1 scale
(e) t 
GR
GR
GS
[0.5 0 0 0.5 322.5 52.5] CT
/Helvetica 14.4 F
GS
[1 0 0 1 0 0] CT
0 0 moveto 
1 -1 scale
(-) t 
GR
GR
GS
[0.5 0 0 0.5 325 52.5] CT
N
2.813 0.156 M
2.156 0.156 1.641 -0.156 QT
1.125 -0.469 0.844 -1 QT
0.563 -1.531 0.563 -2.219 QT
0.563 -3.172 1.094 -4.102 QT
1.625 -5.031 2.5 -5.609 QT
3.375 -6.188 4.344 -6.188 QT
5.047 -6.188 5.586 -5.813 QT
6.125 -5.438 6.406 -4.82 QT
6.688 -4.203 6.688 -3.5 QT
6.703 -2.563 L
7.188 -3.234 7.516 -3.945 QT
7.844 -4.656 8.031 -5.422 QT
8.047 -5.5 8.141 -5.5 QT
8.297 -5.5 L
8.422 -5.5 8.422 -5.375 QT
8.422 -5.359 8.422 -5.328 QT
8.25 -4.688 8.008 -4.094 QT
7.766 -3.5 7.43 -2.953 QT
7.094 -2.406 6.703 -1.953 QT
6.703 -0.219 7.109 -0.219 QT
7.375 -0.219 7.539 -0.367 QT
7.703 -0.516 7.828 -0.742 QT
7.953 -0.969 7.984 -0.984 QT
8.156 -0.984 L
8.266 -0.984 8.266 -0.844 QT
8.266 -0.5 7.867 -0.172 QT
7.469 0.156 7.078 0.156 QT
6.578 0.156 6.242 -0.172 QT
5.906 -0.5 5.781 -1.031 QT
5.125 -0.469 4.359 -0.156 QT
3.594 0.156 2.813 0.156 QT
cp
2.844 -0.219 M
4.344 -0.219 5.719 -1.438 QT
5.703 -1.531 5.695 -1.648 QT
5.688 -1.766 5.688 -1.781 QT
5.688 -3.281 L
5.688 -5.828 4.313 -5.828 QT
3.5 -5.828 2.883 -5.125 QT
2.266 -4.422 1.953 -3.445 QT
1.641 -2.469 1.641 -1.672 QT
1.641 -1.063 1.953 -0.641 QT
2.266 -0.219 2.844 -0.219 QT
cp
f
GR
GS
[0.5 0 0 0.5 330 57] CT
/Helvetica 11.52 F
GS
[1 0 0 1 0 0] CT
0 0 moveto 
1 -1 scale
(1) t 
GR
GR
GS
[0.5 0 0 0.5 333.5 52.5] CT
/Helvetica 14.4 F
GS
[1 0 0 1 0 0] CT
0 0 moveto 
1 -1 scale
(t) t 
GR
GR
GS
[0.5 0 0 0.5 335.5 57] CT
/Helvetica 18 F
GS
[1 0 0 1 0 0] CT
0 0 moveto 
1 -1 scale
(+) t 
GR
GR
GS
[0.5 0 0 0.5 341 57] CT
N
/f-2115545953{0.484 3.484 M
0.438 3.484 0.391 3.422 QT
0.344 3.359 0.344 3.313 QT
3.109 -7.813 L
3.344 -8.703 3.805 -9.547 QT
4.266 -10.391 4.953 -11.117 QT
5.641 -11.844 6.469 -12.266 QT
7.297 -12.688 8.234 -12.688 QT
8.891 -12.688 9.43 -12.398 QT
9.969 -12.109 10.281 -11.578 QT
10.594 -11.047 10.594 -10.375 QT
10.594 -9.734 10.352 -9.148 QT
10.109 -8.563 9.672 -8.055 QT
9.234 -7.547 8.734 -7.234 QT
9.016 -7.047 9.242 -6.766 QT
9.469 -6.484 9.609 -6.172 QT
9.75 -5.859 9.836 -5.477 QT
9.922 -5.094 9.922 -4.75 QT
9.922 -3.828 9.523 -2.938 QT
9.125 -2.047 8.445 -1.313 QT
7.766 -0.578 6.883 -0.156 QT
6 0.266 5.078 0.266 QT
4.063 0.266 3.258 -0.281 QT
2.453 -0.828 2.141 -1.781 QT
0.844 3.391 L
0.844 3.484 0.703 3.484 QT
0.484 3.484 L
cp
5.109 -0.219 M
5.922 -0.219 6.578 -0.75 QT
7.234 -1.281 7.664 -2.086 QT
8.094 -2.891 8.313 -3.789 QT
8.531 -4.688 8.531 -5.438 QT
8.531 -6.344 8 -6.875 QT
7.391 -6.641 6.797 -6.641 QT
5.375 -6.641 5.375 -7.125 QT
5.375 -7.766 7 -7.766 QT
7.578 -7.766 8.063 -7.578 QT
8.453 -7.875 8.773 -8.453 QT
9.094 -9.031 9.25 -9.664 QT
9.406 -10.297 9.406 -10.859 QT
9.406 -11.438 9.102 -11.828 QT
8.797 -12.219 8.188 -12.219 QT
7.094 -12.219 6.148 -11.547 QT
5.203 -10.875 4.555 -9.844 QT
3.906 -8.813 3.625 -7.703 QT
2.625 -3.734 L
2.531 -3.313 2.5 -2.797 QT
2.5 -1.672 3.242 -0.945 QT
3.984 -0.219 5.109 -0.219 QT
cp
5.922 -7.188 M
6.203 -7.109 6.828 -7.109 QT
7.125 -7.109 7.438 -7.219 QT
7.422 -7.234 7.359 -7.234 QT
7.172 -7.281 6.953 -7.281 QT
6.141 -7.281 5.922 -7.188 QT
cp}def
f-2115545953
f
GR
GS
[0.5 0 0 0.5 346.5 61.5] CT
/Helvetica 14.4 F
GS
[1 0 0 1 0 0] CT
0 0 moveto 
1 -1 scale
(2) t 
GR
GR
GS
[0.5 0 0 0.5 350.5 57] CT
/Helvetica 18 F
GS
[1 0 0 1 0 0] CT
0 0 moveto 
1 -1 scale
(e) t 
GR
GR
GS
[0.5 0 0 0.5 356 52.5] CT
/Helvetica 14.4 F
GS
[1 0 0 1 0 0] CT
0 0 moveto 
1 -1 scale
(-) t 
GR
GR
GS
[0.5 0 0 0.5 358.5 52.5] CT
N
/f1382591892{2.813 0.156 M
2.156 0.156 1.641 -0.156 QT
1.125 -0.469 0.844 -1 QT
0.563 -1.531 0.563 -2.219 QT
0.563 -3.172 1.094 -4.102 QT
1.625 -5.031 2.5 -5.609 QT
3.375 -6.188 4.344 -6.188 QT
5.047 -6.188 5.586 -5.813 QT
6.125 -5.438 6.406 -4.82 QT
6.688 -4.203 6.688 -3.5 QT
6.703 -2.563 L
7.188 -3.234 7.516 -3.945 QT
7.844 -4.656 8.031 -5.422 QT
8.047 -5.5 8.141 -5.5 QT
8.297 -5.5 L
8.422 -5.5 8.422 -5.375 QT
8.422 -5.359 8.422 -5.328 QT
8.25 -4.688 8.008 -4.094 QT
7.766 -3.5 7.43 -2.953 QT
7.094 -2.406 6.703 -1.953 QT
6.703 -0.219 7.109 -0.219 QT
7.375 -0.219 7.539 -0.367 QT
7.703 -0.516 7.828 -0.742 QT
7.953 -0.969 7.984 -0.984 QT
8.156 -0.984 L
8.266 -0.984 8.266 -0.844 QT
8.266 -0.5 7.867 -0.172 QT
7.469 0.156 7.078 0.156 QT
6.578 0.156 6.242 -0.172 QT
5.906 -0.5 5.781 -1.031 QT
5.125 -0.469 4.359 -0.156 QT
3.594 0.156 2.813 0.156 QT
cp
2.844 -0.219 M
4.344 -0.219 5.719 -1.438 QT
5.703 -1.531 5.695 -1.648 QT
5.688 -1.766 5.688 -1.781 QT
5.688 -3.281 L
5.688 -5.828 4.313 -5.828 QT
3.5 -5.828 2.883 -5.125 QT
2.266 -4.422 1.953 -3.445 QT
1.641 -2.469 1.641 -1.672 QT
1.641 -1.063 1.953 -0.641 QT
2.266 -0.219 2.844 -0.219 QT
cp}def
f1382591892
f
GR
GS
[0.5 0 0 0.5 363.5 57] CT
/Helvetica 11.52 F
GS
[1 0 0 1 0 0] CT
0 0 moveto 
1 -1 scale
(2) t 
GR
GR
GS
[0.5 0 0 0.5 367 52.5] CT
/Helvetica 14.4 F
GS
[1 0 0 1 0 0] CT
0 0 moveto 
1 -1 scale
(t) t 
GR
GR
GS
[0.5 0 0 0.5 0 0] CT
1 0 0 RC
1 LJ
3 LW
N
510.987 108.419 M
570.862 108.419 L
S
GR
GS
[0.5 0 0 0.5 0 0] CT
0.149 GC
10.0 ML
N
505 130 M
505 63 L
744 63 L
744 130 L
cp
S
GR
%%Trailer
%%Pages: 1
%%EOF
