%!PS-Adobe-3.0 EPSF-3.0
%%Creator: (MATLAB, The Mathworks, Inc. Version 9.4.0.813654 \(R2018a\). Operating System: Windows 10)
%%Title: C:/Users/robbe/OneDrive/VUB/Thesis/Thesis/StepIdentificationExampleEOD.eps
%%CreationDate: 2019-06-02T03:53:05
%%Pages: (atend)
%%BoundingBox: 0 0 420 315
%%LanguageLevel: 3
%%EndComments
%%BeginProlog
%%BeginResource: procset (Apache XML Graphics Std ProcSet) 1.2 0
%%Version: 1.2 0
%%Copyright: (Copyright 2001-2003,2010 The Apache Software Foundation. License terms: http://www.apache.org/licenses/LICENSE-2.0)
/bd{bind def}bind def
/ld{load def}bd
/GR/grestore ld
/GS/gsave ld
/RM/rmoveto ld
/C/curveto ld
/t/show ld
/L/lineto ld
/ML/setmiterlimit ld
/CT/concat ld
/f/fill ld
/N/newpath ld
/S/stroke ld
/CC/setcmykcolor ld
/A/ashow ld
/cp/closepath ld
/RC/setrgbcolor ld
/LJ/setlinejoin ld
/GC/setgray ld
/LW/setlinewidth ld
/M/moveto ld
/re {4 2 roll M
1 index 0 rlineto
0 exch rlineto
neg 0 rlineto
cp } bd
/_ctm matrix def
/_tm matrix def
/BT { _ctm currentmatrix pop matrix _tm copy pop 0 0 moveto } bd
/ET { _ctm setmatrix } bd
/iTm { _ctm setmatrix _tm concat } bd
/Tm { _tm astore pop iTm 0 0 moveto } bd
/ux 0.0 def
/uy 0.0 def
/F {
  /Tp exch def
  /Tf exch def
  Tf findfont Tp scalefont setfont
  /cf Tf def  /cs Tp def
} bd
/ULS {currentpoint /uy exch def /ux exch def} bd
/ULE {
  /Tcx currentpoint pop def
  gsave
  newpath
  cf findfont cs scalefont dup
  /FontMatrix get 0 get /Ts exch def /FontInfo get dup
  /UnderlinePosition get Ts mul /To exch def
  /UnderlineThickness get Ts mul /Tt exch def
  ux uy To add moveto  Tcx uy To add lineto
  Tt setlinewidth stroke
  grestore
} bd
/OLE {
  /Tcx currentpoint pop def
  gsave
  newpath
  cf findfont cs scalefont dup
  /FontMatrix get 0 get /Ts exch def /FontInfo get dup
  /UnderlinePosition get Ts mul /To exch def
  /UnderlineThickness get Ts mul /Tt exch def
  ux uy To add cs add moveto Tcx uy To add cs add lineto
  Tt setlinewidth stroke
  grestore
} bd
/SOE {
  /Tcx currentpoint pop def
  gsave
  newpath
  cf findfont cs scalefont dup
  /FontMatrix get 0 get /Ts exch def /FontInfo get dup
  /UnderlinePosition get Ts mul /To exch def
  /UnderlineThickness get Ts mul /Tt exch def
  ux uy To add cs 10 mul 26 idiv add moveto Tcx uy To add cs 10 mul 26 idiv add lineto
  Tt setlinewidth stroke
  grestore
} bd
/QT {
/Y22 exch store
/X22 exch store
/Y21 exch store
/X21 exch store
currentpoint
/Y21 load 2 mul add 3 div exch
/X21 load 2 mul add 3 div exch
/X21 load 2 mul /X22 load add 3 div
/Y21 load 2 mul /Y22 load add 3 div
/X22 load /Y22 load curveto
} bd
/SSPD {
dup length /d exch dict def
{
/v exch def
/k exch def
currentpagedevice k known {
/cpdv currentpagedevice k get def
v cpdv ne {
/upd false def
/nullv v type /nulltype eq def
/nullcpdv cpdv type /nulltype eq def
nullv nullcpdv or
{
/upd true def
} {
/sametype v type cpdv type eq def
sametype {
v type /arraytype eq {
/vlen v length def
/cpdvlen cpdv length def
vlen cpdvlen eq {
0 1 vlen 1 sub {
/i exch def
/obj v i get def
/cpdobj cpdv i get def
obj cpdobj ne {
/upd true def
exit
} if
} for
} {
/upd true def
} ifelse
} {
v type /dicttype eq {
v {
/dv exch def
/dk exch def
/cpddv cpdv dk get def
dv cpddv ne {
/upd true def
exit
} if
} forall
} {
/upd true def
} ifelse
} ifelse
} if
} ifelse
upd true eq {
d k v put
} if
} if
} if
} forall
d length 0 gt {
d setpagedevice
} if
} bd
/RE { % /NewFontName [NewEncodingArray] /FontName RE -
  findfont dup length dict begin
  {
    1 index /FID ne
    {def} {pop pop} ifelse
  } forall
  /Encoding exch def
  /FontName 1 index def
  currentdict definefont pop
  end
} bind def
%%EndResource
%%BeginResource: procset (Apache XML Graphics EPS ProcSet) 1.0 0
%%Version: 1.0 0
%%Copyright: (Copyright 2002-2003 The Apache Software Foundation. License terms: http://www.apache.org/licenses/LICENSE-2.0)
/BeginEPSF { %def
/b4_Inc_state save def         % Save state for cleanup
/dict_count countdictstack def % Count objects on dict stack
/op_count count 1 sub def      % Count objects on operand stack
userdict begin                 % Push userdict on dict stack
/showpage { } def              % Redefine showpage, { } = null proc
0 setgray 0 setlinecap         % Prepare graphics state
1 setlinewidth 0 setlinejoin
10 setmiterlimit [ ] 0 setdash newpath
/languagelevel where           % If level not equal to 1 then
{pop languagelevel             % set strokeadjust and
1 ne                           % overprint to their defaults.
{false setstrokeadjust false setoverprint
} if
} if
} bd
/EndEPSF { %def
count op_count sub {pop} repeat            % Clean up stacks
countdictstack dict_count sub {end} repeat
b4_Inc_state restore
} bd
%%EndResource
%FOPBeginFontDict
%%IncludeResource: font Courier-Oblique
%%IncludeResource: font Courier-BoldOblique
%%IncludeResource: font Courier-Bold
%%IncludeResource: font ZapfDingbats
%%IncludeResource: font Symbol
%%IncludeResource: font Helvetica
%%IncludeResource: font Helvetica-Oblique
%%IncludeResource: font Helvetica-Bold
%%IncludeResource: font Helvetica-BoldOblique
%%IncludeResource: font Times-Roman
%%IncludeResource: font Times-Italic
%%IncludeResource: font Times-Bold
%%IncludeResource: font Times-BoldItalic
%%IncludeResource: font Courier
%FOPEndFontDict
%%BeginResource: encoding WinAnsiEncoding
/WinAnsiEncoding [
/.notdef /.notdef /.notdef /.notdef /.notdef
/.notdef /.notdef /.notdef /.notdef /.notdef
/.notdef /.notdef /.notdef /.notdef /.notdef
/.notdef /.notdef /.notdef /.notdef /.notdef
/.notdef /.notdef /.notdef /.notdef /.notdef
/.notdef /.notdef /.notdef /.notdef /.notdef
/.notdef /.notdef /space /exclam /quotedbl
/numbersign /dollar /percent /ampersand /quotesingle
/parenleft /parenright /asterisk /plus /comma
/hyphen /period /slash /zero /one
/two /three /four /five /six
/seven /eight /nine /colon /semicolon
/less /equal /greater /question /at
/A /B /C /D /E
/F /G /H /I /J
/K /L /M /N /O
/P /Q /R /S /T
/U /V /W /X /Y
/Z /bracketleft /backslash /bracketright /asciicircum
/underscore /quoteleft /a /b /c
/d /e /f /g /h
/i /j /k /l /m
/n /o /p /q /r
/s /t /u /v /w
/x /y /z /braceleft /bar
/braceright /asciitilde /bullet /Euro /bullet
/quotesinglbase /florin /quotedblbase /ellipsis /dagger
/daggerdbl /circumflex /perthousand /Scaron /guilsinglleft
/OE /bullet /Zcaron /bullet /bullet
/quoteleft /quoteright /quotedblleft /quotedblright /bullet
/endash /emdash /asciitilde /trademark /scaron
/guilsinglright /oe /bullet /zcaron /Ydieresis
/space /exclamdown /cent /sterling /currency
/yen /brokenbar /section /dieresis /copyright
/ordfeminine /guillemotleft /logicalnot /sfthyphen /registered
/macron /degree /plusminus /twosuperior /threesuperior
/acute /mu /paragraph /middot /cedilla
/onesuperior /ordmasculine /guillemotright /onequarter /onehalf
/threequarters /questiondown /Agrave /Aacute /Acircumflex
/Atilde /Adieresis /Aring /AE /Ccedilla
/Egrave /Eacute /Ecircumflex /Edieresis /Igrave
/Iacute /Icircumflex /Idieresis /Eth /Ntilde
/Ograve /Oacute /Ocircumflex /Otilde /Odieresis
/multiply /Oslash /Ugrave /Uacute /Ucircumflex
/Udieresis /Yacute /Thorn /germandbls /agrave
/aacute /acircumflex /atilde /adieresis /aring
/ae /ccedilla /egrave /eacute /ecircumflex
/edieresis /igrave /iacute /icircumflex /idieresis
/eth /ntilde /ograve /oacute /ocircumflex
/otilde /odieresis /divide /oslash /ugrave
/uacute /ucircumflex /udieresis /yacute /thorn
/ydieresis
] def
%%EndResource
%FOPBeginFontReencode
/Courier-Oblique findfont
dup length dict begin
  {1 index /FID ne {def} {pop pop} ifelse} forall
  /Encoding WinAnsiEncoding def
  currentdict
end
/Courier-Oblique exch definefont pop
/Courier-BoldOblique findfont
dup length dict begin
  {1 index /FID ne {def} {pop pop} ifelse} forall
  /Encoding WinAnsiEncoding def
  currentdict
end
/Courier-BoldOblique exch definefont pop
/Courier-Bold findfont
dup length dict begin
  {1 index /FID ne {def} {pop pop} ifelse} forall
  /Encoding WinAnsiEncoding def
  currentdict
end
/Courier-Bold exch definefont pop
/Helvetica findfont
dup length dict begin
  {1 index /FID ne {def} {pop pop} ifelse} forall
  /Encoding WinAnsiEncoding def
  currentdict
end
/Helvetica exch definefont pop
/Helvetica-Oblique findfont
dup length dict begin
  {1 index /FID ne {def} {pop pop} ifelse} forall
  /Encoding WinAnsiEncoding def
  currentdict
end
/Helvetica-Oblique exch definefont pop
/Helvetica-Bold findfont
dup length dict begin
  {1 index /FID ne {def} {pop pop} ifelse} forall
  /Encoding WinAnsiEncoding def
  currentdict
end
/Helvetica-Bold exch definefont pop
/Helvetica-BoldOblique findfont
dup length dict begin
  {1 index /FID ne {def} {pop pop} ifelse} forall
  /Encoding WinAnsiEncoding def
  currentdict
end
/Helvetica-BoldOblique exch definefont pop
/Times-Roman findfont
dup length dict begin
  {1 index /FID ne {def} {pop pop} ifelse} forall
  /Encoding WinAnsiEncoding def
  currentdict
end
/Times-Roman exch definefont pop
/Times-Italic findfont
dup length dict begin
  {1 index /FID ne {def} {pop pop} ifelse} forall
  /Encoding WinAnsiEncoding def
  currentdict
end
/Times-Italic exch definefont pop
/Times-Bold findfont
dup length dict begin
  {1 index /FID ne {def} {pop pop} ifelse} forall
  /Encoding WinAnsiEncoding def
  currentdict
end
/Times-Bold exch definefont pop
/Times-BoldItalic findfont
dup length dict begin
  {1 index /FID ne {def} {pop pop} ifelse} forall
  /Encoding WinAnsiEncoding def
  currentdict
end
/Times-BoldItalic exch definefont pop
/Courier findfont
dup length dict begin
  {1 index /FID ne {def} {pop pop} ifelse} forall
  /Encoding WinAnsiEncoding def
  currentdict
end
/Courier exch definefont pop
%FOPEndFontReencode
%%EndProlog
%%Page: 1 1
%%PageBoundingBox: 0 0 420 315
%%BeginPageSetup
[1 0 0 -1 0 315] CT
%%EndPageSetup
GS
[0.5 0 0 0.5 0 0] CT
1 GC
N
0 0 840 630 re
f
GR
GS
[0.5 0 0 0.5 0 0] CT
1 GC
N
0 0 840 630 re
f
GR
GS
[0.5 0 0 0.5 0 0] CT
1 GC
N
109 561 M
760 561 L
760 47 L
109 47 L
cp
f
GR
GS
[0.5 0 0 0.5 0 0] CT
0.149 GC
2 setlinecap
1 LJ
N
109 561 M
760 561 L
S
GR
GS
[0.5 0 0 0.5 0 0] CT
0.149 GC
2 setlinecap
1 LJ
N
109 47 M
760 47 L
S
GR
GS
[0.5 0 0 0.5 0 0] CT
0.149 GC
2 setlinecap
1 LJ
N
198.058 561 M
198.058 554.49 L
S
GR
GS
[0.5 0 0 0.5 0 0] CT
0.149 GC
2 setlinecap
1 LJ
N
289.003 561 M
289.003 554.49 L
S
GR
GS
[0.5 0 0 0.5 0 0] CT
0.149 GC
2 setlinecap
1 LJ
N
379.947 561 M
379.947 554.49 L
S
GR
GS
[0.5 0 0 0.5 0 0] CT
0.149 GC
2 setlinecap
1 LJ
N
470.892 561 M
470.892 554.49 L
S
GR
GS
[0.5 0 0 0.5 0 0] CT
0.149 GC
2 setlinecap
1 LJ
N
561.836 561 M
561.836 554.49 L
S
GR
GS
[0.5 0 0 0.5 0 0] CT
0.149 GC
2 setlinecap
1 LJ
N
652.781 561 M
652.781 554.49 L
S
GR
GS
[0.5 0 0 0.5 0 0] CT
0.149 GC
2 setlinecap
1 LJ
N
743.725 561 M
743.725 554.49 L
S
GR
GS
[0.5 0 0 0.5 0 0] CT
0.149 GC
2 setlinecap
1 LJ
N
198.058 47 M
198.058 53.51 L
S
GR
GS
[0.5 0 0 0.5 0 0] CT
0.149 GC
2 setlinecap
1 LJ
N
289.003 47 M
289.003 53.51 L
S
GR
GS
[0.5 0 0 0.5 0 0] CT
0.149 GC
2 setlinecap
1 LJ
N
379.947 47 M
379.947 53.51 L
S
GR
GS
[0.5 0 0 0.5 0 0] CT
0.149 GC
2 setlinecap
1 LJ
N
470.892 47 M
470.892 53.51 L
S
GR
GS
[0.5 0 0 0.5 0 0] CT
0.149 GC
2 setlinecap
1 LJ
N
561.836 47 M
561.836 53.51 L
S
GR
GS
[0.5 0 0 0.5 0 0] CT
0.149 GC
2 setlinecap
1 LJ
N
652.781 47 M
652.781 53.51 L
S
GR
GS
[0.5 0 0 0.5 0 0] CT
0.149 GC
2 setlinecap
1 LJ
N
743.725 47 M
743.725 53.51 L
S
GR
GS
[0.5 0 0 0.5 99.02924 284.49973] CT
0.149 GC
/Helvetica 20 F
GS
[1 0 0 1 0 0] CT
-22.5 21 moveto 
1 -1 scale
(5000) t 
GR
GR
GS
[0.5 0 0 0.5 144.50145 284.49973] CT
0.149 GC
/Helvetica 20 F
GS
[1 0 0 1 0 0] CT
-22.5 21 moveto 
1 -1 scale
(5200) t 
GR
GR
GS
[0.5 0 0 0.5 189.97366 284.49973] CT
0.149 GC
/Helvetica 20 F
GS
[1 0 0 1 0 0] CT
-22.5 21 moveto 
1 -1 scale
(5400) t 
GR
GR
GS
[0.5 0 0 0.5 235.44586 284.49973] CT
0.149 GC
/Helvetica 20 F
GS
[1 0 0 1 0 0] CT
-22.5 21 moveto 
1 -1 scale
(5600) t 
GR
GR
GS
[0.5 0 0 0.5 280.91809 284.49973] CT
0.149 GC
/Helvetica 20 F
GS
[1 0 0 1 0 0] CT
-22.5 21 moveto 
1 -1 scale
(5800) t 
GR
GR
GS
[0.5 0 0 0.5 326.39029 284.49973] CT
0.149 GC
/Helvetica 20 F
GS
[1 0 0 1 0 0] CT
-22.5 21 moveto 
1 -1 scale
(6000) t 
GR
GR
GS
[0.5 0 0 0.5 371.86249 284.49973] CT
0.149 GC
/Helvetica 20 F
GS
[1 0 0 1 0 0] CT
-22.5 21 moveto 
1 -1 scale
(6200) t 
GR
GR
GS
[0.5 0 0 0.5 217.25011 298.49966] CT
0.149 GC
/Helvetica 22 F
GS
[1 0 0 1 0 0] CT
-40.5 23 moveto 
1 -1 scale
(Time \(s\)) t 
GR
GR
GS
[0.5 0 0 0.5 0 0] CT
0.149 GC
2 setlinecap
1 LJ
N
109 561 M
109 47 L
S
GR
GS
[0.5 0 0 0.5 0 0] CT
0.149 GC
2 setlinecap
1 LJ
N
760 561 M
760 47 L
S
GR
GS
[0.5 0 0 0.5 0 0] CT
0.149 GC
2 setlinecap
1 LJ
N
109 547.007 M
115.51 547.007 L
S
GR
GS
[0.5 0 0 0.5 0 0] CT
0.149 GC
2 setlinecap
1 LJ
N
109 498.404 M
115.51 498.404 L
S
GR
GS
[0.5 0 0 0.5 0 0] CT
0.149 GC
2 setlinecap
1 LJ
N
109 449.804 M
115.51 449.804 L
S
GR
GS
[0.5 0 0 0.5 0 0] CT
0.149 GC
2 setlinecap
1 LJ
N
109 401.202 M
115.51 401.202 L
S
GR
GS
[0.5 0 0 0.5 0 0] CT
0.149 GC
2 setlinecap
1 LJ
N
109 352.602 M
115.51 352.602 L
S
GR
GS
[0.5 0 0 0.5 0 0] CT
0.149 GC
2 setlinecap
1 LJ
N
109 304 M
115.51 304 L
S
GR
GS
[0.5 0 0 0.5 0 0] CT
0.149 GC
2 setlinecap
1 LJ
N
109 255.4 M
115.51 255.4 L
S
GR
GS
[0.5 0 0 0.5 0 0] CT
0.149 GC
2 setlinecap
1 LJ
N
109 206.797 M
115.51 206.797 L
S
GR
GS
[0.5 0 0 0.5 0 0] CT
0.149 GC
2 setlinecap
1 LJ
N
109 158.197 M
115.51 158.197 L
S
GR
GS
[0.5 0 0 0.5 0 0] CT
0.149 GC
2 setlinecap
1 LJ
N
109 109.595 M
115.51 109.595 L
S
GR
GS
[0.5 0 0 0.5 0 0] CT
0.149 GC
2 setlinecap
1 LJ
N
109 60.995 M
115.51 60.995 L
S
GR
GS
[0.5 0 0 0.5 0 0] CT
0.149 GC
2 setlinecap
1 LJ
N
760 547.007 M
753.49 547.007 L
S
GR
GS
[0.5 0 0 0.5 0 0] CT
0.149 GC
2 setlinecap
1 LJ
N
760 498.404 M
753.49 498.404 L
S
GR
GS
[0.5 0 0 0.5 0 0] CT
0.149 GC
2 setlinecap
1 LJ
N
760 449.804 M
753.49 449.804 L
S
GR
GS
[0.5 0 0 0.5 0 0] CT
0.149 GC
2 setlinecap
1 LJ
N
760 401.202 M
753.49 401.202 L
S
GR
GS
[0.5 0 0 0.5 0 0] CT
0.149 GC
2 setlinecap
1 LJ
N
760 352.602 M
753.49 352.602 L
S
GR
GS
[0.5 0 0 0.5 0 0] CT
0.149 GC
2 setlinecap
1 LJ
N
760 304 M
753.49 304 L
S
GR
GS
[0.5 0 0 0.5 0 0] CT
0.149 GC
2 setlinecap
1 LJ
N
760 255.4 M
753.49 255.4 L
S
GR
GS
[0.5 0 0 0.5 0 0] CT
0.149 GC
2 setlinecap
1 LJ
N
760 206.797 M
753.49 206.797 L
S
GR
GS
[0.5 0 0 0.5 0 0] CT
0.149 GC
2 setlinecap
1 LJ
N
760 158.197 M
753.49 158.197 L
S
GR
GS
[0.5 0 0 0.5 0 0] CT
0.149 GC
2 setlinecap
1 LJ
N
760 109.595 M
753.49 109.595 L
S
GR
GS
[0.5 0 0 0.5 0 0] CT
0.149 GC
2 setlinecap
1 LJ
N
760 60.995 M
753.49 60.995 L
S
GR
GS
[0.5 0 0 0.5 50.49998 273.50327] CT
0.149 GC
/Helvetica 20 F
GS
[1 0 0 1 0 0] CT
-51 8 moveto 
1 -1 scale
(3.945) t 
GR
GR
GS
[0.5 0 0 0.5 50.49998 249.20212] CT
0.149 GC
/Helvetica 20 F
GS
[1 0 0 1 0 0] CT
-39 8 moveto 
1 -1 scale
(3.95) t 
GR
GR
GS
[0.5 0 0 0.5 50.49998 224.90213] CT
0.149 GC
/Helvetica 20 F
GS
[1 0 0 1 0 0] CT
-51 8 moveto 
1 -1 scale
(3.955) t 
GR
GR
GS
[0.5 0 0 0.5 50.49998 200.601] CT
0.149 GC
/Helvetica 20 F
GS
[1 0 0 1 0 0] CT
-39 8 moveto 
1 -1 scale
(3.96) t 
GR
GR
GS
[0.5 0 0 0.5 50.49998 176.30101] CT
0.149 GC
/Helvetica 20 F
GS
[1 0 0 1 0 0] CT
-51 8 moveto 
1 -1 scale
(3.965) t 
GR
GR
GS
[0.5 0 0 0.5 50.49998 151.99986] CT
0.149 GC
/Helvetica 20 F
GS
[1 0 0 1 0 0] CT
-39 8 moveto 
1 -1 scale
(3.97) t 
GR
GR
GS
[0.5 0 0 0.5 50.49998 127.69987] CT
0.149 GC
/Helvetica 20 F
GS
[1 0 0 1 0 0] CT
-51 8 moveto 
1 -1 scale
(3.975) t 
GR
GR
GS
[0.5 0 0 0.5 50.49998 103.39873] CT
0.149 GC
/Helvetica 20 F
GS
[1 0 0 1 0 0] CT
-39 8 moveto 
1 -1 scale
(3.98) t 
GR
GR
GS
[0.5 0 0 0.5 50.49998 79.09875] CT
0.149 GC
/Helvetica 20 F
GS
[1 0 0 1 0 0] CT
-51 8 moveto 
1 -1 scale
(3.985) t 
GR
GR
GS
[0.5 0 0 0.5 50.49998 54.7976] CT
0.149 GC
/Helvetica 20 F
GS
[1 0 0 1 0 0] CT
-39 8 moveto 
1 -1 scale
(3.99) t 
GR
GR
GS
[0.5 0 0 0.5 50.49998 30.49761] CT
0.149 GC
/Helvetica 20 F
GS
[1 0 0 1 0 0] CT
-51 8 moveto 
1 -1 scale
(3.995) t 
GR
GR
GS
[0 -0.5 0.5 0 22.00002 151.99986] CT
0.149 GC
/Helvetica 22 F
GS
[1 0 0 1 0 0] CT
-55.5 -5 moveto 
1 -1 scale
(Voltage \(V\)) t 
GR
GR
GS
[0.5 0 0 0.5 217.25021 22.12454] CT
/Helvetica-Bold 22 F
GS
[1 0 0 1 0 0] CT
-89.5 -5 moveto 
1 -1 scale
(End of discharge) t 
GR
GR
GS
[0.5 0 0 0.5 0 0] CT
0 0.447 0.741 RC
1 LJ
3 LW
N
134.397 556.726 M
134.852 517.846 L
135.307 517.846 L
135.762 478.965 L
136.216 478.965 L
136.671 478.965 L
137.126 478.965 L
137.58 440.082 L
138.035 440.082 L
138.49 440.082 L
138.945 440.082 L
139.399 440.082 L
139.854 401.202 L
140.309 401.202 L
140.763 401.202 L
141.218 401.202 L
141.673 401.202 L
142.128 401.202 L
142.582 362.322 L
143.037 362.322 L
143.492 362.322 L
143.947 362.322 L
144.401 362.322 L
144.856 362.322 L
145.311 362.322 L
145.765 323.441 L
146.22 323.441 L
146.675 323.441 L
147.13 323.441 L
147.584 323.441 L
148.039 323.441 L
148.494 323.441 L
148.948 323.441 L
149.403 323.441 L
149.858 323.441 L
150.313 323.441 L
150.767 323.441 L
151.222 284.561 L
151.677 284.561 L
152.132 284.561 L
152.586 284.561 L
153.041 284.561 L
153.496 284.561 L
153.95 284.561 L
154.405 284.561 L
154.86 284.561 L
155.315 284.561 L
155.769 284.561 L
156.224 284.561 L
156.679 284.561 L
157.133 284.561 L
157.588 284.561 L
158.043 245.678 L
158.498 245.678 L
158.952 245.678 L
159.407 245.678 L
159.862 245.678 L
160.317 245.678 L
160.771 245.678 L
161.226 245.678 L
161.681 245.678 L
162.135 245.678 L
162.59 245.678 L
163.045 245.678 L
163.5 245.678 L
163.954 245.678 L
164.409 245.678 L
164.864 245.678 L
165.318 245.678 L
165.773 245.678 L
166.228 245.678 L
166.683 245.678 L
167.137 245.678 L
167.592 206.797 L
168.047 206.797 L
168.502 206.797 L
168.956 206.797 L
169.411 206.797 L
169.866 206.797 L
170.32 206.797 L
170.775 206.797 L
171.23 206.797 L
171.685 206.797 L
172.139 206.797 L
172.594 206.797 L
173.049 206.797 L
173.503 206.797 L
173.958 206.797 L
174.413 206.797 L
174.868 206.797 L
175.322 206.797 L
175.777 206.797 L
176.232 206.797 L
176.687 206.797 L
177.141 206.797 L
177.596 206.797 L
178.051 206.797 L
178.505 206.797 L
178.96 206.797 L
179.415 206.797 L
179.87 206.797 L
180.324 167.917 L
180.779 167.917 L
181.234 206.797 L
181.688 167.917 L
182.143 167.917 L
182.598 167.917 L
183.053 167.917 L
183.507 167.917 L
183.962 167.917 L
184.417 167.917 L
184.872 167.917 L
185.326 167.917 L
185.781 167.917 L
186.236 167.917 L
186.69 167.917 L
187.145 167.917 L
187.6 167.917 L
188.055 167.917 L
188.509 167.917 L
188.964 167.917 L
189.419 167.917 L
189.873 167.917 L
190.328 167.917 L
190.783 167.917 L
191.238 167.917 L
191.692 167.917 L
192.147 167.917 L
192.602 167.917 L
193.057 167.917 L
193.511 167.917 L
193.966 167.917 L
194.421 167.917 L
194.875 167.917 L
195.33 167.917 L
195.785 167.917 L
196.24 167.917 L
196.694 167.917 L
197.149 167.917 L
197.604 167.917 L
198.058 167.917 L
198.513 167.917 L
198.968 167.917 L
199.423 167.917 L
199.877 167.917 L
200.332 167.917 L
200.787 167.917 L
201.242 167.917 L
201.696 167.917 L
202.151 167.917 L
202.606 167.917 L
203.06 167.917 L
203.515 167.917 L
203.97 167.917 L
204.425 129.037 L
204.879 167.917 L
205.334 129.037 L
205.789 167.917 L
206.243 129.037 L
206.698 167.917 L
207.153 129.037 L
207.608 129.037 L
208.062 129.037 L
208.517 129.037 L
208.972 129.037 L
209.427 129.037 L
209.881 129.037 L
210.336 167.917 L
210.791 129.037 L
211.245 129.037 L
211.7 129.037 L
212.155 129.037 L
212.61 129.037 L
213.064 129.037 L
213.519 129.037 L
213.974 129.037 L
214.428 129.037 L
214.883 129.037 L
215.338 129.037 L
215.793 129.037 L
216.247 129.037 L
216.702 129.037 L
217.157 129.037 L
217.612 129.037 L
218.066 129.037 L
218.521 129.037 L
218.976 129.037 L
219.43 129.037 L
219.885 129.037 L
220.34 129.037 L
220.795 129.037 L
221.249 129.037 L
221.704 129.037 L
222.159 129.037 L
222.613 129.037 L
223.068 129.037 L
223.523 129.037 L
223.978 129.037 L
224.432 129.037 L
224.887 129.037 L
225.342 129.037 L
225.797 129.037 L
226.251 129.037 L
226.706 129.037 L
227.161 129.037 L
227.615 129.037 L
228.07 129.037 L
228.525 129.037 L
228.98 129.037 L
229.434 129.037 L
229.889 129.037 L
230.344 129.037 L
230.798 129.037 L
231.253 129.037 L
231.708 129.037 L
232.163 129.037 L
232.617 129.037 L
233.072 129.037 L
233.527 129.037 L
233.982 129.037 L
234.436 129.037 L
234.891 129.037 L
235.346 129.037 L
235.8 129.037 L
236.255 129.037 L
236.71 129.037 L
237.165 129.037 L
237.619 129.037 L
238.074 129.037 L
238.529 129.037 L
238.983 129.037 L
239.438 129.037 L
239.893 129.037 L
240.348 129.037 L
240.802 129.037 L
241.257 129.037 L
241.712 129.037 L
242.167 129.037 L
242.621 129.037 L
243.076 129.037 L
243.531 129.037 L
243.985 129.037 L
244.44 129.037 L
244.895 129.037 L
245.35 129.037 L
245.804 129.037 L
246.259 129.037 L
246.714 129.037 L
247.168 129.037 L
247.623 129.037 L
248.078 129.037 L
248.533 129.037 L
248.987 129.037 L
249.442 129.037 L
249.897 129.037 L
250.352 129.037 L
250.806 129.037 L
251.261 129.037 L
251.716 129.037 L
252.17 129.037 L
252.625 129.037 L
253.08 129.037 L
253.535 129.037 L
253.989 129.037 L
254.444 129.037 L
254.899 129.037 L
255.353 129.037 L
255.808 129.037 L
256.263 129.037 L
256.718 129.037 L
257.172 129.037 L
257.627 129.037 L
258.082 129.037 L
258.537 129.037 L
258.991 129.037 L
259.446 129.037 L
259.901 129.037 L
260.355 129.037 L
260.81 129.037 L
261.265 129.037 L
261.72 129.037 L
262.174 129.037 L
262.629 129.037 L
263.084 129.037 L
263.538 129.037 L
263.993 129.037 L
264.448 129.037 L
264.903 129.037 L
265.357 129.037 L
265.812 129.037 L
266.267 129.037 L
266.722 129.037 L
267.176 129.037 L
267.631 129.037 L
268.086 129.037 L
268.54 129.037 L
268.995 129.037 L
269.45 129.037 L
269.905 129.037 L
270.359 129.037 L
270.814 129.037 L
271.269 129.037 L
271.723 129.037 L
272.178 129.037 L
272.633 129.037 L
273.088 129.037 L
273.542 90.154 L
273.997 129.037 L
274.452 129.037 L
274.907 129.037 L
275.361 129.037 L
275.816 90.154 L
276.271 90.154 L
276.725 90.154 L
277.18 90.154 L
277.635 90.154 L
278.09 129.037 L
278.544 129.037 L
278.999 90.154 L
279.454 129.037 L
279.908 90.154 L
280.363 129.037 L
280.818 129.037 L
281.273 90.154 L
281.727 90.154 L
282.182 129.037 L
282.637 129.037 L
283.092 90.154 L
283.546 129.037 L
284.001 90.154 L
284.456 129.037 L
284.91 90.154 L
285.365 90.154 L
285.82 129.037 L
286.275 90.154 L
286.729 90.154 L
287.184 90.154 L
287.639 90.154 L
288.093 90.154 L
288.548 129.037 L
289.003 90.154 L
289.458 90.154 L
289.912 90.154 L
290.367 90.154 L
290.822 90.154 L
291.277 90.154 L
291.731 90.154 L
292.186 90.154 L
292.641 90.154 L
293.095 90.154 L
293.55 90.154 L
294.005 90.154 L
294.46 129.037 L
294.914 90.154 L
295.369 90.154 L
295.824 90.154 L
296.278 90.154 L
296.733 90.154 L
297.188 90.154 L
297.643 90.154 L
298.097 90.154 L
298.552 90.154 L
299.007 90.154 L
299.462 90.154 L
299.916 90.154 L
300.371 90.154 L
300.826 90.154 L
301.28 90.154 L
301.735 90.154 L
302.19 90.154 L
302.645 90.154 L
303.099 90.154 L
303.554 90.154 L
304.009 90.154 L
304.463 90.154 L
304.918 90.154 L
305.373 90.154 L
305.828 90.154 L
306.282 90.154 L
306.737 90.154 L
307.192 90.154 L
307.647 90.154 L
308.101 90.154 L
308.556 90.154 L
309.011 90.154 L
309.465 90.154 L
309.92 90.154 L
310.375 90.154 L
310.83 90.154 L
311.284 90.154 L
311.739 90.154 L
312.194 90.154 L
312.648 90.154 L
313.103 90.154 L
313.558 90.154 L
314.013 90.154 L
314.467 90.154 L
314.922 90.154 L
315.377 90.154 L
315.832 90.154 L
316.286 90.154 L
316.741 90.154 L
317.196 90.154 L
317.65 90.154 L
318.105 90.154 L
318.56 90.154 L
319.015 90.154 L
319.469 90.154 L
319.924 90.154 L
320.379 90.154 L
320.833 90.154 L
321.288 90.154 L
321.743 90.154 L
322.198 90.154 L
322.652 90.154 L
323.107 90.154 L
323.562 90.154 L
324.017 90.154 L
324.471 90.154 L
324.926 90.154 L
325.381 90.154 L
325.835 90.154 L
326.29 90.154 L
326.745 90.154 L
327.2 90.154 L
327.654 90.154 L
328.109 90.154 L
328.564 90.154 L
329.018 90.154 L
329.473 90.154 L
329.928 90.154 L
330.383 90.154 L
330.837 90.154 L
331.292 90.154 L
331.747 90.154 L
332.202 90.154 L
332.656 90.154 L
333.111 90.154 L
333.566 90.154 L
334.02 90.154 L
334.475 90.154 L
334.93 90.154 L
335.385 90.154 L
335.839 90.154 L
336.294 90.154 L
336.749 90.154 L
337.203 90.154 L
337.658 90.154 L
338.113 90.154 L
338.568 90.154 L
339.022 90.154 L
339.477 90.154 L
339.932 90.154 L
340.387 90.154 L
340.841 90.154 L
341.296 90.154 L
341.751 90.154 L
342.205 90.154 L
342.66 90.154 L
343.115 90.154 L
343.57 90.154 L
344.024 90.154 L
344.479 90.154 L
344.934 90.154 L
345.388 90.154 L
345.843 90.154 L
346.298 90.154 L
346.753 90.154 L
347.207 90.154 L
347.662 90.154 L
348.117 90.154 L
348.572 90.154 L
349.026 90.154 L
349.481 90.154 L
349.936 90.154 L
350.39 90.154 L
350.845 90.154 L
351.3 90.154 L
351.755 90.154 L
352.209 90.154 L
352.664 90.154 L
353.119 90.154 L
353.573 90.154 L
354.028 90.154 L
354.483 90.154 L
354.938 90.154 L
355.392 90.154 L
355.847 90.154 L
356.302 90.154 L
356.757 90.154 L
357.211 90.154 L
357.666 90.154 L
358.121 90.154 L
358.575 90.154 L
359.03 90.154 L
359.485 90.154 L
359.94 90.154 L
360.394 90.154 L
360.849 90.154 L
361.304 90.154 L
361.758 90.154 L
362.213 90.154 L
362.668 90.154 L
363.123 90.154 L
363.577 90.154 L
364.032 90.154 L
364.487 90.154 L
364.941 90.154 L
365.396 90.154 L
365.851 90.154 L
366.306 90.154 L
366.76 90.154 L
367.215 90.154 L
367.67 90.154 L
368.125 90.154 L
368.579 90.154 L
369.034 90.154 L
369.489 90.154 L
369.943 90.154 L
370.398 90.154 L
370.853 90.154 L
371.308 90.154 L
371.762 90.154 L
372.217 90.154 L
372.672 90.154 L
373.126 90.154 L
373.581 90.154 L
374.036 90.154 L
374.491 90.154 L
374.945 90.154 L
375.4 90.154 L
375.855 90.154 L
376.31 90.154 L
376.764 90.154 L
377.219 90.154 L
377.674 90.154 L
378.128 90.154 L
378.583 90.154 L
379.038 90.154 L
379.493 90.154 L
379.947 90.154 L
380.402 90.154 L
380.857 90.154 L
381.311 90.154 L
381.766 90.154 L
382.221 90.154 L
382.676 90.154 L
383.13 90.154 L
383.585 90.154 L
384.04 90.154 L
384.495 90.154 L
384.949 90.154 L
385.404 90.154 L
385.859 90.154 L
386.313 90.154 L
386.768 90.154 L
387.223 90.154 L
387.678 90.154 L
388.132 90.154 L
388.587 90.154 L
389.042 90.154 L
389.496 90.154 L
389.951 90.154 L
390.406 90.154 L
390.861 90.154 L
391.315 90.154 L
391.77 90.154 L
392.225 90.154 L
392.68 90.154 L
393.134 90.154 L
393.589 90.154 L
394.044 90.154 L
394.498 90.154 L
394.953 90.154 L
395.408 90.154 L
395.863 90.154 L
396.317 90.154 L
396.772 90.154 L
397.227 90.154 L
397.681 90.154 L
398.136 90.154 L
398.591 90.154 L
399.046 90.154 L
399.5 90.154 L
399.955 90.154 L
400.41 90.154 L
400.865 90.154 L
401.319 90.154 L
401.774 90.154 L
402.229 90.154 L
402.683 90.154 L
403.138 90.154 L
403.593 90.154 L
404.048 90.154 L
404.502 90.154 L
404.957 90.154 L
405.412 90.154 L
405.866 90.154 L
406.321 90.154 L
406.776 90.154 L
407.231 90.154 L
407.685 90.154 L
408.14 90.154 L
408.595 90.154 L
409.05 90.154 L
409.504 90.154 L
409.959 90.154 L
410.414 90.154 L
410.868 90.154 L
411.323 90.154 L
411.778 90.154 L
412.233 90.154 L
412.687 90.154 L
413.142 90.154 L
413.597 90.154 L
414.051 90.154 L
414.506 90.154 L
414.961 90.154 L
415.416 90.154 L
415.87 90.154 L
416.325 90.154 L
416.78 90.154 L
417.235 90.154 L
417.689 90.154 L
418.144 90.154 L
418.599 90.154 L
419.053 90.154 L
419.508 90.154 L
419.963 90.154 L
420.418 90.154 L
420.872 90.154 L
421.327 90.154 L
421.782 90.154 L
422.236 90.154 L
422.691 90.154 L
423.146 90.154 L
423.601 90.154 L
424.055 90.154 L
424.51 90.154 L
424.965 90.154 L
425.42 90.154 L
425.874 90.154 L
426.329 90.154 L
426.784 90.154 L
427.238 90.154 L
427.693 90.154 L
428.148 90.154 L
428.603 90.154 L
429.057 90.154 L
429.512 90.154 L
429.967 90.154 L
430.421 90.154 L
430.876 90.154 L
431.331 90.154 L
431.786 90.154 L
432.24 90.154 L
432.695 90.154 L
433.15 90.154 L
433.605 90.154 L
434.059 90.154 L
434.514 90.154 L
434.969 90.154 L
435.423 90.154 L
435.878 90.154 L
436.333 90.154 L
436.788 90.154 L
437.242 90.154 L
437.697 90.154 L
438.152 90.154 L
438.606 90.154 L
439.061 90.154 L
439.516 90.154 L
439.971 90.154 L
440.425 90.154 L
440.88 90.154 L
441.335 90.154 L
441.79 90.154 L
442.244 90.154 L
442.699 90.154 L
443.154 90.154 L
443.608 90.154 L
444.063 90.154 L
444.518 90.154 L
444.973 90.154 L
445.427 90.154 L
445.882 90.154 L
446.337 90.154 L
446.791 90.154 L
447.246 90.154 L
447.701 90.154 L
448.156 90.154 L
448.61 90.154 L
449.065 90.154 L
449.52 90.154 L
449.975 90.154 L
450.429 90.154 L
450.884 90.154 L
451.339 90.154 L
451.793 90.154 L
452.248 90.154 L
452.703 90.154 L
453.158 90.154 L
453.612 90.154 L
454.067 90.154 L
454.522 90.154 L
454.976 90.154 L
455.431 90.154 L
455.886 90.154 L
456.341 90.154 L
456.795 90.154 L
457.25 90.154 L
457.705 90.154 L
458.16 90.154 L
458.614 90.154 L
459.069 90.154 L
459.524 90.154 L
459.978 90.154 L
460.433 90.154 L
460.888 90.154 L
461.343 90.154 L
461.797 90.154 L
462.252 90.154 L
462.707 90.154 L
463.161 90.154 L
463.616 90.154 L
464.071 90.154 L
464.526 90.154 L
464.98 90.154 L
465.435 90.154 L
465.89 90.154 L
466.345 90.154 L
466.799 90.154 L
467.254 90.154 L
467.709 90.154 L
468.163 90.154 L
468.618 90.154 L
469.073 90.154 L
469.528 90.154 L
469.982 90.154 L
470.437 90.154 L
470.892 90.154 L
471.346 90.154 L
471.801 90.154 L
472.256 90.154 L
472.711 90.154 L
473.165 90.154 L
473.62 90.154 L
474.075 90.154 L
474.53 90.154 L
474.984 90.154 L
475.439 90.154 L
475.894 90.154 L
476.348 90.154 L
476.803 90.154 L
477.258 90.154 L
477.713 90.154 L
478.167 90.154 L
478.622 90.154 L
479.077 90.154 L
479.531 90.154 L
479.986 90.154 L
480.441 90.154 L
480.896 90.154 L
481.35 90.154 L
481.805 90.154 L
482.26 90.154 L
482.715 90.154 L
483.169 90.154 L
483.624 90.154 L
484.079 90.154 L
484.533 90.154 L
484.988 90.154 L
485.443 90.154 L
485.898 90.154 L
486.352 90.154 L
486.807 90.154 L
487.262 90.154 L
487.716 90.154 L
488.171 90.154 L
488.626 90.154 L
489.081 90.154 L
489.535 90.154 L
489.99 90.154 L
490.445 90.154 L
490.9 90.154 L
491.354 90.154 L
491.809 90.154 L
492.264 90.154 L
492.718 90.154 L
493.173 90.154 L
493.628 90.154 L
494.083 90.154 L
494.537 90.154 L
494.992 90.154 L
495.447 90.154 L
495.901 90.154 L
496.356 90.154 L
496.811 90.154 L
497.266 90.154 L
497.72 90.154 L
498.175 90.154 L
498.63 90.154 L
499.085 90.154 L
499.539 90.154 L
499.994 90.154 L
500.449 90.154 L
500.903 90.154 L
501.358 90.154 L
501.813 90.154 L
502.268 90.154 L
502.722 90.154 L
503.177 90.154 L
503.632 90.154 L
504.086 90.154 L
504.541 90.154 L
504.996 90.154 L
505.451 90.154 L
505.905 90.154 L
506.36 90.154 L
506.815 90.154 L
507.27 90.154 L
507.724 90.154 L
508.179 90.154 L
508.634 90.154 L
509.088 90.154 L
509.543 90.154 L
509.998 90.154 L
510.453 90.154 L
510.907 90.154 L
511.362 90.154 L
511.817 90.154 L
512.271 90.154 L
512.726 90.154 L
513.181 90.154 L
513.636 90.154 L
514.09 90.154 L
514.545 90.154 L
515 90.154 L
515.455 90.154 L
515.909 90.154 L
516.364 90.154 L
516.819 90.154 L
517.273 90.154 L
517.728 90.154 L
518.183 90.154 L
518.638 90.154 L
519.092 90.154 L
519.547 90.154 L
520.002 90.154 L
520.456 90.154 L
520.911 90.154 L
521.366 90.154 L
521.821 90.154 L
522.275 90.154 L
522.73 90.154 L
523.185 90.154 L
523.64 90.154 L
524.094 90.154 L
524.549 90.154 L
525.004 90.154 L
525.458 90.154 L
525.913 90.154 L
526.368 90.154 L
526.823 90.154 L
527.277 90.154 L
527.732 90.154 L
528.187 90.154 L
528.641 90.154 L
529.096 90.154 L
529.551 90.154 L
530.006 90.154 L
530.46 90.154 L
530.915 90.154 L
531.37 90.154 L
531.825 90.154 L
532.279 90.154 L
532.734 90.154 L
533.189 90.154 L
533.643 90.154 L
534.098 90.154 L
534.553 90.154 L
535.008 90.154 L
535.462 90.154 L
535.917 90.154 L
536.372 90.154 L
536.826 90.154 L
537.281 90.154 L
537.736 90.154 L
538.191 90.154 L
538.645 90.154 L
539.1 90.154 L
539.555 90.154 L
540.01 90.154 L
540.464 90.154 L
540.919 90.154 L
541.374 90.154 L
541.828 90.154 L
542.283 90.154 L
542.738 90.154 L
543.193 90.154 L
543.647 90.154 L
544.102 90.154 L
544.557 90.154 L
545.011 90.154 L
545.466 90.154 L
545.921 90.154 L
546.376 90.154 L
546.83 90.154 L
547.285 90.154 L
547.74 90.154 L
548.195 90.154 L
548.649 90.154 L
549.104 90.154 L
549.559 90.154 L
550.013 90.154 L
550.468 90.154 L
550.923 90.154 L
551.378 90.154 L
551.832 90.154 L
552.287 90.154 L
552.742 90.154 L
553.196 90.154 L
553.651 90.154 L
554.106 90.154 L
554.561 90.154 L
555.015 90.154 L
555.47 90.154 L
555.925 90.154 L
556.38 90.154 L
556.834 90.154 L
557.289 90.154 L
557.744 90.154 L
558.198 90.154 L
558.653 90.154 L
559.108 90.154 L
559.563 90.154 L
560.017 90.154 L
560.472 90.154 L
560.927 90.154 L
561.381 90.154 L
561.836 90.154 L
562.291 90.154 L
562.746 90.154 L
563.2 90.154 L
563.655 90.154 L
564.11 90.154 L
564.565 90.154 L
565.019 90.154 L
565.474 90.154 L
565.929 90.154 L
566.383 90.154 L
566.838 90.154 L
567.293 90.154 L
567.748 90.154 L
568.202 90.154 L
568.657 90.154 L
569.112 90.154 L
569.566 90.154 L
570.021 90.154 L
570.476 90.154 L
570.931 90.154 L
571.385 90.154 L
571.84 90.154 L
572.295 90.154 L
572.75 90.154 L
573.204 90.154 L
573.659 90.154 L
574.114 90.154 L
574.568 90.154 L
575.023 90.154 L
575.478 90.154 L
575.933 90.154 L
576.387 90.154 L
576.842 90.154 L
577.297 90.154 L
577.751 90.154 L
578.206 90.154 L
578.661 90.154 L
579.116 90.154 L
579.57 90.154 L
580.025 90.154 L
580.48 90.154 L
580.935 90.154 L
581.389 90.154 L
581.844 90.154 L
582.299 90.154 L
582.753 90.154 L
583.208 90.154 L
583.663 90.154 L
584.118 90.154 L
584.572 90.154 L
585.027 90.154 L
585.482 90.154 L
585.936 90.154 L
586.391 90.154 L
586.846 90.154 L
587.301 90.154 L
587.755 90.154 L
588.21 90.154 L
588.665 90.154 L
589.12 90.154 L
589.574 90.154 L
590.029 90.154 L
590.484 90.154 L
590.938 90.154 L
591.393 90.154 L
591.848 90.154 L
592.303 90.154 L
592.757 90.154 L
593.212 90.154 L
593.667 90.154 L
594.121 90.154 L
594.576 90.154 L
595.031 90.154 L
595.486 90.154 L
595.94 90.154 L
596.395 90.154 L
596.85 90.154 L
597.305 90.154 L
597.759 90.154 L
598.214 90.154 L
598.669 90.154 L
599.123 90.154 L
599.578 90.154 L
600.033 90.154 L
600.488 90.154 L
600.942 90.154 L
601.397 90.154 L
601.852 90.154 L
602.306 90.154 L
602.761 90.154 L
603.216 90.154 L
603.671 90.154 L
604.125 90.154 L
604.58 90.154 L
605.035 90.154 L
605.49 90.154 L
605.944 90.154 L
606.399 90.154 L
606.854 90.154 L
607.308 90.154 L
607.763 90.154 L
608.218 90.154 L
608.673 90.154 L
609.127 90.154 L
609.582 90.154 L
610.037 90.154 L
610.491 90.154 L
610.946 90.154 L
611.401 90.154 L
611.856 90.154 L
612.31 90.154 L
612.765 90.154 L
613.22 90.154 L
613.674 90.154 L
614.129 90.154 L
614.584 90.154 L
615.039 90.154 L
615.493 90.154 L
615.948 90.154 L
616.403 90.154 L
616.858 90.154 L
617.312 90.154 L
617.767 90.154 L
618.222 90.154 L
618.676 90.154 L
619.131 90.154 L
619.586 90.154 L
620.041 90.154 L
620.495 90.154 L
620.95 90.154 L
621.405 90.154 L
621.859 90.154 L
622.314 90.154 L
622.769 90.154 L
623.224 90.154 L
623.678 90.154 L
624.133 90.154 L
624.588 90.154 L
625.043 90.154 L
625.497 90.154 L
625.952 90.154 L
626.407 90.154 L
626.861 90.154 L
627.316 90.154 L
627.771 90.154 L
628.226 90.154 L
628.68 90.154 L
629.135 90.154 L
629.59 90.154 L
630.044 90.154 L
630.499 90.154 L
630.954 90.154 L
631.409 90.154 L
631.863 90.154 L
632.318 90.154 L
632.773 90.154 L
633.228 90.154 L
633.682 90.154 L
634.137 90.154 L
634.592 90.154 L
635.046 90.154 L
635.501 90.154 L
635.956 90.154 L
636.411 90.154 L
636.865 90.154 L
637.32 90.154 L
637.775 90.154 L
638.229 90.154 L
638.684 90.154 L
639.139 90.154 L
639.594 90.154 L
640.048 90.154 L
640.503 90.154 L
640.958 90.154 L
641.413 90.154 L
641.867 90.154 L
642.322 90.154 L
642.777 90.154 L
643.231 90.154 L
643.686 90.154 L
644.141 90.154 L
644.596 90.154 L
645.05 90.154 L
645.505 90.154 L
645.96 90.154 L
646.414 90.154 L
646.869 90.154 L
647.324 90.154 L
647.779 90.154 L
648.233 90.154 L
648.688 90.154 L
649.143 90.154 L
649.598 90.154 L
650.052 90.154 L
650.507 90.154 L
650.962 90.154 L
651.416 90.154 L
651.871 90.154 L
652.326 90.154 L
652.781 90.154 L
653.235 90.154 L
653.69 90.154 L
654.145 90.154 L
654.599 90.154 L
655.054 90.154 L
655.509 90.154 L
655.964 90.154 L
656.418 90.154 L
656.873 90.154 L
657.328 90.154 L
657.783 90.154 L
658.237 90.154 L
658.692 90.154 L
659.147 90.154 L
659.601 90.154 L
660.056 90.154 L
660.511 90.154 L
660.966 90.154 L
661.42 90.154 L
661.875 90.154 L
662.33 90.154 L
662.784 90.154 L
663.239 90.154 L
663.694 90.154 L
664.149 90.154 L
664.603 90.154 L
665.058 90.154 L
665.513 90.154 L
665.968 90.154 L
666.422 90.154 L
666.877 90.154 L
667.332 90.154 L
667.786 90.154 L
668.241 90.154 L
668.696 90.154 L
669.151 90.154 L
669.605 90.154 L
670.06 90.154 L
670.515 90.154 L
670.969 90.154 L
671.424 90.154 L
671.879 90.154 L
672.334 90.154 L
672.788 90.154 L
673.243 90.154 L
673.698 90.154 L
674.153 90.154 L
674.607 90.154 L
675.062 90.154 L
675.517 90.154 L
675.971 90.154 L
676.426 90.154 L
676.881 90.154 L
677.336 90.154 L
677.79 90.154 L
678.245 90.154 L
678.7 90.154 L
679.154 90.154 L
679.609 90.154 L
680.064 90.154 L
680.519 90.154 L
680.973 90.154 L
681.428 90.154 L
681.883 90.154 L
682.338 90.154 L
682.792 90.154 L
683.247 90.154 L
683.702 90.154 L
684.156 90.154 L
684.611 90.154 L
685.066 90.154 L
685.521 90.154 L
685.975 90.154 L
686.43 90.154 L
686.885 90.154 L
687.339 90.154 L
687.794 90.154 L
688.249 90.154 L
688.704 90.154 L
689.158 90.154 L
689.613 90.154 L
690.068 90.154 L
690.523 90.154 L
690.977 90.154 L
691.432 90.154 L
691.887 90.154 L
692.341 90.154 L
692.796 90.154 L
693.251 90.154 L
693.706 90.154 L
694.16 90.154 L
694.615 90.154 L
695.07 90.154 L
695.524 90.154 L
695.979 90.154 L
696.434 90.154 L
696.889 90.154 L
697.343 90.154 L
697.798 90.154 L
698.253 90.154 L
698.708 90.154 L
699.162 90.154 L
699.617 90.154 L
700.072 90.154 L
700.526 90.154 L
700.981 90.154 L
701.436 90.154 L
701.891 90.154 L
702.345 90.154 L
702.8 90.154 L
703.255 90.154 L
703.709 90.154 L
704.164 90.154 L
704.619 90.154 L
705.074 90.154 L
705.528 90.154 L
705.983 90.154 L
706.438 90.154 L
706.893 90.154 L
707.347 90.154 L
707.802 90.154 L
708.257 90.154 L
708.711 90.154 L
709.166 90.154 L
709.621 90.154 L
710.076 90.154 L
710.53 90.154 L
710.985 90.154 L
711.44 90.154 L
711.894 90.154 L
712.349 90.154 L
712.804 90.154 L
713.259 90.154 L
713.713 90.154 L
714.168 90.154 L
714.623 90.154 L
715.078 90.154 L
715.532 90.154 L
715.987 90.154 L
716.442 90.154 L
716.896 90.154 L
717.351 90.154 L
717.806 90.154 L
718.261 90.154 L
718.715 90.154 L
719.17 90.154 L
719.625 90.154 L
720.079 90.154 L
720.534 90.154 L
720.989 90.154 L
721.444 90.154 L
721.898 90.154 L
722.353 90.154 L
722.808 90.154 L
723.263 90.154 L
723.717 90.154 L
724.172 90.154 L
724.627 90.154 L
725.081 90.154 L
725.536 90.154 L
725.991 90.154 L
726.446 90.154 L
726.9 90.154 L
727.355 90.154 L
727.81 90.154 L
728.264 90.154 L
728.719 90.154 L
729.174 90.154 L
729.629 90.154 L
730.083 90.154 L
730.538 90.154 L
730.993 90.154 L
731.448 90.154 L
731.902 90.154 L
732.357 90.154 L
732.812 90.154 L
733.266 90.154 L
733.721 90.154 L
734.176 90.154 L
734.631 90.154 L
735.085 90.154 L
735.54 90.154 L
735.995 90.154 L
736.449 90.154 L
736.904 90.154 L
737.359 90.154 L
737.814 90.154 L
738.268 90.154 L
738.723 90.154 L
739.178 90.154 L
739.633 90.154 L
740.087 90.154 L
740.542 90.154 L
740.997 90.154 L
741.451 90.154 L
741.906 90.154 L
742.361 90.154 L
742.816 90.154 L
743.27 90.154 L
743.725 90.154 L
744.18 90.154 L
744.634 90.154 L
745.089 90.154 L
745.544 90.154 L
745.999 90.154 L
746.453 90.154 L
746.908 90.154 L
747.363 90.154 L
747.818 90.154 L
748.272 90.154 L
748.727 90.154 L
749.182 90.154 L
749.636 90.154 L
750.091 90.154 L
750.546 90.154 L
751.001 90.154 L
751.455 90.154 L
751.91 90.154 L
752.365 90.154 L
752.819 90.154 L
753.274 90.154 L
753.729 90.154 L
754.184 90.154 L
754.638 90.154 L
755.093 90.154 L
755.548 90.154 L
756.003 90.154 L
756.457 90.154 L
756.912 90.154 L
757.367 90.154 L
757.821 90.154 L
758.276 90.154 L
758.731 90.154 L
759.186 90.154 L
759.64 90.154 L
760.078 90.154 L
S
GR
GS
[0.5 0 0 0.5 0 0] CT
1 0 0 RC
1 LJ
3 LW
N
134.397 526.814 M
134.852 516.017 L
135.307 505.616 L
135.762 495.598 L
136.216 485.941 L
136.671 476.636 L
137.126 467.663 L
137.58 459.014 L
138.035 450.671 L
138.49 442.625 L
138.945 434.861 L
139.399 427.369 L
139.854 420.136 L
140.309 413.153 L
140.763 406.409 L
141.218 399.895 L
141.673 393.603 L
142.128 387.52 L
142.582 381.642 L
143.037 375.958 L
143.492 370.458 L
143.947 365.14 L
144.401 359.992 L
144.856 355.01 L
145.311 350.187 L
145.765 345.515 L
146.22 340.989 L
146.675 336.604 L
147.13 332.354 L
147.584 328.231 L
148.039 324.236 L
148.494 320.357 L
148.948 316.593 L
149.403 312.941 L
149.858 309.393 L
150.313 305.946 L
150.767 302.6 L
151.222 299.346 L
151.677 296.181 L
152.132 293.105 L
152.586 290.111 L
153.041 287.2 L
153.496 284.364 L
153.95 281.604 L
154.405 278.913 L
154.86 276.294 L
155.315 273.74 L
155.769 271.249 L
156.224 268.82 L
156.679 266.452 L
157.133 264.139 L
157.588 261.884 L
158.043 259.68 L
158.498 257.527 L
158.952 255.423 L
159.407 253.367 L
159.862 251.358 L
160.317 249.391 L
160.771 247.469 L
161.226 245.588 L
161.681 243.745 L
162.135 241.942 L
162.59 240.176 L
163.045 238.445 L
163.5 236.749 L
163.954 235.087 L
164.409 233.458 L
164.864 231.859 L
165.318 230.29 L
165.773 228.751 L
166.228 227.242 L
166.683 225.759 L
167.137 224.301 L
167.592 222.872 L
168.047 221.467 L
168.502 220.086 L
168.956 218.728 L
169.411 217.393 L
169.866 216.079 L
170.32 214.788 L
170.775 213.518 L
171.23 212.267 L
171.685 211.036 L
172.139 209.826 L
172.594 208.633 L
173.049 207.458 L
173.503 206.299 L
173.958 205.159 L
174.413 204.035 L
174.868 202.93 L
175.322 201.836 L
175.777 200.76 L
176.232 199.699 L
176.687 198.652 L
177.141 197.618 L
177.596 196.601 L
178.051 195.595 L
178.505 194.603 L
178.96 193.623 L
179.415 192.656 L
179.87 191.701 L
180.324 190.758 L
180.779 189.829 L
181.234 188.909 L
181.688 188 L
182.143 187.103 L
182.598 186.218 L
183.053 185.342 L
183.507 184.475 L
183.962 183.62 L
184.417 182.774 L
184.872 181.938 L
185.326 181.113 L
185.781 180.295 L
186.236 179.486 L
186.69 178.686 L
187.145 177.896 L
187.6 177.115 L
188.055 176.341 L
188.509 175.576 L
188.964 174.821 L
189.419 174.07 L
189.873 173.331 L
190.328 172.596 L
190.783 171.871 L
191.238 171.152 L
191.692 170.443 L
192.147 169.739 L
192.602 169.041 L
193.057 168.353 L
193.511 167.669 L
193.966 166.995 L
194.421 166.325 L
194.875 165.662 L
195.33 165.006 L
195.785 164.357 L
196.24 163.715 L
196.694 163.078 L
197.149 162.448 L
197.604 161.822 L
198.058 161.203 L
198.513 160.591 L
198.968 159.984 L
199.423 159.382 L
199.877 158.786 L
200.332 158.195 L
200.787 157.611 L
201.242 157.032 L
201.696 156.459 L
202.151 155.889 L
202.606 155.326 L
203.06 154.77 L
203.515 154.216 L
203.97 153.669 L
204.425 153.125 L
204.879 152.587 L
205.334 152.054 L
205.789 151.525 L
206.243 151.002 L
206.698 150.485 L
207.153 149.97 L
207.608 149.461 L
208.062 148.955 L
208.517 148.455 L
208.972 147.959 L
209.427 147.468 L
209.881 146.981 L
210.336 146.497 L
210.791 146.019 L
211.245 145.544 L
211.7 145.074 L
212.155 144.608 L
212.61 144.147 L
213.064 143.688 L
213.519 143.233 L
213.974 142.784 L
214.428 142.339 L
214.883 141.896 L
215.338 141.458 L
215.793 141.025 L
216.247 140.594 L
216.702 140.167 L
217.157 139.743 L
217.612 139.324 L
218.066 138.907 L
218.521 138.497 L
218.976 138.086 L
219.43 137.681 L
219.885 137.28 L
220.34 136.881 L
220.795 136.487 L
221.249 136.096 L
221.704 135.706 L
222.159 135.322 L
222.613 134.942 L
223.068 134.564 L
223.523 134.188 L
223.978 133.818 L
224.432 133.449 L
224.887 133.083 L
225.342 132.721 L
225.797 132.362 L
226.251 132.005 L
226.706 131.653 L
227.161 131.303 L
227.615 130.955 L
228.07 130.61 L
228.525 130.269 L
228.98 129.931 L
229.434 129.597 L
229.889 129.264 L
230.344 128.935 L
230.798 128.608 L
231.253 128.283 L
231.708 127.961 L
232.163 127.644 L
232.617 127.329 L
233.072 127.013 L
233.527 126.703 L
233.982 126.395 L
234.436 126.091 L
234.891 125.787 L
235.346 125.489 L
235.8 125.19 L
236.255 124.895 L
236.71 124.603 L
237.165 124.311 L
237.619 124.024 L
238.074 123.739 L
238.529 123.456 L
238.983 123.176 L
239.438 122.898 L
239.893 122.622 L
240.348 122.348 L
240.802 122.077 L
241.257 121.808 L
241.712 121.542 L
242.167 121.278 L
242.621 121.016 L
243.076 120.756 L
243.531 120.499 L
243.985 120.244 L
244.44 119.989 L
244.895 119.739 L
245.35 119.491 L
245.804 119.243 L
246.259 118.997 L
246.714 118.756 L
247.168 118.515 L
247.623 118.276 L
248.078 118.04 L
248.533 117.804 L
248.987 117.572 L
249.442 117.343 L
249.897 117.113 L
250.352 116.886 L
250.806 116.661 L
251.261 116.439 L
251.716 116.216 L
252.17 115.998 L
252.625 115.781 L
253.08 115.565 L
253.535 115.35 L
253.989 115.139 L
254.444 114.928 L
254.899 114.719 L
255.353 114.513 L
255.808 114.309 L
256.263 114.105 L
256.718 113.903 L
257.172 113.704 L
257.627 113.505 L
258.082 113.31 L
258.537 113.113 L
258.991 112.921 L
259.446 112.728 L
259.901 112.541 L
260.355 112.351 L
260.81 112.165 L
261.265 111.98 L
261.72 111.797 L
262.174 111.614 L
262.629 111.433 L
263.084 111.255 L
263.538 111.076 L
263.993 110.9 L
264.448 110.726 L
264.903 110.552 L
265.357 110.381 L
265.812 110.212 L
266.267 110.042 L
266.722 109.876 L
267.176 109.709 L
267.631 109.544 L
268.086 109.382 L
268.54 109.22 L
268.995 109.06 L
269.45 108.9 L
269.905 108.742 L
270.359 108.587 L
270.814 108.432 L
271.269 108.279 L
271.723 108.126 L
272.178 107.973 L
272.633 107.825 L
273.088 107.676 L
273.542 107.528 L
273.997 107.382 L
274.452 107.236 L
274.907 107.092 L
275.361 106.951 L
275.816 106.81 L
276.271 106.671 L
276.725 106.531 L
277.18 106.392 L
277.635 106.256 L
278.09 106.121 L
278.544 105.987 L
278.999 105.852 L
279.454 105.72 L
279.908 105.591 L
280.363 105.461 L
280.818 105.331 L
281.273 105.204 L
281.727 105.078 L
282.182 104.951 L
282.637 104.828 L
283.092 104.703 L
283.546 104.582 L
284.001 104.46 L
284.456 104.339 L
284.91 104.221 L
285.365 104.103 L
285.82 103.985 L
286.275 103.869 L
286.729 103.753 L
287.184 103.639 L
287.639 103.526 L
288.093 103.412 L
288.548 103.301 L
289.003 103.192 L
289.458 103.081 L
289.912 102.972 L
290.367 102.865 L
290.822 102.759 L
291.277 102.652 L
291.731 102.548 L
292.186 102.443 L
292.641 102.339 L
293.095 102.237 L
293.55 102.135 L
294.005 102.033 L
294.46 101.934 L
294.914 101.836 L
295.369 101.737 L
295.824 101.639 L
296.278 101.542 L
296.733 101.447 L
297.188 101.352 L
297.643 101.257 L
298.097 101.164 L
298.552 101.071 L
299.007 100.981 L
299.462 100.888 L
299.916 100.798 L
300.371 100.71 L
300.826 100.62 L
301.28 100.532 L
301.735 100.446 L
302.19 100.358 L
302.645 100.272 L
303.099 100.189 L
303.554 100.103 L
304.009 100.019 L
304.463 99.936 L
304.918 99.855 L
305.373 99.774 L
305.828 99.693 L
306.282 99.611 L
306.737 99.533 L
307.192 99.454 L
307.647 99.375 L
308.101 99.299 L
308.556 99.22 L
309.011 99.143 L
309.465 99.069 L
309.92 98.993 L
310.375 98.919 L
310.83 98.847 L
311.284 98.773 L
311.739 98.701 L
312.194 98.629 L
312.648 98.557 L
313.103 98.485 L
313.558 98.416 L
314.013 98.346 L
314.467 98.279 L
314.922 98.209 L
315.377 98.142 L
315.832 98.075 L
316.286 98.008 L
316.741 97.943 L
317.196 97.876 L
317.65 97.811 L
318.105 97.746 L
318.56 97.683 L
319.015 97.621 L
319.469 97.556 L
319.924 97.496 L
320.379 97.433 L
320.833 97.373 L
321.288 97.31 L
321.743 97.25 L
322.198 97.192 L
322.652 97.132 L
323.107 97.074 L
323.562 97.016 L
324.017 96.958 L
324.471 96.9 L
324.926 96.844 L
325.381 96.786 L
325.835 96.731 L
326.29 96.675 L
326.745 96.622 L
327.2 96.566 L
327.654 96.513 L
328.109 96.46 L
328.564 96.406 L
329.018 96.353 L
329.473 96.302 L
329.928 96.251 L
330.383 96.198 L
330.837 96.147 L
331.292 96.098 L
331.747 96.047 L
332.202 95.999 L
332.656 95.95 L
333.111 95.901 L
333.566 95.853 L
334.02 95.804 L
334.475 95.755 L
334.93 95.709 L
335.385 95.662 L
335.839 95.616 L
336.294 95.57 L
336.749 95.526 L
337.203 95.479 L
337.658 95.435 L
338.113 95.391 L
338.568 95.347 L
339.022 95.303 L
339.477 95.259 L
339.932 95.215 L
340.387 95.173 L
340.841 95.132 L
341.296 95.09 L
341.751 95.048 L
342.205 95.007 L
342.66 94.967 L
343.115 94.926 L
343.57 94.886 L
344.024 94.847 L
344.479 94.807 L
344.934 94.768 L
345.388 94.729 L
345.843 94.689 L
346.298 94.652 L
346.753 94.615 L
347.207 94.576 L
347.662 94.538 L
348.117 94.501 L
348.572 94.467 L
349.026 94.43 L
349.481 94.393 L
349.936 94.358 L
350.39 94.323 L
350.845 94.288 L
351.3 94.253 L
351.755 94.219 L
352.209 94.184 L
352.664 94.149 L
353.119 94.117 L
353.573 94.084 L
354.028 94.05 L
354.483 94.017 L
354.938 93.985 L
355.392 93.952 L
355.847 93.92 L
356.302 93.89 L
356.757 93.857 L
357.211 93.827 L
357.666 93.795 L
358.121 93.764 L
358.575 93.734 L
359.03 93.704 L
359.485 93.674 L
359.94 93.646 L
360.394 93.616 L
360.849 93.586 L
361.304 93.558 L
361.758 93.528 L
362.213 93.5 L
362.668 93.472 L
363.123 93.445 L
363.577 93.417 L
364.032 93.389 L
364.487 93.364 L
364.941 93.336 L
365.396 93.308 L
365.851 93.282 L
366.306 93.257 L
366.76 93.229 L
367.215 93.204 L
367.67 93.178 L
368.125 93.153 L
368.579 93.127 L
369.034 93.102 L
369.489 93.078 L
369.943 93.053 L
370.398 93.03 L
370.853 93.004 L
371.308 92.981 L
371.762 92.958 L
372.217 92.932 L
372.672 92.909 L
373.126 92.886 L
373.581 92.863 L
374.036 92.842 L
374.491 92.819 L
374.945 92.796 L
375.4 92.775 L
375.855 92.752 L
376.31 92.731 L
376.764 92.708 L
377.219 92.687 L
377.674 92.666 L
378.128 92.645 L
378.583 92.624 L
379.038 92.603 L
379.493 92.583 L
379.947 92.562 L
380.402 92.541 L
380.857 92.522 L
381.311 92.501 L
381.766 92.481 L
382.221 92.462 L
382.676 92.443 L
383.13 92.423 L
383.585 92.404 L
384.04 92.386 L
384.495 92.367 L
384.949 92.348 L
385.404 92.33 L
385.859 92.311 L
386.313 92.293 L
386.768 92.274 L
387.223 92.258 L
387.678 92.24 L
388.132 92.223 L
388.587 92.205 L
389.042 92.189 L
389.496 92.17 L
389.951 92.154 L
390.406 92.138 L
390.861 92.119 L
391.315 92.103 L
391.77 92.087 L
392.225 92.07 L
392.68 92.054 L
393.134 92.038 L
393.589 92.024 L
394.044 92.008 L
394.498 91.992 L
394.953 91.975 L
395.408 91.961 L
395.863 91.945 L
396.317 91.931 L
396.772 91.915 L
397.227 91.901 L
397.681 91.887 L
398.136 91.871 L
398.591 91.857 L
399.046 91.843 L
399.5 91.829 L
399.955 91.815 L
400.41 91.802 L
400.865 91.788 L
401.319 91.774 L
401.774 91.76 L
402.229 91.746 L
402.683 91.732 L
403.138 91.718 L
403.593 91.707 L
404.048 91.693 L
404.502 91.681 L
404.957 91.667 L
405.412 91.656 L
405.866 91.642 L
406.321 91.63 L
406.776 91.616 L
407.231 91.605 L
407.685 91.593 L
408.14 91.581 L
408.595 91.567 L
409.05 91.556 L
409.504 91.544 L
409.959 91.533 L
410.414 91.521 L
410.868 91.51 L
411.323 91.498 L
411.778 91.486 L
412.233 91.477 L
412.687 91.466 L
413.142 91.454 L
413.597 91.442 L
414.051 91.433 L
414.506 91.421 L
414.961 91.41 L
415.416 91.401 L
415.87 91.389 L
416.325 91.38 L
416.78 91.368 L
417.235 91.359 L
417.689 91.35 L
418.144 91.338 L
418.599 91.329 L
419.053 91.32 L
419.508 91.308 L
419.963 91.299 L
420.418 91.289 L
420.872 91.28 L
421.327 91.271 L
421.782 91.262 L
422.236 91.252 L
422.691 91.243 L
423.146 91.234 L
423.601 91.224 L
424.055 91.215 L
424.51 91.206 L
424.965 91.197 L
425.42 91.19 L
425.874 91.18 L
426.329 91.171 L
426.784 91.164 L
427.238 91.155 L
427.693 91.146 L
428.148 91.139 L
428.603 91.129 L
429.057 91.123 L
429.512 91.113 L
429.967 91.106 L
430.421 91.097 L
430.876 91.09 L
431.331 91.081 L
431.786 91.074 L
432.24 91.067 L
432.695 91.058 L
433.15 91.051 L
433.605 91.044 L
434.059 91.037 L
434.514 91.028 L
434.969 91.021 L
435.423 91.014 L
435.878 91.007 L
436.333 91 L
436.788 90.993 L
437.242 90.986 L
437.697 90.979 L
438.152 90.972 L
438.606 90.965 L
439.061 90.958 L
439.516 90.951 L
439.971 90.944 L
440.425 90.937 L
440.88 90.93 L
441.335 90.923 L
441.79 90.919 L
442.244 90.912 L
442.699 90.905 L
443.154 90.898 L
443.608 90.893 L
444.063 90.886 L
444.518 90.879 L
444.973 90.875 L
445.427 90.868 L
445.882 90.863 L
446.337 90.856 L
446.791 90.849 L
447.246 90.844 L
447.701 90.837 L
448.156 90.833 L
448.61 90.826 L
449.065 90.821 L
449.52 90.817 L
449.975 90.81 L
450.429 90.805 L
450.884 90.8 L
451.339 90.793 L
451.793 90.789 L
452.248 90.784 L
452.703 90.777 L
453.158 90.773 L
453.612 90.768 L
454.067 90.763 L
454.522 90.756 L
454.976 90.752 L
455.431 90.747 L
455.886 90.742 L
456.341 90.738 L
456.795 90.733 L
457.25 90.726 L
457.705 90.722 L
458.16 90.717 L
458.614 90.712 L
459.069 90.708 L
459.524 90.703 L
459.978 90.698 L
460.433 90.694 L
460.888 90.689 L
461.343 90.685 L
461.797 90.68 L
462.252 90.678 L
462.707 90.673 L
463.161 90.668 L
463.616 90.664 L
464.071 90.659 L
464.526 90.654 L
464.98 90.65 L
465.435 90.647 L
465.89 90.643 L
466.345 90.638 L
466.799 90.634 L
467.254 90.631 L
467.709 90.627 L
468.163 90.622 L
468.618 90.617 L
469.073 90.615 L
469.528 90.61 L
469.982 90.606 L
470.437 90.603 L
470.892 90.599 L
471.346 90.596 L
471.801 90.592 L
472.256 90.587 L
472.711 90.585 L
473.165 90.58 L
473.62 90.578 L
474.075 90.573 L
474.53 90.571 L
474.984 90.566 L
475.439 90.564 L
475.894 90.559 L
476.348 90.557 L
476.803 90.552 L
477.258 90.55 L
477.713 90.545 L
478.167 90.543 L
478.622 90.541 L
479.077 90.536 L
479.531 90.534 L
479.986 90.529 L
480.441 90.527 L
480.896 90.525 L
481.35 90.52 L
481.805 90.518 L
482.26 90.515 L
482.715 90.511 L
483.169 90.508 L
483.624 90.506 L
484.079 90.504 L
484.533 90.499 L
484.988 90.497 L
485.443 90.494 L
485.898 90.492 L
486.352 90.488 L
486.807 90.485 L
487.262 90.483 L
487.716 90.481 L
488.171 90.478 L
488.626 90.474 L
489.081 90.471 L
489.535 90.469 L
489.99 90.467 L
490.445 90.464 L
490.9 90.462 L
491.354 90.46 L
491.809 90.455 L
492.264 90.453 L
492.718 90.45 L
493.173 90.448 L
493.628 90.446 L
494.083 90.444 L
494.537 90.441 L
494.992 90.439 L
495.447 90.437 L
495.901 90.434 L
496.356 90.432 L
496.811 90.43 L
497.266 90.427 L
497.72 90.425 L
498.175 90.423 L
498.63 90.42 L
499.085 90.418 L
499.539 90.416 L
499.994 90.413 L
500.449 90.411 L
500.903 90.409 L
501.358 90.406 L
501.813 90.404 L
502.268 90.402 L
502.722 90.402 L
503.177 90.399 L
503.632 90.397 L
504.086 90.395 L
504.541 90.393 L
504.996 90.39 L
505.451 90.388 L
505.905 90.386 L
506.36 90.386 L
506.815 90.383 L
507.27 90.381 L
507.724 90.379 L
508.179 90.376 L
508.634 90.376 L
509.088 90.374 L
509.543 90.372 L
509.998 90.369 L
510.453 90.367 L
510.907 90.367 L
511.362 90.365 L
511.817 90.362 L
512.271 90.36 L
512.726 90.36 L
513.181 90.358 L
513.636 90.355 L
514.09 90.353 L
514.545 90.353 L
515 90.351 L
515.455 90.348 L
515.909 90.348 L
516.364 90.346 L
516.819 90.344 L
517.273 90.342 L
517.728 90.342 L
518.183 90.339 L
518.638 90.337 L
519.092 90.337 L
519.547 90.335 L
520.002 90.332 L
520.456 90.332 L
520.911 90.33 L
521.366 90.33 L
521.821 90.328 L
522.275 90.325 L
522.73 90.325 L
523.185 90.323 L
523.64 90.321 L
524.094 90.321 L
524.549 90.318 L
525.004 90.318 L
525.458 90.316 L
525.913 90.314 L
526.368 90.314 L
526.823 90.311 L
527.277 90.311 L
527.732 90.309 L
528.187 90.309 L
528.641 90.307 L
529.096 90.304 L
529.551 90.304 L
530.006 90.302 L
530.46 90.302 L
530.915 90.3 L
531.37 90.3 L
531.825 90.298 L
532.279 90.298 L
532.734 90.295 L
533.189 90.295 L
533.643 90.293 L
534.098 90.293 L
534.553 90.291 L
535.008 90.291 L
535.462 90.288 L
535.917 90.288 L
536.372 90.286 L
536.826 90.286 L
537.281 90.284 L
537.736 90.284 L
538.191 90.281 L
538.645 90.281 L
539.1 90.279 L
539.555 90.279 L
540.01 90.279 L
540.464 90.277 L
540.919 90.277 L
541.374 90.274 L
541.828 90.274 L
542.283 90.272 L
542.738 90.272 L
543.193 90.27 L
543.647 90.27 L
544.102 90.27 L
544.557 90.267 L
545.011 90.267 L
545.466 90.265 L
545.921 90.265 L
546.376 90.265 L
546.83 90.263 L
547.285 90.263 L
547.74 90.26 L
548.195 90.26 L
548.649 90.26 L
549.104 90.258 L
549.559 90.258 L
550.013 90.258 L
550.468 90.256 L
550.923 90.256 L
551.378 90.253 L
551.832 90.253 L
552.287 90.253 L
552.742 90.251 L
553.196 90.251 L
553.651 90.251 L
554.106 90.249 L
554.561 90.249 L
555.015 90.249 L
555.47 90.247 L
555.925 90.247 L
556.38 90.247 L
556.834 90.244 L
557.289 90.244 L
557.744 90.244 L
558.198 90.242 L
558.653 90.242 L
559.108 90.242 L
559.563 90.24 L
560.017 90.24 L
560.472 90.24 L
560.927 90.237 L
561.381 90.237 L
561.836 90.237 L
562.291 90.237 L
562.746 90.235 L
563.2 90.235 L
563.655 90.235 L
564.11 90.233 L
564.565 90.233 L
565.019 90.233 L
565.474 90.233 L
565.929 90.23 L
566.383 90.23 L
566.838 90.23 L
567.293 90.228 L
567.748 90.228 L
568.202 90.228 L
568.657 90.228 L
569.112 90.226 L
569.566 90.226 L
570.021 90.226 L
570.476 90.226 L
570.931 90.223 L
571.385 90.223 L
571.84 90.223 L
572.295 90.223 L
572.75 90.221 L
573.204 90.221 L
573.659 90.221 L
574.114 90.221 L
574.568 90.219 L
575.023 90.219 L
575.478 90.219 L
575.933 90.219 L
576.387 90.216 L
576.842 90.216 L
577.297 90.216 L
577.751 90.216 L
578.206 90.216 L
578.661 90.214 L
579.116 90.214 L
579.57 90.214 L
580.025 90.214 L
580.48 90.212 L
580.935 90.212 L
581.389 90.212 L
581.844 90.212 L
582.299 90.212 L
582.753 90.209 L
583.208 90.209 L
583.663 90.209 L
584.118 90.209 L
584.572 90.209 L
585.027 90.207 L
585.482 90.207 L
585.936 90.207 L
586.391 90.207 L
586.846 90.207 L
587.301 90.205 L
587.755 90.205 L
588.21 90.205 L
588.665 90.205 L
589.12 90.205 L
589.574 90.205 L
590.029 90.202 L
590.484 90.202 L
590.938 90.202 L
591.393 90.202 L
591.848 90.202 L
592.303 90.202 L
592.757 90.2 L
593.212 90.2 L
593.667 90.2 L
594.121 90.2 L
594.576 90.2 L
595.031 90.2 L
595.486 90.198 L
595.94 90.198 L
596.395 90.198 L
596.85 90.198 L
597.305 90.198 L
597.759 90.198 L
598.214 90.196 L
598.669 90.196 L
599.123 90.196 L
599.578 90.196 L
600.033 90.196 L
600.488 90.196 L
600.942 90.196 L
601.397 90.193 L
601.852 90.193 L
602.306 90.193 L
602.761 90.193 L
603.216 90.193 L
603.671 90.193 L
604.125 90.193 L
604.58 90.191 L
605.035 90.191 L
605.49 90.191 L
605.944 90.191 L
606.399 90.191 L
606.854 90.191 L
607.308 90.191 L
607.763 90.191 L
608.218 90.189 L
608.673 90.189 L
609.127 90.189 L
609.582 90.189 L
610.037 90.189 L
610.491 90.189 L
610.946 90.189 L
611.401 90.189 L
611.856 90.186 L
612.31 90.186 L
612.765 90.186 L
613.22 90.186 L
613.674 90.186 L
614.129 90.186 L
614.584 90.186 L
615.039 90.186 L
615.493 90.184 L
615.948 90.184 L
616.403 90.184 L
616.858 90.184 L
617.312 90.184 L
617.767 90.184 L
618.222 90.184 L
618.676 90.184 L
619.131 90.184 L
619.586 90.184 L
620.041 90.182 L
620.495 90.182 L
620.95 90.182 L
621.405 90.182 L
621.859 90.182 L
622.314 90.182 L
622.769 90.182 L
623.224 90.182 L
623.678 90.182 L
624.133 90.182 L
624.588 90.179 L
625.043 90.179 L
625.497 90.179 L
625.952 90.179 L
626.407 90.179 L
626.861 90.179 L
627.316 90.179 L
627.771 90.179 L
628.226 90.179 L
628.68 90.179 L
629.135 90.179 L
629.59 90.177 L
630.044 90.177 L
630.499 90.177 L
630.954 90.177 L
631.409 90.177 L
631.863 90.177 L
632.318 90.177 L
632.773 90.177 L
633.228 90.177 L
633.682 90.177 L
634.137 90.177 L
634.592 90.177 L
635.046 90.177 L
635.501 90.175 L
635.956 90.175 L
636.411 90.175 L
636.865 90.175 L
637.32 90.175 L
637.775 90.175 L
638.229 90.175 L
638.684 90.175 L
639.139 90.175 L
639.594 90.175 L
640.048 90.175 L
640.503 90.175 L
640.958 90.175 L
641.413 90.175 L
641.867 90.172 L
642.322 90.172 L
642.777 90.172 L
643.231 90.172 L
643.686 90.172 L
644.141 90.172 L
644.596 90.172 L
645.05 90.172 L
645.505 90.172 L
645.96 90.172 L
646.414 90.172 L
646.869 90.172 L
647.324 90.172 L
647.779 90.172 L
648.233 90.172 L
648.688 90.17 L
649.143 90.17 L
649.598 90.17 L
650.052 90.17 L
650.507 90.17 L
650.962 90.17 L
651.416 90.17 L
651.871 90.17 L
652.326 90.17 L
652.781 90.17 L
653.235 90.17 L
653.69 90.17 L
654.145 90.17 L
654.599 90.17 L
655.054 90.17 L
655.509 90.17 L
655.964 90.17 L
656.418 90.17 L
656.873 90.168 L
657.328 90.168 L
657.783 90.168 L
658.237 90.168 L
658.692 90.168 L
659.147 90.168 L
659.601 90.168 L
660.056 90.168 L
660.511 90.168 L
660.966 90.168 L
661.42 90.168 L
661.875 90.168 L
662.33 90.168 L
662.784 90.168 L
663.239 90.168 L
663.694 90.168 L
664.149 90.168 L
664.603 90.168 L
665.058 90.168 L
665.513 90.168 L
665.968 90.168 L
666.422 90.168 L
666.877 90.165 L
667.332 90.165 L
667.786 90.165 L
668.241 90.165 L
668.696 90.165 L
669.151 90.165 L
669.605 90.165 L
670.06 90.165 L
670.515 90.165 L
670.969 90.165 L
671.424 90.165 L
671.879 90.165 L
672.334 90.165 L
672.788 90.165 L
673.243 90.165 L
673.698 90.165 L
674.153 90.165 L
674.607 90.165 L
675.062 90.165 L
675.517 90.165 L
675.971 90.165 L
676.426 90.165 L
676.881 90.165 L
677.336 90.165 L
677.79 90.165 L
678.245 90.165 L
678.7 90.163 L
679.154 90.163 L
679.609 90.163 L
680.064 90.163 L
680.519 90.163 L
680.973 90.163 L
681.428 90.163 L
681.883 90.163 L
682.338 90.163 L
682.792 90.163 L
683.247 90.163 L
683.702 90.163 L
684.156 90.163 L
684.611 90.163 L
685.066 90.163 L
685.521 90.163 L
685.975 90.163 L
686.43 90.163 L
686.885 90.163 L
687.339 90.163 L
687.794 90.163 L
688.249 90.163 L
688.704 90.163 L
689.158 90.163 L
689.613 90.163 L
690.068 90.163 L
690.523 90.163 L
690.977 90.163 L
691.432 90.163 L
691.887 90.163 L
692.341 90.163 L
692.796 90.163 L
693.251 90.163 L
693.706 90.161 L
694.16 90.161 L
694.615 90.161 L
695.07 90.161 L
695.524 90.161 L
695.979 90.161 L
696.434 90.161 L
696.889 90.161 L
697.343 90.161 L
697.798 90.161 L
698.253 90.161 L
698.708 90.161 L
699.162 90.161 L
699.617 90.161 L
700.072 90.161 L
700.526 90.161 L
700.981 90.161 L
701.436 90.161 L
701.891 90.161 L
702.345 90.161 L
702.8 90.161 L
703.255 90.161 L
703.709 90.161 L
704.164 90.161 L
704.619 90.161 L
705.074 90.161 L
705.528 90.161 L
705.983 90.161 L
706.438 90.161 L
706.893 90.161 L
707.347 90.161 L
707.802 90.161 L
708.257 90.161 L
708.711 90.161 L
709.166 90.161 L
709.621 90.161 L
710.076 90.161 L
710.53 90.161 L
710.985 90.161 L
711.44 90.161 L
711.894 90.161 L
712.349 90.161 L
712.804 90.161 L
713.259 90.161 L
713.713 90.161 L
714.168 90.161 L
714.623 90.161 L
715.078 90.158 L
715.532 90.158 L
715.987 90.158 L
716.442 90.158 L
716.896 90.158 L
717.351 90.158 L
717.806 90.158 L
718.261 90.158 L
718.715 90.158 L
719.17 90.158 L
719.625 90.158 L
720.079 90.158 L
720.534 90.158 L
720.989 90.158 L
721.444 90.158 L
721.898 90.158 L
722.353 90.158 L
722.808 90.158 L
723.263 90.158 L
723.717 90.158 L
724.172 90.158 L
724.627 90.158 L
725.081 90.158 L
725.536 90.158 L
725.991 90.158 L
726.446 90.158 L
726.9 90.158 L
727.355 90.158 L
727.81 90.158 L
728.264 90.158 L
728.719 90.158 L
729.174 90.158 L
729.629 90.158 L
730.083 90.158 L
730.538 90.158 L
730.993 90.158 L
731.448 90.158 L
731.902 90.158 L
732.357 90.158 L
732.812 90.158 L
733.266 90.158 L
733.721 90.158 L
734.176 90.158 L
734.631 90.158 L
735.085 90.158 L
735.54 90.158 L
735.995 90.158 L
736.449 90.158 L
736.904 90.158 L
737.359 90.158 L
737.814 90.158 L
738.268 90.158 L
738.723 90.158 L
739.178 90.158 L
739.633 90.158 L
740.087 90.158 L
740.542 90.158 L
740.997 90.158 L
741.451 90.158 L
741.906 90.158 L
742.361 90.158 L
742.816 90.158 L
743.27 90.158 L
743.725 90.158 L
744.18 90.158 L
744.634 90.158 L
745.089 90.158 L
745.544 90.158 L
745.999 90.158 L
746.453 90.158 L
746.908 90.158 L
747.363 90.158 L
747.818 90.158 L
748.272 90.158 L
748.727 90.158 L
749.182 90.158 L
749.636 90.158 L
750.091 90.158 L
750.546 90.156 L
751.001 90.156 L
751.455 90.156 L
751.91 90.156 L
752.365 90.156 L
752.819 90.156 L
753.274 90.156 L
753.729 90.156 L
754.184 90.156 L
754.638 90.156 L
755.093 90.156 L
755.548 90.156 L
756.003 90.156 L
756.457 90.156 L
756.912 90.156 L
757.367 90.156 L
757.821 90.156 L
758.276 90.156 L
758.731 90.156 L
759.186 90.156 L
759.64 90.156 L
760.078 90.156 L
S
GR
GS
[0.5 0 0 0.5 0 0] CT
1 GC
N
736 533 M
736 466 L
497 466 L
497 533 L
cp
f
GR
GS
[0.5 0 0 0.5 283.67642 240.27716] CT
/Helvetica 18 F
GS
[1 0 0 1 0 0] CT
0 7.5 moveto 
1 -1 scale
(Measurement) t 
GR
GR
GS
[0.5 0 0 0.5 0 0] CT
0 0.447 0.741 RC
1 LJ
3 LW
N
502.987 480.554 M
562.862 480.554 L
S
GR
GS
[0.5 0 0 0.5 283.5 258.5] CT
/Helvetica 18 F
GS
[1 0 0 1 0 0] CT
0 0 moveto 
1 -1 scale
(V) t 
GR
GR
GS
[0.5 0 0 0.5 290 263] CT
/Helvetica 14.4 F
GS
[1 0 0 1 0 0] CT
0 0 moveto 
1 -1 scale
(oc) t 
GR
GR
GS
[0.5 0 0 0.5 298 258.5] CT
/Helvetica 18 F
GS
[1 0 0 1 0 0] CT
0 0 moveto 
1 -1 scale
(+) t 
GR
GR
GS
[0.5 0 0 0.5 303.5 258.5] CT
N
0.484 3.484 M
0.438 3.484 0.391 3.422 QT
0.344 3.359 0.344 3.313 QT
3.109 -7.813 L
3.344 -8.703 3.805 -9.547 QT
4.266 -10.391 4.953 -11.117 QT
5.641 -11.844 6.469 -12.266 QT
7.297 -12.688 8.234 -12.688 QT
8.891 -12.688 9.43 -12.398 QT
9.969 -12.109 10.281 -11.578 QT
10.594 -11.047 10.594 -10.375 QT
10.594 -9.734 10.352 -9.148 QT
10.109 -8.563 9.672 -8.055 QT
9.234 -7.547 8.734 -7.234 QT
9.016 -7.047 9.242 -6.766 QT
9.469 -6.484 9.609 -6.172 QT
9.75 -5.859 9.836 -5.477 QT
9.922 -5.094 9.922 -4.75 QT
9.922 -3.828 9.523 -2.938 QT
9.125 -2.047 8.445 -1.313 QT
7.766 -0.578 6.883 -0.156 QT
6 0.266 5.078 0.266 QT
4.063 0.266 3.258 -0.281 QT
2.453 -0.828 2.141 -1.781 QT
0.844 3.391 L
0.844 3.484 0.703 3.484 QT
0.484 3.484 L
cp
5.109 -0.219 M
5.922 -0.219 6.578 -0.75 QT
7.234 -1.281 7.664 -2.086 QT
8.094 -2.891 8.313 -3.789 QT
8.531 -4.688 8.531 -5.438 QT
8.531 -6.344 8 -6.875 QT
7.391 -6.641 6.797 -6.641 QT
5.375 -6.641 5.375 -7.125 QT
5.375 -7.766 7 -7.766 QT
7.578 -7.766 8.063 -7.578 QT
8.453 -7.875 8.773 -8.453 QT
9.094 -9.031 9.25 -9.664 QT
9.406 -10.297 9.406 -10.859 QT
9.406 -11.438 9.102 -11.828 QT
8.797 -12.219 8.188 -12.219 QT
7.094 -12.219 6.148 -11.547 QT
5.203 -10.875 4.555 -9.844 QT
3.906 -8.813 3.625 -7.703 QT
2.625 -3.734 L
2.531 -3.313 2.5 -2.797 QT
2.5 -1.672 3.242 -0.945 QT
3.984 -0.219 5.109 -0.219 QT
cp
5.922 -7.188 M
6.203 -7.109 6.828 -7.109 QT
7.125 -7.109 7.438 -7.219 QT
7.422 -7.234 7.359 -7.234 QT
7.172 -7.281 6.953 -7.281 QT
6.141 -7.281 5.922 -7.188 QT
cp
f
GR
GS
[0.5 0 0 0.5 309 263] CT
/Helvetica 14.4 F
GS
[1 0 0 1 0 0] CT
0 0 moveto 
1 -1 scale
(1) t 
GR
GR
GS
[0.5 0 0 0.5 313 258.5] CT
/Helvetica 18 F
GS
[1 0 0 1 0 0] CT
0 0 moveto 
1 -1 scale
(e) t 
GR
GR
GS
[0.5 0 0 0.5 318.5 254] CT
/Helvetica 14.4 F
GS
[1 0 0 1 0 0] CT
0 0 moveto 
1 -1 scale
(-) t 
GR
GR
GS
[0.5 0 0 0.5 321 254] CT
N
2.813 0.156 M
2.156 0.156 1.641 -0.156 QT
1.125 -0.469 0.844 -1 QT
0.563 -1.531 0.563 -2.219 QT
0.563 -3.172 1.094 -4.102 QT
1.625 -5.031 2.5 -5.609 QT
3.375 -6.188 4.344 -6.188 QT
5.047 -6.188 5.586 -5.813 QT
6.125 -5.438 6.406 -4.82 QT
6.688 -4.203 6.688 -3.5 QT
6.703 -2.563 L
7.188 -3.234 7.516 -3.945 QT
7.844 -4.656 8.031 -5.422 QT
8.047 -5.5 8.141 -5.5 QT
8.297 -5.5 L
8.422 -5.5 8.422 -5.375 QT
8.422 -5.359 8.422 -5.328 QT
8.25 -4.688 8.008 -4.094 QT
7.766 -3.5 7.43 -2.953 QT
7.094 -2.406 6.703 -1.953 QT
6.703 -0.219 7.109 -0.219 QT
7.375 -0.219 7.539 -0.367 QT
7.703 -0.516 7.828 -0.742 QT
7.953 -0.969 7.984 -0.984 QT
8.156 -0.984 L
8.266 -0.984 8.266 -0.844 QT
8.266 -0.5 7.867 -0.172 QT
7.469 0.156 7.078 0.156 QT
6.578 0.156 6.242 -0.172 QT
5.906 -0.5 5.781 -1.031 QT
5.125 -0.469 4.359 -0.156 QT
3.594 0.156 2.813 0.156 QT
cp
2.844 -0.219 M
4.344 -0.219 5.719 -1.438 QT
5.703 -1.531 5.695 -1.648 QT
5.688 -1.766 5.688 -1.781 QT
5.688 -3.281 L
5.688 -5.828 4.313 -5.828 QT
3.5 -5.828 2.883 -5.125 QT
2.266 -4.422 1.953 -3.445 QT
1.641 -2.469 1.641 -1.672 QT
1.641 -1.063 1.953 -0.641 QT
2.266 -0.219 2.844 -0.219 QT
cp
f
GR
GS
[0.5 0 0 0.5 326 258.5] CT
/Helvetica 11.52 F
GS
[1 0 0 1 0 0] CT
0 0 moveto 
1 -1 scale
(1) t 
GR
GR
GS
[0.5 0 0 0.5 329.5 254] CT
/Helvetica 14.4 F
GS
[1 0 0 1 0 0] CT
0 0 moveto 
1 -1 scale
(t) t 
GR
GR
GS
[0.5 0 0 0.5 331.5 258.5] CT
/Helvetica 18 F
GS
[1 0 0 1 0 0] CT
0 0 moveto 
1 -1 scale
(+) t 
GR
GR
GS
[0.5 0 0 0.5 337 258.5] CT
N
/f-2115545953{0.484 3.484 M
0.438 3.484 0.391 3.422 QT
0.344 3.359 0.344 3.313 QT
3.109 -7.813 L
3.344 -8.703 3.805 -9.547 QT
4.266 -10.391 4.953 -11.117 QT
5.641 -11.844 6.469 -12.266 QT
7.297 -12.688 8.234 -12.688 QT
8.891 -12.688 9.43 -12.398 QT
9.969 -12.109 10.281 -11.578 QT
10.594 -11.047 10.594 -10.375 QT
10.594 -9.734 10.352 -9.148 QT
10.109 -8.563 9.672 -8.055 QT
9.234 -7.547 8.734 -7.234 QT
9.016 -7.047 9.242 -6.766 QT
9.469 -6.484 9.609 -6.172 QT
9.75 -5.859 9.836 -5.477 QT
9.922 -5.094 9.922 -4.75 QT
9.922 -3.828 9.523 -2.938 QT
9.125 -2.047 8.445 -1.313 QT
7.766 -0.578 6.883 -0.156 QT
6 0.266 5.078 0.266 QT
4.063 0.266 3.258 -0.281 QT
2.453 -0.828 2.141 -1.781 QT
0.844 3.391 L
0.844 3.484 0.703 3.484 QT
0.484 3.484 L
cp
5.109 -0.219 M
5.922 -0.219 6.578 -0.75 QT
7.234 -1.281 7.664 -2.086 QT
8.094 -2.891 8.313 -3.789 QT
8.531 -4.688 8.531 -5.438 QT
8.531 -6.344 8 -6.875 QT
7.391 -6.641 6.797 -6.641 QT
5.375 -6.641 5.375 -7.125 QT
5.375 -7.766 7 -7.766 QT
7.578 -7.766 8.063 -7.578 QT
8.453 -7.875 8.773 -8.453 QT
9.094 -9.031 9.25 -9.664 QT
9.406 -10.297 9.406 -10.859 QT
9.406 -11.438 9.102 -11.828 QT
8.797 -12.219 8.188 -12.219 QT
7.094 -12.219 6.148 -11.547 QT
5.203 -10.875 4.555 -9.844 QT
3.906 -8.813 3.625 -7.703 QT
2.625 -3.734 L
2.531 -3.313 2.5 -2.797 QT
2.5 -1.672 3.242 -0.945 QT
3.984 -0.219 5.109 -0.219 QT
cp
5.922 -7.188 M
6.203 -7.109 6.828 -7.109 QT
7.125 -7.109 7.438 -7.219 QT
7.422 -7.234 7.359 -7.234 QT
7.172 -7.281 6.953 -7.281 QT
6.141 -7.281 5.922 -7.188 QT
cp}def
f-2115545953
f
GR
GS
[0.5 0 0 0.5 342.5 263] CT
/Helvetica 14.4 F
GS
[1 0 0 1 0 0] CT
0 0 moveto 
1 -1 scale
(2) t 
GR
GR
GS
[0.5 0 0 0.5 346.5 258.5] CT
/Helvetica 18 F
GS
[1 0 0 1 0 0] CT
0 0 moveto 
1 -1 scale
(e) t 
GR
GR
GS
[0.5 0 0 0.5 352 254] CT
/Helvetica 14.4 F
GS
[1 0 0 1 0 0] CT
0 0 moveto 
1 -1 scale
(-) t 
GR
GR
GS
[0.5 0 0 0.5 354.5 254] CT
N
/f1382591892{2.813 0.156 M
2.156 0.156 1.641 -0.156 QT
1.125 -0.469 0.844 -1 QT
0.563 -1.531 0.563 -2.219 QT
0.563 -3.172 1.094 -4.102 QT
1.625 -5.031 2.5 -5.609 QT
3.375 -6.188 4.344 -6.188 QT
5.047 -6.188 5.586 -5.813 QT
6.125 -5.438 6.406 -4.82 QT
6.688 -4.203 6.688 -3.5 QT
6.703 -2.563 L
7.188 -3.234 7.516 -3.945 QT
7.844 -4.656 8.031 -5.422 QT
8.047 -5.5 8.141 -5.5 QT
8.297 -5.5 L
8.422 -5.5 8.422 -5.375 QT
8.422 -5.359 8.422 -5.328 QT
8.25 -4.688 8.008 -4.094 QT
7.766 -3.5 7.43 -2.953 QT
7.094 -2.406 6.703 -1.953 QT
6.703 -0.219 7.109 -0.219 QT
7.375 -0.219 7.539 -0.367 QT
7.703 -0.516 7.828 -0.742 QT
7.953 -0.969 7.984 -0.984 QT
8.156 -0.984 L
8.266 -0.984 8.266 -0.844 QT
8.266 -0.5 7.867 -0.172 QT
7.469 0.156 7.078 0.156 QT
6.578 0.156 6.242 -0.172 QT
5.906 -0.5 5.781 -1.031 QT
5.125 -0.469 4.359 -0.156 QT
3.594 0.156 2.813 0.156 QT
cp
2.844 -0.219 M
4.344 -0.219 5.719 -1.438 QT
5.703 -1.531 5.695 -1.648 QT
5.688 -1.766 5.688 -1.781 QT
5.688 -3.281 L
5.688 -5.828 4.313 -5.828 QT
3.5 -5.828 2.883 -5.125 QT
2.266 -4.422 1.953 -3.445 QT
1.641 -2.469 1.641 -1.672 QT
1.641 -1.063 1.953 -0.641 QT
2.266 -0.219 2.844 -0.219 QT
cp}def
f1382591892
f
GR
GS
[0.5 0 0 0.5 359.5 258.5] CT
/Helvetica 11.52 F
GS
[1 0 0 1 0 0] CT
0 0 moveto 
1 -1 scale
(2) t 
GR
GR
GS
[0.5 0 0 0.5 363 254] CT
/Helvetica 14.4 F
GS
[1 0 0 1 0 0] CT
0 0 moveto 
1 -1 scale
(t) t 
GR
GR
GS
[0.5 0 0 0.5 0 0] CT
1 0 0 RC
1 LJ
3 LW
N
502.987 511.419 M
562.862 511.419 L
S
GR
GS
[0.5 0 0 0.5 0 0] CT
0.149 GC
10.0 ML
N
497 533 M
497 466 L
736 466 L
736 533 L
cp
S
GR
%%Trailer
%%Pages: 1
%%EOF
