<?xml version="1.0" encoding="UTF-8" standalone="no"?>
<!-- Created with Inkscape (http://www.inkscape.org/) -->

<svg
   xmlns:dc="http://purl.org/dc/elements/1.1/"
   xmlns:cc="http://creativecommons.org/ns#"
   xmlns:rdf="http://www.w3.org/1999/02/22-rdf-syntax-ns#"
   xmlns:svg="http://www.w3.org/2000/svg"
   xmlns="http://www.w3.org/2000/svg"
   xmlns:sodipodi="http://sodipodi.sourceforge.net/DTD/sodipodi-0.dtd"
   xmlns:inkscape="http://www.inkscape.org/namespaces/inkscape"
   width="65.481941mm"
   height="71.20002mm"
   viewBox="0 0 65.481941 71.20002"
   version="1.1"
   id="svg6060"
   inkscape:version="0.92.3 (2405546, 2018-03-11)"
   sodipodi:docname="SwitchCircuit.svg">
  <defs
     id="defs6054" />
  <sodipodi:namedview
     id="base"
     pagecolor="#ffffff"
     bordercolor="#666666"
     borderopacity="1.0"
     inkscape:pageopacity="0.0"
     inkscape:pageshadow="2"
     inkscape:zoom="3.959798"
     inkscape:cx="247.9738"
     inkscape:cy="155.62512"
     inkscape:document-units="mm"
     inkscape:current-layer="layer1"
     showgrid="true"
     inkscape:window-width="3747"
     inkscape:window-height="1586"
     inkscape:window-x="5842"
     inkscape:window-y="-11"
     inkscape:window-maximized="1"
     fit-margin-top="0"
     fit-margin-left="0"
     fit-margin-right="0"
     fit-margin-bottom="0">
    <inkscape:grid
       type="xygrid"
       id="grid6718"
       originx="-43.131396"
       originy="-181.73639" />
  </sodipodi:namedview>
  <metadata
     id="metadata6057">
    <rdf:RDF>
      <cc:Work
         rdf:about="">
        <dc:format>image/svg+xml</dc:format>
        <dc:type
           rdf:resource="http://purl.org/dc/dcmitype/StillImage" />
        <dc:title></dc:title>
      </cc:Work>
    </rdf:RDF>
  </metadata>
  <g
     inkscape:label="Laag 1"
     inkscape:groupmode="layer"
     id="layer1"
     transform="translate(-43.131398,-44.063571)">
    <g
       transform="matrix(0.26458333,0,0,0.26458333,-7.9374992,62.84375)"
       id="g7358">
      <path
         id="path5094-5-86"
         style="fill:none;stroke:#000000;stroke-width:1px;stroke-linecap:round"
         d="m 230,100 h 17"
         inkscape:connector-curvature="0" />
      <path
         id="path5104-8-6"
         style="fill:none;stroke:#000000;stroke-width:2;stroke-linecap:round"
         d="m 247,90 v 20"
         inkscape:connector-curvature="0" />
      <path
         id="path5104-8-8-9"
         style="fill:none;stroke:#000000;stroke-width:2;stroke-linecap:round"
         d="m 253,90 v 20"
         inkscape:connector-curvature="0" />
      <path
         id="path5094-5-8-2"
         style="fill:none;stroke:#000000;stroke-width:1px;stroke-linecap:round"
         d="m 253,100 h 17"
         inkscape:connector-curvature="0" />
    </g>
    <path
       inkscape:connector-curvature="0"
       id="path5114-5"
       style="fill:none;stroke:#000000;stroke-width:0.26458332px;stroke-linecap:round;stroke-linejoin:round"
       d="m 82.020834,91.947917 v 1.5875 l 1.322917,0.529167 -2.645834,1.322917 2.645834,1.322916 -2.645834,1.322917 2.645834,1.322917 -2.645834,1.322919 1.323446,0.52916 v 1.32291" />
    <g
       id="g6975"
       transform="translate(1.3229164,19.84375)">
      <g
         id="g8316"
         transform="matrix(0.26458333,0,0,0.26458333,13.229168,-74.739582)">
        <path
           inkscape:connector-curvature="0"
           d="m 300,545 h 15 v -20"
           style="fill:none;stroke:#000000;stroke-width:1px;stroke-linecap:round;stroke-linejoin:round"
           id="path5263-8-3" />
        <path
           inkscape:connector-curvature="0"
           d="m 320,523 v 4"
           style="fill:none;stroke:#000000;stroke-width:2;stroke-linecap:round"
           id="path5265-1-0" />
        <path
           inkscape:connector-curvature="0"
           d="m 320,533 v 4"
           style="fill:none;stroke:#000000;stroke-width:2;stroke-linecap:round"
           id="path5267-9-9" />
        <path
           inkscape:connector-curvature="0"
           d="m 320,543 v 4"
           style="fill:none;stroke:#000000;stroke-width:2;stroke-linecap:round"
           id="path5269-0-1" />
        <path
           inkscape:connector-curvature="0"
           d="m 320,525 h 20"
           style="fill:none;stroke:#000000;stroke-width:1px;stroke-linecap:round;stroke-linejoin:round"
           id="path5271-6-44" />
        <path
           inkscape:connector-curvature="0"
           d="m 330,533 -7,2 7,2 z"
           style="fill-rule:evenodd;stroke:#000000;stroke-width:1px;stroke-linejoin:round"
           id="path5427-1-1-1-0" />
        <path
           inkscape:connector-curvature="0"
           d="m 320,535 h 15 v 10"
           style="fill:none;stroke:#000000;stroke-width:1px;stroke-linecap:round;stroke-linejoin:round"
           id="path5633-8" />
        <path
           inkscape:connector-curvature="0"
           d="m 320,545 h 20"
           style="fill:none;stroke:#000000;stroke-width:1px;stroke-linecap:round"
           id="path5635-0" />
      </g>
      <g
         id="g8003"
         transform="matrix(0.26458333,0,0,0.26458333,14.552084,45.645834)">
        <g
           transform="rotate(-90,347.5,92.499999)"
           id="g6876">
          <path
             id="path5094-02-7"
             style="fill:none;stroke:#000000;stroke-width:1px;stroke-linecap:round"
             d="m 350,89.999999 h 20"
             inkscape:connector-curvature="0" />
          <path
             id="path5096-3-8"
             style="fill:#000000;fill-opacity:1;stroke:#000000;stroke-width:1px;stroke-linecap:square;stroke-linejoin:round"
             d="m 355,84.999999 v 10 l 10,-5 z"
             inkscape:connector-curvature="0" />
          <path
             id="path7851"
             style="fill:none;stroke:#000000;stroke-width:1px;stroke-linecap:round"
             d="m 365,84.999999 v 10"
             inkscape:connector-curvature="0" />
        </g>
      </g>
      <path
         inkscape:connector-curvature="0"
         id="path6905"
         d="m 103.1875,64.166667 v -3.96875"
         style="fill:none;stroke:#000000;stroke-width:0.26458332px;stroke-linecap:round;stroke-linejoin:miter;stroke-opacity:1" />
      <path
         inkscape:connector-curvature="0"
         id="path6907"
         d="m 103.1875,69.458334 v 3.96875"
         style="fill:none;stroke:#000000;stroke-width:0.26458332px;stroke-linecap:round;stroke-linejoin:round;stroke-opacity:1" />
      <path
         inkscape:connector-curvature="0"
         id="path6909"
         d="M 105.83333,64.166667 V 62.843751 H 103.1875"
         style="fill:none;stroke:#000000;stroke-width:0.26499999;stroke-linecap:round;stroke-linejoin:round;stroke-miterlimit:4;stroke-dasharray:none;stroke-opacity:1" />
      <path
         inkscape:connector-curvature="0"
         id="path6911"
         d="M 105.83333,69.458334 V 70.78125 H 103.1875"
         style="fill:none;stroke:#000000;stroke-width:0.26458332px;stroke-linecap:round;stroke-linejoin:round;stroke-opacity:1" />
    </g>
    <g
       id="g6955"
       transform="translate(1.3229171,-21.960421)">
      <g
         id="g8298"
         transform="matrix(0.26458333,0,0,0.26458333,-5.2916654,-58.070832)">
        <path
           inkscape:connector-curvature="0"
           d="m 370,525 h 15 v 20"
           style="fill:none;stroke:#000000;stroke-width:1px;stroke-linecap:round;stroke-linejoin:round"
           id="path5263-8-2-8" />
        <path
           inkscape:connector-curvature="0"
           d="m 390,547 v -4"
           style="fill:none;stroke:#000000;stroke-width:2;stroke-linecap:round"
           id="path5265-1-6-4" />
        <path
           inkscape:connector-curvature="0"
           d="m 390,537 v -4"
           style="fill:none;stroke:#000000;stroke-width:2;stroke-linecap:round"
           id="path5267-9-2-0" />
        <path
           inkscape:connector-curvature="0"
           d="m 390,527 v -4"
           style="fill:none;stroke:#000000;stroke-width:2;stroke-linecap:round"
           id="path5269-0-6-8" />
        <path
           inkscape:connector-curvature="0"
           d="m 390,545 h 20"
           style="fill:none;stroke:#000000;stroke-width:1px;stroke-linecap:round;stroke-linejoin:round"
           id="path5271-6-4-3" />
        <path
           inkscape:connector-curvature="0"
           d="m 395,537 7,-2 -7,-2 z"
           style="fill-rule:evenodd;stroke:#000000;stroke-width:1px;stroke-linejoin:round"
           id="path5427-1-1-1-3-3" />
        <path
           inkscape:connector-curvature="0"
           d="m 390,535 h 15 v 10.00002"
           style="fill:none;stroke:#000000;stroke-width:1px;stroke-linecap:round;stroke-linejoin:round"
           id="path5633-5-8"
           sodipodi:nodetypes="ccc" />
        <path
           inkscape:connector-curvature="0"
           d="m 390,525 h 20"
           style="fill:none;stroke:#000000;stroke-width:1px;stroke-linecap:round"
           id="path5635-2-6" />
      </g>
      <g
         id="g8003-2"
         transform="matrix(0.26458333,0,0,0.26458333,14.552084,62.314584)">
        <g
           transform="rotate(-90,347.5,92.499999)"
           id="g6876-1">
          <path
             id="path5094-02-7-4"
             style="fill:none;stroke:#000000;stroke-width:1px;stroke-linecap:round"
             d="m 350,89.999999 h 20"
             inkscape:connector-curvature="0" />
        </g>
      </g>
      <path
         inkscape:connector-curvature="0"
         id="path6905-5"
         d="m 103.1875,80.835417 v -3.96875"
         style="fill:none;stroke:#000000;stroke-width:0.26458332px;stroke-linecap:round;stroke-linejoin:miter;stroke-opacity:1" />
      <path
         inkscape:connector-curvature="0"
         id="path6907-6"
         d="m 103.1875,86.127084 v 3.96875"
         style="fill:none;stroke:#000000;stroke-width:0.26458332px;stroke-linecap:round;stroke-linejoin:round;stroke-opacity:1" />
      <path
         inkscape:connector-curvature="0"
         id="path6909-8"
         d="M 105.83333,80.835417 V 79.512501 H 103.1875"
         style="fill:none;stroke:#000000;stroke-width:0.26499999;stroke-linecap:round;stroke-linejoin:round;stroke-miterlimit:4;stroke-dasharray:none;stroke-opacity:1" />
      <path
         inkscape:connector-curvature="0"
         id="path6911-6"
         d="M 105.83333,86.127084 V 87.45 h -2.64583"
         style="fill:none;stroke:#000000;stroke-width:0.26458332px;stroke-linecap:round;stroke-linejoin:round;stroke-opacity:1" />
    </g>
    <g
       transform="matrix(0,0.26458333,-0.26458333,0,173.30209,0.66666788)"
       id="g7720">
      <g
         id="g7152"
         transform="translate(-15,-29.999984)">
        <path
           inkscape:connector-curvature="0"
           d="m 350,340 h 60"
           style="fill:none;stroke:#000000;stroke-width:1px;stroke-linecap:round"
           id="path5094-36-9-4-0" />
        <path
           inkscape:connector-curvature="0"
           d="m 360,330 v 20 l 20,-10 z"
           style="fill:#000000;fill-opacity:1;stroke:#000000;stroke-width:1px;stroke-linecap:square;stroke-linejoin:round"
           id="path5096-2-0-1-2" />
        <path
           inkscape:connector-curvature="0"
           d="m 385,330 h -5 v 20 h -5"
           style="fill:none;stroke:#000000;stroke-width:2;stroke-linecap:round;stroke-linejoin:round"
           id="path5209-0-0" />
        <path
           inkscape:connector-curvature="0"
           d="m 400,330 v 20 l -20,-10 z"
           style="fill:#000000;fill-opacity:1;stroke:#000000;stroke-width:1px;stroke-linecap:square;stroke-linejoin:round"
           id="path5096-2-0-1-2-8" />
      </g>
    </g>
    <path
       style="fill:none;stroke:#000000;stroke-width:0.26458332px;stroke-linecap:butt;stroke-linejoin:miter;stroke-opacity:1"
       d="M 93.927082,89.302084 H 63.499999"
       id="path7154"
       inkscape:connector-curvature="0" />
    <path
       style="fill:none;stroke:#000000;stroke-width:0.26458332px;stroke-linecap:butt;stroke-linejoin:miter;stroke-opacity:1"
       d="M 82.020833,91.947917 V 89.302084"
       id="path7156"
       inkscape:connector-curvature="0" />
    <path
       style="fill:none;stroke:#000000;stroke-width:0.26458332px;stroke-linecap:round;stroke-linejoin:round;stroke-opacity:1"
       d="m 82.020833,102.53125 v 2.64583 h 22.489587"
       id="path7158"
       inkscape:connector-curvature="0"
       sodipodi:nodetypes="ccc" />
    <path
       style="fill:none;stroke:#000000;stroke-width:0.24534228;stroke-linecap:round;stroke-linejoin:round;stroke-miterlimit:4;stroke-dasharray:none;stroke-opacity:1"
       d="m 104.51042,93.270833 v 12.473217 3.40178"
       id="path7160"
       inkscape:connector-curvature="0" />
    <path
       inkscape:connector-curvature="0"
       id="path5114-5-7"
       style="fill:none;stroke:#000000;stroke-width:0.26458332px;stroke-linecap:round;stroke-linejoin:round"
       d="m 74.083333,61.520833 v 1.5875 l 1.322917,0.529167 -2.645834,1.322917 2.645834,1.322916 -2.645834,1.322917 2.645834,1.322917 -2.645834,1.322919 1.323446,0.52916 v 1.32291" />
    <g
       transform="matrix(0,0.26458333,-0.26458333,0,173.30209,-29.760415)"
       id="g7720-1">
      <g
         id="g7152-1"
         transform="translate(-15,-29.999984)">
        <path
           inkscape:connector-curvature="0"
           d="m 350,340 h 60"
           style="fill:none;stroke:#000000;stroke-width:1px;stroke-linecap:round"
           id="path5094-36-9-4-0-8" />
        <path
           inkscape:connector-curvature="0"
           d="m 360,330 v 20 l 20,-10 z"
           style="fill:#000000;fill-opacity:1;stroke:#000000;stroke-width:1px;stroke-linecap:square;stroke-linejoin:round"
           id="path5096-2-0-1-2-1" />
        <path
           inkscape:connector-curvature="0"
           d="m 385,330 h -5 v 20 h -5"
           style="fill:none;stroke:#000000;stroke-width:2;stroke-linecap:round;stroke-linejoin:round"
           id="path5209-0-0-7" />
        <path
           inkscape:connector-curvature="0"
           d="m 400,330 v 20 l -20,-10 z"
           style="fill:#000000;fill-opacity:1;stroke:#000000;stroke-width:1px;stroke-linecap:square;stroke-linejoin:round"
           id="path5096-2-0-1-2-8-8" />
      </g>
    </g>
    <g
       transform="matrix(0.26458333,0,0,0.26458333,-7.9374992,32.416667)"
       id="g7358-6">
      <path
         id="path5094-5-86-1"
         style="fill:none;stroke:#000000;stroke-width:1px;stroke-linecap:round"
         d="m 230,100 h 17"
         inkscape:connector-curvature="0" />
      <path
         id="path5104-8-6-5"
         style="fill:none;stroke:#000000;stroke-width:2;stroke-linecap:round"
         d="m 247,90 v 20"
         inkscape:connector-curvature="0" />
      <path
         id="path5104-8-8-9-8"
         style="fill:none;stroke:#000000;stroke-width:2;stroke-linecap:round"
         d="m 253,90 v 20"
         inkscape:connector-curvature="0" />
      <path
         id="path5094-5-8-2-1"
         style="fill:none;stroke:#000000;stroke-width:1px;stroke-linecap:round"
         d="m 253,100 h 17"
         inkscape:connector-curvature="0" />
    </g>
    <path
       style="fill:none;stroke:#000000;stroke-width:0.26458332px;stroke-linecap:butt;stroke-linejoin:miter;stroke-opacity:1"
       d="M 63.499999,58.875001 H 93.927082"
       id="path7222"
       inkscape:connector-curvature="0" />
    <path
       style="fill:none;stroke:#000000;stroke-width:0.26458332px;stroke-linecap:butt;stroke-linejoin:miter;stroke-opacity:1"
       d="M 74.083332,61.520834 V 58.875001"
       id="path7224"
       inkscape:connector-curvature="0" />
    <g
       transform="matrix(0,-0.26458333,0.26458333,0,39.6875,212.33333)"
       id="g7844">
      <path
         id="path7401"
         style="fill:none;stroke:#000000;stroke-width:1px;stroke-linecap:round"
         d="m 465,120 v 20"
         inkscape:connector-curvature="0" />
      <path
         id="path7403"
         style="fill:none;stroke:#000000;stroke-linecap:round;stroke-linejoin:round"
         transform="scale(-1)"
         d="m -460,-130 a 5,5 0 0 1 -2.5,4.33 5,5 0 0 1 -5,0 5,5 0 0 1 -2.5,-4.33"
         inkscape:connector-curvature="0" />
      <path
         id="path7405"
         style="fill:none;stroke:#000000;stroke-width:1px;stroke-linecap:round"
         d="m 455,130 h 5"
         inkscape:connector-curvature="0" />
      <path
         id="path7407"
         style="fill:none;stroke:#000000;stroke-width:1px;stroke-linecap:round"
         d="m 470,130 h 5"
         inkscape:connector-curvature="0" />
    </g>
    <path
       style="fill:none;stroke:#000000;stroke-width:0.26458332px;stroke-linecap:butt;stroke-linejoin:miter;stroke-opacity:1"
       d="M 74.083332,72.104167 V 86.65625"
       id="path7255"
       inkscape:connector-curvature="0" />
    <path
       style="fill:none;stroke:#000000;stroke-width:0.26458332px;stroke-linecap:round;stroke-linejoin:round;stroke-opacity:1"
       d="M 74.083332,91.947917 V 105.17708"
       id="path7257"
       inkscape:connector-curvature="0" />
    <path
       style="fill:none;stroke:#000000;stroke-width:0.32404706px;stroke-linecap:round;stroke-linejoin:miter;stroke-opacity:1"
       d="m 82.020832,105.17708 h -7.9375"
       id="path7259"
       inkscape:connector-curvature="0" />
    <path
       style="fill:none;stroke:#000000;stroke-width:0.26458332px;stroke-linecap:round;stroke-linejoin:round;stroke-opacity:1"
       d="M 91.281249,74.75 H 104.51042 V 68.135417"
       id="path7261"
       inkscape:connector-curvature="0" />
    <path
       style="fill:none;stroke:#000000;stroke-width:0.26458332px;stroke-linecap:butt;stroke-linejoin:miter;stroke-opacity:1"
       d="M 104.51042,80.041667 V 74.75"
       id="path7263"
       inkscape:connector-curvature="0" />
    <path
       style="fill:none;stroke:#000000;stroke-width:0.26458332px;stroke-linecap:butt;stroke-linejoin:miter;stroke-opacity:1"
       d="M 104.51042,54.906251 V 49.614584"
       id="path7265"
       inkscape:connector-curvature="0" />
    <g
       transform="matrix(0.26458333,0,0,0.26458333,-27.781249,-97.229165)"
       id="g7764">
      <g
         id="g7303"
         transform="rotate(-90,208.5,601.5)">
        <g
           transform="matrix(1,0,0,-1,-290,1057)"
           id="g8035-9-8">
          <circle
             style="fill:none;stroke:#000000;stroke-linecap:round;stroke-linejoin:round"
             r="3"
             cx="510"
             cy="367.39999"
             id="path8029-7-5" />
        </g>
        <path
           inkscape:connector-curvature="0"
           d="m 220,693 v 7.08"
           style="fill:none;stroke:#000000;stroke-width:1px;stroke-linecap:round"
           id="path6256-0" />
      </g>
      <g
         transform="rotate(-90,266,659)"
         id="g7303-1">
        <g
           transform="matrix(1,0,0,-1,-290,1057)"
           id="g8035-9-8-7">
          <circle
             style="fill:none;stroke:#000000;stroke-linecap:round;stroke-linejoin:round"
             r="3"
             cx="510"
             cy="367.39999"
             id="path8029-7-5-2" />
        </g>
        <path
           inkscape:connector-curvature="0"
           d="m 220,693 v 7.08"
           style="fill:none;stroke:#000000;stroke-width:1px;stroke-linecap:round"
           id="path6256-0-1" />
      </g>
      <g
         transform="translate(280,-138)"
         id="g7303-4">
        <g
           transform="matrix(1,0,0,-1,-290,1057)"
           id="g8035-9-8-3">
          <circle
             style="fill:none;stroke:#000000;stroke-linecap:round;stroke-linejoin:round"
             r="3"
             cx="510"
             cy="367.39999"
             id="path8029-7-5-1" />
        </g>
        <path
           inkscape:connector-curvature="0"
           d="m 220,693 v 7.08"
           style="fill:none;stroke:#000000;stroke-width:1px;stroke-linecap:round"
           id="path6256-0-4" />
      </g>
      <g
         transform="rotate(180,360,736.5)"
         id="g7303-7">
        <g
           transform="matrix(1,0,0,-1,-290,1057)"
           id="g8035-9-8-4">
          <circle
             style="fill:none;stroke:#000000;stroke-linecap:round;stroke-linejoin:round"
             r="3"
             cx="510"
             cy="367.39999"
             id="path8029-7-5-3" />
        </g>
        <path
           inkscape:connector-curvature="0"
           d="m 220,693 v 7.08"
           style="fill:none;stroke:#000000;stroke-width:1px;stroke-linecap:round"
           id="path6256-0-7" />
      </g>
    </g>
    <g
       id="g7394"
       transform="translate(-8.4666733,1.0583447)">
      <g
         transform="rotate(180,115.62292,60.462491)"
         id="g7389">
        <path
           id="path5096-3-8-6"
           style="fill:#000000;fill-opacity:1;stroke:#000000;stroke-width:0.26458332px;stroke-linecap:square;stroke-linejoin:round"
           d="m 114.3,61.78541 h 2.64583 l -1.32291,-2.64583 z"
           inkscape:connector-curvature="0" />
        <path
           id="path7851-0"
           style="fill:none;stroke:#000000;stroke-width:0.26458332px;stroke-linecap:round"
           d="m 114.30001,59.139578 h 2.64582"
           inkscape:connector-curvature="0" />
      </g>
    </g>
    <text
       xml:space="preserve"
       style="font-style:normal;font-weight:normal;font-size:3.52777767px;line-height:1.25;font-family:sans-serif;letter-spacing:0px;word-spacing:0px;fill:#000000;fill-opacity:1;stroke:none;stroke-width:0.26458332"
       x="43.122726"
       y="59.703667"
       id="text7398"><tspan
         sodipodi:role="line"
         id="tspan7396"
         x="43.122726"
         y="59.703667"
         style="stroke-width:0.26458332">IN<tspan
   style="font-size:64.99999762%;baseline-shift:sub"
   id="tspan7536">P</tspan></tspan></text>
    <text
       xml:space="preserve"
       style="font-style:normal;font-weight:normal;font-size:3.52777767px;line-height:1.25;font-family:sans-serif;letter-spacing:0px;word-spacing:0px;fill:#000000;fill-opacity:1;stroke:none;stroke-width:0.26458332"
       x="42.895409"
       y="90.291924"
       id="text7398-1"><tspan
         sodipodi:role="line"
         x="42.895409"
         y="90.291924"
         style="stroke-width:0.26458332"
         id="tspan7418">IN<tspan
   style="font-size:64.99999762%;baseline-shift:sub"
   id="tspan7538">N</tspan></tspan></text>
    <text
       xml:space="preserve"
       style="font-style:normal;font-weight:normal;font-size:3.52777767px;line-height:1.25;font-family:sans-serif;letter-spacing:0px;word-spacing:0px;fill:#000000;fill-opacity:1;stroke:none;stroke-width:0.26458332"
       x="67.610489"
       y="67.851936"
       id="text7424"><tspan
         sodipodi:role="line"
         id="tspan7422"
         x="67.610489"
         y="67.851936"
         style="stroke-width:0.26458332">R<tspan
   style="font-size:64.99999762%;baseline-shift:sub"
   id="tspan7426">P</tspan></tspan></text>
    <text
       xml:space="preserve"
       style="font-style:normal;font-weight:normal;font-size:3.52777767px;line-height:1.25;font-family:sans-serif;letter-spacing:0px;word-spacing:0px;fill:#000000;fill-opacity:1;stroke:none;stroke-width:0.26458332"
       x="75.549377"
       y="98.039421"
       id="text7424-5"><tspan
         sodipodi:role="line"
         id="tspan7422-9"
         x="75.549377"
         y="98.039421"
         style="stroke-width:0.26458332">R<tspan
   style="font-size:2.2930553px;baseline-shift:sub;stroke-width:0.26458332"
   id="tspan7426-0">N</tspan></tspan></text>
    <text
       xml:space="preserve"
       style="font-style:normal;font-weight:normal;font-size:3.52777767px;line-height:1.25;font-family:sans-serif;letter-spacing:0px;word-spacing:0px;fill:#000000;fill-opacity:1;stroke:none;stroke-width:0.26458332"
       x="56.305595"
       y="65.727211"
       id="text7424-1"><tspan
         sodipodi:role="line"
         id="tspan7422-2"
         x="56.305595"
         y="65.727211"
         style="stroke-width:0.26458332">C<tspan
   style="font-size:2.2930553px;baseline-shift:sub;stroke-width:0.26458332"
   id="tspan7426-7">P</tspan></tspan></text>
    <text
       xml:space="preserve"
       style="font-style:normal;font-weight:normal;font-size:3.52777767px;line-height:1.25;font-family:sans-serif;letter-spacing:0px;word-spacing:0px;fill:#000000;fill-opacity:1;stroke:none;stroke-width:0.26458332"
       x="56.278736"
       y="96.382286"
       id="text7424-1-0"><tspan
         sodipodi:role="line"
         id="tspan7422-2-0"
         x="56.278736"
         y="96.382286"
         style="stroke-width:0.26458332">C<tspan
   style="font-size:2.2930553px;baseline-shift:sub;stroke-width:0.26458332"
   id="tspan7426-7-6">N</tspan></tspan></text>
    <text
       xml:space="preserve"
       style="font-style:normal;font-weight:normal;font-size:3.52777767px;line-height:1.25;font-family:sans-serif;letter-spacing:0px;word-spacing:0px;fill:#000000;fill-opacity:1;stroke:none;stroke-width:0.26458332"
       x="101.19674"
       y="46.674953"
       id="text7398-5"><tspan
         sodipodi:role="line"
         x="101.19674"
         y="46.674953"
         style="stroke-width:0.26458332"
         id="tspan7509">SW<tspan
   style="font-size:64.99999762%;baseline-shift:sub"
   id="tspan7513">1</tspan></tspan></text>
    <text
       xml:space="preserve"
       style="font-style:normal;font-weight:normal;font-size:3.52777767px;line-height:1.25;font-family:sans-serif;letter-spacing:0px;word-spacing:0px;fill:#000000;fill-opacity:1;stroke:none;stroke-width:0.26458332"
       x="101.36999"
       y="114.55804"
       id="text7398-5-6"><tspan
         sodipodi:role="line"
         x="101.36999"
         y="114.55804"
         style="stroke-width:0.26458332"
         id="tspan7509-8">SW<tspan
   style="font-size:2.2930553px;baseline-shift:sub;stroke-width:0.26458332"
   id="tspan7513-3">2</tspan></tspan></text>
  </g>
</svg>
